0	22718.9	2737.87
0.0166667	22673.3	5450.42
0.0333333	22537.2	10800.9
0.05	22313.2	15957
0.0666667	22005.3	20834.3
0.0833333	21618.8	25362.9
0.1	21159.9	29489.8
0.116667	20635.8	33180.1
0.133333	20053.9	36417.5
0.15	19421.9	39202
0.166667	18747.2	41548.2
0.183333	18036.9	43481.5
0.2	17297.8	45034.8
0.216667	16535.8	46244.8
0.233333	15756.3	47148.5
0.25	14964.1	47780.4
0.266667	14163.6	48170.2
0.283333	13358.5	48341.4
0.3	12552.2	48310.9
0.316667	11748.1	48088.4
0.333333	10949.3	47677.7
0.35	10158.9	47077.7
0.366667	9380.02	46284.4
0.383333	8616.04	45292.5
0.4	7870.27	44097.7
0.416667	7146.12	42698.9
0.433333	6446.98	41099.8
0.45	5776.13	39310.8
0.466667	5136.62	37349.6
0.483333	4531.14	35241.8
0.5	3961.89	33021
0.516667	3430.44	30728.2
0.533333	2937.62	28408.8
0.55	2483.48	26104.1
0.566667	2067.48	23858.5
0.583333	1688.2	21713.2
0.6	1343.71	19632.8
0.616667	1033.77	17438.6
0.633333	762.419	14890.9
0.65	537.406	11932.9
0.666667	364.657	8849.78
0.683333	242.413	6111.53
0.7	160.939	4039.21
0.716667	107.772	2645.53
0.733333	72.7545	1749.76
0.75	49.4472	1166.75
0.766667	33.863	786.2
0.783333	23.2406	542.477
0.8	15.7804	386.807
0.816667	10.347	286.04
0.833333	6.24575	218.476
0.85	3.06445	170.541
0.866667	0.561034	134.266
0.883333	-1.41106	105.286
0.9	-2.94849	81.361
0.916667	-4.1231	61.3675
0.933333	-4.99407	44.6924
0.95	-5.61285	30.9185
0.966667	-6.02469	19.6842
0.983333	-6.26899	10.6342
1	-6.37916	3.41399
1.01667	-6.38279	-2.31594
1.03333	-6.30197	-6.86018
1.05	-6.15411	-10.4746
1.06667	-5.95281	-13.3605
1.08333	-5.70876	-15.6612
1.1	-5.43077	-17.4623
1.11667	-5.12669	-18.8038
1.13333	-4.80398	-19.71
1.15	-4.46969	-20.2207
1.16667	-4.12996	-20.402
1.18333	-3.78962	-20.3321
1.2	-3.45222	-20.0821
1.21667	-3.12022	-19.7086
1.23333	-2.79526	-19.2561
1.25	-2.47835	-18.7543
1.26667	-2.17012	-18.21
1.28333	-1.87135	-17.6051
1.3	-1.58328	-16.9076
1.31667	-1.30776	-16.0892
1.33333	-1.04698	-15.1337
1.35	-0.803305	-14.0349
1.36667	-0.579146	-12.7935
1.38333	-0.376855	-11.4162
1.4	-0.198606	-9.91953
1.41667	-0.0462041	-8.33089
1.43333	0.0790906	-6.68821
1.45	0.176736	-5.03929
1.46667	0.247067	-3.43838
1.48333	0.291349	-1.9351
1.5	0.31157	-0.558625
1.51667	0.30997	0.689786
1.53333	0.288577	1.82491
1.55	0.249139	2.85219
1.56667	0.193504	3.74969
1.58333	0.12415	4.47243
1.6	0.0444233	4.97458
1.61667	-0.0416695	5.23126
1.63333	-0.129952	5.24685
1.65	-0.216564	5.0502
1.66667	-0.298292	4.68404
1.68333	-0.372699	4.19417
1.7	-0.438097	3.62097
1.71667	-0.493398	2.99581
1.73333	-0.537958	2.34302
1.75	-0.571499	1.6848
1.76667	-0.594118	1.04362
1.78333	-0.606286	0.439997
1.8	-0.608784	-0.111803
1.81667	-0.60256	-0.605313
1.83333	-0.588607	-1.03954
1.85	-0.567908	-1.41479
1.86667	-0.541447	-1.7293
1.88333	-0.510265	-1.9768
1.9	-0.475554	-2.14468
1.91667	-0.438776	-2.21313
1.93333	-0.401783	-2.15659
1.95	-0.36689	-1.94839
1.96667	-0.336837	-1.57007
1.98333	-0.314554	-1.02611
2	-0.302633	-0.715231
