0.000000000000000000e+00 4.180290458822464075e+02 6.866483223813190762e+02
1.666666666666666644e-02 4.065849071758910895e+02 6.866483223813156656e+02
3.333333333333333287e-02 3.951407684695358853e+02 6.866483223813139602e+02
5.000000000000000278e-02 3.836966297631806242e+02 6.866483223813139602e+02
6.666666666666666574e-02 3.722524910568254199e+02 6.866483223813139602e+02
8.333333333333332871e-02 3.608083523504701589e+02 6.866483223813139602e+02
1.000000000000000056e-01 3.493642136441149546e+02 6.866483223813156656e+02
1.166666666666666685e-01 3.379200749377596367e+02 6.866483223813156656e+02
1.333333333333333315e-01 3.264759362314044324e+02 6.866483223813139602e+02
1.499999999999999944e-01 3.150317975250491713e+02 6.866483223813139602e+02
1.666666666666666574e-01 3.035876588186939671e+02 6.866483223813139602e+02
1.833333333333333204e-01 2.921435201123387060e+02 6.866483223813156656e+02
2.000000000000000111e-01 2.806993814059834449e+02 6.866483223813156656e+02
2.166666666666666741e-01 2.692552426996281838e+02 6.866483223813156656e+02
2.333333333333333370e-01 2.578111039932729227e+02 6.866483223813139602e+02
2.500000000000000000e-01 2.463669652869177185e+02 6.866483223813139602e+02
2.666666666666666630e-01 2.349228265805624574e+02 6.866483223813148697e+02
2.833333333333333259e-01 2.234786878742072247e+02 6.866483223813148697e+02
2.999999999999999889e-01 2.120345491678519636e+02 6.866483223813148697e+02
3.166666666666666519e-01 2.005904104614967309e+02 6.866483223813139602e+02
3.333333333333333148e-01 1.891462717551414983e+02 6.866483223813148697e+02
3.499999999999999778e-01 1.777021330487862372e+02 6.866483223813148697e+02
3.666666666666666408e-01 1.662579943424310045e+02 6.866483223813148697e+02
3.833333333333333037e-01 1.548138556360757434e+02 6.866483223813156656e+02
4.000000000000000222e-01 1.433697169297204823e+02 6.866483223813156656e+02
4.166666666666666852e-01 1.319255782233652212e+02 6.866483223813148697e+02
4.333333333333333481e-01 1.204814395170099885e+02 6.866483223813144150e+02
4.500000000000000111e-01 1.090373008106547417e+02 6.866483223813144150e+02
4.666666666666666741e-01 9.759316210429950900e+01 6.866483223813144150e+02
4.833333333333333370e-01 8.614902339794426211e+01 6.866483223813148697e+02
5.000000000000000000e-01 7.470488469158901523e+01 6.866483223813135055e+02
5.166666666666666075e-01 6.326074598523381098e+01 6.866483223813148697e+02
5.333333333333333259e-01 5.181660727887852147e+01 6.866483223813169161e+02
5.500000000000000444e-01 4.037246857252324617e+01 6.866483223813145287e+02
5.666666666666666519e-01 2.892832986616803836e+01 6.866483223813147561e+02
5.833333333333333703e-01 1.748419115981275596e+01 5.258649235012150029e+02
5.999999999999999778e-01 1.139949908279420399e+01 2.996549914595525479e+02
6.166666666666666963e-01 7.495691444494336331e+00 1.963950326957033496e+02
6.333333333333333037e-01 4.852997992937425842e+00 1.334780550086762219e+02
6.500000000000000222e-01 3.046422944205128935e+00 9.124530859684004724e+01
6.666666666666666297e-01 1.811487706376091023e+00 6.280076776800567728e+01
6.833333333333333481e-01 9.530640186049398332e-01 4.441141171123015141e+01
6.999999999999999556e-01 3.311073160017524719e-01 3.259898325880111969e+01
7.166666666666666741e-01 -1.335687566884307675e-01 2.453048345625825633e+01
7.333333333333332815e-01 -4.865754658735226834e-01 1.862287475624627930e+01
7.500000000000000000e-01 -7.543312485633067999e-01 1.433082220156182629e+01
7.666666666666666075e-01 -9.642695392589168968e-01 1.145965354635664646e+01
7.833333333333333259e-01 -1.136319700108528341e+00 9.089671838422706429e+00
8.000000000000000444e-01 -1.267258600539673763e+00 5.613600397989340074e+00
8.166666666666666519e-01 -1.323439713374839677e+00 8.130818862915911716e-01
8.333333333333333703e-01 -1.294361330082726802e+00 -3.702947289249001184e+00
8.499999999999999778e-01 -1.200008137066539637e+00 -6.301909779040875570e+00
8.666666666666666963e-01 -1.084297670781364298e+00 -6.451089475622636904e+00
8.833333333333333037e-01 -9.849718212124517480e-01 -4.856829918570247706e+00
9.000000000000000222e-01 -9.224033401623560335e-01 -3.588120483381839421e+00
9.166666666666666297e-01 -8.653678050997237747e-01 -4.555539312298417798e+00
9.333333333333333481e-01 -7.705520297524087736e-01 -7.900060997164878529e+00
9.499999999999999556e-01 -6.020324385275611645e-01 -1.224819888992487371e+01
9.666666666666666741e-01 -3.622787334215796795e-01 -1.586130109200872695e+01
9.833333333333332815e-01 -7.332240212727025863e-02 -1.728701202951474158e+01
1.000000000000000000e+00 2.139550008955783678e-01 -1.597487889430125030e+01
1.016666666666666607e+00 4.591735610161046810e-01 -1.251208134040929920e+01
1.033333333333333215e+00 6.310243789092216948e-01 -8.163132800987126458e+00
1.050000000000000044e+00 7.312779877156755370e-01 -4.345281530956948579e+00
1.066666666666666652e+00 7.758670966077866327e-01 -2.108195136870293585e+00
1.083333333333333259e+00 8.015511589446853158e-01 -1.847649242285432925e+00
1.100000000000000089e+00 8.374554046839677302e-01 -3.030388567237385367e+00
1.116666666666666696e+00 9.025641111859314947e-01 -4.510021650937289017e+00
1.133333333333333304e+00 9.877894597152107048e-01 -5.283597927641436875e+00
1.149999999999999911e+00 1.078684042107312724e+00 -5.112321038649811022e+00
1.166666666666666741e+00 1.158200161003537731e+00 -4.156088628742534041e+00
1.183333333333333348e+00 1.217220329732063844e+00 -2.699938812619193662e+00
1.199999999999999956e+00 1.248198121424177520e+00 -9.217139292515019733e-01
1.216666666666666563e+00 1.247944127373780576e+00 1.166256755718311222e+00
1.233333333333333393e+00 1.209322896233567146e+00 3.760877942077123226e+00
1.250000000000000000e+00 1.122581529304543135e+00 6.884337265946301798e+00
1.266666666666666607e+00 9.798449873686904121e-01 1.016791452752358005e+01
1.283333333333333215e+00 7.836510450537571559e-01 1.291667650775119469e+01
1.300000000000000044e+00 5.492891037769839224e-01 1.430094417243420146e+01
1.316666666666666652e+00 3.069529059726170961e-01 1.368658480246140208e+01
1.333333333333333259e+00 9.306961036160388279e-02 1.122917890563531529e+01
1.350000000000000089e+00 -6.735305754856006633e-02 7.854573356594762856e+00
1.366666666666666696e+00 -1.687495015248881847e-01 4.582751085393430124e+00
1.383333333333333304e+00 -2.201114270616743862e-01 2.184327785427934820e+00
1.399999999999999911e+00 -2.415604277058193416e-01 1.062544298211674176e+00
1.416666666666666741e+00 -2.555295703353968606e-01 1.173037509483249252e+00
1.433333333333333348e+00 -2.806616780219276519e-01 1.990549621212293063e+00
1.449999999999999956e+00 -3.218812243758066294e-01 2.805672161025486666e+00
1.466666666666666563e+00 -3.741840833894438667e-01 3.006981809199845923e+00
1.483333333333333393e+00 -4.221139513491348194e-01 2.431461790096509201e+00
1.500000000000000000e+00 -4.552328097259941697e-01 1.483727949951049840e+00
1.516666666666666607e+00 -4.715715496808364771e-01 6.770074422256761038e-01
1.533333333333333215e+00 -4.777997244668500398e-01 2.635849372746862374e-01
1.550000000000000044e+00 -4.803577142566593516e-01 1.692269761571157938e-01
1.566666666666666652e+00 -4.834406236720872330e-01 1.599207508934935573e-01
1.583333333333333259e+00 -4.856884059531091369e-01 -4.822358292264905533e-02
1.600000000000000089e+00 -4.818331709079989311e-01 -6.513604835788722180e-01
1.616666666666666696e+00 -4.639763898338133963e-01 -1.657214075493089744e+00
1.633333333333333304e+00 -4.265927017248959396e-01 -2.797658924989551821e+00
1.649999999999999911e+00 -3.707210923341616726e-01 -3.738459829365516018e+00
1.666666666666666741e+00 -3.019773740793787464e-01 -4.289789158410920678e+00
1.683333333333333348e+00 -2.277281203871310000e-01 -4.500706310175135449e+00
1.699999999999999956e+00 -1.519538304068742407e-01 -4.513789849826884470e+00
1.716666666666666563e+00 -7.726845872623486211e-02 -4.363353289292110304e+00
1.733333333333333393e+00 -6.508720763803895089e-03 -3.992782918168354289e+00
1.750000000000000000e+00 5.582430521271029150e-02 -3.382506886688349645e+00
1.766666666666666607e+00 1.062415087924744317e-01 -2.581733121098664707e+00
1.783333333333333215e+00 1.418820759159991063e-01 -1.650742704782779402e+00
1.800000000000000044e+00 1.612662656185670784e-01 -6.941906250740975670e-01
1.816666666666666652e+00 1.650217634184690252e-01 1.649145812477520456e-01
1.833333333333333259e+00 1.557691129103086769e-01 8.141255882451020609e-01
1.849999999999999867e+00 1.378842438102989565e-01 1.188586512202672640e+00
1.866666666666666696e+00 1.161495625035529194e-01 1.306153491013935408e+00
1.883333333333333304e+00 9.434579410983444381e-02 1.272797455773762465e+00
1.899999999999999911e+00 7.372298064442750487e-02 1.189909826677058469e+00
1.916666666666666741e+00 5.468213322059916476e-02 1.086170912009979395e+00
1.933333333333333348e+00 3.751728357742819403e-02 1.734673042031496193e+00
1.949999999999999956e+00 -3.140301513784040342e-03 1.186911007369595650e+00
1.966666666666666563e+00 -2.046416668224992387e-03 -8.699667239718437972e-02
1.983333333333333393e+00 -2.404124338778941853e-04 -6.139250004674977335e-02
2.000000000000000000e+00 0.000000000000000000e+00 -1.442474603267365069e-02
