0	5210.81	2671.04
0.0166667	5166.29	5112.94
0.0333333	5040.38	9414.41
0.05	4852.48	12440.5
0.0666667	4625.7	14194.6
0.0833333	4379.33	15003.2
0.1	4125.59	15263.7
0.116667	3870.53	15267.2
0.133333	3616.69	15155.8
0.15	3365.35	14972.7
0.166667	3117.59	14725.4
0.183333	2874.5	14422.4
0.2	2636.85	14506.2
0.216667	2390.95	14266.8
0.233333	2161.29	14080.6
0.25	1921.6	14790
0.266667	1668.28	15296.8
0.283333	1411.72	15734.7
0.3	1143.8	20162.9
0.316667	739.608	21495.5
0.333333	427.29	12998.4
0.35	306.334	6592.01
0.366667	207.552	4622.23
0.383333	152.261	2707.66
0.4	117.297	1561.4
0.416667	100.213	547.281
0.433333	99.0549	225.278
0.45	92.7036	366.905
0.466667	86.8244	309.404
0.483333	82.3902	264.286
0.5	78.015	268.243
0.516667	73.4486	297.951
0.533333	68.0834	266.28
0.55	64.5727	250.11
0.566667	59.7462	253.856
0.583333	56.1109	247.297
0.6	51.5031	238.837
0.616667	48.1496	227.489
0.633333	43.9201	213.337
0.65	41.0384	206.347
0.666667	37.0418	217.302
0.683333	33.7951	188.347
0.7	30.7636	187.408
0.716667	27.548	177.14
0.733333	24.859	171.555
0.75	21.8296	166.101
0.766667	19.3222	154.118
0.783333	16.6924	144.614
0.8	14.5017	136.27
0.816667	12.1499	137.107
0.833333	9.93155	121.213
0.85	8.10954	111.775
0.866667	6.20564	106.736
0.883333	4.55171	103.857
0.9	2.74378	96.307
0.916667	1.34141	80.1537
0.933333	0.0720141	76.8328
0.95	-1.21966	74.1009
0.966667	-2.39807	66.351
0.983333	-3.43134	59.1601
1	-4.37005	51.0382
1.01667	-5.1328	46.0386
1.03333	-5.90452	44.6585
1.05	-6.62127	38.1684
1.06667	-7.17705	26.621
1.08333	-7.50854	22.8127
1.1	-7.9374	23.5698
1.11667	-8.29436	21.5751
1.13333	-8.6565	13.6271
1.15	-8.74855	11.3241
1.16667	-9.03404	12.7089
1.18333	-9.17214	7.76605
1.2	-9.29289	-1.21621
1.21667	-9.13159	-3.92574
1.23333	-9.16204	1.42726
1.25	-9.17916	-0.937723
1.26667	-9.13078	-6.88053
1.28333	-8.94983	-8.84761
1.3	-8.83589	-8.85654
1.31667	-8.65456	-11.7043
1.33333	-8.44578	-11.652
1.35	-8.2662	-12.4372
1.36667	-8.03113	-13.6515
1.38333	-7.81119	-15.514
1.4	-7.51404	-16.819
1.41667	-7.25045	-16.8847
1.43333	-6.95128	-15.8708
1.45	-6.72147	-17.2089
1.46667	-6.37753	-19.3862
1.48333	-6.07533	-16.8465
1.5	-5.81604	-19.3085
1.51667	-5.43159	-19.1769
1.53333	-5.17687	-14.7188
1.55	-4.94101	-17.2851
1.56667	-4.60058	-17.9087
1.58333	-4.34411	-15.4871
1.6	-4.0844	-15.3781
1.61667	-3.8314	-15.665
1.63333	-3.56228	-15.8429
1.65	-3.30336	-15.1007
1.66667	-3.05883	-13.8296
1.68333	-2.84242	-12.5526
1.7	-2.64045	-11.8967
1.71667	-2.44578	-11.1247
1.73333	-2.26966	-10.1626
1.75	-2.10706	-9.31747
1.76667	-1.95902	-9.26923
1.78333	-1.79812	-9.46137
1.8	-1.64367	-8.51497
1.81667	-1.51423	-8.53738
1.83333	-1.35912	-9.88169
1.85	-1.18487	-9.84622
1.86667	-1.03085	-9.8201
1.88333	-0.857569	-10.357
1.9	-0.685649	-9.70551
1.91667	-0.533987	-9.09528
1.93333	-0.382503	-8.38894
1.95	-0.254384	-7.00707
1.96667	-0.148887	-5.39277
1.98333	-0.0746431	-4.46707
2	0	-4.47769
