0.00000000 876.66646538 1922.07186317
0.01666667 844.63193433 1922.07186317
0.03333333 812.59740328 1922.07186317
0.05000000 780.56287222 1922.07186317
0.06666667 748.52834117 1922.07186317
0.08333333 716.49381012 1922.07186317
0.10000000 684.45927907 1922.07186317
0.11666667 652.42474801 1922.07186317
0.13333333 620.39021696 1922.07186317
0.15000000 588.35568591 1922.07186317
0.16666667 556.32115485 1922.07186317
0.18333333 524.28662380 1922.07186317
0.20000000 492.25209275 1922.07186317
0.21666667 460.21756170 1922.07186317
0.23333333 428.18303064 1922.07186317
0.25000000 396.14849959 1922.07186317
0.26666667 364.11396854 1922.07186317
0.28333333 332.07943748 1922.07186317
0.30000000 300.04490643 1922.07186317
0.31666667 268.01037538 1922.07186317
0.33333333 235.97584433 1922.07186317
0.35000000 203.94131327 1922.07186317
0.36666667 171.90678222 1922.07186317
0.38333333 139.87225117 1922.07186317
0.40000000 107.83772011 1922.07186317
0.41666667 75.80318906 1922.07186317
0.43333333 43.76865801 1399.50762985
0.45000000 29.15293473 713.23013174
0.46666667 19.99432028 462.25383219
0.48333333 13.74447366 319.27533056
0.50000000 9.35180926 224.65342537
0.51666667 6.25602615 159.13634414
0.53333333 4.04726446 115.63860556
0.55000000 2.40140596 91.36467115
0.56666667 1.00177542 83.36954334
0.58333333 -0.37757882 84.17038215
0.60000000 -1.80390398 81.66666430
0.61666667 -3.09980096 66.45044438
0.63333333 -4.01891880 39.36923317
0.65000000 -4.41210873 9.50873035
0.66666667 -4.33587647 -14.68508206
0.68333333 -3.92260600 -28.90057047
0.70000000 -3.37252413 -30.20540185
0.71666667 -2.91575927 -18.76060176
0.73333333 -2.74717073 -1.12385773
0.75000000 -2.87829734 14.10943138
0.76666667 -3.21748511 22.71393402
0.78333333 -3.63542848 25.23356492
0.80000000 -4.05860394 23.89203282
0.81666667 -4.43182957 19.96232935
0.83333333 -4.72401492 13.42353384
0.85000000 -4.87928070 4.49363199
0.86666667 -4.87380266 -4.96755902
0.88333333 -4.71369540 -13.60912825
0.90000000 -4.42016505 -21.98633022
0.91666667 -3.98081773 -29.72854737
0.93333333 -3.42921347 -34.59561756
0.95000000 -2.82763047 -35.57877208
0.96666667 -2.24325440 -34.40498983
0.98333333 -1.68079748 -32.29306497
1.00000000 -1.16681890 -29.21962976
1.01666667 -0.70680982 -25.72793775
1.03333333 -0.30922097 -22.11464079
1.05000000 0.03034487 -18.03544490
1.06666667 0.29196052 -13.75067072
1.08333333 0.48870056 -9.33825066
1.10000000 0.60323554 -4.45102075
1.11666667 0.63706792 0.29033557
1.13333333 0.59355769 3.92370364
1.15000000 0.50627780 6.65540709
1.16666667 0.37171079 9.12836603
1.18333333 0.20199893 10.99688682
1.20000000 0.00514790 11.79804630
1.21666667 -0.19126928 11.64609075
1.23333333 -0.38305513 10.93548530
1.25000000 -0.55578545 9.56986977
1.26666667 -0.70205079 7.50802825
1.28333333 -0.80605306 4.90250417
1.30000000 -0.86546759 2.28916657
1.31666667 -0.88235861 0.17376153
1.33333333 -0.87125965 -1.43518737
1.35000000 -0.83451904 -2.85332592
1.36666667 -0.77614878 -4.13832932
1.38333333 -0.69657473 -5.11820271
1.40000000 -0.60554202 -5.75116877
1.41666667 -0.50486910 -6.10769602
1.43333333 -0.40195216 -6.00743344
1.45000000 -0.30462132 -5.46100322
1.46666667 -0.21991872 -4.62590029
1.48333333 -0.15042464 -3.61872083
1.50000000 -0.09929469 -2.62083479
1.51666667 -0.06306348 -1.84026128
1.53333333 -0.03795265 -1.29695689
1.55000000 -0.01983159 -0.89807775
1.56666667 -0.00801672 -0.59547101
1.58333333 0.00001745 -0.32593299
1.60000000 0.00284771 -0.04313238
1.61666667 0.00145519 0.06439340
1.63333333 0.00070127 -0.06076284
1.65000000 0.00348062 -0.33750231
1.66666667 0.01195134 -0.80154354
1.68333333 0.03019874 -1.46506576
1.70000000 0.06078687 -2.08688679
1.71666667 0.09976163 -2.38226965
1.73333333 0.14019586 -2.28077677
1.75000000 0.17578753 -1.88620914
1.76666667 0.20306949 -1.33586771
1.78333333 0.22031645 -0.79492266
1.80000000 0.22956692 -0.34653656
1.81666667 0.23186767 0.02464454
1.83333333 0.22874543 0.31610190
1.85000000 0.22133094 0.56051538
1.86666667 0.21006159 0.79240549
1.88333333 0.19491742 1.02898062
1.90000000 0.17576223 1.24637270
1.91666667 0.15337166 1.44364795
1.93333333 0.12764063 3.82353618
1.95000000 0.02592046 3.72924297
1.96666667 0.00333253 0.76829206
1.98333333 0.00031072 0.09997605
2.00000000 0.00000000 0.01864339
