0.00000000 1869.69793366 4221.08837016
0.01666667 1799.34646083 4221.08837016
0.03333333 1728.99498799 4221.08837016
0.05000000 1658.64351515 4221.08837016
0.06666667 1588.29204232 4221.08837016
0.08333333 1517.94056948 4221.08837016
0.10000000 1447.58909665 4221.08837016
0.11666667 1377.23762381 4221.08837016
0.13333333 1306.88615097 4221.08837016
0.15000000 1236.53467814 4221.08837016
0.16666667 1166.18320530 4221.08837016
0.18333333 1095.83173247 4221.08837016
0.20000000 1025.48025963 4221.08837016
0.21666667 955.12878679 4221.08837016
0.23333333 884.77731396 4221.08837016
0.25000000 814.42584112 4221.08837016
0.26666667 744.07436829 4221.08837016
0.28333333 673.72289545 4221.08837016
0.30000000 603.37142261 4221.08837016
0.31666667 533.01994978 4221.08837016
0.33333333 462.66847694 4221.08837016
0.35000000 392.31700411 4221.08837016
0.36666667 321.96553127 4221.08837016
0.38333333 251.61405843 4221.08837016
0.40000000 181.26258560 4221.08837016
0.41666667 110.91111276 4221.08837016
0.43333333 40.55963993 2614.20849378
0.45000000 23.77082964 787.97570742
0.46666667 14.29378301 472.12600551
0.48333333 8.03329612 317.17393112
0.50000000 3.72131864 222.25405770
0.51666667 0.62482753 162.76808531
0.53333333 -1.70428420 126.87782602
0.55000000 -3.60443334 107.78901714
0.56666667 -5.29725144 99.78822646
0.58333333 -6.93070755 95.46663337
0.60000000 -8.47947255 85.77684129
0.61666667 -9.78993560 65.04729732
0.63333333 -10.64771580 33.61525589
0.65000000 -10.91044413 -2.32974696
0.66666667 -10.57005756 -34.29648724
0.68333333 -9.76722789 -55.85813087
0.70000000 -8.70811987 -63.16055853
0.71666667 -7.66187593 -54.72598340
0.73333333 -6.88392042 -33.86291496
0.75000000 -6.53311210 -10.84487945
0.76666667 -6.52242444 3.71328245
0.78333333 -6.65688818 8.14731157
0.80000000 -6.79400149 7.62720814
0.81666667 -6.91112846 6.25445682
0.83333333 -7.00248339 4.33273319
0.85000000 -7.05555290 1.46108677
0.86666667 -7.05118628 -2.46117547
0.88333333 -6.97351371 -7.08991631
0.90000000 -6.81485574 -12.05835637
0.91666667 -6.57156850 -17.32443616
0.93333333 -6.23737453 -23.03918486
0.95000000 -5.80359567 -28.64850861
0.96666667 -5.28242424 -33.14554073
0.98333333 -4.69874431 -35.87762606
1.00000000 -4.08650337 -36.43406240
1.01666667 -3.48427557 -34.45939845
1.03333333 -2.93785676 -30.72716373
1.05000000 -2.46003678 -26.28843985
1.06666667 -2.06157543 -22.13603558
1.08333333 -1.72216892 -18.71962317
1.10000000 -1.43758799 -16.17830014
1.11666667 -1.18289225 -14.43142626
1.13333333 -0.95654045 -12.80938803
1.15000000 -0.75591265 -11.19243699
1.16666667 -0.58345922 -9.68182333
1.18333333 -0.43318521 -8.14662800
1.20000000 -0.31190495 -6.33754590
1.21666667 -0.22193368 -4.17498134
1.23333333 -0.17273891 -1.94769159
1.25000000 -0.15701062 0.18149944
1.26666667 -0.17878889 2.06117818
1.28333333 -0.22571656 3.37867284
1.30000000 -0.29141132 3.98950574
1.31666667 -0.35870009 3.66885162
1.33333333 -0.41370637 2.76774937
1.35000000 -0.45095840 1.84506477
1.36666667 -0.47520853 0.96850333
1.38333333 -0.48324185 0.00380441
1.40000000 -0.47533534 -0.89156039
1.41666667 -0.45352317 -1.34737389
1.43333333 -0.43042288 -1.33440867
1.45000000 -0.40904288 -1.08557998
1.46666667 -0.39423688 -0.72779858
1.48333333 -0.38478292 -0.29991144
1.50000000 -0.38423983 0.13283795
1.51666667 -0.38921086 0.54603895
1.53333333 -0.40244113 0.86765986
1.55000000 -0.41813285 1.00052273
1.56666667 -0.43579189 0.92047431
1.58333333 -0.44881533 0.61347147
1.60000000 -0.45624094 -0.03661126
1.61666667 -0.44759495 -1.12784280
1.63333333 -0.41864618 -2.24442594
1.65000000 -0.37278075 -2.83037092
1.66666667 -0.32430048 -2.78129871
1.68333333 -0.28007080 -2.43978629
1.70000000 -0.24297427 -2.06761539
1.71666667 -0.21115028 -1.80465475
1.73333333 -0.18281911 -1.82100439
1.75000000 -0.15045014 -2.19892292
1.76666667 -0.10952168 -2.67026444
1.78333333 -0.06144132 -2.93955354
1.80000000 -0.01153656 -2.86053750
1.81666667 0.03390993 -2.50772537
1.83333333 0.07205428 -2.02550163
1.85000000 0.10142665 -1.49340616
1.86666667 0.12183449 -0.92206757
1.88333333 0.13216223 -0.35760321
1.90000000 0.13375459 0.13313244
1.91666667 0.12772448 0.58053881
1.93333333 0.11440330 3.11790579
1.95000000 0.02379429 3.34113732
1.96666667 0.00303206 0.70525212
1.98333333 0.00028589 0.09096171
2.00000000 0.00000000 0.01715323
