0.000000000000000000e+00 6.331130072163003888e+02 9.257141157643377483e+02
1.666666666666666644e-02 6.176844386202280930e+02 9.257141157643377483e+02
3.333333333333333287e-02 6.022558700241557972e+02 9.257141157643377483e+02
5.000000000000000278e-02 5.868273014280835014e+02 9.257141157643377483e+02
6.666666666666666574e-02 5.713987328320112056e+02 9.257141157643377483e+02
8.333333333333332871e-02 5.559701642359389098e+02 9.257141157643343377e+02
1.000000000000000056e-01 5.405415956398667277e+02 9.257141157643377483e+02
1.166666666666666685e-01 5.251130270437943182e+02 9.257141157643394536e+02
1.333333333333333315e-01 5.096844584477220792e+02 9.257141157643377483e+02
1.499999999999999944e-01 4.942558898516497266e+02 9.257141157643377483e+02
1.666666666666666574e-01 4.788273212555774876e+02 9.257141157643377483e+02
1.833333333333333204e-01 4.633987526595051349e+02 9.257141157643394536e+02
2.000000000000000111e-01 4.479701840634328391e+02 9.257141157643360430e+02
2.166666666666666741e-01 4.325416154673606002e+02 9.257141157643360430e+02
2.333333333333333370e-01 4.171130468712883044e+02 9.257141157643377483e+02
2.500000000000000000e-01 4.016844782752160086e+02 9.257141157643377483e+02
2.666666666666666630e-01 3.862559096791437128e+02 9.257141157643377483e+02
2.833333333333333259e-01 3.708273410830714170e+02 9.257141157643377483e+02
2.999999999999999889e-01 3.553987724869991212e+02 9.257141157643377483e+02
3.166666666666666519e-01 3.399702038909268254e+02 9.257141157643377483e+02
3.333333333333333148e-01 3.245416352948545295e+02 9.257141157643377483e+02
3.499999999999999778e-01 3.091130666987822337e+02 9.257141157643360430e+02
3.666666666666666408e-01 2.936844981027099948e+02 9.257141157643360430e+02
3.833333333333333037e-01 2.782559295066376990e+02 9.257141157643394536e+02
4.000000000000000222e-01 2.628273609105653463e+02 9.257141157643394536e+02
4.166666666666666852e-01 2.473987923144930505e+02 9.257141157643377483e+02
4.333333333333333481e-01 2.319702237184207547e+02 9.257141157643377483e+02
4.500000000000000111e-01 2.165416551223484589e+02 9.257141157643377483e+02
4.666666666666666741e-01 2.011130865262761631e+02 9.257141157643377483e+02
4.833333333333333370e-01 1.856845179302038673e+02 9.257141157643369525e+02
5.000000000000000000e-01 1.702559493341315999e+02 9.257141157643352471e+02
5.166666666666666075e-01 1.548273807380593610e+02 9.257141157643377483e+02
5.333333333333333259e-01 1.393988121419870083e+02 9.257141157643403631e+02
5.500000000000000444e-01 1.239702435459146841e+02 9.257141157643372935e+02
5.666666666666666519e-01 1.085416749498424309e+02 9.257141157643377483e+02
5.833333333333333703e-01 9.311310635377009248e+01 9.257141157643372935e+02
5.999999999999999778e-01 7.768453775769785352e+01 9.257141157643375209e+02
6.166666666666666963e-01 6.225596916162550798e+01 9.257141157643375209e+02
6.333333333333333037e-01 4.682740056555326902e+01 9.257141157643374072e+02
6.500000000000000222e-01 3.139883196948092703e+01 7.244948687070098003e+02
6.666666666666666297e-01 2.267757160865294352e+01 3.780511993839546108e+02
6.833333333333333481e-01 1.879712532334910691e+01 2.321142041378724912e+02
6.999999999999999556e-01 1.494043147072386013e+01 2.165110920941854431e+02
7.166666666666666741e-01 1.158008892020959202e+01 1.856353091553087893e+02
7.333333333333332815e-01 8.752587832213567509e+00 1.555079441005087233e+02
7.500000000000000000e-01 6.396490783525967672e+00 1.295743345951000549e+02
7.666666666666666075e-01 4.433443345710232464e+00 1.083087895794382689e+02
7.833333333333333259e-01 2.786197797544692101e+00 9.124666599667206413e+01
8.000000000000000444e-01 1.391887812487830223e+00 7.752773728106627971e+01
8.166666666666666519e-01 2.019398881758164843e-01 6.636391021608282870e+01
8.333333333333333703e-01 -8.202425280482639192e-01 5.717790911131891818e+01
8.499999999999999778e-01 -1.703990415534814007e+00 4.950031940213228410e+01
8.666666666666666963e-01 -2.470253174786006589e+00 4.286522385435787186e+01
8.833333333333333037e-01 -3.132831210680076417e+00 3.685271545919500369e+01
9.000000000000000222e-01 -3.698677023425839927e+00 3.116076934003165988e+01
9.166666666666666297e-01 -4.171523522014465080e+00 2.564093440931014101e+01
9.333333333333333481e-01 -4.553374837069511294e+00 2.026948347770489889e+01
9.499999999999999556e-01 -4.847172971271294983e+00 1.509413607587622330e+01
9.666666666666666741e-01 -5.056512706265385404e+00 1.018539847581354962e+01
9.833333333333332815e-01 -5.186686253798413304e+00 5.594858965541291695e+00
1.000000000000000000e+00 -5.243008005116761794e+00 1.323210625731823242e+00
1.016666666666666607e+00 -5.230793274656140746e+00 -2.645260868757617345e+00
1.033333333333333215e+00 -5.154832642824841216e+00 -6.271896006335708762e+00
1.050000000000000044e+00 -5.021730074444950453e+00 -9.476548659028525279e+00
1.066666666666666652e+00 -4.838947687523890373e+00 -1.217546852358942999e+01
1.083333333333333259e+00 -4.615881123658636120e+00 -1.429685147703549042e+01
1.100000000000000089e+00 -4.362385971622707359e+00 -1.578799898015210701e+01
1.116666666666666696e+00 -4.089614490986899220e+00 -1.668001598412149633e+01
1.133333333333333304e+00 -3.806385438818657541e+00 -1.709689752559404141e+01
1.149999999999999911e+00 -3.519717906800431173e+00 -1.719288159772788660e+01
1.166666666666666741e+00 -3.233289385561061380e+00 -1.712053021826929822e+01
1.183333333333333348e+00 -2.949033566191454625e+00 -1.697147425472304150e+01
1.199999999999999956e+00 -2.667573577070293300e+00 -1.671667257755655456e+01
1.216666666666666563e+00 -2.391811146939569532e+00 -1.630240351181460667e+01
1.233333333333333393e+00 -2.124160126676473137e+00 -1.573701239139644770e+01
1.250000000000000000e+00 -1.867244067226354609e+00 -1.503481842579471106e+01
1.266666666666666607e+00 -1.622999512483316087e+00 -1.414786371656116692e+01
1.283333333333333215e+00 -1.395648610007649060e+00 -1.300719420091591516e+01
1.300000000000000044e+00 -1.189426372452785596e+00 -1.159817198199687205e+01
1.316666666666666652e+00 -1.009042877274419991e+00 -9.953757574163500266e+00
1.333333333333333259e+00 -8.576344533140022319e-01 -8.135200343981377813e+00
1.350000000000000089e+00 -7.378695324750407236e-01 -6.245945157359086508e+00
1.366666666666666696e+00 -6.494362814020326891e-01 -4.409056343068218808e+00
1.383333333333333304e+00 -5.909009877061001115e-01 -2.708535320343747888e+00
1.399999999999999911e+00 -5.591517707239077595e-01 -1.190720042830405445e+00
1.416666666666666741e+00 -5.512103196117532633e-01 1.071740581931734937e-01
1.433333333333333348e+00 -5.627242393303468759e-01 1.145233537218074416e+00
1.449999999999999956e+00 -5.893847708523557438e-01 1.875020145327672694e+00
1.466666666666666563e+00 -6.252249108412692991e-01 2.244257897753552111e+00
1.483333333333333393e+00 -6.641933674441408142e-01 2.256939824872314038e+00
1.500000000000000000e+00 -7.004562383370130929e-01 1.974180518208357160e+00
1.516666666666666607e+00 -7.299993847177527195e-01 1.468560688385858182e+00
1.533333333333333215e+00 -7.494082612832083656e-01 7.977778511760957869e-01
1.550000000000000044e+00 -7.565919797569559124e-01 3.285939399471415889e-02
1.566666666666666652e+00 -7.505035744163655043e-01 -7.378097334823574549e-01
1.583333333333333259e+00 -7.319983219742106639e-01 -1.438402413558613757e+00
1.600000000000000089e+00 -7.025568272977450457e-01 -2.037524633945975161e+00
1.616666666666666696e+00 -6.640808341760114919e-01 -2.520552956707264869e+00
1.633333333333333304e+00 -6.185383954075028834e-01 -2.882472348876401469e+00
1.649999999999999911e+00 -5.679984225467981096e-01 -3.139079766323127352e+00
1.666666666666666741e+00 -5.139024031967319717e-01 -3.321508582193969605e+00
1.683333333333333348e+00 -4.572814698069991302e-01 -3.448608461634563582e+00
1.699999999999999956e+00 -3.989487878089131856e-01 -3.523110620981746433e+00
1.716666666666666563e+00 -3.398444491076075824e-01 -3.533561125287203897e+00
1.733333333333333393e+00 -2.811634169660063853e-01 -3.459744968176740709e+00
1.750000000000000000e+00 -2.245196168350495625e-01 -3.284282107243422733e+00
1.766666666666666607e+00 -1.716873467245589591e-01 -3.003182337387037659e+00
1.783333333333333215e+00 -1.244135389221483062e-01 -2.631273423068149597e+00
1.800000000000000044e+00 -8.397823262228730490e-02 -2.208919768906807413e+00
1.816666666666666652e+00 -5.078287995858806608e-02 -1.785599927021817912e+00
1.833333333333333259e+00 -2.445823505489337982e-02 -1.394200280881490395e+00
1.849999999999999867e+00 -4.309537262538386433e-03 -1.042834748078086848e+00
1.866666666666666696e+00 1.030292321437617856e-02 -7.282635512589876736e-01
1.883333333333333304e+00 1.996591444609453758e-02 -4.478819764790802904e-01
1.899999999999999911e+00 2.523232243034552111e-02 -2.006033511105244083e-01
1.916666666666666741e+00 2.665269281644535096e-02 1.236362020028212994e-02
1.933333333333333348e+00 2.482020175700278344e-02 5.558513559193233311e-01
1.949999999999999956e+00 8.124314285801242583e-03 7.143954980549112044e-01
1.966666666666666563e+00 1.007018488505745336e-03 2.409962108692177973e-01
1.983333333333333393e+00 9.110725682731610794e-05 3.021055465517236138e-02
2.000000000000000000e+00 0.000000000000000000e+00 5.466435409638966368e-03
