0.000000000000000000e+00 7.587188253735632770e+02 1.482503653698470316e+03
1.666666666666666644e-02 7.340104311452554384e+02 1.482503653698466906e+03
3.333333333333333287e-02 7.093020369169477135e+02 1.482503653698466906e+03
5.000000000000000278e-02 6.845936426886398749e+02 1.482503653698466906e+03
6.666666666666666574e-02 6.598852484603321500e+02 1.482503653698466906e+03
8.333333333333332871e-02 6.351768542320243114e+02 1.482503653698470316e+03
1.000000000000000056e-01 6.104684600037164728e+02 1.482503653698466906e+03
1.166666666666666685e-01 5.857600657754087479e+02 1.482503653698466906e+03
1.333333333333333315e-01 5.610516715471009093e+02 1.482503653698466906e+03
1.499999999999999944e-01 5.363432773187931843e+02 1.482503653698466906e+03
1.666666666666666574e-01 5.116348830904853457e+02 1.482503653698466906e+03
1.833333333333333204e-01 4.869264888621776208e+02 1.482503653698466906e+03
2.000000000000000111e-01 4.622180946338697822e+02 1.482503653698468725e+03
2.166666666666666741e-01 4.375097004055620005e+02 1.482503653698466906e+03
2.333333333333333370e-01 4.128013061772542187e+02 1.482503653698466906e+03
2.500000000000000000e-01 3.880929119489464370e+02 1.482503653698466906e+03
2.666666666666666630e-01 3.633845177206386552e+02 1.482503653698466906e+03
2.833333333333333259e-01 3.386761234923308734e+02 1.482503653698466906e+03
2.999999999999999889e-01 3.139677292640230917e+02 1.482503653698466906e+03
3.166666666666666519e-01 2.892593350357153099e+02 1.482503653698466906e+03
3.333333333333333148e-01 2.645509408074075282e+02 1.482503653698466906e+03
3.499999999999999778e-01 2.398425465790997464e+02 1.482503653698466906e+03
3.666666666666666408e-01 2.151341523507919646e+02 1.482503653698465996e+03
3.833333333333333037e-01 1.904257581224842113e+02 1.482503653698468725e+03
4.000000000000000222e-01 1.657173638941763443e+02 1.482503653698469407e+03
4.166666666666666852e-01 1.410089696658685625e+02 1.482503653698466906e+03
4.333333333333333481e-01 1.163005754375607808e+02 1.482503653698466906e+03
4.500000000000000111e-01 9.159218120925299900e+01 1.482503653698466906e+03
4.666666666666666741e-01 6.688378698094521724e+01 1.482503653698466906e+03
4.833333333333333370e-01 4.217539275263743548e+01 1.482503653698466906e+03
5.000000000000000000e-01 1.746699852432965727e+01 8.783049850681522912e+02
5.166666666666666075e-01 1.289855991703235638e+01 2.275188136953912021e+02
5.333333333333333259e-01 9.883038067816617200e+00 1.614879594977014108e+02
5.500000000000000444e-01 7.515627933775642866e+00 1.292448295177089506e+02
5.666666666666666519e-01 5.574877083892985752e+00 1.055162207256214941e+02
5.833333333333333703e-01 3.998420576254926306e+00 8.587255425064341807e+01
5.999999999999999778e-01 2.712458608871538335e+00 7.040700970052748175e+01
6.166666666666666963e-01 1.651520252904010277e+00 5.786494209484492757e+01
6.333333333333333037e-01 7.836272057100408528e-01 4.691572297246566592e+01
6.500000000000000222e-01 8.766282048848819675e-02 3.727788794333318378e+01
6.666666666666666297e-01 -4.589690590677320547e-01 2.908041541289698984e+01
6.833333333333333481e-01 -8.816843599414114774e-01 2.217136229300640338e+01
6.999999999999999556e-01 -1.198014468834612156e+00 1.656655836646871549e+01
7.166666666666666741e-01 -1.433902972157035327e+00 1.237863397234424490e+01
7.333333333333332815e-01 -1.610635601246086956e+00 9.250051772539762851e+00
7.500000000000000000e-01 -1.742238031241694074e+00 6.872896813668156746e+00
7.666666666666666075e-01 -1.839732161701692181e+00 5.036259715903015355e+00
7.833333333333333259e-01 -1.910113355105127919e+00 3.430482872797941951e+00
8.000000000000000444e-01 -1.954081590794956913e+00 1.805222950562606066e+00
8.166666666666666519e-01 -1.970287453457214788e+00 2.188636422202616671e-01
8.333333333333333703e-01 -1.961377045535632302e+00 -1.099665531835394283e+00
8.499999999999999778e-01 -1.933631935729368312e+00 -2.230146532985806118e+00
8.666666666666666963e-01 -1.887038827769438765e+00 -3.293158282968009498e+00
8.833333333333333037e-01 -1.823859992963767995e+00 -4.239110496683403007e+00
9.000000000000000222e-01 -1.745735144546658679e+00 -5.079838866240851125e+00
9.166666666666666297e-01 -1.654532030755739624e+00 -5.927474829087282515e+00
9.333333333333333481e-01 -1.548152650243749262e+00 -6.709385449038454574e+00
9.499999999999999556e-01 -1.430885849121124487e+00 -7.070724379762241441e+00
9.666666666666666741e-01 -1.312461837585007896e+00 -6.909807623821191847e+00
9.833333333333332815e-01 -1.200558928327084773e+00 -6.427356179869683217e+00
1.000000000000000000e+00 -1.098216631589351788e+00 -5.808668635987744189e+00
1.016666666666666607e+00 -1.006936640460826649e+00 -5.162707661445130825e+00
1.033333333333333215e+00 -9.261263762078474349e-01 -4.651298289020427745e+00
1.050000000000000044e+00 -8.518933641601457163e-01 -4.419917363207686911e+00
1.066666666666666652e+00 -7.787957974342578638e-01 -4.403071277873604750e+00
1.083333333333333259e+00 -7.051243215643588913e-01 -4.413276293150539153e+00
1.100000000000000089e+00 -6.316865876625732401e-01 -4.341517988933614625e+00
1.116666666666666696e+00 -5.604070552665717520e-01 -4.184028891240479275e+00
1.133333333333333304e+00 -4.922189579545572791e-01 -3.917895365070580560e+00
1.149999999999999911e+00 -4.298105430975523999e-01 -3.493618167093475169e+00
1.166666666666666741e+00 -3.757650190514414401e-01 -2.951144765603263220e+00
1.183333333333333348e+00 -3.314390509107769667e-01 -2.348402868603758353e+00
1.199999999999999956e+00 -2.974849234313161617e-01 -1.778603788956768073e+00
1.216666666666666563e+00 -2.721522579455513680e-01 -1.314543335335411900e+00
1.233333333333333393e+00 -2.536668122534690983e-01 -9.281023930139196132e-01
1.250000000000000000e+00 -2.412155115117540494e-01 -5.883367811686962545e-01
1.266666666666666607e+00 -2.340555862145125565e-01 -3.496498698630803870e-01
1.283333333333333215e+00 -2.295605158496513698e-01 -2.545623495852891716e-01
1.300000000000000044e+00 -2.255701745616695841e-01 -2.125250665583888754e-01
1.316666666666666652e+00 -2.224763469643717406e-01 -1.584142587738035513e-01
1.333333333333333259e+00 -2.202896992692094658e-01 -1.131933491360251343e-01
1.350000000000000089e+00 -2.187032353265042361e-01 -7.957451332678500133e-02
1.366666666666666696e+00 -2.176372154916499657e-01 -7.765441626655489316e-02
1.383333333333333304e+00 -2.161147547842857397e-01 -1.445942527573354508e-01
1.399999999999999911e+00 -2.128174070664054507e-01 -2.873657244142979739e-01
1.416666666666666741e+00 -2.065358973038091406e-01 -4.849501710144096811e-01
1.433333333333333348e+00 -1.966524013659251280e-01 -6.758591488092006161e-01
1.449999999999999956e+00 -1.840072590101691219e-01 -7.778289335614396727e-01
1.466666666666666563e+00 -1.707247702472104722e-01 -7.506992897682018828e-01
1.483333333333333393e+00 -1.589839493512290591e-01 -6.482221421911796844e-01
1.500000000000000000e+00 -1.491173655075044846e-01 -5.558034797959038320e-01
1.516666666666666607e+00 -1.404571666913655981e-01 -4.961125233230778697e-01
1.533333333333333215e+00 -1.325802813967352223e-01 -4.727646027781941540e-01
1.550000000000000044e+00 -1.246983465987591272e-01 -4.920963693945826223e-01
1.566666666666666652e+00 -1.161770690835824682e-01 -5.444809337401832483e-01
1.583333333333333259e+00 -1.065489821407530208e-01 -5.998112083699447261e-01
1.600000000000000089e+00 -9.618336213791764400e-02 -6.145807516827024308e-01
1.616666666666666696e+00 -8.606295708466293881e-02 -5.746606975708826726e-01
1.633333333333333304e+00 -7.702800555222155676e-02 -5.031467742339155169e-01
1.649999999999999911e+00 -6.929139794353242343e-02 -4.461001067434999245e-01
1.666666666666666741e+00 -6.215800199410489307e-02 -4.221422036989759818e-01
1.683333333333333348e+00 -5.521999115356655830e-02 -3.971485938360327927e-01
1.699999999999999956e+00 -4.891971553290379998e-02 -3.629393540450337463e-01
1.716666666666666563e+00 -4.312201268539876675e-02 -3.437118302401297454e-01
1.733333333333333393e+00 -3.746265452489947606e-02 -3.396320780636290504e-01
1.750000000000000000e+00 -3.180094341661113266e-02 -3.219809560560312756e-01
1.766666666666666607e+00 -2.672995598969843400e-02 -2.877192526318838595e-01
1.783333333333333215e+00 -2.221030166221500332e-02 -2.660377867419525533e-01
1.800000000000000044e+00 -1.786202976496668177e-02 -2.610273921326630719e-01
1.816666666666666652e+00 -1.350938859112623368e-02 -2.493513626892253643e-01
1.833333333333333259e+00 -9.550317675325836059e-03 -2.133024155999497240e-01
1.849999999999999867e+00 -6.399308071127909371e-03 -1.618804735894179558e-01
1.866666666666666696e+00 -4.154301889011904024e-03 -1.165945514913226955e-01
1.883333333333333304e+00 -2.512823021417152740e-03 -8.408518934738357098e-02
1.899999999999999911e+00 -1.351462244099118411e-03 -5.711857433140526963e-02
1.916666666666666741e+00 -6.088705437036437016e-04 -3.502185836270412661e-02
1.933333333333333348e+00 -1.840669653423141242e-04 -2.756869207093036109e-02
1.949999999999999956e+00 3.100858586607016607e-04 -8.169281225338288419e-03
1.966666666666666563e+00 8.824240883562881673e-05 9.010381919497051015e-03
1.983333333333333393e+00 9.739794677466585105e-06 2.647272265068864421e-03
2.000000000000000000e+00 0.000000000000000000e+00 5.843876806479951199e-04
