0	1.30021e+07	86.3379
0.0166667	1.30021e+07	165.282
0.0333333	1.3002e+07	304.396
0.05	1.3002e+07	402.425
0.0666667	1.3002e+07	459.596
0.0833333	1.3002e+07	486.646
0.1	1.3002e+07	496.688
0.116667	1.3002e+07	19787.9
0.133333	1.30014e+07	220912
0.15	1.29946e+07	1.26051e+06
0.166667	1.29593e+07	4.78555e+06
0.183333	1.28351e+07	1.35106e+07
0.2	1.2509e+07	3.008e+07
0.216667	1.18325e+07	5.46958e+07
0.233333	1.06858e+07	8.30667e+07
0.25	9.06358e+06	1.06946e+08
0.266667	7.12093e+06	1.17924e+08
0.283333	5.13276e+06	1.12194e+08
0.3	3.38112e+06	9.26858e+07
0.316667	2.04323e+06	6.6972e+07
0.333333	1.14872e+06	4.28038e+07
0.35	616440	2.46692e+07
0.366667	326417	1.32262e+07
0.383333	175568	6.87504e+06
0.4	97248.9	3.60225e+06
0.416667	55492.8	1.94257e+06
0.433333	32496.5	1.08151e+06
0.45	19442.4	621114
0.466667	11792.7	368897
0.483333	7145.85	226974
0.5	4226.9	143180
0.516667	2373.2	89806.5
0.533333	1233.35	53630.8
0.55	585.504	29339.3
0.566667	255.377	14406.3
0.583333	105.294	6367.45
0.6	43.1289	2586.5
0.616667	19.0778	995.337
0.633333	9.951	403.653
0.65	5.62267	219.299
0.666667	2.64103	158.747
0.683333	0.33111	120.207
0.7	-1.36586	88.1787
0.716667	-2.60818	66.5977
0.733333	-3.58579	53.8855
0.75	-4.40436	45.071
0.766667	-5.08815	36.8446
0.783333	-5.63252	28.4906
0.8	-6.03784	20.2756
0.816667	-6.30837	12.0917
0.833333	-6.4409	3.64728
0.85	-6.42995	-4.64736
0.866667	-6.28598	-11.5767
0.883333	-6.04406	-15.9523
0.9	-5.75424	-17.4427
0.916667	-5.46264	-16.9022
0.933333	-5.19083	-16.2243
0.95	-4.92182	-17.3854
0.966667	-4.61132	-20.6797
0.983333	-4.2325	-23.8234
1	-3.81721	-23.7745
1.01667	-3.44002	-19.981
1.03333	-3.15118	-15.1859
1.05	-2.93382	-12.4299
1.06667	-2.73685	-11.8345
1.08333	-2.53934	-11.1482
1.1	-2.36524	-9.02449
1.11667	-2.23852	-6.56156
1.13333	-2.14652	-5.40922
1.15	-2.05821	-5.4284
1.16667	-1.96557	-4.98613
1.18333	-1.89201	-3.07396
1.2	-1.86311	-0.333113
1.21667	-1.88091	1.95299
1.23333	-1.92821	3.24343
1.25	-1.98902	3.93985
1.26667	-2.05954	4.62906
1.28333	-2.14332	5.45529
1.3	-2.24138	6.12653
1.31667	-2.34754	6.28263
1.33333	-2.4508	5.76985
1.35	-2.53987	4.61765
1.36667	-2.60472	2.87201
1.38333	-2.6356	0.606521
1.4	-2.62494	-1.84926
1.41667	-2.57396	-3.85105
1.43333	-2.49657	-4.82587
1.45	-2.4131	-4.77126
1.46667	-2.33753	-4.28893
1.48333	-2.27013	-4.08703
1.5	-2.2013	-4.47076
1.51667	-2.12111	-5.26454
1.53333	-2.02581	-6.09282
1.55	-1.91801	-6.65902
1.56667	-1.80384	-6.7993
1.58333	-1.69137	-6.38786
1.6	-1.59091	-5.34512
1.61667	-1.5132	-3.85819
1.63333	-1.46231	-2.54382
1.65	-1.42841	-2.15275
1.66667	-1.39055	-2.90879
1.68333	-1.33145	-4.19138
1.7	-1.25084	-5.05575
1.71667	-1.16292	-5.09255
1.73333	-1.08109	-4.64017
1.75	-1.00825	-4.15074
1.76667	-0.942728	-3.58928
1.78333	-0.888606	-2.64767
1.8	-0.854472	-1.4137
1.81667	-0.841483	-0.519225
1.83333	-0.837164	-0.508317
1.85	-0.824539	-1.20583
1.86667	-0.79697	-1.86914
1.88333	-0.762234	-1.95771
1.9	-0.731713	-1.69605
1.91667	-0.705699	-1.92443
1.93333	-0.667565	-3.35974
1.95	-0.593708	-5.72028
1.96667	-0.476889	-7.44459
1.98333	-0.345555	-6.61634
2	-0.256345	-5.35262
