0.000000000000000000e+00 1.368364793361708735e+03 2.283321071025352467e+03
1.666666666666666644e-02 1.330309442177952860e+03 2.283321071025352467e+03
3.333333333333333287e-02 1.292254090994196986e+03 2.283321071025352467e+03
5.000000000000000278e-02 1.254198739810441111e+03 2.283321071025352467e+03
6.666666666666666574e-02 1.216143388626685237e+03 2.283321071025352467e+03
8.333333333333332871e-02 1.178088037442929362e+03 2.283321071025352467e+03
1.000000000000000056e-01 1.140032686259173488e+03 2.283321071025359288e+03
1.166666666666666685e-01 1.101977335075417386e+03 2.283321071025352467e+03
1.333333333333333315e-01 1.063921983891661739e+03 2.283321071025352467e+03
1.499999999999999944e-01 1.025866632707905637e+03 2.283321071025356105e+03
1.666666666666666574e-01 9.878112815241498765e+02 2.283321071025352467e+03
1.833333333333333204e-01 9.497559303403938884e+02 2.283321071025356105e+03
2.000000000000000111e-01 9.117005791566380140e+02 2.283321071025352467e+03
2.166666666666666741e-01 8.736452279728821395e+02 2.283321071025352467e+03
2.333333333333333370e-01 8.355898767891262651e+02 2.283321071025352467e+03
2.500000000000000000e-01 7.975345256053703906e+02 2.283321071025356105e+03
2.666666666666666630e-01 7.594791744216144025e+02 2.283321071025356105e+03
2.833333333333333259e-01 7.214238232378585280e+02 2.283321071025352467e+03
2.999999999999999889e-01 6.833684720541026536e+02 2.283321071025352467e+03
3.166666666666666519e-01 6.453131208703467792e+02 2.283321071025352467e+03
3.333333333333333148e-01 6.072577696865909047e+02 2.283321071025352467e+03
3.499999999999999778e-01 5.692024185028350303e+02 2.283321071025352467e+03
3.666666666666666408e-01 5.311470673190791558e+02 2.283321071025352467e+03
3.833333333333333037e-01 4.930917161353232814e+02 2.283321071025356105e+03
4.000000000000000222e-01 4.550363649515672932e+02 2.283321071025357469e+03
4.166666666666666852e-01 4.169810137678113620e+02 2.283321071025354286e+03
4.333333333333333481e-01 3.789256625840554875e+02 2.283321071025352467e+03
4.500000000000000111e-01 3.408703114002996131e+02 2.283321071025354286e+03
4.666666666666666741e-01 3.028149602165436818e+02 2.283321071025354286e+03
4.833333333333333370e-01 2.647596090327878073e+02 2.283321071025352467e+03
5.000000000000000000e-01 2.267042578490319329e+02 2.283321071025349283e+03
5.166666666666666075e-01 1.886489066652761721e+02 2.283321071025354286e+03
5.333333333333333259e-01 1.505935554815201272e+02 2.283321071025361562e+03
5.500000000000000444e-01 1.125382042977641248e+02 2.283321071025352921e+03
5.666666666666666519e-01 7.448285311400836406e+01 2.283321071025353376e+03
5.833333333333333703e-01 3.642750193025234751e+01 1.403027437730543397e+03
5.999999999999999778e-01 2.771527185632357870e+01 4.360240257033509010e+02
6.166666666666666963e-01 2.189336774014065057e+01 3.108231907258052047e+02
6.333333333333333037e-01 1.735449883213007283e+01 2.493715812223921660e+02
6.500000000000000222e-01 1.358098169939424515e+01 2.073392427649713454e+02
6.666666666666666297e-01 1.044319073996436131e+01 1.719124716730026137e+02
6.833333333333333481e-01 7.850565976960824699e+00 1.415191532865530917e+02
6.999999999999999556e-01 5.725885630412591354e+00 1.161457879826879491e+02
7.166666666666666741e-01 3.979039710871226543e+00 9.536657462234805394e+01
7.333333333333332815e-01 2.546999809667656045e+00 7.803514421617133223e+01
7.500000000000000000e-01 1.377868236998849083e+00 6.357664826849833872e+01
7.666666666666666075e-01 4.277782007177112766e-01 5.166568196311703076e+01
7.833333333333333259e-01 -3.443211617717186201e-01 4.146413335793839394e+01
8.000000000000000444e-01 -9.543595778802351770e-01 3.212607196980091118e+01
8.166666666666666519e-01 -1.415190227431748937e+00 2.345021101700908872e+01
8.333333333333333703e-01 -1.736033278447204786e+00 1.548740958313089777e+01
8.499999999999999778e-01 -1.931437213536112196e+00 8.312745438860057234e+00
8.666666666666666963e-01 -2.013124793075873331e+00 2.103513706576931597e+00
8.833333333333333037e-01 -2.001554337088676583e+00 -2.758016432750649560e+00
9.000000000000000222e-01 -1.921190911984185012e+00 -6.145644241302861133e+00
9.166666666666666297e-01 -1.796699529045247878e+00 -8.205605680495354548e+00
9.333333333333333481e-01 -1.647670722634339890e+00 -9.178985122381304151e+00
9.499999999999999556e-01 -1.490733358299204392e+00 -9.400016385333566760e+00
9.666666666666666741e-01 -1.334336843123220984e+00 -9.249600438008799941e+00
9.833333333333332815e-01 -1.182413343698911046e+00 -8.946271235870131733e+00
1.000000000000000000e+00 -1.036127801927549941e+00 -8.507534530528483074e+00
1.016666666666666607e+00 -8.988288593479616395e-01 -7.894222702180067053e+00
1.033333333333333215e+00 -7.729870451882143723e-01 -7.022616329440536376e+00
1.050000000000000044e+00 -6.647416483666104270e-01 -5.907536086549237453e+00
1.066666666666666652e+00 -5.760691756365731164e-01 -4.783307436702198601e+00
1.083333333333333259e+00 -5.052980671432037996e-01 -3.919294313045862399e+00
1.100000000000000089e+00 -4.454260318683777031e-01 -3.293414783400933299e+00
1.116666666666666696e+00 -3.955175743631726970e-01 -2.779676077909911225e+00
1.133333333333333304e+00 -3.527701626047139993e-01 -2.423131025960514329e+00
1.149999999999999911e+00 -3.147465401644888860e-01 -2.172834664264399862e+00
1.166666666666666741e+00 -2.803423404625673410e-01 -1.880063248805744047e+00
1.183333333333333348e+00 -2.520777652042974215e-01 -1.476952709778185380e+00
1.199999999999999956e+00 -2.311105834699611616e-01 -1.039752884895147389e+00
1.216666666666666563e+00 -2.174193357077925104e-01 -6.601233228190922508e-01
1.233333333333333393e+00 -2.091064727093247533e-01 -3.843488486260937531e-01
1.250000000000000000e+00 -2.046077074202560520e-01 -2.850692349624667221e-01
1.266666666666666607e+00 -1.996041648772425292e-01 -3.599447708724931583e-01
1.283333333333333215e+00 -1.926095483911729467e-01 -5.208379857639298116e-01
1.300000000000000044e+00 -1.822428986851115373e-01 -7.235071616736269418e-01
1.316666666666666652e+00 -1.684926430020520505e-01 -8.857052735333970084e-01
1.333333333333333259e+00 -1.527193895673316371e-01 -9.646085300581858091e-01
1.350000000000000089e+00 -1.363390253334458568e-01 -9.328351288809137998e-01
1.366666666666666696e+00 -1.216248852713011780e-01 -8.498402169996438493e-01
1.383333333333333304e+00 -1.080110181001243952e-01 -7.824102436144131367e-01
1.399999999999999911e+00 -9.554454381748740677e-02 -7.823291833949709284e-01
1.416666666666666741e+00 -8.193337865362536332e-02 -8.926220219237472886e-01
1.433333333333333348e+00 -6.579047642002916474e-02 -1.061127756843800229e+00
1.449999999999999956e+00 -4.656245342549868854e-02 -1.161145317888771844e+00
1.466666666666666563e+00 -2.708563249040344192e-02 -1.103795868788627343e+00
1.483333333333333393e+00 -9.769257799211113896e-03 -8.823752273320251138e-01
1.500000000000000000e+00 2.326875087330729404e-03 -5.385321244771759108e-01
1.516666666666666607e+00 8.181813016694749335e-03 -1.773826663712604890e-01
1.533333333333333215e+00 8.239630633039412080e-03 1.117857320251974124e-02
1.550000000000000044e+00 7.809193909944091294e-03 -7.215266559217592413e-02
1.566666666666666652e+00 1.064471948611194277e-02 -3.133746178211009870e-01
1.583333333333333259e+00 1.825501450398079109e-02 -5.360612022009086930e-01
1.600000000000000089e+00 2.851342622614223138e-02 -6.474431895317754870e-01
1.616666666666666696e+00 3.983645415503997422e-02 -6.388949439243407635e-01
1.633333333333333304e+00 4.980992435695359016e-02 -5.061796918007152035e-01
1.649999999999999911e+00 5.670911054839714721e-02 -2.916877339376283684e-01
1.666666666666666741e+00 5.953284882154120244e-02 -8.724246086084887220e-02
1.683333333333333348e+00 5.961719257709210962e-02 2.008444121923157188e-02
1.699999999999999956e+00 5.886336744756681671e-02 1.682541738927782748e-02
1.716666666666666563e+00 5.905634533078284870e-02 -4.995566340715490439e-02
1.733333333333333393e+00 6.052855622780531353e-02 -8.904026233794590239e-02
1.750000000000000000e+00 6.202435407538104545e-02 -5.226782714882471925e-02
1.766666666666666607e+00 6.227081713276613750e-02 3.428269393011794397e-02
1.783333333333333215e+00 6.088159761104378065e-02 1.344659103046898230e-01
1.800000000000000044e+00 5.778862012260981007e-02 2.328161117647711831e-01
1.816666666666666652e+00 5.312106055221807455e-02 2.994346373410849971e-01
1.833333333333333259e+00 4.780746554457364350e-02 3.038448709284419791e-01
1.849999999999999867e+00 4.299289818793667478e-02 2.661698385673522127e-01
1.866666666666666696e+00 3.893513759232856974e-02 2.320836238825906839e-01
1.883333333333333304e+00 3.525677739185031911e-02 2.207805177936984220e-01
1.899999999999999911e+00 3.157578699920528947e-02 2.322495680269877627e-01
1.916666666666666741e+00 2.751512512428406013e-02 2.629621403292053405e-01
1.933333333333333348e+00 2.281038232156511192e-02 6.476284380040535638e-01
1.949999999999999956e+00 5.927510524148941681e-03 6.606883615908346608e-01
1.966666666666666563e+00 7.874369352039599281e-04 1.756922022720075749e-01
1.983333333333333393e+00 7.110378174868940985e-05 2.362310805611879741e-02
2.000000000000000000e+00 0.000000000000000000e+00 4.266226904921364971e-03
