0.000000000000000000e+00 6.246073654565626612e+02 1.257880386296737925e+03
1.666666666666666644e-02 6.036426923516170291e+02 1.257880386296737925e+03
3.333333333333333287e-02 5.826780192466713970e+02 1.257880386296737925e+03
5.000000000000000278e-02 5.617133461417257649e+02 1.257880386296737925e+03
6.666666666666666574e-02 5.407486730367801329e+02 1.257880386296737925e+03
8.333333333333332871e-02 5.197839999318345008e+02 1.257880386296737925e+03
1.000000000000000056e-01 4.988193268268888687e+02 1.257880386296739744e+03
1.166666666666666685e-01 4.778546537219431798e+02 1.257880386296737925e+03
1.333333333333333315e-01 4.568899806169976046e+02 1.257880386296737925e+03
1.499999999999999944e-01 4.359253075120519156e+02 1.257880386296737925e+03
1.666666666666666574e-01 4.149606344071063404e+02 1.257880386296737925e+03
1.833333333333333204e-01 3.939959613021606515e+02 1.257880386296739744e+03
2.000000000000000111e-01 3.730312881972150194e+02 1.257880386296737925e+03
2.166666666666666741e-01 3.520666150922693873e+02 1.257880386296737925e+03
2.333333333333333370e-01 3.311019419873237553e+02 1.257880386296737925e+03
2.500000000000000000e-01 3.101372688823781232e+02 1.257880386296737925e+03
2.666666666666666630e-01 2.891725957774324911e+02 1.257880386296737925e+03
2.833333333333333259e-01 2.682079226724868590e+02 1.257880386296737925e+03
2.999999999999999889e-01 2.472432495675412270e+02 1.257880386296737925e+03
3.166666666666666519e-01 2.262785764625955949e+02 1.257880386296737925e+03
3.333333333333333148e-01 2.053139033576499628e+02 1.257880386296737925e+03
3.499999999999999778e-01 1.843492302527043307e+02 1.257880386296737925e+03
3.666666666666666408e-01 1.633845571477586986e+02 1.257880386296737925e+03
3.833333333333333037e-01 1.424198840428130666e+02 1.257880386296739744e+03
4.000000000000000222e-01 1.214552109378673777e+02 1.257880386296739744e+03
4.166666666666666852e-01 1.004905378329217456e+02 1.257880386296737925e+03
4.333333333333333481e-01 7.952586472797611350e+01 1.257880386296738152e+03
4.500000000000000111e-01 5.856119162303047432e+01 1.257880386296738152e+03
4.666666666666666741e-01 3.759651851808484224e+01 1.257880386296737925e+03
4.833333333333333370e-01 1.663184541313921017e+01 8.239454485314274734e+02
5.000000000000000000e-01 1.013167023370392528e+01 3.124100388273757289e+02
5.166666666666666075e-01 6.218177452226685276e+00 1.997639009446371006e+02
5.333333333333333259e-01 3.472873535549354962e+00 1.448866502916905006e+02
5.500000000000000444e-01 1.388622442503669507e+00 1.098293497363946472e+02
5.666666666666666519e-01 -1.881047889971328435e-01 8.239588520585584774e+01
5.833333333333333703e-01 -1.357907064358191862e+00 5.942289626316704698e+01
5.999999999999999778e-01 -2.168867997769367673e+00 4.016909073893632609e+01
6.166666666666666963e-01 -2.696876755656069324e+00 2.482494353961786260e+01
6.333333333333333037e-01 -2.996366115756629700e+00 1.191428516854256081e+01
6.500000000000000222e-01 -3.094019594607487988e+00 4.518505155204755042e-01
6.666666666666666297e-01 -3.011427799607312217e+00 -8.337229862841063266e+00
6.833333333333333481e-01 -2.816111932512785909e+00 -1.388812712534510752e+01
6.999999999999999556e-01 -2.548490228762475329e+00 -1.667749240284426904e+01
7.166666666666666741e-01 -2.260195519084643667e+00 -1.706601893419851379e+01
7.333333333333332815e-01 -1.979622930955858173e+00 -1.539162051786381546e+01
7.500000000000000000e-01 -1.747141501822516485e+00 -1.197120745206208881e+01
7.666666666666666075e-01 -1.580582682553788532e+00 -7.817564928630527099e+00
7.833333333333333259e-01 -1.486556004201498915e+00 -4.188345774953741163e+00
8.000000000000000444e-01 -1.440971156721997160e+00 -2.305463316371514360e+00
8.166666666666666519e-01 -1.409707226989115103e+00 -1.782336369325969727e+00
8.333333333333333703e-01 -1.381559944411131502e+00 -1.151366704461989077e+00
8.499999999999999778e-01 -1.371328336840382134e+00 -5.781826537167411573e-01
8.666666666666666963e-01 -1.362287189287240130e+00 -1.349553044572988636e+00
8.833333333333333037e-01 -1.326343235354615846e+00 -3.140811134065748522e+00
9.000000000000000222e-01 -1.257593484818381846e+00 -4.499734556491836734e+00
9.166666666666666297e-01 -1.176352083471554621e+00 -5.099026453915356250e+00
9.333333333333333481e-01 -1.087625936354536638e+00 -6.050266553619220389e+00
9.499999999999999556e-01 -9.746765316842472826e-01 -7.607431911319847195e+00
9.666666666666666741e-01 -8.340448726438750571e-01 -9.159405018326090442e+00
9.833333333333332815e-01 -6.693630310733775790e-01 -1.053285649540448610e+01
1.000000000000000000e+00 -4.829496561303922020e-01 -1.132666845724728866e+01
1.016666666666666607e+00 -2.918074158318013089e-01 -1.151377688069290883e+01
1.033333333333333215e+00 -9.915709344062857700e-02 -1.149983394114154223e+01
1.050000000000000044e+00 9.152038220625008380e-02 -1.103601372461842445e+01
1.066666666666666652e+00 2.687100307133188926e-01 -9.817043962971487403e+00
1.083333333333333259e+00 4.187551809719663454e-01 -8.503047731769949991e+00
1.100000000000000089e+00 5.521449551056505367e-01 -7.591601742746899362e+00
1.116666666666666696e+00 6.718085723968629797e-01 -6.649719558686622456e+00
1.133333333333333304e+00 7.738022737285379371e-01 -5.112522654823030699e+00
1.149999999999999911e+00 8.422259942242973363e-01 -3.217601780629966157e+00
1.166666666666666741e+00 8.810556664162034757e-01 -1.248695301138244007e+00
1.183333333333333348e+00 8.838491709289054699e-01 6.569724068472948542e-01
1.199999999999999956e+00 8.591565861879603139e-01 2.292698122196159538e+00
1.216666666666666563e+00 8.074259001890334853e-01 3.458893076885096729e+00
1.233333333333333393e+00 7.438601502917904229e-01 4.237161528962358759e+00
1.250000000000000000e+00 6.661871825569548600e-01 4.676729718825169968e+00
1.266666666666666607e+00 5.879691596642847573e-01 4.441759201437800897e+00
1.283333333333333215e+00 5.181285425090281782e-01 3.609537682233435962e+00
1.300000000000000044e+00 4.676512369231702326e-01 2.976858247109246403e+00
1.316666666666666652e+00 4.188999342720532981e-01 3.052510015968221690e+00
1.333333333333333259e+00 3.659009030575628429e-01 3.698209660939772103e+00
1.350000000000000089e+00 2.956262789073942354e-01 5.016313932952911614e+00
1.366666666666666696e+00 1.986904386257991317e-01 6.789545160323270601e+00
1.383333333333333304e+00 6.930810689661856538e-02 8.303244991743683912e+00
1.399999999999999911e+00 -7.808439443232363664e-02 8.794932544875118552e+00
1.416666666666666741e+00 -2.238563112658853715e-01 7.884908451900664694e+00
1.433333333333333348e+00 -3.409146761623457755e-01 6.024632867640066891e+00
1.449999999999999956e+00 -4.246774068538876068e-01 4.314039976916992813e+00
1.466666666666666563e+00 -4.847160087262455397e-01 3.291139498859146251e+00
1.483333333333333393e+00 -5.343820568158591522e-01 2.726341045239562000e+00
1.500000000000000000e+00 -5.755940435675642730e-01 2.335302704996018441e+00
1.516666666666666607e+00 -6.122254803157264336e-01 1.984980222136534245e+00
1.533333333333333215e+00 -6.417600509721154145e-01 1.402014770126793763e+00
1.550000000000000044e+00 -6.589593059866195590e-01 5.759335007491639402e-01
1.566666666666666652e+00 -6.609578343304208792e-01 -1.711820510199335565e-01
1.583333333333333259e+00 -6.532532376192884405e-01 -6.986141856775762715e-01
1.600000000000000089e+00 -6.376706948078350035e-01 -1.061586033920250971e+00
1.616666666666666696e+00 -6.178670364886134081e-01 -1.187521020108226466e+00
1.633333333333333304e+00 -5.980866608042274546e-01 -1.079877356239300479e+00
1.649999999999999911e+00 -5.818711246139700588e-01 -1.033416044468818962e+00
1.666666666666666741e+00 -5.636394593219334892e-01 -1.233651068821766117e+00
1.683333333333333348e+00 -5.407494223199111882e-01 -1.574922656272850219e+00
1.699999999999999956e+00 -5.111420374461718152e-01 -1.905964698605397523e+00
1.716666666666666563e+00 -4.772172656997312745e-01 -2.181192684268195681e+00
1.733333333333333393e+00 -4.384356146372319629e-01 -2.258514252211956563e+00
1.750000000000000000e+00 -4.019334572926660520e-01 -2.108093922803637277e+00
1.766666666666666607e+00 -3.681658172104440574e-01 -1.908238256942205169e+00
1.783333333333333215e+00 -3.383255153945925464e-01 -1.652929141496711329e+00
1.800000000000000044e+00 -3.130681791605536834e-01 -1.389491649741172452e+00
1.816666666666666652e+00 -2.920091270698867980e-01 -1.328985399315750326e+00
1.833333333333333259e+00 -2.687686658500286763e-01 -1.471017767152323907e+00
1.849999999999999867e+00 -2.429752014981426678e-01 -1.592514313710696294e+00
1.866666666666666696e+00 -2.156848553930054702e-01 -1.637472831092353420e+00
1.883333333333333304e+00 -1.883927737950642223e-01 -1.681527783065685178e+00
1.899999999999999911e+00 -1.596339292908159624e-01 -1.684324527779269776e+00
1.916666666666666741e+00 -1.322486228690885612e-01 -1.607407713812359029e+00
1.933333333333333348e+00 -1.060536721637373309e-01 -3.268314522356588370e+00
1.949999999999999956e+00 -2.330480545720228086e-02 -3.088808038294156511e+00
1.966666666666666563e+00 -3.093404220598788053e-03 -6.903763359583541259e-01
1.983333333333333393e+00 -2.922609252571457187e-04 -9.280212661796363727e-02
2.000000000000000000e+00 0.000000000000000000e+00 -1.753565551542874204e-02
