0.000000000000000000e+00 5.555859666841492981e+02 8.193998527639018903e+02
1.666666666666666644e-02 5.419293024714175999e+02 8.193998527638984797e+02
3.333333333333333287e-02 5.282726382586860154e+02 8.193998527638984797e+02
5.000000000000000278e-02 5.146159740459543173e+02 8.193998527638984797e+02
6.666666666666666574e-02 5.009593098332227328e+02 8.193998527638984797e+02
8.333333333333332871e-02 4.873026456204910346e+02 8.193998527639001850e+02
1.000000000000000056e-01 4.736459814077593933e+02 8.193998527639001850e+02
1.166666666666666685e-01 4.599893171950276951e+02 8.193998527639001850e+02
1.333333333333333315e-01 4.463326529822960538e+02 8.193998527639001850e+02
1.499999999999999944e-01 4.326759887695643556e+02 8.193998527639001850e+02
1.666666666666666574e-01 4.190193245568327143e+02 8.193998527639001850e+02
1.833333333333333204e-01 4.053626603441010161e+02 8.193998527639018903e+02
2.000000000000000111e-01 3.917059961313693179e+02 8.193998527639001850e+02
2.166666666666666741e-01 3.780493319186376766e+02 8.193998527638984797e+02
2.333333333333333370e-01 3.643926677059060353e+02 8.193998527639001850e+02
2.500000000000000000e-01 3.507360034931743371e+02 8.193998527639001850e+02
2.666666666666666630e-01 3.370793392804426958e+02 8.193998527639001850e+02
2.833333333333333259e-01 3.234226750677109976e+02 8.193998527639001850e+02
2.999999999999999889e-01 3.097660108549793563e+02 8.193998527639001850e+02
3.166666666666666519e-01 2.961093466422476581e+02 8.193998527639001850e+02
3.333333333333333148e-01 2.824526824295160168e+02 8.193998527639001850e+02
3.499999999999999778e-01 2.687960182167843186e+02 8.193998527639001850e+02
3.666666666666666408e-01 2.551393540040526773e+02 8.193998527638993892e+02
3.833333333333333037e-01 2.414826897913210075e+02 8.193998527639010945e+02
4.000000000000000222e-01 2.278260255785893094e+02 8.193998527639010945e+02
4.166666666666666852e-01 2.141693613658576396e+02 8.193998527639001850e+02
4.333333333333333481e-01 2.005126971531259699e+02 8.193998527639001850e+02
4.500000000000000111e-01 1.868560329403943001e+02 8.193998527639001850e+02
4.666666666666666741e-01 1.731993687276626304e+02 8.193998527639001850e+02
4.833333333333333370e-01 1.595427045149309606e+02 8.193998527639001850e+02
5.000000000000000000e-01 1.458860403021992909e+02 8.193998527638984797e+02
5.166666666666666075e-01 1.322293760894676780e+02 8.193998527639001850e+02
5.333333333333333259e-01 1.185727118767359514e+02 8.193998527639027998e+02
5.500000000000000444e-01 1.049160476640042532e+02 8.193998527639001850e+02
5.666666666666666519e-01 9.125938345127261186e+01 8.193998527639001850e+02
5.833333333333333703e-01 7.760271923854091369e+01 8.193998527638997302e+02
5.999999999999999778e-01 6.394605502580928658e+01 8.193998527639001850e+02
6.166666666666666963e-01 5.028939081307757419e+01 8.193998527638999576e+02
6.333333333333333037e-01 3.663272660034595418e+01 8.193998527638999576e+02
6.500000000000000222e-01 2.297606238761424180e+01 6.088402693311159055e+02
6.666666666666666297e-01 1.633805095597542589e+01 3.388441828232446369e+02
6.833333333333333481e-01 1.168125629350608818e+01 2.494874710827771480e+02
6.999999999999999556e-01 8.021801919882854293e+00 1.992251544613976648e+02
7.166666666666666741e-01 5.040417811459499298e+00 1.626107844370687019e+02
7.333333333333332815e-01 2.601442438647230571e+00 1.323964217438472986e+02
7.500000000000000000e-01 6.272037533312557755e-01 1.064616670472592688e+02
7.666666666666666075e-01 -9.472797962614120104e-01 8.428726474554424897e+01
7.833333333333333259e-01 -2.182371738186885679e+00 6.549509413421665727e+01
8.000000000000000444e-01 -3.130449600735300653e+00 4.955758977396150300e+01
8.166666666666666519e-01 -3.834291397318935868e+00 3.603989877420562493e+01
8.333333333333333703e-01 -4.331779559875488239e+00 2.468731392924993528e+01
8.499999999999999778e-01 -4.657201861627267014e+00 1.529598119165950898e+01
8.666666666666666963e-01 -4.841645599597471872e+00 7.627968981688946215e+00
8.833333333333333037e-01 -4.911467494350231888e+00 1.376882165312487416e+00
9.000000000000000222e-01 -4.887541671774554786e+00 -3.788927032919424676e+00
9.166666666666666297e-01 -4.785169926586251066e+00 -8.143320692761122359e+00
9.333333333333333481e-01 -4.616097648682517374e+00 -1.186577555603438583e+01
9.499999999999999556e-01 -4.389644074718438205e+00 -1.502549232551590563e+01
9.666666666666666741e-01 -4.115247904498653853e+00 -1.758764336234060366e+01
9.833333333333332815e-01 -3.803389295973751416e+00 -1.944976994743763044e+01
1.000000000000000000e+00 -3.466922239584066201e+00 -2.050129964597054411e+01
1.016666666666666607e+00 -3.120012641108066642e+00 -2.067508547718934864e+01
1.033333333333333215e+00 -2.777752723677754609e+00 -2.000101567917133849e+01
1.050000000000000044e+00 -2.453312118469022085e+00 -1.862609808377935394e+01
1.066666666666666652e+00 -2.156882787551776204e+00 -1.678203533961280769e+01
1.083333333333333259e+00 -1.893910940481928540e+00 -1.471918223274062854e+01
1.100000000000000089e+00 -1.666243379793755253e+00 -1.262063298055155691e+01
1.116666666666666696e+00 -1.473223174463543339e+00 -1.057685309210379998e+01
1.133333333333333304e+00 -1.313681610056961935e+00 -8.612101780780161420e+00
1.149999999999999911e+00 -1.186153115104204625e+00 -6.737672065955451650e+00
1.166666666666666741e+00 -1.089092541191780228e+00 -5.009714534040663914e+00
1.183333333333333348e+00 -1.019162630636182509e+00 -3.522924934821025644e+00
1.199999999999999956e+00 -9.716617100310793731e-01 -2.354660857596257095e+00
1.216666666666666563e+00 -9.406739353829739470e-01 -1.544469572881085329e+00
1.233333333333333393e+00 -9.201793909350431955e-01 -1.085547317340932461e+00
1.250000000000000000e+00 -9.044890248049428649e-01 -9.213370763798400809e-01
1.266666666666666607e+00 -8.894681550557151928e-01 -9.652133280037489271e-01
1.283333333333333215e+00 -8.723152472048179007e-01 -1.130838007824142011e+00
1.300000000000000044e+00 -8.517735547949104591e-01 -1.339774328862611830e+00
1.316666666666666652e+00 -8.276561029093975064e-01 -1.520715879129574954e+00
1.333333333333333259e+00 -8.010830254905912939e-01 -1.616462261502528142e+00
1.350000000000000089e+00 -7.737740275259799017e-01 -1.584336783801508775e+00
1.366666666666666696e+00 -7.482717993638743348e-01 -1.401270332741757496e+00
1.383333333333333304e+00 -7.270650164345879851e-01 -1.089018485932957692e+00
1.399999999999999911e+00 -7.119711831661090784e-01 -7.202680073325540278e-01
1.416666666666666741e+00 -7.030560828568361842e-01 -3.975272249767125565e-01
1.433333333333333348e+00 -6.987202756668853265e-01 -2.122413188602745304e-01
1.449999999999999956e+00 -6.959813722281603665e-01 -2.300059560638967326e-01
1.466666666666666563e+00 -6.910534104647554354e-01 -4.688214931079637271e-01
1.483333333333333393e+00 -6.803539891245615756e-01 -8.799251436382238278e-01
1.500000000000000000e+00 -6.617225723434813078e-01 -1.376540695009660364e+00
1.516666666666666607e+00 -6.344692992909062301e-01 -1.886042606444034986e+00
1.533333333333333215e+00 -5.988544854620134750e-01 -2.358379982174142686e+00
1.550000000000000044e+00 -5.558566332184348147e-01 -2.759258598337516410e+00
1.566666666666666652e+00 -5.068791988507629354e-01 -3.068689175053740392e+00
1.583333333333333259e+00 -4.535669940499768016e-01 -3.277123338153840493e+00
1.600000000000000089e+00 -3.976417542456349152e-01 -3.383171408104543865e+00
1.616666666666666696e+00 -3.407946137798253394e-01 -3.393527193403862885e+00
1.633333333333333304e+00 -2.845241811321728154e-01 -3.315297606155880317e+00
1.649999999999999911e+00 -2.302846935746293289e-01 -3.150051381090493319e+00
1.666666666666666741e+00 -1.795224684291563677e-01 -2.905313393142996414e+00
1.683333333333333348e+00 -1.334409138031961151e-01 -2.601402040603002952e+00
1.699999999999999956e+00 -9.280906707572293690e-02 -2.266008744773446715e+00
1.716666666666666563e+00 -5.790728897741455328e-02 -1.927598316470499951e+00
1.733333333333333393e+00 -2.855578986003960706e-02 -1.612364326343277643e+00
1.750000000000000000e+00 -4.161811432638634622e-03 -1.337933098379248786e+00
1.766666666666666607e+00 1.604198008593535688e-02 -1.106423542772888569e+00
1.783333333333333215e+00 3.271897332645765100e-02 -9.070550928239220490e-01
1.800000000000000044e+00 4.627714984673275689e-02 -7.243083710873167158e-01
1.816666666666666652e+00 5.686258569603487578e-02 -5.445300007974871459e-01
1.833333333333333259e+00 6.442814987331565990e-02 -3.633001072264426257e-01
1.849999999999999867e+00 6.897258927024962905e-02 -1.872033794457976519e-01
1.866666666666666696e+00 7.066826252150891496e-02 -2.449853232146609328e-02
1.883333333333333304e+00 6.978920701429849882e-02 1.223787809615378697e-01
1.899999999999999911e+00 6.658896982279098598e-02 2.581600584239292506e-01
1.916666666666666741e+00 6.118387173350085806e-02 3.918683769922458593e-01
1.933333333333333348e+00 5.352669058971612492e-02 1.453820538803269891e+00
1.949999999999999956e+00 1.272318710672519851e-02 1.556240700350016937e+00
1.966666666666666563e+00 1.652000578048894814e-03 3.767602877918151960e-01
1.983333333333333393e+00 1.645108469980245962e-04 4.956001734146684573e-02
2.000000000000000000e+00 0.000000000000000000e+00 9.870650819881475121e-03
