0.000000000000000000e+00 3.226562554939245615e+02 5.152929856328830738e+02
1.666666666666666644e-02 3.140680390667098436e+02 5.152929856328796632e+02
3.333333333333333287e-02 3.054798226394952394e+02 5.152929856328796632e+02
5.000000000000000278e-02 2.968916062122805215e+02 5.152929856328796632e+02
6.666666666666666574e-02 2.883033897850659173e+02 5.152929856328779579e+02
8.333333333333332871e-02 2.797151733578512562e+02 5.152929856328796632e+02
1.000000000000000056e-01 2.711269569306365952e+02 5.152929856328796632e+02
1.166666666666666685e-01 2.625387405034219341e+02 5.152929856328779579e+02
1.333333333333333315e-01 2.539505240762073299e+02 5.152929856328796632e+02
1.499999999999999944e-01 2.453623076489926120e+02 5.152929856328796632e+02
1.666666666666666574e-01 2.367740912217780078e+02 5.152929856328796632e+02
1.833333333333333204e-01 2.281858747945632899e+02 5.152929856328813685e+02
2.000000000000000111e-01 2.195976583673486289e+02 5.152929856328796632e+02
2.166666666666666741e-01 2.110094419401339678e+02 5.152929856328796632e+02
2.333333333333333370e-01 2.024212255129193068e+02 5.152929856328796632e+02
2.500000000000000000e-01 1.938330090857046457e+02 5.152929856328779579e+02
2.666666666666666630e-01 1.852447926584900415e+02 5.152929856328779579e+02
2.833333333333333259e-01 1.766565762312753805e+02 5.152929856328796632e+02
2.999999999999999889e-01 1.680683598040607194e+02 5.152929856328796632e+02
3.166666666666666519e-01 1.594801433768460583e+02 5.152929856328796632e+02
3.333333333333333148e-01 1.508919269496313973e+02 5.152929856328796632e+02
3.499999999999999778e-01 1.423037105224167362e+02 5.152929856328796632e+02
3.666666666666666408e-01 1.337154940952020752e+02 5.152929856328796632e+02
3.833333333333333037e-01 1.251272776679874141e+02 5.152929856328805727e+02
4.000000000000000222e-01 1.165390612407727247e+02 5.152929856328801179e+02
4.166666666666666852e-01 1.079508448135580778e+02 5.152929856328792084e+02
4.333333333333333481e-01 9.936262838634341676e+01 5.152929856328796632e+02
4.500000000000000111e-01 9.077441195912875571e+01 5.152929856328792084e+02
4.666666666666666741e-01 8.218619553191410887e+01 5.152929856328792084e+02
4.833333333333333370e-01 7.359797910469944782e+01 5.152929856328796632e+02
5.000000000000000000e-01 6.500976267748478676e+01 5.152929856328788674e+02
5.166666666666666075e-01 5.642154625027015413e+01 5.152929856328794358e+02
5.333333333333333259e-01 4.783332982305547176e+01 5.152929856328809137e+02
5.500000000000000444e-01 3.924511339584078939e+01 5.152929856328794358e+02
5.666666666666666519e-01 3.065689696862615676e+01 5.152929856328795495e+02
5.833333333333333703e-01 2.206868054141147084e+01 4.198975506330014582e+02
5.999999999999999778e-01 1.666031194752610745e+01 2.844611364549674022e+02
6.166666666666666963e-01 1.258664265957922446e+01 2.202854321938589237e+02
6.333333333333333037e-01 9.317464207730809633e+00 1.789607968603319250e+02
6.500000000000000222e-01 6.621282764234827312e+00 1.485131418558715950e+02
6.666666666666666297e-01 4.367026145868423193e+00 1.245154847372838418e+02
6.833333333333333481e-01 2.470766606325366155e+00 1.047324702077126091e+02
6.999999999999999556e-01 8.759438056113364457e-01 8.776255655551042878e+01
7.166666666666666741e-01 -4.546519455249814490e-01 7.267869748220751092e+01
7.333333333333332815e-01 -1.546679443795580644e+00 5.896125665805900695e+01
7.500000000000000000e-01 -2.420027167460281792e+00 4.639163657593228152e+01
7.666666666666666075e-01 -3.093067329659989984e+00 3.498247273542897062e+01
7.833333333333333259e-01 -3.586109591974580901e+00 2.489747059996364698e+01
8.000000000000000444e-01 -3.922983016325444883e+00 1.627856886539242609e+01
8.166666666666666519e-01 -4.128728554154328378e+00 9.207988358367954262e+00
8.333333333333333703e-01 -4.229915961604376662e+00 3.688914081223853003e+00
8.499999999999999778e-01 -4.251692356861790145e+00 -4.898729372989318875e-01
8.666666666666666963e-01 -4.213586863694412266e+00 -3.640394805644495690e+00
8.833333333333333037e-01 -4.130345863340306956e+00 -5.941431853204175439e+00
9.000000000000000222e-01 -4.015539135254273084e+00 -7.484782422376849986e+00
9.166666666666666297e-01 -3.880853115927745289e+00 -8.428384166629193430e+00
9.333333333333333481e-01 -3.734592996366633333e+00 -8.985530781293414648e+00
9.499999999999999556e-01 -3.581335423217964831e+00 -9.394135200885372683e+00
9.666666666666666741e-01 -3.421455156337120940e+00 -9.914979157538343912e+00
9.833333333333332815e-01 -3.250836117966686700e+00 -1.076142335553852725e+01
1.000000000000000000e+00 -3.062741044485836728e+00 -1.187906597620691507e+01
1.016666666666666607e+00 -2.854867252093122865e+00 -1.292166260075380713e+01
1.033333333333333215e+00 -2.632018957794043157e+00 -1.351349283571511606e+01
1.050000000000000044e+00 -2.404417490902619026e+00 -1.344538332203462616e+01
1.066666666666666652e+00 -2.183839513726222314e+00 -1.269131722025918840e+01
1.083333333333333259e+00 -1.981373583560646079e+00 -1.146531560946065653e+01
1.100000000000000089e+00 -1.801662326744200460e+00 -1.014733513466631365e+01
1.116666666666666696e+00 -1.643129079071768972e+00 -9.025099089406324993e+00
1.133333333333333304e+00 -1.500825690430656278e+00 -8.236474709738271116e+00
1.149999999999999911e+00 -1.368579922080493283e+00 -7.743548670685658664e+00
1.166666666666666741e+00 -1.242707401407801004e+00 -7.305608883500121387e+00
1.183333333333333348e+00 -1.125059625963822585e+00 -6.704705869170228816e+00
1.199999999999999956e+00 -1.019217205768793377e+00 -5.921244088511366854e+00
1.216666666666666563e+00 -9.276848230134436823e-01 -5.002686364587304091e+00
1.233333333333333393e+00 -8.524609936158832335e-01 -3.993600359951992029e+00
1.250000000000000000e+00 -7.945648110150439480e-01 -3.001777425331679794e+00
1.266666666666666607e+00 -7.524017461048272404e-01 -2.200544952244391173e+00
1.283333333333333215e+00 -7.212133126068975830e-01 -1.735643017314449921e+00
1.300000000000000044e+00 -6.945469788610122430e-01 -1.620392766692211328e+00
1.316666666666666652e+00 -6.672002203838238721e-01 -1.732371176293413528e+00
1.333333333333333259e+00 -6.368012729845651254e-01 -1.905893823787301322e+00
1.350000000000000089e+00 -6.036704262575804947e-01 -2.013537328999110088e+00
1.366666666666666696e+00 -5.696833620179281299e-01 -2.004003132648706220e+00
1.383333333333333304e+00 -5.368703218359569540e-01 -1.893103688594758305e+00
1.399999999999999911e+00 -5.065799057314361864e-01 -1.702804056615424555e+00
1.416666666666666741e+00 -4.801101866154428022e-01 -1.464546407882747037e+00
1.433333333333333348e+00 -4.577616921353446222e-01 -1.252984619944957467e+00
1.449999999999999956e+00 -4.383440326172775570e-01 -1.141843754612589246e+00
1.466666666666666563e+00 -4.197002336482583140e-01 -1.147108679270141929e+00
1.483333333333333393e+00 -4.001070766416061630e-01 -1.215120473456158923e+00
1.500000000000000000e+00 -3.791962178663863536e-01 -1.265887922028338775e+00
1.516666666666666607e+00 -3.579108125739948743e-01 -1.248524140510304914e+00
1.533333333333333215e+00 -3.375787465160428602e-01 -1.173837896081209031e+00
1.550000000000000044e+00 -3.187828827046212399e-01 -1.078314408973585881e+00
1.566666666666666652e+00 -3.016349328835900012e-01 -9.933407820720835391e-01
1.583333333333333259e+00 -2.856715233022184552e-01 -9.640704483553430570e-01
1.600000000000000089e+00 -2.694992512717452326e-01 -1.033817593040972094e+00
1.616666666666666696e+00 -2.512109368675193855e-01 -1.178212024647209422e+00
1.633333333333333304e+00 -2.302255171168382519e-01 -1.310828598861463190e+00
1.649999999999999911e+00 -2.075166502388039458e-01 -1.342948726454191277e+00
1.666666666666666741e+00 -1.854605595683652131e-01 -1.243926404605338654e+00
1.683333333333333348e+00 -1.660524367519593258e-01 -1.050447313152689244e+00
1.699999999999999956e+00 -1.504456491299422383e-01 -8.228892245112190418e-01
1.716666666666666563e+00 -1.386227959349186911e-01 -6.122196748855804893e-01
1.733333333333333393e+00 -1.300383266337562238e-01 -4.676292520295057265e-01
1.750000000000000000e+00 -1.230351542006018345e-01 -4.174823719756895479e-01
1.766666666666666607e+00 -1.161222475678999055e-01 -4.414227376279220016e-01
1.783333333333333215e+00 -1.083210629463377678e-01 -4.888764346736531041e-01
1.800000000000000044e+00 -9.982636641211146966e-02 -5.257700211916016553e-01
1.816666666666666652e+00 -9.079539557328437926e-02 -5.520768993713157657e-01
1.833333333333333259e+00 -8.142380309973427932e-02 -5.784544280464092303e-01
1.849999999999999867e+00 -7.151358130507073918e-02 -6.015036240200820616e-01
1.866666666666666696e+00 -6.137368229906487588e-02 -6.043519338918050821e-01
1.883333333333333304e+00 -5.136851684201056839e-02 -5.846816340653425703e-01
1.899999999999999911e+00 -4.188429449688679113e-02 -5.520786510644712930e-01
1.916666666666666741e+00 -3.296589513986152714e-02 -5.154157495601278116e-01
1.933333333333333348e+00 -2.470376951154919926e-02 -8.980874238436225010e-01
1.949999999999999956e+00 -3.029647678407444266e-03 -7.309611762186978279e-01
1.966666666666666563e+00 -3.383969709259369569e-04 -9.003397615526019526e-02
1.983333333333333393e+00 -2.851513989877106896e-05 -1.015190912777810817e-02
2.000000000000000000e+00 0.000000000000000000e+00 -1.710908393926264138e-03
