0.000000 188466300.000000 172578600.000000
0.016667 185589900.000000 319138200.000000
0.033333 177828300.000000 553675500.000000
0.050000 167134500.000000 676302300.000000
0.066667 155285100.000000 717891300.000000
0.083333 143204400.000000 724831200.000000
0.100000 131123700.000000 724831200.000000
0.116667 119043000.000000 724831200.000000
0.133333 106963200.000000 724831200.000000
0.150000 94882500.000000 724831200.000000
0.166667 82801890.000000 724831200.000000
0.183333 70721370.000000 724831200.000000
0.200000 58640850.000000 722894400.000000
0.216667 46624950.000000 710465400.000000
0.233333 34958700.000000 670949100.000000
0.250000 24259950.000000 588596400.000000
0.266667 15338790.000000 464155200.000000
0.283333 8788113.000000 321321600.000000
0.300000 4628088.000000 193667400.000000
0.316667 2332521.000000 103239000.000000
0.333333 1186803.000000 51154650.000000
0.350000 627366.600000 25314210.000000
0.366667 342994.500000 13024890.000000
0.383333 193204.800000 6936876.000000
0.400000 111764.700000 3809844.000000
0.416667 66210.300000 2150892.000000
0.433333 40068.720000 1244808.000000
0.450000 24716.610000 736760.700000
0.466667 15509.970000 445024.800000
0.483333 9882.450000 273998.700000
0.500000 6376.734000 172835.100000
0.516667 4121.289000 113317.200000
0.533333 2599.506000 84001.050000
0.550000 1321.254000 59344.830000
0.566667 621.347400 30467.340000
0.583333 305.677800 14639.310000
0.600000 133.371000 8094.150000
0.616667 35.873100 3490.236000
0.633333 17.030070 859.123800
0.650000 7.235631 301.096800
0.666667 6.993468 57.499200
0.683333 5.318991 123.601500
0.700000 2.873403 141.972300
0.716667 0.586589 115.606800
0.733333 -0.980136 72.032040
0.750000 -1.814481 37.961460
0.766667 -2.245518 24.457230
0.783333 -2.629719 24.890400
0.800000 -3.075201 24.071940
0.816667 -3.432114 14.683770
0.833333 -3.564657 2.620413
0.850000 -3.519468 -4.541913
0.866667 -3.413259 -7.366374
0.883333 -3.273921 -9.896220
0.900000 -3.083391 -12.182130
0.916667 -2.867850 -11.945790
0.933333 -2.685195 -9.837540
0.950000 -2.539935 -8.612559
0.966667 -2.398113 -8.814348
0.983333 -2.246121 -8.639820
1.000000 -2.110113 -6.732936
1.016670 -2.021688 -3.927861
1.033330 -1.979190 -1.777509
1.050000 -1.962441 -0.767231
1.066670 -1.953612 -0.326259
1.083330 -1.951560 -0.177309
1.100000 -1.947699 -1.296369
1.116670 -1.908351 -4.553001
1.133330 -1.795932 -7.944021
1.150000 -1.643553 -7.758099
1.166670 -1.537335 -3.266721
1.183330 -1.534662 2.229291
1.200000 -1.611639 4.589964
1.216670 -1.687653 2.777733
1.233330 -1.704231 -0.393094
1.250000 -1.674558 -1.247292
1.266670 -1.662660 1.202634
1.283330 -1.714644 4.264416
1.300000 -1.804806 4.308723
1.316670 -1.858266 1.306440
1.333330 -1.848348 -1.034721
1.350000 -1.823778 -0.370594
1.366670 -1.836000 1.853424
1.383330 -1.885554 3.210732
1.400000 -1.943019 2.759454
1.416670 -1.977534 0.335220
1.433330 -1.954197 -3.949587
1.450000 -1.845882 -8.168553
1.466670 -1.681911 -8.948475
1.483330 -1.547604 -5.607675
1.500000 -1.494990 -2.150784
1.516670 -1.475910 -2.641905
1.533330 -1.406925 -5.880195
1.550000 -1.279899 -7.502976
1.566670 -1.156824 -6.268383
1.583330 -1.070955 -4.803786
1.600000 -0.996696 -4.743603
1.616670 -0.912834 -4.539294
1.633330 -0.845391 -2.780865
1.650000 -0.820142 -1.013616
1.666670 -0.811603 -1.337724
1.683330 -0.775552 -3.347361
1.700000 -0.700024 -4.943394
1.716670 -0.610772 -4.896180
1.733330 -0.536819 -3.701646
1.750000 -0.487383 -2.386089
1.766670 -0.457282 -1.192527
1.783330 -0.447632 0.270487
1.800000 -0.466298 1.671534
1.816670 -0.503350 1.718136
1.833330 -0.523570 -0.255244
1.850000 -0.494843 -2.912139
1.866670 -0.426498 -4.056795
1.883330 -0.359616 -3.116988
1.900000 -0.322599 -1.520937
1.916670 -0.308918 -0.823967
1.933330 -0.295133 -1.352763
1.950000 -0.263826 -2.647647
1.966670 -0.206879 -4.295556
1.983330 -0.120640 -6.206355
2.000000 0.000000 -7.238430
