0.000000 50712860.000000 46441010.000000
0.016667 49938790.000000 85880080.000000
0.033333 47850110.000000 148993900.000000
0.050000 44972290.000000 181992800.000000
0.066667 41783720.000000 193184200.000000
0.083333 38532890.000000 195052000.000000
0.100000 35281950.000000 195052000.000000
0.116667 32031120.000000 195052000.000000
0.133333 28780290.000000 195052000.000000
0.150000 25529350.000000 195052000.000000
0.166667 22278520.000000 195052000.000000
0.183333 19027690.000000 195052000.000000
0.200000 15776750.000000 194530600.000000
0.216667 12543300.000000 191185500.000000
0.233333 9403922.000000 180548500.000000
0.250000 6525002.000000 158382400.000000
0.266667 4124527.000000 124887400.000000
0.283333 2362085.000000 86444160.000000
0.300000 1243055.000000 52089290.000000
0.316667 625775.700000 27755530.000000
0.333333 317873.600000 13743290.000000
0.350000 167667.500000 6794029.000000
0.366667 91406.260000 3482215.000000
0.383333 51593.960000 1849430.000000
0.400000 29758.740000 1020763.700000
0.416667 17568.540000 575128.400000
0.433333 10587.753000 332114.200000
0.450000 6498.008000 196100.300000
0.466667 4051.058000 120557.800000
0.483333 2479.422000 81387.790000
0.500000 1338.128000 54430.530000
0.516667 665.067700 31349.890000
0.533333 293.133500 17288.370000
0.550000 88.789250 7389.811000
0.566667 46.806870 1632.004000
0.583333 34.389080 507.086800
0.600000 29.904050 191.933500
0.616667 27.991370 116.993800
0.633333 26.004220 135.268100
0.650000 23.482360 154.367400
0.666667 20.858640 150.284200
0.683333 18.472960 135.498000
0.700000 16.342040 122.190200
0.716667 14.399880 111.874400
0.733333 12.612820 104.280440
0.750000 10.923891 100.240470
0.766667 9.271526 98.184130
0.783333 7.651083 94.116660
0.800000 6.134304 86.434480
0.816667 4.769941 78.576410
0.833333 3.515083 73.820670
0.850000 2.309252 70.214870
0.866667 1.174591 63.989420
0.883333 0.176266 56.188440
0.900000 -0.698356 51.200710
0.916667 -1.530419 49.746400
0.933333 -2.356574 46.962520
0.950000 -3.095840 38.950450
0.966667 -3.654915 28.610890
0.983333 -4.049540 21.655480
1.000000 -4.376768 19.968960
1.016670 -4.715172 20.702000
1.033330 -5.066831 20.099970
1.050000 -5.385171 16.534870
1.066670 -5.617997 11.093720
1.083330 -5.754958 6.969523
1.100000 -5.850317 6.825797
1.116670 -5.982482 9.007207
1.133330 -6.150551 8.645461
1.150000 -6.270671 4.433319
1.166670 -6.298336 0.497297
1.183330 -6.287248 0.753612
1.200000 -6.323449 3.458015
1.216670 -6.402506 3.879150
1.233330 -6.452754 0.890252
1.250000 -6.432184 -3.221053
1.266670 -6.345383 -6.622418
1.283330 -6.211436 -8.821252
1.300000 -6.051342 -9.351089
1.316670 -5.899740 -8.139472
1.333330 -5.780027 -6.810815
1.350000 -5.672711 -7.584544
1.366670 -5.527214 -10.349361
1.383330 -5.327729 -12.444740
1.400000 -5.112382 -12.075030
1.416670 -4.925228 -10.415009
1.433330 -4.765222 -9.989925
1.450000 -4.592236 -11.453420
1.466670 -4.383434 -13.153250
1.483330 -4.153787 -13.581150
1.500000 -3.930729 -12.874400
1.516670 -3.724644 -12.104730
1.533330 -3.527238 -11.701470
1.550000 -3.334595 -11.292050
1.566670 -3.150840 -10.734944
1.583330 -2.976765 -10.305845
1.600000 -2.807310 -10.235885
1.616670 -2.635567 -10.738266
1.633330 -2.449370 -11.905410
1.650000 -2.238720 -12.902890
1.666670 -2.019270 -12.189100
1.683330 -1.832413 -9.330585
1.700000 -1.708256 -6.079755
1.716670 -1.629760 -4.743904
1.733330 -1.550120 -5.682600
1.750000 -1.440340 -7.263212
1.766670 -1.308010 -7.870885
1.783330 -1.177979 -7.189336
1.800000 -1.068371 -5.889796
1.816670 -0.981649 -4.778444
1.833330 -0.909090 -4.179879
1.850000 -0.842320 -3.868040
1.866670 -0.780154 -3.501223
1.883330 -0.725612 -3.102440
1.900000 -0.676740 -3.088151
1.916670 -0.622674 -3.792426
1.933330 -0.550326 -5.109643
1.950000 -0.452352 -6.697339
1.966670 -0.327082 -8.298796
1.983330 -0.175726 -9.812440
2.000000 0.000000 -10.543533
