0	9.26954e+06	1809.07
0.0166667	9.26951e+06	5591.26
0.0333333	9.26935e+06	21687.8
0.05	9.26878e+06	70667.4
0.0666667	9.267e+06	203798
0.0833333	9.26199e+06	526006
0.1	9.24946e+06	1.22495e+06
0.116667	9.22116e+06	2.59137e+06
0.133333	9.16308e+06	5.00819e+06
0.15	9.05422e+06	8.88393e+06
0.166667	8.86695e+06	1.45207e+07
0.183333	8.5702e+06	2.19397e+07
0.2	8.13563e+06	3.0725e+07
0.216667	7.54603e+06	3.99699e+07
0.233333	6.8033e+06	4.83897e+07
0.25	5.93304e+06	5.46029e+07
0.266667	4.9832e+06	5.75016e+07
0.283333	4.01632e+06	5.65751e+07
0.3	3.09737e+06	5.20585e+07
0.316667	2.28104e+06	4.48452e+07
0.333333	1.60252e+06	3.62066e+07
0.35	1.07415e+06	2.74362e+07
0.366667	687986	1.95511e+07
0.383333	422448	1.31386e+07
0.4	250032	8.3605e+06
0.416667	143764	5.06721e+06
0.433333	81125.2	2.94925e+06
0.45	45456	1.66626e+06
0.466667	25583.2	925908
0.483333	14592.4	513401
0.5	8469.88	288025
0.516667	4991.58	165265
0.533333	2961.04	97954
0.55	1726.45	61435.2
0.566667	913.204	36726.3
0.583333	502.238	19293.6
0.6	270.082	10743.1
0.616667	144.134	5735.98
0.633333	78.8831	2941.55
0.65	46.0825	1470.04
0.666667	29.8819	729.415
0.683333	21.7687	377.646
0.7	17.2936	221.639
0.716667	14.3807	153.206
0.733333	12.1868	119.609
0.75	10.3937	99.6377
0.766667	8.86553	85.7157
0.783333	7.53655	74.4848
0.8	6.38271	64.1701
0.816667	5.39755	54.2943
0.833333	4.5729	45.0659
0.85	3.89535	36.8416
0.866667	3.34484	30.1243
0.883333	2.89121	25.3469
0.9	2.49995	22.2768
0.916667	2.14865	19.9114
0.933333	1.83624	17.2567
0.95	1.57343	14.055
0.966667	1.36774	10.6477
0.983333	1.2185	7.53769
1	1.11648	5.2874
1.01667	1.04225	4.43466
1.03333	0.968658	4.95692
1.05	0.877023	5.79579
1.06667	0.775465	5.63662
1.08333	0.689136	4.46148
1.1	0.626749	3.66251
1.11667	0.567052	4.20803
1.13333	0.486481	5.32569
1.15	0.389529	5.61835
1.16667	0.299203	4.88872
1.18333	0.226572	4.07161
1.2	0.163482	3.83516
1.21667	0.0987333	4.04767
1.23333	0.0285599	4.46551
1.25	-0.0501172	5.16193
1.26667	-0.143505	6.05162
1.28333	-0.251838	6.63075
1.3	-0.364529	6.5562
1.31667	-0.470378	6.10928
1.33333	-0.568172	5.76184
1.35	-0.662439	5.54979
1.36667	-0.753165	5.1293
1.38333	-0.833416	4.3355
1.4	-0.897682	3.42753
1.41667	-0.947667	2.74339
1.43333	-0.989128	2.38126
1.45	-1.02704	2.22779
1.46667	-1.06339	2.10304
1.48333	-1.09714	1.8512
1.5	-1.12509	1.38435
1.51667	-1.14329	0.691537
1.53333	-1.14815	-0.215024
1.55	-1.13612	-1.33265
1.56667	-1.10372	-2.61929
1.58333	-1.04881	-3.90747
1.6	-0.973475	-4.9013
1.61667	-0.885434	-5.35933
1.63333	-0.794831	-5.31715
1.65	-0.708196	-5.08745
1.66667	-0.625249	-4.96571
1.68333	-0.542672	-4.95099
1.7	-0.460216	-4.81767
1.71667	-0.382083	-4.40568
1.73333	-0.31336	-3.75016
1.75	-0.257078	-2.98355
1.76667	-0.213908	-2.24102
1.78333	-0.182377	-1.64789
1.8	-0.158979	-1.27267
1.81667	-0.139955	-1.05448
1.83333	-0.123829	-0.866753
1.85	-0.111063	-0.677428
1.86667	-0.101248	-0.567665
1.88333	-0.0921412	-0.585495
1.9	-0.081732	-0.661889
1.91667	-0.0700782	-0.704995
1.93333	-0.0582321	-0.711888
1.95	-0.0463486	-0.722681
1.96667	-0.0341427	-0.712767
1.98333	-0.0225897	-1.02428
2	0	-1.35538
