0.000000000000000000e+00 nan nan
1.666666666666666644e-02 1.322391183439845156e+14 nan
3.333333333333333287e-02 5.165571502357723389e+11 3.966568902325485500e+15
5.000000000000000278e-02 2.015493313500602341e+10 1.543618403939201562e+13
6.666666666666666574e-02 2.017682256038516760e+09 5.944935884865161133e+11
8.333333333333332871e-02 3.384801854554843903e+08 5.816926730001284790e+10
1.000000000000000056e-01 7.870667937142170966e+07 9.466639978119079590e+09
1.166666666666666685e-01 2.292551951818174496e+07 2.124976572586157560e+09
1.333333333333333315e-01 7.874126951883116737e+06 5.957545653515256643e+08
1.499999999999999944e-01 3.067034006464225240e+06 1.966496354154237807e+08
1.666666666666666574e-01 1.319139104702324839e+06 7.357049985223507881e+07
1.833333333333333204e-01 6.146840113897224655e+05 3.039484519505122304e+07
2.000000000000000111e-01 3.059775982006173581e+05 1.361134167132958211e+07
2.166666666666666741e-01 1.609726223454030696e+05 6.516551554843643680e+06
2.333333333333333370e-01 8.875921303916258330e+04 3.300518769570067991e+06
2.500000000000000000e-01 5.095533002640079940e+04 1.753981007268117741e+06
2.666666666666666630e-01 3.029317946355865570e+04 9.716294022974565160e+05
2.833333333333333259e-01 1.856768328315224790e+04 5.580869410299577285e+05
2.999999999999999889e-01 1.169028142922673214e+04 3.309242394969058805e+05
3.166666666666666519e-01 7.536875299922051454e+03 2.018346203724588559e+05
3.333333333333333148e-01 4.962460750144769918e+03 1.262306579577739612e+05
3.499999999999999778e-01 3.329186701329585958e+03 8.074099658966940478e+04
3.666666666666666408e-01 2.271094197155789971e+03 5.269861703054036479e+04
3.833333333333333037e-01 1.572566133644907040e+03 3.502870813006973913e+04
4.000000000000000222e-01 1.103470592820131969e+03 2.367106000091139867e+04
4.166666666666666852e-01 7.835308002811937058e+02 1.623735923207565065e+04
4.333333333333333481e-01 5.622252850842769476e+02 1.129078969918313123e+04
4.500000000000000111e-01 4.071711436417559753e+02 9.708686849735247961e+03
4.666666666666666741e-01 2.386023900931020307e+02 9.842031412539823577e+03
4.833333333333333370e-01 7.910342989042850093e+01 5.848028346946843158e+03
5.000000000000000000e-01 4.366811186154056657e+01 1.533277949260198056e+03
5.166666666666666075e-01 2.799416491508856808e+01 7.996432845722317779e+02
5.333333333333333259e-01 1.701333570913284277e+01 3.559709002450008484e+02
5.500000000000000444e-01 1.612846824025520576e+01 8.937125731982199284e+01
5.666666666666666519e-01 1.403429379847210967e+01 1.131058983716854129e+02
5.833333333333333703e-01 1.235827162786569211e+01 9.073896658676102334e+01
5.999999999999999778e-01 1.100966157891340913e+01 8.678714497982801390e+01
6.166666666666666963e-01 9.465366795204758432e+00 8.501069292743716233e+01
6.333333333333333037e-01 8.175971814665503601e+00 7.466667246090463550e+01
6.500000000000000222e-01 6.976477713174603856e+00 6.876673375488238094e+01
6.666666666666666297e-01 5.883747356169424236e+00 6.859556668547452318e+01
6.833333333333333481e-01 4.689958823658786358e+00 6.336486563466110056e+01
6.999999999999999556e-01 3.771585168347387551e+00 5.254677463534391535e+01
7.166666666666666741e-01 2.938399669147322424e+00 4.384792163161917244e+01
7.333333333333332815e-01 2.309987780626748588e+00 3.794147412405802555e+01
7.500000000000000000e-01 1.673683865012054905e+00 3.060086158837576420e+01
7.666666666666666075e-01 1.289959061014223085e+00 2.440118590905279916e+01
7.833333333333333259e-01 8.603110013769615927e-01 2.704291342291168476e+01
8.000000000000000444e-01 3.885286135838336152e-01 3.463792615000395614e+01
8.166666666666666519e-01 -2.942865369565036970e-01 3.837441526719424445e+01
8.333333333333333703e-01 -8.906185619893078886e-01 3.684992944306901563e+01
8.499999999999999778e-01 -1.522617518392137548e+00 3.606090043854781868e+01
8.666666666666666963e-01 -2.092648576607568423e+00 2.909159506935132811e+01
8.833333333333333037e-01 -2.492337354037181818e+00 1.888223004521868731e+01
9.000000000000000222e-01 -2.722056244781524637e+00 4.561967744315666984e+00
9.166666666666666297e-01 -2.644402945514370717e+00 -7.398140275505196151e+00
9.333333333333333481e-01 -2.475451568931351432e+00 -1.617009689710375753e+01
9.499999999999999556e-01 -2.105399715610912104e+00 -2.252392784332216991e+01
9.666666666666666741e-01 -1.724653974153945724e+00 -2.220245697142176411e+01
9.833333333333332815e-01 -1.365317816563520026e+00 -1.616093714817099070e+01
1.000000000000000000e+00 -1.185956069214912700e+00 -7.542055228262598554e+00
1.016666666666666607e+00 -1.113915975621433407e+00 -9.375459709107447637e-01
1.033333333333333215e+00 -1.154704536851221208e+00 3.256834001475954476e+00
1.050000000000000044e+00 -1.222477109003965223e+00 4.308909564998470998e+00
1.066666666666666652e+00 -1.298334855684503575e+00 4.381929032178537575e+00
1.083333333333333259e+00 -1.368541410076583142e+00 6.678052571000623772e+00
1.100000000000000089e+00 -1.520936608051191019e+00 9.487727610734751238e+00
1.116666666666666696e+00 -1.684798997101074836e+00 1.076857854514399904e+01
1.133333333333333304e+00 -1.879889226222657639e+00 8.895629718303402100e+00
1.149999999999999911e+00 -1.981319987711188224e+00 7.594880833125221997e+00
1.166666666666666741e+00 -2.133051920660165024e+00 9.084012659191607497e+00
1.183333333333333348e+00 -2.284120409684241793e+00 9.294162089683904782e+00
1.199999999999999956e+00 -2.442857323649628487e+00 8.107046633184747719e+00
1.216666666666666563e+00 -2.554355297457066687e+00 6.492489527549807349e+00
1.233333333333333393e+00 -2.659273641234622065e+00 7.211326150048673611e+00
1.250000000000000000e+00 -2.794732835792022474e+00 7.127379404697427034e+00
1.266666666666666607e+00 -2.896852954724536300e+00 2.546454371475257439e+00
1.283333333333333215e+00 -2.879614648174531055e+00 -1.355696596307853774e+00
1.300000000000000044e+00 -2.851663068180941174e+00 -2.032730476574924339e+00
1.316666666666666652e+00 -2.811856965622033577e+00 -4.925000094395355354e+00
1.333333333333333259e+00 -2.687496398367762662e+00 -8.011356319854945340e+00
1.350000000000000089e+00 -2.544811754960202066e+00 -1.164742546554182745e+01
1.366666666666666696e+00 -2.299248882849701747e+00 -1.315599888184292965e+01
1.383333333333333304e+00 -2.106278458898771078e+00 -1.182768312659362842e+01
1.399999999999999911e+00 -1.904992778629914119e+00 -1.111225797120521896e+01
1.416666666666666741e+00 -1.735869859858597097e+00 -9.531603386122929678e+00
1.433333333333333348e+00 -1.587272665759149826e+00 -8.683603796441015987e+00
1.449999999999999956e+00 -1.446416399977229927e+00 -7.180520756286328243e+00
1.466666666666666563e+00 -1.347921973882938884e+00 -3.977480854424246814e+00
1.483333333333333393e+00 -1.313833704829755034e+00 -1.968695579493433545e+00
1.500000000000000000e+00 -1.282298787899824433e+00 -5.373878869080472853e-01
1.516666666666666607e+00 -1.295920775266153457e+00 1.198846726359235060e+00
1.533333333333333215e+00 -1.322260345445132268e+00 1.327031105290190638e+00
1.550000000000000044e+00 -1.340155145442493145e+00 1.329587736601547387e+00
1.566666666666666652e+00 -1.366579936665183848e+00 1.404407879207008047e+00
1.583333333333333259e+00 -1.386968741416060080e+00 5.655734041120430433e-01
1.600000000000000089e+00 -1.385432383468918616e+00 -1.869441733511290060e-01
1.616666666666666696e+00 -1.380737268971022447e+00 -1.024033413851865859e+00
1.633333333333333304e+00 -1.351297936340523087e+00 -1.582988658313075891e+00
1.649999999999999911e+00 -1.327970980360586584e+00 -1.650648110166459404e+00
1.666666666666666741e+00 -1.296276332668307774e+00 -2.079799479350818991e+00
1.683333333333333348e+00 -1.258644331048892617e+00 -2.393360746644366266e+00
1.699999999999999956e+00 -1.216497641113495565e+00 -3.597209835474945994e+00
1.716666666666666563e+00 -1.138737336533061084e+00 -4.378522317810300990e+00
1.733333333333333393e+00 -1.070546897186485547e+00 -4.762420957511310782e+00
1.750000000000000000e+00 -9.799899712826840581e-01 -5.195701042569705663e+00
1.766666666666666607e+00 -8.973568624341620170e-01 -4.933125129312688095e+00
1.783333333333333215e+00 -8.155524669722611364e-01 -4.195241917770236917e+00
1.800000000000000044e+00 -7.575154651751541124e-01 -3.612536575167037078e+00
1.816666666666666652e+00 -6.951345811333599078e-01 -3.572370618994244129e+00
1.833333333333333259e+00 -6.384364445420126488e-01 -3.268410244653664698e+00
1.849999999999999867e+00 -5.861875729782377586e-01 -2.896056620726185304e+00
1.866666666666666696e+00 -5.419012238511398127e-01 -2.720837930121822179e+00
1.883333333333333304e+00 -4.954929753075103527e-01 -2.731613801699249944e+00
1.899999999999999911e+00 -4.508474304611648220e-01 -2.860690470335355506e+00
1.916666666666666741e+00 -4.001366262963318432e-01 -3.265441536457186711e+00
1.933333333333333348e+00 -3.419993792459252724e-01 -1.151562818492199014e+01
1.949999999999999956e+00 -1.628235346559887831e-02 -1.020111492590516278e+01
1.966666666666666563e+00 -1.962215049086513726e-03 -4.830398253918462004e-01
1.983333333333333393e+00 -1.810259525373380911e-04 -5.886645147259541438e-02
2.000000000000000000e+00 0.000000000000000000e+00 -1.086155715224028546e-02
