0.000000000000000000e+00 nan nan
1.666666666666666644e-02 2.586592953736779858e+20 nan
3.333333333333333287e-02 6.314924078299201600e+16 7.759764259820751815e+21
5.000000000000000278e-02 4.867129862649453125e+14 1.894014705223055872e+18
6.666666666666666574e-02 1.541727555682684961e+13 1.456960568996033200e+16
8.333333333333332871e-02 1.059463266267546021e+12 4.589535258309975625e+14
1.000000000000000056e-01 1.188246957935969086e+11 3.122329321587102344e+13
1.166666666666666685e-01 1.868682573851198578e+10 3.451830542072521973e+12
1.333333333333333315e-01 3.763677724512849331e+09 5.331342688891557617e+11
1.499999999999999944e-01 9.156834422067942619e+08 1.051529940817166748e+11
1.666666666666666574e-01 2.585779217889598012e+08 2.499937658066435242e+10
1.833333333333333204e-01 8.237088951798248291e+07 6.887844370193971634e+09
2.000000000000000111e-01 2.898310944916076586e+07 2.138567353573394775e+09
2.166666666666666741e-01 1.108531106553599611e+07 7.329460352604274750e+08
2.333333333333333370e-01 4.551574940479850397e+06 2.729663432270123959e+08
2.500000000000000000e-01 1.986432957968917210e+06 1.091244823868696541e+08
2.666666666666666630e-01 9.140921942508623470e+05 4.637541145953898132e+07
2.833333333333333259e-01 4.405859093176178285e+05 2.078675221038655937e+07
2.999999999999999889e-01 2.212004539046436548e+05 9.763513109710913152e+06
3.166666666666666519e-01 1.151354723272540432e+05 4.779679457560577430e+06
3.333333333333333148e-01 6.187780531929107383e+04 2.427611105419917963e+06
3.499999999999999778e-01 3.421510214659011399e+04 1.274225751603961922e+06
3.666666666666666408e-01 1.940361359915901267e+04 6.888515703340925975e+05
3.833333333333333037e-01 1.125338313545369419e+04 3.824036802672588965e+05
4.000000000000000222e-01 6.656824256917048842e+03 2.174123907041389612e+05
4.166666666666666852e-01 4.006303445315728368e+03 1.262917038648904563e+05
4.333333333333333481e-01 2.447100794754033814e+03 7.479023651308023545e+04
4.500000000000000111e-01 1.513295561546387034e+03 4.506222767972164002e+04
4.666666666666666741e-01 9.450265387633127148e+02 2.757038990377091250e+04
4.833333333333333370e-01 5.942825647540232694e+02 1.709729819902750023e+04
5.000000000000000000e-01 3.751165987957293169e+02 1.072665788813683321e+04
5.166666666666666075e-01 2.367273018161288576e+02 6.795700722952969045e+03
5.333333333333333259e-01 1.485932413639636707e+02 4.338809027911336671e+03
5.500000000000000444e-01 9.210033421908433127e+01 3.113657748999047726e+03
5.666666666666666519e-01 4.480464973066207079e+01 2.134329438076116730e+03
5.833333333333333703e-01 2.095601961654710621e+01 1.048093957126585110e+03
5.999999999999999778e-01 9.868184493109234623e+00 5.402837023455169856e+02
6.166666666666666963e-01 2.946562871696540853e+00 3.339248892792231800e+02
6.333333333333333037e-01 -1.262645149531537836e+00 2.016407571618798045e+02
6.500000000000000222e-01 -3.774795700366119000e+00 1.186627086179679225e+02
6.666666666666666297e-01 -5.218068770130468437e+00 6.683566588461592062e+01
6.833333333333333481e-01 -6.002651229853316117e+00 3.415538379648597100e+01
6.999999999999999556e-01 -6.356581563346667352e+00 1.320454386702310856e+01
7.166666666666666741e-01 -6.442802692087419736e+00 -5.206942503509903730e-01
7.333333333333332815e-01 -6.339225088334967673e+00 -8.819071895042807085e+00
7.500000000000000000e-01 -6.148833628919326166e+00 -1.306220700167189719e+01
7.666666666666666075e-01 -5.903818188279237766e+00 -1.531641159228970928e+01
7.833333333333333259e-01 -5.638286575843002524e+00 -1.677270925856581840e+01
8.000000000000000444e-01 -5.344727879660377212e+00 -1.798545619181285815e+01
8.166666666666666519e-01 -5.038771369449240645e+00 -1.826878957850808405e+01
8.333333333333333703e-01 -4.735768227043441136e+00 -1.788696348731069818e+01
8.499999999999999778e-01 -4.442539253205550764e+00 -1.732158883306555097e+01
8.666666666666666963e-01 -4.158381932607922771e+00 -1.680042982240381733e+01
8.833333333333333037e-01 -3.882524925792090187e+00 -1.600146060074850496e+01
9.000000000000000222e-01 -3.624999912582972605e+00 -1.493239386351604914e+01
9.166666666666666297e-01 -3.384778463674888549e+00 -1.360709059498715234e+01
9.333333333333333481e-01 -3.171430226083400861e+00 -1.231412047463070181e+01
9.499999999999999556e-01 -2.974307781187198518e+00 -1.123716012043017720e+01
9.666666666666666741e-01 -2.796858222069061650e+00 -1.029082088622292979e+01
9.833333333333332815e-01 -2.631280418313100888e+00 -9.502723452150926065e+00
1.000000000000000000e+00 -2.480100773664030811e+00 -8.720337308150929445e+00
1.016666666666666607e+00 -2.340602508041403240e+00 -8.210486732208366334e+00
1.033333333333333215e+00 -2.206417882590418600e+00 -7.905979881375002627e+00
1.050000000000000044e+00 -2.077069845328903153e+00 -7.768892399391100767e+00
1.066666666666666652e+00 -1.947454802610715241e+00 -7.677755928104099681e+00
1.083333333333333259e+00 -1.821144647725433163e+00 -7.728015639887433785e+00
1.100000000000000089e+00 -1.689854281281134130e+00 -8.002353982969914625e+00
1.116666666666666696e+00 -1.554399514959769357e+00 -8.061733150266668702e+00
1.133333333333333304e+00 -1.421129842938911869e+00 -7.793009147326331210e+00
1.149999999999999911e+00 -1.294632543382224998e+00 -7.330973464518932836e+00
1.166666666666666741e+00 -1.176764060788280775e+00 -6.815560866209744439e+00
1.183333333333333348e+00 -1.067447181175233517e+00 -6.120296098420211273e+00
1.199999999999999956e+00 -9.727541908409403915e-01 -5.065017848676048651e+00
1.216666666666666563e+00 -8.986132528860318880e-01 -3.716904664204509157e+00
1.233333333333333393e+00 -8.488573687007900936e-01 -2.366012591877479920e+00
1.250000000000000000e+00 -8.197461664901158906e-01 -1.193654319287607013e+00
1.266666666666666607e+00 -8.090688913912031932e-01 -3.231251829160575184e-01
1.283333333333333215e+00 -8.089753270595806400e-01 2.372634682912644344e-01
1.300000000000000044e+00 -8.169776736675786744e-01 4.550929899642652821e-01
1.316666666666666652e+00 -8.241450933917228161e-01 4.122087006676988796e-01
1.333333333333333259e+00 -8.307179636898353037e-01 1.509198413115031556e-01
1.350000000000000089e+00 -8.291757547687729213e-01 -2.830517151750044924e-01
1.366666666666666696e+00 -8.212829065173351539e-01 -7.750961184237847856e-01
1.383333333333333304e+00 -8.033392174879800951e-01 -1.259394310821312368e+00
1.399999999999999911e+00 -7.793030961566247417e-01 -1.509675232721630067e+00
1.416666666666666741e+00 -7.530167097305924262e-01 -1.645321975587706875e+00
1.433333333333333348e+00 -7.244590303037011791e-01 -1.743560202806071491e+00
1.449999999999999956e+00 -6.948980363037233765e-01 -1.806650417929969166e+00
1.466666666666666563e+00 -6.642373497060355403e-01 -1.760579481502005939e+00
1.483333333333333393e+00 -6.362120535869898452e-01 -1.640594983908797433e+00
1.500000000000000000e+00 -6.095508502424089592e-01 -1.594502077459188927e+00
1.516666666666666607e+00 -5.830619843383502143e-01 -1.625953804522617396e+00
1.533333333333333215e+00 -5.553523900916550460e-01 -1.686199431861209463e+00
1.550000000000000044e+00 -5.268553366096432322e-01 -1.742754129858300027e+00
1.566666666666666652e+00 -4.972605857630450488e-01 -1.828693718359870157e+00
1.583333333333333259e+00 -4.658988793309808973e-01 -1.830108395904052720e+00
1.600000000000000089e+00 -4.362569725662432951e-01 -1.794694357911908567e+00
1.616666666666666696e+00 -4.060757340672506155e-01 -1.767345425126565894e+00
1.633333333333333304e+00 -3.773454583953577690e-01 -1.741999652221134065e+00
1.649999999999999911e+00 -3.480090789932128170e-01 -1.711734702539523090e+00
1.666666666666666741e+00 -3.202876349773736697e-01 -1.669438918614211786e+00
1.683333333333333348e+00 -2.923611150394057612e-01 -1.637129077075923922e+00
1.699999999999999956e+00 -2.657166657415095390e-01 -1.576456936839732759e+00
1.716666666666666563e+00 -2.398125504780813377e-01 -1.493516414457920050e+00
1.733333333333333393e+00 -2.159327852595788744e-01 -1.397008337404683553e+00
1.750000000000000000e+00 -1.932456058979252211e-01 -1.300035898316261429e+00
1.766666666666666607e+00 -1.725982553157034971e-01 -1.184884946008058160e+00
1.783333333333333215e+00 -1.537494410309899473e-01 -1.064835840091137076e+00
1.800000000000000044e+00 -1.371037273126655964e-01 -9.842863095215559355e-01
1.816666666666666652e+00 -1.209398973802714161e-01 -9.250008526229890338e-01
1.833333333333333259e+00 -1.062703655585659629e-01 -8.619661205711002250e-01
1.849999999999999867e+00 -9.220769336123474380e-02 -7.917063516456535055e-01
1.866666666666666696e+00 -7.988015383704417938e-02 -7.227849086853502802e-01
1.883333333333333304e+00 -6.811486307172306964e-02 -6.766175191721036652e-01
1.899999999999999911e+00 -5.732623653130738961e-02 -6.366808099860494785e-01
1.916666666666666741e+00 -4.689216940552141943e-02 -6.071765518353704483e-01
1.933333333333333348e+00 -3.708701813679503995e-02 -8.443944853791276461e-01
1.949999999999999956e+00 -1.874568655955049720e-02 -9.775323579434990195e-01
1.966666666666666563e+00 -4.502606205345070084e-03 -5.493410526888224954e-01
1.983333333333333393e+00 -4.343181365897497625e-04 -1.350781861603521095e-01
2.000000000000000000e+00 0.000000000000000000e+00 -2.605908819538498705e-02
