0.000000000000000000e+00 nan nan
1.666666666666666644e-02 1.088391167934017569e+21 nan
3.333333333333333287e-02 2.657204989690380800e+17 3.265167359802324550e+22
5.000000000000000278e-02 2.047999909490330250e+15 7.969668774486045696e+18
6.666666666666666574e-02 6.487315283653610938e+13 6.130625590467064000e+16
8.333333333333332871e-02 4.458046001308952148e+12 1.931194627522489500e+15
1.000000000000000056e-01 4.999985857864591675e+11 1.313823868556175625e+14
1.166666666666666685e-01 7.863310612170039368e+10 1.452481984422085938e+13
1.333333333333333315e-01 1.583792431243053818e+10 2.243386708889163574e+12
1.499999999999999944e-01 3.853549158728274822e+09 4.424879737786959229e+11
1.666666666666666574e-01 1.088325186474009037e+09 1.052037430716426239e+11
1.833333333333333204e-01 3.467577230068541765e+08 2.898830913116838455e+10
2.000000000000000111e-01 1.220482154350628257e+08 9.001664586455747604e+09
2.166666666666666741e-01 4.670223679166256636e+07 3.085779175387780190e+09
2.333333333333333370e-01 1.918890958880348876e+07 1.149582641653171062e+09
2.500000000000000000e-01 8.382815403223531321e+06 4.597830054935240746e+08
2.666666666666666630e-01 3.862809405686018988e+06 1.955237480770767033e+08
2.833333333333333259e-01 1.865357133987640729e+06 8.771733325293280184e+07
2.999999999999999889e-01 9.388982972549257101e+05 4.125037550564505905e+07
3.166666666666666519e-01 4.903446171328055789e+05 2.022626210900637507e+07
3.333333333333333148e-01 2.646895602880466031e+05 1.029452392395294644e+07
3.499999999999999778e-01 1.471938196677074011e+05 5.418142473324116319e+06
3.666666666666666408e-01 8.408481117724270734e+04 2.939233484373584855e+06
3.833333333333333037e-01 4.921937018858791271e+04 1.638832013925962150e+06
4.000000000000000222e-01 2.945707737971064125e+04 9.368830474803635152e+05
4.166666666666666852e-01 1.798993527257579626e+04 5.479618653486229014e+05
4.333333333333333481e-01 1.119168186808987957e+04 3.272657096157748601e+05
4.500000000000000111e-01 7.081078285383299772e+03 1.992495133989454480e+05
4.666666666666666741e-01 4.550031421458365003e+03 1.234746540784031968e+05
4.833333333333333370e-01 2.965256482769859758e+03 7.777557343300935463e+04
5.000000000000000000e-01 1.957512307024720258e+03 4.973343640968496766e+04
5.166666666666666075e-01 1.307475269113694139e+03 3.224734746147889746e+04
5.333333333333333259e-01 8.826007249754237591e+02 2.117963182276568477e+04
5.500000000000000444e-01 6.014875416881712908e+02 1.407641507065805490e+04
5.666666666666666519e-01 4.133868892868219405e+02 9.458263100233523801e+03
5.833333333333333703e-01 2.862121050137205316e+02 6.473115153302625913e+03
5.999999999999999778e-01 1.976163841767344138e+02 4.872149874419710613e+03
6.166666666666666963e-01 1.238071091997301636e+02 3.436582331670063923e+03
6.333333333333333037e-01 8.306363978773228496e+01 1.766813158246539160e+03
6.500000000000000222e-01 6.491333725817885636e+01 9.564189666968239862e+02
6.666666666666666297e-01 5.118300756450481970e+01 7.253010165534883527e+02
6.833333333333333481e-01 4.073663670639591317e+01 5.597534780672536954e+02
6.999999999999999556e-01 3.252455829559636413e+01 4.480408014003168091e+02
7.166666666666666741e-01 2.580194332638535215e+01 3.683642263897091311e+02
7.333333333333332815e-01 2.024575074927272667e+01 3.073996072478793167e+02
7.500000000000000000e-01 1.555528975145604242e+01 2.585660839051147377e+02
7.666666666666666075e-01 1.162688128576890279e+01 2.169666407900934928e+02
7.833333333333333259e-01 8.323068391786259568e+00 1.823744726833968741e+02
8.000000000000000444e-01 5.547732196322340492e+00 1.532687984933900225e+02
8.166666666666666519e-01 3.214108442006592181e+00 1.289545237337989931e+02
8.333333333333333703e-01 1.249248071862374632e+00 1.076250006960368921e+02
8.499999999999999778e-01 -3.733915811946374452e-01 8.962911212848769082e+01
8.666666666666666963e-01 -1.738388999087215225e+00 7.423534017925094020e+01
8.833333333333333037e-01 -2.847902920503002200e+00 6.085679717616575601e+01
9.000000000000000222e-01 -3.766948904959407152e+00 4.936349385740192730e+01
9.166666666666666297e-01 -4.493352715749733051e+00 3.979514726258410917e+01
9.333333333333333481e-01 -5.093453813712210732e+00 3.048590590648271714e+01
9.499999999999999556e-01 -5.509549579299156896e+00 2.124994413988439135e+01
9.666666666666666741e-01 -5.801785285041690443e+00 1.290955305415087295e+01
9.833333333333332815e-01 -5.939868014437519328e+00 5.321879400800400006e+00
1.000000000000000000e+00 -5.979181265068370443e+00 -1.144190310883699269e+00
1.016666666666666607e+00 -5.901728337408062686e+00 -6.555153039420886785e+00
1.033333333333333215e+00 -5.760676163754340884e+00 -1.015432368952501108e+01
1.050000000000000044e+00 -5.563250881090562316e+00 -1.315062585050547739e+01
1.066666666666666652e+00 -5.322321968737491638e+00 -1.490277366797251091e+01
1.083333333333333259e+00 -5.066491758824811953e+00 -1.652059307774067065e+01
1.100000000000000089e+00 -4.771635532812802616e+00 -1.875419765374697079e+01
1.116666666666666696e+00 -4.441351837033246319e+00 -2.092845723116291978e+01
1.133333333333333304e+00 -4.074020291774038682e+00 -2.141372350192211371e+01
1.149999999999999911e+00 -3.727561053635842558e+00 -2.027250429830125711e+01
1.166666666666666741e+00 -3.398270148497330112e+00 -1.939400044562835745e+01
1.183333333333333348e+00 -3.081094372114897340e+00 -1.779989556396280648e+01
1.199999999999999956e+00 -2.804940296365236563e+00 -1.648295992595652137e+01
1.216666666666666563e+00 -2.531662374583013353e+00 -1.541194815624745118e+01
1.233333333333333393e+00 -2.291208691156988220e+00 -1.466804067685205659e+01
1.250000000000000000e+00 -2.042727685354611467e+00 -1.397471639873048410e+01
1.266666666666666607e+00 -1.825384811199305402e+00 -1.304549097725293549e+01
1.283333333333333215e+00 -1.607877986112846935e+00 -1.204373120150670928e+01
1.300000000000000044e+00 -1.423927104482415107e+00 -1.121302744493204528e+01
1.316666666666666652e+00 -1.234110404615112122e+00 -1.112170020304027673e+01
1.333333333333333259e+00 -1.053203764381072549e+00 -1.071873675166041195e+01
1.350000000000000089e+00 -8.768191795597650717e-01 -9.536610808204095235e+00
1.366666666666666696e+00 -7.353167374409360635e-01 -8.535677803102377226e+00
1.383333333333333304e+00 -5.922965861230191642e-01 -7.903745984816755055e+00
1.399999999999999911e+00 -4.718585379470442431e-01 -6.492946770061995387e+00
1.416666666666666741e+00 -3.758650271209526550e-01 -4.943448516621967492e+00
1.433333333333333348e+00 -3.070769207263119860e-01 -3.841459860613380517e+00
1.449999999999999956e+00 -2.478163651005066415e-01 -3.145991640357531871e+00
1.466666666666666563e+00 -2.022105327143942644e-01 -2.229613041208939439e+00
1.483333333333333393e+00 -1.734959303935419972e-01 -1.408400595435181923e+00
1.500000000000000000e+00 -1.552638461998882002e-01 -9.078181233100446335e-01
1.516666666666666607e+00 -1.432353262832071761e-01 -5.433157740541075809e-01
1.533333333333333215e+00 -1.371533203980846161e-01 -3.087339028301022692e-02
1.550000000000000044e+00 -1.422062132737735018e-01 4.245410055201676025e-01
1.566666666666666652e+00 -1.513046872487568695e-01 9.630132692579496112e-01
1.583333333333333259e+00 -1.743066555823718222e-01 1.224772026479845843e+00
1.600000000000000089e+00 -1.921304214647517328e-01 1.103463197878493229e+00
1.616666666666666696e+00 -2.110887621783215928e-01 1.119839336243466210e+00
1.633333333333333304e+00 -2.294583993395339361e-01 1.050307848617651141e+00
1.649999999999999911e+00 -2.460990237989099660e-01 8.503066178304635736e-01
1.666666666666666741e+00 -2.578019532672160552e-01 3.920529089786034538e-01
1.683333333333333348e+00 -2.591674540981967478e-01 1.429453207524611358e-01
1.699999999999999956e+00 -2.625667972922980931e-01 1.374265553183168231e-01
1.716666666666666563e+00 -2.637483392754739753e-01 -2.570941006871774182e-02
1.733333333333333393e+00 -2.617098169566741683e-01 -3.112090042873960627e-01
1.750000000000000000e+00 -2.533747057992274399e-01 -6.494372892410760212e-01
1.766666666666666607e+00 -2.400619073153049676e-01 -8.912357525751993803e-01
1.783333333333333215e+00 -2.236668473800541290e-01 -1.000343715537515887e+00
1.800000000000000044e+00 -2.067171167973877732e-01 -1.022949977063291049e+00
1.816666666666666652e+00 -1.895685148112777607e-01 -1.091078670858623978e+00
1.833333333333333259e+00 -1.703478277687669740e-01 -1.232765518750159162e+00
1.849999999999999867e+00 -1.484763308529391257e-01 -1.299890794583443698e+00
1.866666666666666696e+00 -1.270181346159855174e-01 -1.278916488652168670e+00
1.883333333333333304e+00 -1.058457812312001700e-01 -1.246794123334062698e+00
1.899999999999999911e+00 -8.545833050485009130e-02 -1.203964811501924803e+00
1.916666666666666741e+00 -6.571362084780267565e-02 -1.093535025820988604e+00
1.933333333333333348e+00 -4.900716297748380218e-02 -1.708426182834651641e+00
1.949999999999999956e+00 -8.766081419980953013e-03 -1.434035531996297852e+00
1.966666666666666563e+00 -1.205978577607210670e-03 -2.598968611499409831e-01
1.983333333333333393e+00 -1.028527149829209424e-04 -3.617935732821631750e-02
2.000000000000000000e+00 0.000000000000000000e+00 -6.171162898975256217e-03
