0.0000 2715.6755 71.0785
0.0167 2713.3770 260.2559
0.0333 2707.4375 422.9948
0.0500 2699.7122 484.9567
0.0667 2691.4672 498.4501
0.0833 2683.1399 499.9355
0.1000 2674.8067 500.0106
0.1167 2666.4733 499.9900
0.1333 2658.1400 499.9900
0.1500 2649.8067 500.0200
0.1667 2641.4733 499.9900
0.1833 2633.1400 499.9900
0.2000 2624.8067 500.0200
0.2167 2616.4733 499.9900
0.2333 2608.1400 499.9900
0.2500 2599.8067 500.0200
0.2667 2591.4733 499.9900
0.2833 2583.1400 499.9900
0.3000 2574.8067 500.0200
0.3167 2566.4733 499.9900
0.3333 2558.1400 499.9900
0.3500 2549.8067 500.0200
0.3667 2541.4733 499.9900
0.3833 2533.1400 499.9900
0.4000 2524.8067 500.0200
0.4167 2516.4733 499.9900
0.4333 2508.1400 499.9900
0.4500 2499.8067 500.0200
0.4667 2491.4733 499.9900
0.4833 2483.1400 499.9912
0.5000 2474.8065 500.0792
0.5167 2466.4683 501.1903
0.5333 2458.0636 513.4481
0.5500 2449.1025 594.9473
0.5667 2437.1466 955.3757
0.5833 2414.1738 2067.9976
0.6000 2362.4546 4536.8764
0.6167 2256.2473 8551.3387
0.6333 2073.5770 13462.6662
0.6500 1807.7741 18358.8092
0.6667 1463.3196 22802.6258
0.6833 1054.1520 25521.6064
0.7000 633.0282 23485.5960
0.7167 295.8374 15981.5920
0.7333 104.5734 7439.1951
0.7500 32.2861 2281.5847
0.7667 13.8353 529.9342
0.7833 9.0774 193.6172
0.8000 6.4238 142.6204
0.8167 4.2424 120.7773
0.8333 2.3817 103.2989
0.8500 0.7886 88.2554
0.8667 -0.5628 73.9593
0.8833 -1.6775 59.9163
0.9000 -2.5628 46.4687
0.9167 -3.2280 33.4678
0.9333 -3.6828 21.6098
0.9500 -3.9599 12.3924
0.9667 -4.1071 5.7903
0.9833 -4.1594 0.7733
1.0000 -4.1361 -3.4842
1.0167 -4.0429 -7.7858
1.0333 -3.8755 -12.2328
1.0500 -3.6391 -15.6927
1.0667 -3.3621 -16.9888
1.0833 -3.0798 -16.6878
1.1000 -2.8053 -16.3935
1.1167 -2.5310 -16.6034
1.1333 -2.2519 -16.8108
1.1500 -1.9723 -16.6323
1.1667 -1.7000 -15.9137
1.1833 -1.4430 -14.9117
1.2000 -1.2026 -13.9149
1.2167 -0.9816 -12.3640
1.2333 -0.7949 -9.8477
1.2500 -0.6534 -7.2979
1.2667 -0.5473 -5.7240
1.2833 -0.4586 -5.0782
1.3000 -0.3763 -4.8288
1.3167 -0.2984 -4.4234
1.3333 -0.2310 -3.5444
1.3500 -0.1820 -2.2524
1.3667 -0.1565 -0.8180
1.3833 -0.1540 0.4270
1.4000 -0.1690 1.2692
1.4167 -0.1946 1.7043
1.4333 -0.2241 1.7216
1.4500 -0.2501 1.3122
1.4667 -0.2671 0.7271
1.4833 -0.2745 0.1634
1.5000 -0.2729 -0.3019
1.5167 -0.2655 -0.5170
1.5333 -0.2563 -0.5765
1.5500 -0.2468 -0.4899
1.5667 -0.2423 0.1208
1.5833 -0.2527 1.1168
1.6000 -0.2773 1.6076
1.6167 -0.3018 1.1143
1.6333 -0.3122 0.0889
1.6500 -0.3054 -0.8259
1.6667 -0.2865 -1.3202
1.6833 -0.2630 -1.4375
1.7000 -0.2389 -1.4571
1.7167 -0.2148 -1.3873
1.7333 -0.1938 -1.0998
1.7500 -0.1774 -0.9589
1.7667 -0.1610 -0.9635
1.7833 -0.1475 -0.4923
1.8000 -0.1458 0.2356
1.8167 -0.1529 0.4441
1.8333 -0.1584 0.1516
1.8500 -0.1579 -0.1727
1.8667 -0.1537 -0.2447
1.8833 -0.1512 0.0022
1.9000 -0.1539 0.2438
1.9167 -0.1572 0.0270
1.9333 -0.1533 -0.5157
1.9500 -0.1405 -0.9861
1.9667 -0.1207 -1.3683
1.9833 -0.0964 -1.3469
2.0000 -0.0803 -0.7104
