0.00000000 141242.74389612 1410373.24877071
0.01666667 119417.48515805 1208657.79979761
0.03333333 100954.15056953 1022453.07497676
0.05000000 85335.71599216 864886.44243126
0.06666667 72124.60248849 731557.25282556
0.08333333 60950.47423131 618740.77103844
0.10000000 51499.91012054 523284.38426401
0.11666667 43507.66142251 442519.74620203
0.13333333 36749.25191381 374188.41068576
0.15000000 31034.71439965 316378.88371513
0.16666667 26203.28912331 267473.34081659
0.18333333 22118.93637243 226102.52579263
0.20000000 18666.53826355 191107.57474548
0.21666667 15748.68388091 161507.70210643
0.23333333 13282.94819334 136472.84864215
0.25000000 11199.58892618 115300.52958855
0.26666667 9439.59720705 97396.23802818
0.28333333 7953.04765857 82256.85763557
0.30000000 6697.70195253 69456.62272345
0.31666667 5637.82690112 58635.23446418
0.33333333 4743.19413706 49487.80221133
0.35000000 3988.23349408 41756.32967743
0.36666667 3351.31648115 35222.50875093
0.38333333 2814.14986905 29701.62015701
0.40000000 2361.26247591 25037.37099649
0.41666667 1979.57083583 21097.52529339
0.43333333 1658.01163280 17770.20577184
0.45000000 1387.23064343 14960.76378124
0.46666667 1159.31950676 12589.13011630
0.48333333 967.59297289 10587.57287608
0.50000000 806.40041089 8898.79984691
0.51666667 670.96631133 7474.35249320
0.53333333 557.25532778 6273.24676606
0.55000000 461.85808579 5260.82281725
0.56666667 381.89456721 4407.77152824
0.58333333 314.93236818 3689.31069200
0.60000000 258.91754414 3084.48785643
0.61666667 212.11610630 2575.59036950
0.63333333 173.06453182 2147.64615445
0.65000000 140.52790115 1788.00127364
0.66666667 113.46448937 1930.67915259
0.68333333 76.17192940 2097.31339118
0.70000000 43.55404300 1471.92658554
0.71666667 27.10770988 765.03828290
0.73333333 18.05276690 361.37358752
0.75000000 15.06192363 179.45059604
0.76666667 12.07108037 137.98855289
0.78333333 10.46230520 103.66091962
0.80000000 8.61571638 108.20924187
0.81666667 6.85533047 99.51786356
0.83333333 5.29845426 87.94236668
0.85000000 3.92391825 78.79899655
0.86666667 2.67182104 72.32407360
0.88333333 1.51311580 66.87744296
0.90000000 0.44257294 61.58821558
0.91666667 -0.53982472 56.21460345
0.93333333 -1.43124717 50.60049573
0.95000000 -2.22650791 44.65330243
0.96666667 -2.91969059 38.55696098
0.98333333 -3.51173994 32.86011490
1.00000000 -4.01502775 28.04469636
1.01666667 -4.44656316 23.95821782
1.03333333 -4.81363501 20.09334720
1.05000000 -5.11634140 16.25524968
1.06666667 -5.35547667 12.48800304
1.08333333 -5.53260816 8.80492529
1.10000000 -5.64897418 5.44861091
1.11666667 -5.71422853 2.82838949
1.13333333 -5.74325383 0.85960513
1.15000000 -5.74288203 -0.94436844
1.16666667 -5.71177488 -2.84667000
1.18333333 -5.64799303 -4.77066945
1.20000000 -5.55275256 -6.37617800
1.21666667 -5.43545377 -7.37092487
1.23333333 -5.30705507 -8.13082946
1.25000000 -5.16442612 -9.26244215
1.26666667 -4.99830700 -10.55816826
1.28333333 -4.81248718 -11.34140624
1.30000000 -4.62026012 -11.59924588
1.31666667 -4.42584565 -12.01715695
1.33333333 -4.21968822 -12.89052783
1.35000000 -3.99616139 -13.78202551
1.36666667 -3.76028737 -14.41458750
1.38333333 -3.51567514 -14.93179799
1.40000000 -3.26256077 -15.36675237
1.41666667 -3.00345006 -15.55314363
1.43333333 -2.74412265 -15.40429377
1.45000000 -2.48997360 -14.96743806
1.46666667 -2.24520805 -14.43220105
1.48333333 -2.00890023 -13.95726861
1.50000000 -1.77996576 -13.42691064
1.51666667 -1.56133654 -12.69731862
1.53333333 -1.35672181 -11.81407215
1.55000000 -1.16753414 -10.86521891
1.56666667 -0.99454784 -9.90259981
1.58333333 -0.83744748 -8.97426731
1.60000000 -0.69540560 -8.09377013
1.61666667 -0.56765514 -7.21973760
1.63333333 -0.45474768 -6.29284015
1.65000000 -0.35789380 -5.31280831
1.66666667 -0.27765407 -4.37286968
1.68333333 -0.21213148 -3.56874993
1.70000000 -0.15869574 -2.88733314
1.71666667 -0.11588704 -2.29996152
1.73333333 -0.08203036 -1.78944035
1.75000000 -0.05623903 -1.30439850
1.76666667 -0.03855041 -0.83458185
1.78333333 -0.02841963 -0.44938328
1.80000000 -0.02357096 -0.21055835
1.81666667 -0.02140102 -0.08050771
1.83333333 -0.02088737 0.02116855
1.85000000 -0.02210664 0.10723134
1.86666667 -0.02446175 0.16577547
1.88333333 -0.02763249 0.21176635
1.90000000 -0.03152063 0.21558176
1.91666667 -0.03481855 0.11279500
1.93333333 -0.03528046 -1.07831206
1.95000000 0.00112519 -1.07498269
1.96666667 0.00055229 0.03249697
1.98333333 0.00004196 0.01656882
2.00000000 0.00000000 -0.01153401
