0	1.09416e+08	1.00195e+08
0.0166667	1.07747e+08	1.85284e+08
0.0333333	1.0324e+08	3.21451e+08
0.05	9.70315e+07	3.92645e+08
0.0666667	9.01522e+07	4.1679e+08
0.0833333	8.31385e+07	4.20819e+08
0.1	7.61248e+07	4.20819e+08
0.116667	6.91112e+07	4.20819e+08
0.133333	6.20975e+07	4.20819e+08
0.15	5.50839e+07	4.20819e+08
0.166667	4.80702e+07	4.20819e+08
0.183333	4.10566e+07	4.20819e+08
0.2	3.40429e+07	4.19695e+08
0.216667	2.70667e+07	4.12478e+08
0.233333	2.02936e+07	3.89534e+08
0.25	1.40823e+07	3.41718e+08
0.266667	8.90304e+06	2.69465e+08
0.283333	5.10012e+06	1.86534e+08
0.3	2.68523e+06	1.12419e+08
0.316667	1.35281e+06	5.99188e+07
0.333333	687936	2.96827e+07
0.35	363388	1.46837e+07
0.366667	198480	7.55174e+06
0.383333	111663	4.01963e+06
0.4	64492.4	2.20601e+06
0.416667	38129.3	1.24426e+06
0.433333	23016.9	719267
0.45	14153.7	425094
0.466667	8847.14	256310
0.483333	5610.05	157716
0.5	3589.92	103647
0.516667	2155.15	73479.1
0.533333	1140.62	47970
0.55	556.151	27652.1
0.566667	218.884	14022.9
0.583333	88.7224	5024.13
0.6	51.4136	1568.97
0.616667	36.4235	704.516
0.633333	27.9298	451.142
0.65	21.3855	357.843
0.666667	16.0016	293.941
0.683333	11.5875	240.61
0.7	7.9813	198.574
0.716667	4.96832	165.836
0.733333	2.45344	133.505
0.75	0.518149	97.7533
0.766667	-0.804999	65.4648
0.783333	-1.66401	45.2076
0.8	-2.31192	35.3887
0.816667	-2.84363	24.2511
0.833333	-3.12029	5.59655
0.85	-3.03019	-11.6542
0.866667	-2.73182	-13.9661
0.883333	-2.56465	-2.25899
0.9	-2.65652	7.4308
0.916667	-2.81234	3.93271
0.933333	-2.78761	-6.17142
0.95	-2.60663	-8.80377
0.966667	-2.49415	-1.38902
0.983333	-2.56033	6.0364
1	-2.69536	6.11135
1.01667	-2.76404	3.02201
1.03333	-2.7961	3.14382
1.05	-2.86883	5.40763
1.06667	-2.97635	5.89065
1.08333	-3.06519	4.42439
1.1	-3.12383	2.88057
1.11667	-3.16121	0.117346
1.13333	-3.12774	-5.94297
1.15	-2.96311	-11.8682
1.16667	-2.73214	-10.9272
1.18333	-2.59887	-2.89261
1.2	-2.63571	4.60308
1.21667	-2.7523	5.9604
1.23333	-2.8344	3.70739
1.25	-2.87588	2.70468
1.26667	-2.92455	2.88429
1.28333	-2.97202	1.55243
1.3	-2.9763	-0.516283
1.31667	-2.95482	-0.790552
1.33333	-2.94995	-0.460313
1.35	-2.93947	-3.04034
1.36667	-2.8486	-8.48012
1.38333	-2.6568	-12.4396
1.4	-2.43395	-12.556
1.41667	-2.23827	-11.4262
1.43333	-2.05308	-11.4438
1.45	-1.85681	-11.1382
1.46667	-1.6818	-8.73286
1.48333	-1.56571	-6.0466
1.5	-1.48025	-6.35337
1.51667	-1.35393	-9.02146
1.53333	-1.17954	-9.42957
1.55	-1.03961	-5.47441
1.56667	-0.997055	-0.800821
1.58333	-1.01292	-0.190927
1.6	-0.990691	-3.9592
1.61667	-0.880945	-7.94611
1.63333	-0.725821	-8.28943
1.65	-0.60463	-4.84068
1.66667	-0.564465	-0.315683
1.68333	-0.594107	2.07901
1.7	-0.633765	0.898889
1.71667	-0.62407	-2.16474
1.73333	-0.561607	-4.09839
1.75	-0.487457	-3.72815
1.76667	-0.437335	-2.24595
1.78333	-0.412592	-1.24321
1.8	-0.395895	-1.07307
1.81667	-0.376823	-1.33301
1.83333	-0.351461	-1.70535
1.85	-0.319978	-1.74566
1.86667	-0.293273	-1.05144
1.88333	-0.28493	-0.0844462
1.9	-0.290458	0.13496
1.91667	-0.289429	-0.718964
1.93333	-0.266492	-2.00214
1.95	-0.222691	-3.0401
1.96667	-0.165156	-3.8309
1.98333	-0.0949947	-4.95467
2	0	-5.69968
