0	2.12285e+07	4070.5
0.0166667	2.12285e+07	12661.2
0.0333333	2.12281e+07	49385.2
0.05	2.12268e+07	161416
0.0666667	2.12227e+07	466141
0.0833333	2.12113e+07	1.2038e+06
0.1	2.11826e+07	2.80408e+06
0.116667	2.11178e+07	5.93267e+06
0.133333	2.09849e+07	1.14664e+07
0.15	2.07356e+07	2.03406e+07
0.166667	2.03068e+07	3.32474e+07
0.183333	1.96274e+07	5.02351e+07
0.2	1.86323e+07	7.03517e+07
0.216667	1.72823e+07	9.15215e+07
0.233333	1.55816e+07	1.10803e+08
0.25	1.35889e+07	1.25033e+08
0.266667	1.14139e+07	1.31674e+08
0.283333	9.19976e+06	1.29556e+08
0.3	7.09533e+06	1.19218e+08
0.316667	5.22584e+06	1.02704e+08
0.333333	3.67188e+06	8.29246e+07
0.35	2.46168e+06	6.28427e+07
0.366667	1.57712e+06	4.47869e+07
0.383333	968785	3.0102e+07
0.4	573718	1.91589e+07
0.416667	330155	1.16155e+07
0.433333	186535	6.76328e+06
0.45	104713	3.82309e+06
0.466667	59099.2	2.12555e+06
0.483333	33860.8	1.17879e+06
0.5	19806.3	660637
0.516667	11839.5	377979
0.533333	7206.97	222242
0.55	4431.48	134645
0.566667	2718.78	84843.5
0.583333	1603.36	55863.3
0.6	856.675	33859.1
0.616667	474.728	18141.3
0.633333	251.966	10381.6
0.65	128.675	5660.49
0.666667	63.2826	2961.07
0.683333	29.9728	1482.59
0.7	13.8628	706.862
0.716667	6.41072	328.516
0.733333	2.91227	161.747
0.75	1.01914	95.7244
0.766667	-0.278547	70.1419
0.783333	-1.31892	56.946
0.8	-2.17675	46.364
0.816667	-2.86439	36.5929
0.833333	-3.39651	27.918
0.85	-3.79499	20.4206
0.866667	-4.0772	13.6671
0.883333	-4.25056	7.31095
0.9	-4.32089	1.68579
0.916667	-4.30675	-2.35485
0.933333	-4.2424	-4.37213
0.95	-4.16101	-5.0126
0.966667	-4.07531	-5.43767
0.983333	-3.97976	-6.23123
1	-3.86761	-7.18623
1.01667	-3.74022	-7.98375
1.03333	-3.60148	-8.65424
1.05	-3.45174	-9.36221
1.06667	-3.28941	-9.99781
1.08333	-3.11848	-10.1501
1.1	-2.95107	-9.59482
1.11667	-2.79865	-8.70563
1.13333	-2.66088	-8.23277
1.15	-2.52423	-8.55198
1.16667	-2.37582	-9.20278
1.18333	-2.21747	-9.31067
1.2	-2.06546	-8.39053
1.21667	-1.93778	-6.70496
1.23333	-1.84196	-4.95351
1.25	-1.77267	-3.77124
1.26667	-1.71626	-3.44872
1.28333	-1.65771	-3.86413
1.3	-1.58745	-4.54246
1.31667	-1.5063	-4.80947
1.33333	-1.42713	-4.12913
1.35	-1.36866	-2.53488
1.36667	-1.34264	-0.761782
1.38333	-1.34326	0.266082
1.4	-1.35151	0.22871
1.41667	-1.35089	-0.37834
1.43333	-1.3389	-0.801945
1.45	-1.32416	-0.722526
1.46667	-1.31481	-0.35563
1.48333	-1.3123	-0.0978721
1.5	-1.31155	-0.244039
1.51667	-1.30417	-0.88389
1.53333	-1.28209	-1.86941
1.55	-1.24185	-2.87681
1.56667	-1.18619	-3.64353
1.58333	-1.1204	-4.1588
1.6	-1.04757	-4.58045
1.61667	-0.967722	-4.98988
1.63333	-0.881238	-5.29439
1.65	-0.791242	-5.36255
1.66667	-0.702486	-5.1737
1.68333	-0.618785	-4.81892
1.7	-0.541856	-4.41992
1.71667	-0.471454	-4.07599
1.73333	-0.405989	-3.83472
1.75	-0.34363	-3.66069
1.76667	-0.283966	-3.44162
1.78333	-0.22891	-3.08073
1.8	-0.181275	-2.59627
1.81667	-0.142367	-2.11292
1.83333	-0.110845	-1.74951
1.85	-0.0840503	-1.51138
1.86667	-0.0604651	-1.30102
1.88333	-0.040683	-1.03134
1.9	-0.0260869	-0.713762
1.91667	-0.016891	-0.433849
1.93333	-0.0116253	-0.257882
1.95	-0.00829491	-0.177916
1.96667	-0.00569477	-0.140229
1.98333	-0.00362061	-0.170843
2	0	-0.217237
