0.000000 4663.620000 500.020000
0.016700 4655.286700 499.990000
0.033300 4646.953300 499.990000
0.050000 4638.620000 500.020000
0.066700 4630.286700 499.990000
0.083300 4621.953300 499.990000
0.100000 4613.620000 500.020000
0.116700 4605.286700 499.990000
0.133300 4596.953300 499.990000
0.150000 4588.620000 500.020000
0.166700 4580.286700 499.990000
0.183300 4571.953300 499.990000
0.200000 4563.620000 500.020000
0.216700 4555.286700 499.992600
0.233300 4546.953000 500.105100
0.250000 4538.610400 502.306400
0.266700 4530.141500 525.478900
0.283300 4520.620700 679.450300
0.300000 4505.441400 1360.367500
0.316700 4469.459500 3460.584300
0.333300 4379.232000 8116.223500
0.350000 4186.390700 15647.134100
0.366700 3851.740100 24498.352800
0.383300 3376.775300 31710.831600
0.400000 2811.821400 34993.050200
0.416700 2226.381400 34588.333000
0.433300 1664.380000 32764.693700
0.450000 1135.345200 30404.254900
0.466700 662.808800 25277.735700
0.483300 309.812700 16438.824600
0.500000 114.967300 7561.809100
0.516700 40.976400 2388.220000
0.533300 20.647800 642.812600
0.550000 14.094000 293.138100
0.566700 9.939400 223.207600
0.583300 6.563500 184.112700
0.600000 3.778400 151.261400
0.616700 1.504300 122.583900
0.633300 -0.321800 97.284700
0.650000 -1.750300 74.901600
0.666700 -2.832400 55.826600
0.683300 -3.624900 39.997300
0.700000 -4.176800 26.871800
0.716700 -4.531700 16.408400
0.733300 -4.734900 8.594600
0.750000 -4.827400 2.948300
0.766700 -4.838400 -1.434300
0.783300 -4.781200 -5.345000
0.800000 -4.662700 -8.648800
0.816700 -4.497600 -10.883400
0.833300 -4.303700 -12.199400
0.850000 -4.093000 -13.029600
0.866700 -3.869800 -13.768500
0.883300 -3.633500 -14.602500
0.900000 -3.383400 -15.336500
0.916700 -3.124600 -15.557600
0.933300 -2.867000 -15.280500
0.950000 -2.615200 -14.973700
0.966700 -2.367000 -14.873500
0.983300 -2.118200 -15.065400
1.000000 -1.863700 -15.500700
1.016700 -1.602300 -15.758500
1.033300 -1.340600 -15.505200
1.050000 -1.087200 -14.856100
1.066700 -0.845600 -14.151100
1.083300 -0.615600 -13.372900
1.100000 -0.401900 -12.149900
1.116700 -0.212000 -10.628200
1.133300 -0.047200 -9.119500
1.150000 0.090500 -7.272000
1.166700 0.193900 -5.218000
1.183300 0.267900 -3.907700
1.200000 0.327400 -3.289800
1.216700 0.376100 -2.413600
1.233300 0.405900 -1.100200
1.250000 0.412800 0.246500
1.266700 0.397800 1.550900
1.283300 0.361900 2.640200
1.300000 0.312600 3.092200
1.316700 0.260900 3.078800
1.333300 0.209300 3.209600
1.350000 0.152200 3.704400
1.366700 0.086300 4.073000
1.383300 0.019600 3.755600
1.400000 -0.037700 3.185200
1.416700 -0.088800 3.074100
1.433300 -0.140800 3.065500
1.450000 -0.188200 2.447500
1.466700 -0.220400 1.418200
1.483300 -0.237500 0.829800
1.500000 -0.251200 0.911600
1.516700 -0.267500 0.934300
1.533300 -0.280300 0.529700
1.550000 -0.284800 0.015200
1.566700 -0.280700 -0.523400
1.583300 -0.267700 -0.963800
1.600000 -0.250900 -0.898900
1.616700 -0.239500 -0.441800
1.633300 -0.234800 -0.278500
1.650000 -0.227600 -0.695700
1.666700 -0.211100 -1.233400
1.683300 -0.187700 -1.521700
1.700000 -0.160500 -1.774400
1.716700 -0.128200 -2.068900
1.733300 -0.094000 -1.786400
1.750000 -0.073400 -0.881600
1.766700 0.000000 0.000000
1.783300 0.000000 0.000000
1.800000 0.000000 0.000000
1.816700 0.000000 0.000000
1.833300 0.000000 0.000000
1.850000 0.000000 0.000000
1.866700 0.000000 0.000000
1.883300 0.000000 0.000000
1.900000 0.000000 0.000000
1.916700 0.000000 0.000000
1.933300 0.000000 0.000000
1.950000 0.000000 0.000000
1.966700 0.000000 0.000000
1.983300 0.000000 0.000000
2.000000 0.000000 0.000000
