0.000000000000000000e+00 4.581203929225908951e+02 7.165772713553019457e+02
1.666666666666666644e-02 4.461774384000025293e+02 7.165772713553019457e+02
3.333333333333333287e-02 4.342344838774141635e+02 7.165772713553019457e+02
5.000000000000000278e-02 4.222915293548257978e+02 7.165772713553019457e+02
6.666666666666666574e-02 4.103485748322374320e+02 7.165772713553019457e+02
8.333333333333332871e-02 3.984056203096490663e+02 7.165772713553019457e+02
1.000000000000000056e-01 3.864626657870607005e+02 7.165772713553019457e+02
1.166666666666666685e-01 3.745197112644723347e+02 7.165772713553019457e+02
1.333333333333333315e-01 3.625767567418839690e+02 7.165772713553019457e+02
1.499999999999999944e-01 3.506338022192956032e+02 7.165772713553019457e+02
1.666666666666666574e-01 3.386908476967072374e+02 7.165772713553019457e+02
1.833333333333333204e-01 3.267478931741188717e+02 7.165772713553019457e+02
2.000000000000000111e-01 3.148049386515305059e+02 7.165772713553019457e+02
2.166666666666666741e-01 3.028619841289421402e+02 7.165772713553019457e+02
2.333333333333333370e-01 2.909190296063537744e+02 7.165772713553019457e+02
2.500000000000000000e-01 2.789760750837654086e+02 7.165772713553002404e+02
2.666666666666666630e-01 2.670331205611770997e+02 7.165772713553002404e+02
2.833333333333333259e-01 2.550901660385887340e+02 7.165772713553019457e+02
2.999999999999999889e-01 2.431472115160003682e+02 7.165772713553019457e+02
3.166666666666666519e-01 2.312042569934120024e+02 7.165772713553019457e+02
3.333333333333333148e-01 2.192613024708236367e+02 7.165772713553019457e+02
3.499999999999999778e-01 2.073183479482352709e+02 7.165772713553019457e+02
3.666666666666666408e-01 1.953753934256469051e+02 7.165772713553011499e+02
3.833333333333333037e-01 1.834324389030585678e+02 7.165772713553019457e+02
4.000000000000000222e-01 1.714894843804701736e+02 7.165772713553028552e+02
4.166666666666666852e-01 1.595465298578818079e+02 7.165772713553019457e+02
4.333333333333333481e-01 1.476035753352934421e+02 7.165772713553019457e+02
4.500000000000000111e-01 1.356606208127050763e+02 7.165772713553019457e+02
4.666666666666666741e-01 1.237176662901167106e+02 7.165772713553019457e+02
4.833333333333333370e-01 1.117747117675283448e+02 7.165772713553019457e+02
5.000000000000000000e-01 9.983175724493997905e+01 7.165772713553002404e+02
5.166666666666666075e-01 8.788880272235167013e+01 7.165772713553014910e+02
5.333333333333333259e-01 7.594584819976326173e+01 7.165772713553041058e+02
5.500000000000000444e-01 6.400289367717486755e+01 7.165772713553014910e+02
5.666666666666666519e-01 5.205993915458654442e+01 7.165772713553017184e+02
5.833333333333333703e-01 4.011698463199814313e+01 5.830962129945396555e+02
5.999999999999999778e-01 3.262339872143522257e+01 3.935258350170221320e+02
6.166666666666666963e-01 2.699945679809740540e+01 3.077876693171796205e+02
6.333333333333333037e-01 2.236380974419590117e+01 2.582563707488868658e+02
6.500000000000000222e-01 1.839091110646784344e+01 2.214274179968851115e+02
6.666666666666666297e-01 1.498289581096639722e+01 1.896703325466263266e+02
6.833333333333333481e-01 1.206856668824696577e+01 1.627689683365452709e+02
6.999999999999999556e-01 9.557263533081554741e+00 1.410529309865483185e+02
7.166666666666666741e-01 7.366802322028688899e+00 1.230626604717857902e+02
7.333333333333332815e-01 5.455174850688695010e+00 1.073286629044509937e+02
7.500000000000000000e-01 3.789180225213655717e+00 9.298418234080065758e+01
7.666666666666666075e-01 2.355702105995339579e+00 7.976485868057449125e+01
7.833333333333333259e-01 1.130351602527839061e+00 6.768121883992013466e+01
8.000000000000000444e-01 9.966147799800173512e-02 5.642396249258160879e+01
8.166666666666666519e-01 -7.504471472248812614e-01 4.562589854830175540e+01
8.333333333333333703e-01 -1.421201806945390222e+00 3.539881658243000118e+01
8.499999999999999778e-01 -1.930407699972547908e+00 2.625538903029020688e+01
8.666666666666666963e-01 -2.296381441288397163e+00 1.823084087247834972e+01
8.833333333333333037e-01 -2.538102395721826277e+00 1.119844755244496426e+01
9.000000000000000222e-01 -2.669663026369895942e+00 5.237602563830754399e+00
9.166666666666666297e-01 -2.712689147849518090e+00 4.812102911007531958e-01
9.333333333333333481e-01 -2.685703369406587715e+00 -3.075469791498357530e+00
9.499999999999999556e-01 -2.610173488132906172e+00 -5.710132406318213505e+00
9.666666666666666741e-01 -2.495365622529313931e+00 -7.799008437096182078e+00
9.833333333333332815e-01 -2.350206540229700103e+00 -9.423188196274638884e+00
1.000000000000000000e+00 -2.181259349320159302e+00 -1.033466189399203650e+01
1.016666666666666607e+00 -2.005717810429965553e+00 -1.025259156487209822e+01
1.033333333333333215e+00 -1.839506297157756043e+00 -9.621832281750764437e+00
1.050000000000000044e+00 -1.684990067704940087e+00 -9.013918912466605704e+00
1.066666666666666652e+00 -1.539042333408869201e+00 -8.745821153065127973e+00
1.083333333333333259e+00 -1.393462695936102502e+00 -8.755969105770194716e+00
1.100000000000000089e+00 -1.247176696549862740e+00 -8.903956260367170472e+00
1.116666666666666696e+00 -1.096664153923863516e+00 -9.018632295795731224e+00
1.133333333333333304e+00 -9.465556200233383732e-01 -8.748458701971376428e+00
1.149999999999999911e+00 -8.050488638581509981e-01 -7.855680381545927737e+00
1.166666666666666741e+00 -6.846996073051407894e-01 -6.480310302624515018e+00
1.183333333333333348e+00 -5.890385204373338457e-01 -5.038337244885709332e+00
1.199999999999999956e+00 -5.167550324756171598e-01 -4.056692256422281595e+00
1.216666666666666563e+00 -4.538154452232577851e-01 -3.565992159430584785e+00
1.233333333333333393e+00 -3.978886271612643299e-01 -3.169800443979329252e+00
1.250000000000000000e+00 -3.481554304239468101e-01 -2.746921788632449957e+00
1.266666666666666607e+00 -3.063245675401826684e-01 -2.353150379382042523e+00
1.283333333333333215e+00 -2.697170844445453963e-01 -1.883793138610877493e+00
1.300000000000000044e+00 -2.435314629198200853e-01 -1.154257736297946701e+00
1.316666666666666652e+00 -2.312418265679471729e-01 -3.742523552110949003e-01
1.333333333333333259e+00 -2.310563844127835886e-01 7.583542903956158598e-02
1.350000000000000089e+00 -2.337696742025992258e-01 1.211553102605214538e-01
1.366666666666666696e+00 -2.350948947548009704e-01 -4.796578965575309939e-02
1.383333333333333304e+00 -2.321708145474074558e-01 -2.963316136926122391e-01
1.399999999999999911e+00 -2.252171742983805625e-01 -5.526753150157479588e-01
1.416666666666666741e+00 -2.137483040468825257e-01 -8.378389701180081195e-01
1.433333333333333348e+00 -1.972892086277802937e-01 -1.068218990786494516e+00
1.449999999999999956e+00 -1.781410043539993771e-01 -1.223688911607937690e+00
1.466666666666666563e+00 -1.564995782408490355e-01 -1.288472743415135513e+00
1.483333333333333393e+00 -1.351919129068281933e-01 -1.205047130655442222e+00
1.500000000000000000e+00 -1.163313405523342947e-01 -9.882687136516477011e-01
1.516666666666666607e+00 -1.022496224517732699e-01 -6.709162016291403408e-01
1.533333333333333215e+00 -9.396746716469628335e-02 -3.585027845062152552e-01
1.550000000000000044e+00 -9.029952963489942808e-02 -1.736118110975548579e-01
1.566666666666666652e+00 -8.818040679477778809e-02 -1.833747983814795757e-01
1.583333333333333259e+00 -8.418703635551677555e-02 -3.473038971561011601e-01
1.600000000000000089e+00 -7.660361022290775035e-02 -5.005239307147105743e-01
1.616666666666666696e+00 -6.750290533169309160e-02 -5.431331764954219210e-01
1.633333333333333304e+00 -5.849917100639368678e-02 -4.570732366414242964e-01
1.649999999999999911e+00 -5.226713077697894838e-02 -2.629763554060468023e-01
1.666666666666666741e+00 -4.973329249285879383e-02 -5.415368929212203974e-02
1.683333333333333348e+00 -5.046200780057488039e-02 5.936941369407436331e-02
1.699999999999999956e+00 -5.171227294932793928e-02 5.127476629924326845e-03
1.716666666666666563e+00 -5.063292368823902462e-02 -1.744284096633594294e-01
1.733333333333333393e+00 -4.589799262721595829e-02 -4.038022022850872306e-01
1.750000000000000000e+00 -3.717285027873611786e-02 -5.856486477112680111e-01
1.766666666666666607e+00 -2.637637103684035977e-02 -6.299983746253468020e-01
1.783333333333333215e+00 -1.617290445789122330e-02 -5.205217649658528956e-01
1.800000000000000044e+00 -9.025645537978599711e-03 -3.538207237732712285e-01
1.816666666666666652e+00 -4.378880332115515570e-03 -2.276452658780778460e-01
1.833333333333333259e+00 -1.437470008709338526e-03 -1.387428029816204500e-01
1.849999999999999867e+00 2.458797672718331540e-04 -7.950076536423436591e-02
1.866666666666666696e+00 1.212555503431806802e-03 -6.895401514452981218e-02
1.883333333333333304e+00 2.544346938756160328e-03 -9.365426592484542290e-02
1.899999999999999911e+00 4.334364367593320638e-03 -9.848376852708638773e-02
1.916666666666666741e+00 5.827139222992373108e-03 -5.556949831928170713e-02
1.933333333333333348e+00 6.186680978236044209e-03 8.336435328061432559e-02
1.949999999999999956e+00 3.048327446971895675e-03 1.716445219846321202e-01
1.966666666666666563e+00 4.651969120816402720e-04 9.012602819314685654e-02
1.983333333333333393e+00 4.412650720033401639e-05 1.395590736244920783e-02
2.000000000000000000e+00 0.000000000000000000e+00 2.647590432020040848e-03
