0.000000000000000000e+00 4.594999054837746371e+04 4.268205901184913819e+05
1.666666666666666644e-02 3.883631404640260735e+04 3.939154438291496481e+05
3.333333333333333287e-02 3.281947575407247496e+04 3.331681074822358205e+05
5.000000000000000278e-02 2.773071046366141309e+04 2.817685146036989754e+05
6.666666666666666574e-02 2.342719193394917602e+04 2.382798633395551878e+05
8.333333333333332871e-02 1.978804835234290658e+04 2.014860672923339298e+05
1.000000000000000056e-01 1.671098969087137812e+04 1.703578604619900289e+05
1.166666666666666685e-01 1.410945300360990586e+04 1.440241065935473598e+05
1.333333333333333315e-01 1.191018613775313315e+04 1.217475138883396721e+05
1.499999999999999944e-01 1.005120254066525013e+04 1.029040787091047969e+05
1.666666666666666574e-01 8.480050180782973257e+03 8.696568574961496051e+04
1.833333333333333204e-01 7.152346349011418170e+03 7.348538003807910718e+04
2.000000000000000111e-01 6.030537512847003200e+03 6.208490054768144910e+04
2.166666666666666741e-01 5.082849664088703321e+03 5.244412816901938641e+04
2.333333333333333370e-01 4.282399907213023653e+03 4.429215411146170663e+04
2.500000000000000000e-01 3.606444527039979675e+03 3.739971992801313900e+04
2.666666666666666630e-01 3.035742576279252262e+03 3.157281855763446947e+04
2.833333333333333259e-01 2.554017241785497390e+03 2.664727811379353079e+04
2.999999999999999889e-01 2.147499972486134538e+03 2.248417751861649231e+04
3.166666666666666519e-01 1.804544657831614359e+03 1.896596625049871363e+04
3.333333333333333148e-01 1.515301097469510751e+03 1.599318008454401024e+04
3.499999999999999778e-01 1.271438655013480684e+03 1.348166130580246136e+04
3.666666666666666408e-01 1.065912387276095387e+03 1.136020592720956665e+04
3.833333333333333037e-01 8.927651241064951364e+02 9.568572338682612099e+03
4.000000000000000222e-01 7.469599759866749764e+02 8.055795882207076829e+03
4.166666666666666852e-01 6.242385946995925678e+02 6.778762370314438158e+03
4.333333333333333481e-01 5.210012303095270454e+02 5.701000779428331953e+03
4.500000000000000111e-01 4.342052353853148361e+02 4.791661456027825807e+03
4.666666666666666741e-01 3.612791817752661814e+02 4.024651342493835273e+03
4.833333333333333370e-01 3.000501906355203232e+02 3.377902104801838504e+03
5.000000000000000000e-01 2.486824449485382331e+02 2.832750747748274989e+03
5.166666666666666075e-01 2.056251657105778179e+02 2.373415438283773710e+03
5.333333333333333259e-01 1.695685970057457723e+02 1.986551911075983071e+03
5.500000000000000444e-01 1.394067686747117136e+02 1.660878076539833046e+03
5.666666666666666519e-01 1.142059944544180041e+02 1.386856352805247752e+03
5.833333333333333703e-01 9.317822358120345427e+01 1.156424852394404525e+03
5.999999999999999778e-01 7.565849937460451713e+01 1.250080101164603775e+03
6.166666666666666963e-01 5.150888687571666225e+01 1.302716021408303732e+03
6.333333333333333037e-01 3.223463199432772797e+01 9.036684872587538848e+02
6.500000000000000222e-01 2.138660396709153133e+01 4.276051078829743233e+02
6.666666666666666297e-01 1.798112839822858433e+01 2.088186264186499557e+02
6.833333333333333481e-01 1.442598308646986638e+01 2.005359480608567537e+02
6.999999999999999556e-01 1.129659679620002599e+01 1.735730397544070911e+02
7.166666666666666741e-01 8.640215094656296557e+00 1.465946069498911868e+02
7.333333333333332815e-01 6.410109897870319706e+00 1.232617832091440988e+02
7.500000000000000000e-01 4.531488987684826775e+00 1.041617031135552480e+02
7.666666666666666075e-01 2.938053127418478017e+00 8.855444069108774841e+01
7.833333333333333259e-01 1.579674297981902065e+00 7.544049930190972475e+01
8.000000000000000444e-01 4.233698173548205435e-01 6.401703845749003108e+01
8.166666666666666519e-01 -5.542269839344323712e-01 5.386668780863340089e+01
8.333333333333333703e-01 -1.372186442932959327e+00 4.485156609792912974e+01
8.499999999999999778e-01 -2.049279187198736807e+00 3.692447312815976801e+01
8.666666666666666963e-01 -2.603002213871618231e+00 3.002788099946390687e+01
8.833333333333333037e-01 -3.050208553847533643e+00 2.405311683590868910e+01
9.000000000000000222e-01 -3.404772775068574564e+00 1.883146559657626540e+01
9.166666666666666297e-01 -3.677924073733409127e+00 1.416272463697883488e+01
9.333333333333333481e-01 -3.876863596301202364e+00 9.871820853868943146e+00
9.499999999999999556e-01 -4.006984768862373869e+00 5.929358594431155538e+00
9.666666666666666741e-01 -4.074508882782240882e+00 2.505734829507639816e+00
9.833333333333332815e-01 -4.090509263179295196e+00 -2.561284534695662529e-01
1.000000000000000000e+00 -4.065971267666588673e+00 -2.490641107679589794e+00
1.016666666666666607e+00 -4.007487892923308870e+00 -4.499799197398304251e+00
1.033333333333333215e+00 -3.915977961086645198e+00 -6.450278454559033037e+00
1.050000000000000044e+00 -3.792478611104674435e+00 -8.211712051236101928e+00
1.066666666666666652e+00 -3.642254226045441801e+00 -9.407219342893924363e+00
1.083333333333333259e+00 -3.478904633008210290e+00 -9.776496130714127375e+00
1.100000000000000089e+00 -3.316371021688304221e+00 -9.468344932408220060e+00
1.116666666666666696e+00 -3.163293135261269651e+00 -8.880310674450893060e+00
1.133333333333333304e+00 -3.020360665873274453e+00 -8.454014409495345106e+00
1.149999999999999911e+00 -2.881492654944758147e+00 -8.535075994396562393e+00
1.166666666666666741e+00 -2.735858132726722403e+00 -9.136441667058079474e+00
1.183333333333333348e+00 -2.576944599376155498e+00 -9.912580219673948534e+00
1.199999999999999956e+00 -2.405438792070924148e+00 -1.044013104756751353e+01
1.216666666666666563e+00 -2.228940231123905047e+00 -1.043998001799810282e+01
1.233333333333333393e+00 -2.057439458137654054e+00 -9.878514423529159316e+00
1.250000000000000000e+00 -1.899656417006266418e+00 -8.985107864203666139e+00
1.266666666666666607e+00 -1.757935862664198545e+00 -8.083406933489541757e+00
1.283333333333333215e+00 -1.630209519223281722e+00 -7.347031985074665705e+00
1.300000000000000044e+00 -1.513034796495043022e+00 -6.774398986083179253e+00
1.316666666666666652e+00 -1.404396219687175762e+00 -6.239975116473426731e+00
1.333333333333333259e+00 -1.305035625945928812e+00 -5.574771561226501859e+00
1.350000000000000089e+00 -1.218570500979625715e+00 -4.700017444154330093e+00
1.366666666666666696e+00 -1.148368377807451157e+00 -3.737904639799785045e+00
1.383333333333333304e+00 -1.093973679652966213e+00 -2.902931714739320768e+00
1.399999999999999911e+00 -1.051603987316140465e+00 -2.339252000654532537e+00
1.416666666666666741e+00 -1.015998612964481795e+00 -2.065524736913193493e+00
1.433333333333333348e+00 -9.827531627523673485e-01 -2.004128689410120678e+00
1.449999999999999956e+00 -9.491943233174777728e-01 -2.034239062724778613e+00
1.466666666666666563e+00 -9.149451939948747281e-01 -2.086151402267879540e+00
1.483333333333333393e+00 -8.796559432418817881e-01 -2.180906203600309290e+00
1.500000000000000000e+00 -8.422483205415310925e-01 -2.356929047134167732e+00
1.516666666666666607e+00 -8.010916416707428711e-01 -2.597766471734135330e+00
1.533333333333333215e+00 -7.556561048170599149e-01 -2.829057668150753102e+00
1.550000000000000044e+00 -7.067897193990511084e-01 -2.961403739498846832e+00
1.566666666666666652e+00 -6.569426468337650205e-01 -2.926730448401735352e+00
1.583333333333333259e+00 -6.092320377856599301e-01 -2.736759107778358402e+00
1.600000000000000089e+00 -5.657173432411530811e-01 -2.465107194307958327e+00
1.616666666666666696e+00 -5.270617979753946525e-01 -2.173175866026808567e+00
1.633333333333333304e+00 -4.932781477069261289e-01 -1.893076412127078889e+00
1.649999999999999911e+00 -4.639592509044920265e-01 -1.675608395369555526e+00
1.666666666666666741e+00 -4.374245345279409447e-01 -1.563971180383642690e+00
1.683333333333333348e+00 -4.118268782250372739e-01 -1.556306898559769003e+00
1.699999999999999956e+00 -3.855476379092819816e-01 -1.623952762925204407e+00
1.716666666666666563e+00 -3.576951194608637974e-01 -1.732392117877175730e+00
1.733333333333333393e+00 -3.278012339800427943e-01 -1.832829425084668840e+00
1.750000000000000000e+00 -2.966008052913748361e-01 -1.871262838011226171e+00
1.766666666666666607e+00 -2.654258060463352553e-01 -1.804865130861275757e+00
1.783333333333333215e+00 -2.364386342626656479e-01 -1.624989533163939681e+00
1.800000000000000044e+00 -2.112594882742039326e-01 -1.385043019605790793e+00
1.816666666666666652e+00 -1.902705336091392863e-01 -1.173951044457769655e+00
1.833333333333333259e+00 -1.721277867922782756e-01 -1.058688615050110249e+00
1.849999999999999867e+00 -1.549809131074689483e-01 -1.046818739704477252e+00
1.866666666666666696e+00 -1.372338288021290320e-01 -1.100222091824216264e+00
1.883333333333333304e+00 -1.183068433799950719e-01 -1.162471354562941483e+00
1.899999999999999911e+00 -9.848478365003097978e-02 -1.186831486362953880e+00
1.916666666666666741e+00 -7.874579383456327408e-02 -1.152459111203483433e+00
1.933333333333333348e+00 -6.006947994324819684e-02 -2.172861857756993142e+00
1.949999999999999956e+00 -6.317065242663508391e-03 -1.781574091477937216e+00
1.966666666666666563e+00 -6.836768939836256574e-04 -1.875795998139975496e-01
1.983333333333333393e+00 -6.441191553025671292e-05 -2.051030681950876886e-02
2.000000000000000000e+00 0.000000000000000000e+00 -3.864714931815402613e-03
