0.000000000000000000e+00 4.753834693089310167e+04 4.426476201989734545e+05
1.666666666666666644e-02 4.016088659424354410e+04 4.084797657249500626e+05
3.333333333333333287e-02 3.392235474006143340e+04 3.454046867868580157e+05
5.000000000000000278e-02 2.864739703468160951e+04 2.920420465062690200e+05
6.666666666666666574e-02 2.418761985651913346e+04 2.468984684460810677e+05
8.333333333333332871e-02 2.041744808647890750e+04 2.087100238085831515e+05
1.000000000000000056e-01 1.723061906289969556e+04 1.764069920727511344e+05
1.166666666666666685e-01 1.453721501738720326e+04 1.490840327136257838e+05
1.333333333333333315e-01 1.226115130577883610e+04 1.259749372081356414e+05
1.499999999999999944e-01 1.033805044378268212e+04 1.064312580817398120e+05
1.666666666666666574e-01 8.713442703054175581e+03 8.990421971831869450e+04
1.833333333333333204e-01 7.341243119838725761e+03 7.592940704822026601e+04
2.000000000000000111e-01 6.182462468113500108e+03 6.411380559087989968e+04
2.166666666666666741e-01 5.204116266809395711e+03 5.412483181308743224e+04
2.333333333333333370e-01 4.378301407677252428e+03 4.568104819507455250e+04
2.500000000000000000e-01 3.681414660306910719e+03 3.854430431762852822e+04
2.666666666666666630e-01 3.093491263756301578e+03 3.251308500085503692e+04
2.833333333333333259e-01 2.597645160278409548e+03 2.741688014493251103e+04
2.999999999999999889e-01 2.179595258925217877e+03 2.311141938137554098e+04
3.166666666666666519e-01 1.827264514232558213e+03 1.947463873235932988e+04
3.333333333333333148e-01 1.530440634513240184e+03 1.640326686631311895e+04
3.499999999999999778e-01 1.280488952022120884e+03 1.380993579806921844e+04
3.666666666666666408e-01 1.070109441244266236e+03 1.162073549196761269e+04
3.833333333333333037e-01 8.931311022898671581e+02 9.773144193305746739e+03
4.000000000000000222e-01 7.443379681340746856e+02 8.214276781762013343e+03
4.166666666666666852e-01 6.193218762311333876e+02 6.899402301418015668e+03
4.333333333333333481e-01 5.143578914201408452e+02 5.790689322517439905e+03
4.500000000000000111e-01 4.262988988138853870e+02 4.856144138997055052e+03
4.666666666666666741e-01 3.524864201202390177e+02 4.068712179915029992e+03
4.833333333333333370e-01 2.906751594833843910e+02 3.405517561844538250e+03
5.000000000000000000e-01 2.389691680587544056e+02 2.847219559782574834e+03
5.166666666666666075e-01 1.957678408239652299e+02 2.377468033380424458e+03
5.333333333333333259e-01 1.597202336127402589e+02 1.982442604104700195e+03
5.500000000000000444e-01 1.296864206871418901e+02 1.650462714125006642e+03
5.666666666666666519e-01 1.047048098085733727e+02 1.371657674333994237e+03
5.833333333333333703e-01 8.396449820934208219e+01 1.652320880818113210e+03
5.999999999999999778e-01 4.962744711463626857e+01 1.402338861963176214e+03
6.166666666666666963e-01 3.721986947723620887e+01 8.881682325609418740e+02
6.333333333333333037e-01 2.002183936260487229e+01 6.991834222213250314e+02
6.500000000000000222e-01 1.391375540319203985e+01 2.197804458391956075e+02
6.666666666666666297e-01 1.269582450129835216e+01 1.107221946639327257e+02
6.833333333333333481e-01 1.022301558106094888e+01 1.451527956604503800e+02
6.999999999999999556e-01 7.857397979283339495e+00 1.309554923398890480e+02
7.166666666666666741e-01 5.857832503064646978e+00 1.090086233542576366e+02
7.333333333333332815e-01 4.223777200808084942e+00 8.927765472520820822e+01
7.500000000000000000e-01 2.881910678891040245e+00 7.385951533851893203e+01
7.666666666666666075e-01 1.761793356190786808e+00 6.202415579518935118e+01
7.833333333333333259e-01 8.144388190513953685e-01 5.264921787383263307e+01
8.000000000000000444e-01 6.819427063032360015e-03 4.508109310867509834e+01
8.166666666666666519e-01 -6.882642845711077761e-01 3.853066641695893679e+01
8.333333333333333703e-01 -1.277536120168932143e+00 3.256945664843802746e+01
8.499999999999999778e-01 -1.773912839519041995e+00 2.707908964652582640e+01
8.666666666666666963e-01 -2.180172441719792964e+00 2.208968132830068498e+01
8.833333333333333037e-01 -2.510235550462398102e+00 1.742359961686338110e+01
9.000000000000000222e-01 -2.760959095615239001e+00 1.279208894915763040e+01
9.166666666666666297e-01 -2.936638515434319086e+00 8.549604753063238860e+00
9.333333333333333481e-01 -3.045945920717346933e+00 5.167487240012960115e+00
9.499999999999999556e-01 -3.108888090101417756e+00 2.860494122475354395e+00
9.666666666666666741e-01 -3.141295724799858746e+00 1.353724162089271488e+00
9.833333333333332815e-01 -3.154012228837726806e+00 -6.089562205483289858e-02
1.000000000000000000e+00 -3.139265870731364316e+00 -1.691454078821257312e+00
1.016666666666666607e+00 -3.097630426210351562e+00 -3.341533721802218970e+00
1.033333333333333215e+00 -3.027881413337957017e+00 -4.820368864652344598e+00
1.050000000000000044e+00 -2.936951464055273409e+00 -6.232012664854824635e+00
1.066666666666666652e+00 -2.820147657842796196e+00 -7.764432457862451287e+00
1.083333333333333259e+00 -2.678137048793191699e+00 -8.776043845200064197e+00
1.100000000000000089e+00 -2.527612863002794086e+00 -8.821730703471057922e+00
1.116666666666666696e+00 -2.384079358677489768e+00 -7.682589529466437028e+00
1.133333333333333304e+00 -2.271526545353912852e+00 -5.766629117656787429e+00
1.149999999999999911e+00 -2.191858388088930187e+00 -3.758544823325933315e+00
1.166666666666666741e+00 -2.146241717909715074e+00 -2.090341449419401698e+00
1.183333333333333348e+00 -2.122180339774950131e+00 -1.169930095311366713e+00
1.199999999999999956e+00 -2.107244048066002851e+00 -1.112333045951960919e+00
1.216666666666666563e+00 -2.085102571576551433e+00 -1.476023080126860343e+00
1.233333333333333393e+00 -2.058043278728440839e+00 -1.898838574844061711e+00
1.250000000000000000e+00 -2.021807952415082710e+00 -2.321050961176036598e+00
1.266666666666666607e+00 -1.980674913355906286e+00 -2.919984083554503229e+00
1.283333333333333215e+00 -1.924475149629932602e+00 -3.468911884370138310e+00
1.300000000000000044e+00 -1.865044517210235009e+00 -3.729100536978178226e+00
1.316666666666666652e+00 -1.800171798397326661e+00 -3.808503604735267167e+00
1.333333333333333259e+00 -1.738094397052392770e+00 -3.558724033049962543e+00
1.350000000000000089e+00 -1.681547663962327910e+00 -3.100559758590224479e+00
1.366666666666666696e+00 -1.634742405099385287e+00 -2.759093552873890243e+00
1.383333333333333304e+00 -1.589577878866531568e+00 -2.604153403060600613e+00
1.399999999999999911e+00 -1.547937291664031934e+00 -2.229289507806002657e+00
1.416666666666666741e+00 -1.515268228606331480e+00 -1.898507622020861874e+00
1.433333333333333348e+00 -1.484653704263336538e+00 -2.079691338273599310e+00
1.449999999999999956e+00 -1.445945183997211503e+00 -2.504398717706428634e+00
1.466666666666666563e+00 -1.401173747006455583e+00 -2.752639779630370320e+00
1.483333333333333393e+00 -1.354190524676199159e+00 -2.971928215586132627e+00
1.500000000000000000e+00 -1.302109473153584496e+00 -3.233244277524691679e+00
1.516666666666666607e+00 -1.246415715425376103e+00 -3.332203054528384278e+00
1.533333333333333215e+00 -1.191036038002638353e+00 -3.343108787523167980e+00
1.550000000000000044e+00 -1.134978755841270504e+00 -3.560577714371708780e+00
1.566666666666666652e+00 -1.072350114190248060e+00 -3.889096166285193057e+00
1.583333333333333259e+00 -1.005342216965097402e+00 -4.265189240196603393e+00
1.600000000000000089e+00 -9.301771395170279622e-01 -4.753747440590100126e+00
1.616666666666666696e+00 -8.468839689454273900e-01 -5.145895533584244674e+00
1.633333333333333304e+00 -7.586472883975531323e-01 -5.281090437862666853e+00
1.649999999999999911e+00 -6.708476210166718356e-01 -5.280764284516875406e+00
1.666666666666666741e+00 -5.826218122469906113e-01 -5.124596011641172844e+00
1.683333333333333348e+00 -5.000277539619660816e-01 -4.588399649746397913e+00
1.699999999999999956e+00 -4.296751572554440290e-01 -3.892451040407362672e+00
1.716666666666666563e+00 -3.702793859483873296e-01 -3.283035158263622133e+00
1.733333333333333393e+00 -3.202406519799899653e-01 -2.627866209973331202e+00
1.750000000000000000e+00 -2.826838456159429525e-01 -1.947497515864936135e+00
1.766666666666666607e+00 -2.553240681178254312e-01 -1.423216567378954966e+00
1.783333333333333215e+00 -2.352432933699777906e-01 -1.056245833052133598e+00
1.800000000000000044e+00 -2.201158736827543150e-01 -8.170586350384637653e-01
1.816666666666666652e+00 -2.080080055353623336e-01 -8.008889936241945229e-01
1.833333333333333259e+00 -1.934195738952811661e-01 -1.013780682975909953e+00
1.849999999999999867e+00 -1.742153161028320019e-01 -1.248372877774621914e+00
1.866666666666666696e+00 -1.518071446361271004e-01 -1.375939171976319431e+00
1.883333333333333304e+00 -1.283506770369546857e-01 -1.374148020589410324e+00
1.899999999999999911e+00 -1.060022106164800887e-01 -1.233522092779824719e+00
1.916666666666666741e+00 -8.723327394429386539e-02 -1.008938288979770226e+00
1.933333333333333348e+00 -7.237093431715441172e-02 -2.172389741781010297e+00
1.949999999999999956e+00 -1.482028255159351972e-02 -2.104382025926361255e+00
1.966666666666666563e+00 -2.224866786275705392e-03 -4.373624926471693097e-01
1.983333333333333393e+00 -2.415327966878759664e-04 -6.674600358827116608e-02
2.000000000000000000e+00 0.000000000000000000e+00 -1.449196780127255842e-02
