0.00000000 101.74119412 166.48291166
0.01666667 98.96647892 166.48291166
0.03333333 96.19176373 166.48291166
0.05000000 93.41704854 166.48291166
0.06666667 90.64233334 166.48291166
0.08333333 87.86761815 166.48291166
0.10000000 85.09290295 166.48291166
0.11666667 82.31818776 166.48291166
0.13333333 79.54347256 166.48291166
0.15000000 76.76875737 166.48291166
0.16666667 73.99404218 166.48291166
0.18333333 71.21932698 166.48291166
0.20000000 68.44461179 166.48291166
0.21666667 65.66989659 166.48291166
0.23333333 62.89518140 166.48291166
0.25000000 60.12046620 166.48291166
0.26666667 57.34575101 166.48291166
0.28333333 54.57103582 166.48291166
0.30000000 51.79632062 166.48291166
0.31666667 49.02160543 166.48291166
0.33333333 46.24689023 166.48291166
0.35000000 43.47217504 166.48291166
0.36666667 40.69745984 166.48291166
0.38333333 37.92274465 166.48291166
0.40000000 35.14802945 166.48291166
0.41666667 32.37331426 166.48291166
0.43333333 29.59859907 166.48291166
0.45000000 26.82388387 166.48291166
0.46666667 24.04916868 166.48291166
0.48333333 21.27445348 166.48291166
0.50000000 18.49973829 166.48291166
0.51666667 15.72502309 166.48291166
0.53333333 12.95030790 166.48291166
0.55000000 10.17559271 166.48291166
0.56666667 7.40087751 133.92628019
0.58333333 5.71138337 88.22557435
0.60000000 4.46002503 67.25837698
0.61666667 3.46943747 53.45212056
0.63333333 2.67828768 42.97531647
0.65000000 2.03692692 34.94938643
0.66666667 1.51330813 28.47873917
0.68333333 1.08763561 22.95770377
0.70000000 0.74805134 18.31563580
0.71666667 0.47711442 14.59289374
0.73333333 0.26162155 11.55527176
0.75000000 0.09193869 8.94024461
0.76666667 -0.03638660 6.69986469
0.78333333 -0.13139013 4.90094542
0.80000000 -0.19975145 3.45967845
0.81666667 -0.24671274 2.25208686
0.83333333 -0.27482101 1.23148775
0.85000000 -0.28776234 0.41467594
0.86666667 -0.28864354 -0.23567312
0.88333333 -0.27990657 -0.80171915
0.90000000 -0.26191957 -1.29252547
0.91666667 -0.23682238 -1.64374018
0.93333333 -0.20712823 -1.81477519
0.95000000 -0.17632988 -1.82959843
0.96666667 -0.14614162 -1.78580907
0.98333333 -0.11680291 -1.70044867
1.00000000 -0.08946000 -1.52448877
1.01666667 -0.06598662 -1.24246663
1.03333333 -0.04804444 -0.89138827
1.05000000 -0.03627367 -0.49963525
1.06666667 -0.03138993 -0.08086925
1.08333333 -0.03357803 0.29399441
1.10000000 -0.04118975 0.55766026
1.11666667 -0.05216671 0.73992762
1.13333333 -0.06585400 0.88883288
1.15000000 -0.08179447 0.99941585
1.16666667 -0.09916786 1.03922458
1.18333333 -0.11643529 1.04191003
1.20000000 -0.13389820 1.06059222
1.21666667 -0.15178836 1.05986734
1.23333333 -0.16922711 0.98232969
1.25000000 -0.18453269 0.81460060
1.26666667 -0.19638046 0.58984406
1.28333333 -0.20419415 0.33313079
1.30000000 -0.20748482 0.05727172
1.31666667 -0.20610321 -0.19297670
1.33333333 -0.20105227 -0.36747138
1.35000000 -0.19385417 -0.46693209
1.36666667 -0.18548786 -0.54154561
1.38333333 -0.17580265 -0.62734068
1.40000000 -0.16457651 -0.71625963
1.41666667 -0.15192733 -0.80157226
1.43333333 -0.13785743 -0.89657769
1.45000000 -0.12204140 -0.99263757
1.46666667 -0.10476951 -1.04807626
1.48333333 -0.08710553 -1.03328485
1.50000000 -0.07032668 -0.96677375
1.51666667 -0.05487974 -0.88808008
1.53333333 -0.04072401 -0.81929886
1.55000000 -0.02756977 -0.75387071
1.56666667 -0.01559499 -0.68382873
1.58333333 -0.00477548 -0.61246565
1.60000000 0.00482053 -0.53464257
1.61666667 0.01304594 -0.43292777
1.63333333 0.01925146 -0.31383902
1.65000000 0.02350724 -0.20607626
1.66666667 0.02612067 -0.12397819
1.68333333 0.02763984 -0.06361835
1.70000000 0.02824128 -0.02341214
1.71666667 0.02842025 -0.00308503
1.73333333 0.02834411 0.00844255
1.75000000 0.02813883 0.02455672
1.76666667 0.02752555 0.04855635
1.78333333 0.02652028 0.07743156
1.80000000 0.02494450 0.10779187
1.81666667 0.02292722 0.12922896
1.83333333 0.02063687 0.13549311
1.85000000 0.01841079 0.13165846
1.86666667 0.01624825 0.12666052
1.88333333 0.01418877 0.12391184
1.90000000 0.01211786 0.12509040
1.91666667 0.01001909 0.12945434
1.93333333 0.00780271 0.24873746
1.95000000 0.00172784 0.22783836
1.96666667 0.00020810 0.05128903
1.98333333 0.00001821 0.00624309
2.00000000 0.00000000 0.00109231
