0.00000000 105.26149749 189.63492374
0.01666667 102.10091543 189.63492374
0.03333333 98.94033337 189.63492374
0.05000000 95.77975131 189.63492374
0.06666667 92.61916924 189.63492374
0.08333333 89.45858718 189.63492374
0.10000000 86.29800512 189.63492374
0.11666667 83.13742306 189.63492374
0.13333333 79.97684099 189.63492374
0.15000000 76.81625893 189.63492374
0.16666667 73.65567687 189.63492374
0.18333333 70.49509481 189.63492374
0.20000000 67.33451275 189.63492374
0.21666667 64.17393068 189.63492374
0.23333333 61.01334862 189.63492374
0.25000000 57.85276656 189.63492374
0.26666667 54.69218450 189.63492374
0.28333333 51.53160243 189.63492374
0.30000000 48.37102037 189.63492374
0.31666667 45.21043831 189.63492374
0.33333333 42.04985625 189.63492374
0.35000000 38.88927418 189.63492374
0.36666667 35.72869212 189.63492374
0.38333333 32.56811006 189.63492374
0.40000000 29.40752800 189.63492374
0.41666667 26.24694594 189.63492374
0.43333333 23.08636387 189.63492374
0.45000000 19.92578181 189.63492374
0.46666667 16.76519975 189.63492374
0.48333333 13.60461769 189.63492374
0.50000000 10.44403562 189.63492374
0.51666667 7.28345356 148.91659257
0.53333333 5.48014921 92.90603006
0.55000000 4.18658589 68.67066749
0.56666667 3.19112696 53.87401475
0.58333333 2.39078540 43.68410263
0.60000000 1.73499020 35.78406816
0.61666667 1.19798313 29.21319285
0.63333333 0.76121711 23.90340978
0.65000000 0.40120280 19.99290564
0.66666667 0.09478692 17.15539425
0.68333333 -0.17064367 14.68798007
0.70000000 -0.39481242 12.34174640
0.71666667 -0.58203522 10.17573995
0.73333333 -0.73400375 8.09255991
0.75000000 -0.85178721 5.93156663
0.76666667 -0.93172264 3.68143330
0.78333333 -0.97450166 1.54549025
0.80000000 -0.98323898 -0.31850227
0.81666667 -0.96388492 -1.86678324
0.83333333 -0.92101287 -3.06386988
0.85000000 -0.86175592 -3.77318897
0.86666667 -0.79523990 -3.82008260
0.88333333 -0.73441983 -3.35111537
0.90000000 -0.68353606 -2.75304592
0.91666667 -0.64265164 -2.32021200
0.93333333 -0.60619566 -2.11476867
0.95000000 -0.57215935 -2.12208083
0.96666667 -0.53545963 -2.36259336
0.98333333 -0.49340623 -2.63769034
1.00000000 -0.44753662 -2.69554338
1.01666667 -0.40355479 -2.47899892
1.03333333 -0.36490332 -2.06396315
1.05000000 -0.33475602 -1.56287616
1.06666667 -0.31280745 -1.14093972
1.08333333 -0.29672469 -0.95190584
1.10000000 -0.28107726 -1.02679040
1.11666667 -0.26249835 -1.26200296
1.13333333 -0.23901049 -1.46719557
1.15000000 -0.21359183 -1.47889656
1.16666667 -0.18971394 -1.38187027
1.18333333 -0.16752948 -1.30748039
1.20000000 -0.14613126 -1.22755984
1.21666667 -0.12661082 -1.09108203
1.23333333 -0.10976186 -0.97641012
1.25000000 -0.09406382 -0.92387908
1.26666667 -0.07896589 -0.83136661
1.28333333 -0.06635160 -0.65466697
1.30000000 -0.05714366 -0.46965220
1.31666667 -0.05069653 -0.31923990
1.33333333 -0.04650233 -0.18944308
1.35000000 -0.04438176 -0.09272571
1.36666667 -0.04341147 -0.05552445
1.38333333 -0.04253094 -0.05788911
1.40000000 -0.04148183 -0.07164836
1.41666667 -0.04014266 -0.07435143
1.43333333 -0.03900345 -0.02730802
1.45000000 -0.03923240 0.04400407
1.46666667 -0.04047025 0.07331080
1.48333333 -0.04167609 0.04767191
1.50000000 -0.04205932 0.00100649
1.51666667 -0.04170964 -0.05578430
1.53333333 -0.04019984 -0.11977310
1.55000000 -0.03771720 -0.16315650
1.56666667 -0.03476129 -0.17583078
1.58333333 -0.03185618 -0.16618531
1.60000000 -0.02922178 -0.13629208
1.61666667 -0.02731311 -0.10496806
1.63333333 -0.02572284 -0.10948547
1.65000000 -0.02366359 -0.14867219
1.66666667 -0.02076710 -0.18630609
1.68333333 -0.01745339 -0.20666886
1.70000000 -0.01387814 -0.21738020
1.71666667 -0.01020738 -0.21532210
1.73333333 -0.00670074 -0.19807066
1.75000000 -0.00360503 -0.17685356
1.76666667 -0.00080562 -0.16026827
1.78333333 0.00173725 -0.14308849
1.80000000 0.00396400 -0.12217079
1.81666667 0.00580961 -0.09519646
1.83333333 0.00713721 -0.06213602
1.85000000 0.00788081 -0.02882975
1.86666667 0.00809820 0.00102642
1.88333333 0.00784660 0.02750042
1.90000000 0.00718152 0.04914872
1.91666667 0.00620831 0.06273008
1.93333333 0.00509052 0.14388150
1.95000000 0.00141225 0.14680696
1.96666667 0.00019695 0.04181078
1.98333333 0.00001856 0.00590863
2.00000000 0.00000000 0.00111374
