0.000000 2147.903200 499.935400
0.016700 2139.570000 500.010600
0.033300 2131.236700 499.990000
0.050000 2122.903300 499.990000
0.066700 2114.570000 500.020000
0.083300 2106.236700 499.990000
0.100000 2097.903300 499.990000
0.116700 2089.570000 500.020000
0.133300 2081.236700 499.990000
0.150000 2072.903300 499.990000
0.166700 2064.570000 500.020000
0.183300 2056.236700 499.990000
0.200000 2047.903300 499.990000
0.216700 2039.570000 500.020000
0.233300 2031.236700 499.990000
0.250000 2022.903300 499.990000
0.266700 2014.570000 500.020000
0.283300 2006.236700 499.990000
0.300000 1997.903300 499.990000
0.316700 1989.570000 500.020000
0.333300 1981.236700 499.990000
0.350000 1972.903300 499.990000
0.366700 1964.570000 500.020000
0.383300 1956.236700 499.990000
0.400000 1947.903300 499.990000
0.416700 1939.570000 500.020000
0.433300 1931.236700 499.991200
0.450000 1922.903200 500.038100
0.466700 1914.566100 500.942200
0.483300 1906.178400 510.175700
0.500000 1897.371100 571.598900
0.516700 1886.305400 843.602400
0.533300 1866.922400 1684.195900
0.550000 1825.797600 3554.352100
0.566700 1743.262700 6626.511800
0.583300 1601.403800 10536.973500
0.600000 1390.542700 14818.878400
0.616700 1107.692800 18931.341200
0.633300 768.160300 20875.607100
0.650000 433.247700 17945.995600
0.666700 187.957100 10991.025500
0.683300 64.174200 4527.393500
0.700000 22.508700 1278.266800
0.716700 11.777100 358.028600
0.733300 7.746600 193.430200
0.750000 4.950600 149.434900
0.766700 2.712100 121.119800
0.783300 0.893100 97.911300
0.800000 -0.560200 76.917900
0.816700 -1.677300 57.458100
0.833300 -2.480300 39.240500
0.850000 -2.992500 22.724800
0.866700 -3.246700 8.350000
0.883300 -3.282600 -3.084500
0.900000 -3.164100 -9.858300
0.916700 -2.972000 -12.483400
0.933300 -2.754100 -13.478400
0.950000 -2.524900 -13.942000
0.966700 -2.287900 -14.752200
0.983300 -2.029000 -16.350900
1.000000 -1.748300 -16.726100
1.016700 -1.481500 -14.925400
1.033300 -1.251400 -12.982400
1.050000 -1.040000 -13.010500
1.066700 -0.807500 -15.311200
1.083300 -0.528800 -17.805100
1.100000 -0.224000 -18.130500
1.116700 0.068900 -16.903100
1.133300 0.339700 -15.540600
1.150000 0.583200 -13.388400
1.166700 0.784200 -10.947200
1.183300 0.955400 -9.995100
1.200000 1.119200 -9.450600
1.216700 1.265000 -7.858400
1.233300 1.382700 -6.595800
1.250000 1.490300 -6.394600
1.266700 1.591400 -5.235800
1.283300 1.656800 -2.373900
1.300000 1.671900 0.264600
1.316700 1.653700 1.672400
1.333300 1.617400 2.819000
1.350000 1.554600 5.039200
1.366700 1.447400 7.563500
1.383300 1.312600 7.911600
1.400000 1.191700 6.515000
1.416700 1.091100 5.923500
1.433300 0.990100 6.233400
1.450000 0.885800 6.050200
1.466700 0.791200 5.334400
1.483300 0.703900 5.524300
1.500000 0.601700 6.754200
1.516700 0.484900 6.622300
1.533300 0.391200 4.360600
1.550000 0.335600 2.969500
1.566700 0.279000 4.362300
1.583300 0.189600 5.907300
1.600000 0.094300 4.882500
1.616700 0.031800 2.718000
1.633300 -0.003000 1.956700
1.650000 -0.040400 2.765600
1.666700 -0.094800 3.485300
1.683300 -0.149700 2.724200
1.700000 -0.182200 1.181400
1.716700 -0.191600 0.110200
1.733300 -0.187600 -0.553200
1.750000 -0.173100 -1.196200
1.766700 -0.147600 -1.823200
1.783300 -0.113600 -2.146200
1.800000 -0.078000 -2.031000
1.816700 -0.047500 -1.532500
1.833300 -0.028200 -0.762600
1.850000 -0.021100 -0.199100
1.866700 -0.019600 -0.063100
1.883300 -0.018400 -0.090000
1.900000 -0.016700 -0.101300
1.916700 -0.015400 -0.057900
1.933300 0.000000 0.000000
1.950000 0.000000 0.000000
1.966700 0.000000 0.000000
1.983300 0.000000 0.000000
2.000000 0.000000 0.000000
