0.000000000000000000e+00 nan nan
1.666666666666666644e-02 1.088391167934017516e+22 nan
3.333333333333333287e-02 2.657204989690380800e+18 3.265167359802324130e+23
5.000000000000000278e-02 2.047999909490330400e+16 7.969668774486045491e+19
6.666666666666666574e-02 6.487315283653611250e+14 6.130625590467064320e+17
8.333333333333332871e-02 4.458046001308951562e+13 1.931194627522489600e+16
1.000000000000000056e-01 4.999985857864591797e+12 1.313823868556175500e+15
1.166666666666666685e-01 7.863310612170039062e+11 1.452481984422085938e+14
1.333333333333333315e-01 1.583792431243053894e+11 2.243386708889163672e+13
1.499999999999999944e-01 3.853549158728274536e+10 4.424879737786958984e+12
1.666666666666666574e-01 1.088325186474008942e+10 1.052037430716426147e+12
1.833333333333333204e-01 3.467577230068541527e+09 2.898830913116838379e+11
2.000000000000000111e-01 1.220482154350628376e+09 9.001664586455747986e+10
2.166666666666666741e-01 4.670223679166256189e+08 3.085779175387780762e+10
2.333333333333333370e-01 1.918890958880348802e+08 1.149582641653170967e+10
2.500000000000000000e-01 8.382815403223532438e+07 4.597830054935240746e+09
2.666666666666666630e-01 3.862809405686018616e+07 1.955237480770767689e+09
2.833333333333333259e-01 1.865357133987640589e+07 8.771733325293277502e+08
2.999999999999999889e-01 9.388982972549257800e+06 4.125037550564504862e+08
3.166666666666666519e-01 4.903446171328055672e+06 2.022626210900637209e+08
3.333333333333333148e-01 2.646895602880466264e+06 1.029452392395294607e+08
3.499999999999999778e-01 1.471938196677073836e+06 5.418142473324118555e+07
3.666666666666666408e-01 8.408481117724269861e+05 2.939233484373584390e+07
3.833333333333333037e-01 4.921937018858790980e+05 1.638832013925961964e+07
4.000000000000000222e-01 2.945707737971064053e+05 9.368830474803635851e+06
4.166666666666666852e-01 1.798993527257579553e+05 5.479618653486227617e+06
4.333333333333333481e-01 1.119168186808987957e+05 3.272657096157748718e+06
4.500000000000000111e-01 7.081078285383299226e+04 1.992495133989454480e+06
4.666666666666666741e-01 4.550031421458364639e+04 1.234746540784031851e+06
4.833333333333333370e-01 2.965256482769859576e+04 7.777557343300932553e+05
5.000000000000000000e-01 1.957512307024720576e+04 4.973343640968496329e+05
5.166666666666666075e-01 1.307475269113694230e+04 3.224734746147890110e+05
5.333333333333333259e-01 8.826007249754238728e+03 2.117963182276568841e+05
5.500000000000000444e-01 6.014875416881713136e+03 1.407641507065805781e+05
5.666666666666666519e-01 4.133868892868219518e+03 9.458263100233524165e+04
5.833333333333333703e-01 2.862121050137205202e+03 6.419387698554716917e+04
5.999999999999999778e-01 1.994072993349980607e+03 4.397154900643910514e+04
6.166666666666666963e-01 1.396402749922568319e+03 3.037315366202626683e+04
6.333333333333333037e-01 9.816345379491050380e+02 2.113965901800692154e+04
6.500000000000000222e-01 6.917474493223376157e+02 1.481312585757133820e+04
6.666666666666666297e-01 4.878636760300604465e+02 1.044194722006556913e+04
6.833333333333333481e-01 3.436825419868186486e+02 7.398360486568140914e+03
6.999999999999999556e-01 2.412516598111224084e+02 5.264063550749878232e+03
7.166666666666666741e-01 1.682137569618226962e+02 3.757675318702401455e+03
7.333333333333332815e-01 1.159958158543756923e+02 2.829857300695050071e+03
7.500000000000000000e-01 7.388518027198769289e+01 2.226925749380858633e+03
7.666666666666666075e-01 4.176495754168040264e+01 1.420324317244710755e+03
7.833333333333333259e-01 2.654103636383067411e+01 7.836934061402331508e+02
8.000000000000000444e-01 1.564184400367263095e+01 5.594582644859902985e+02
8.166666666666666519e-01 7.892427547630996187e+00 3.975456297318321504e+02
8.333333333333333703e-01 2.390323012611561104e+00 2.815955791325030759e+02
8.499999999999999778e-01 -1.494091756785772551e+00 1.985928862663196242e+02
8.666666666666666963e-01 -4.229439862932426131e+00 1.387415999791809611e+02
8.833333333333333037e-01 -6.118811756091805165e+00 9.513764807667389789e+01
9.000000000000000222e-01 -7.400694798821556120e+00 6.326400106142573776e+01
9.166666666666666297e-01 -8.227611791472662972e+00 3.973711797708482152e+01
9.333333333333333481e-01 -8.725265398057716837e+00 2.226121174120851975e+01
9.499999999999999556e-01 -8.969652182846280297e+00 9.161546643687206171e+00
9.666666666666666741e-01 -9.030650286180623709e+00 -4.078551035410171721e-01
9.833333333333332815e-01 -8.956057012728246391e+00 -7.241613681828589222e+00
1.000000000000000000e+00 -8.789263163453004069e+00 -1.177446685448021668e+01
1.016666666666666607e+00 -8.563574784245572502e+00 -1.458733330378988668e+01
1.033333333333333215e+00 -8.303018719993341179e+00 -1.627110507053087574e+01
1.050000000000000044e+00 -8.021204615227876644e+00 -1.748393867688594128e+01
1.066666666666666652e+00 -7.720220764097143196e+00 -1.844514675654584934e+01
1.083333333333333259e+00 -7.406366390009681666e+00 -1.917041644460329053e+01
1.100000000000000089e+00 -7.081206882610366904e+00 -1.985358982458826915e+01
1.116666666666666696e+00 -6.744580062523406028e+00 -2.034422825982674610e+01
1.133333333333333304e+00 -6.403065940616142093e+00 -2.061483462351734630e+01
1.149999999999999911e+00 -6.057418908406161151e+00 -2.046971740759374825e+01
1.166666666666666741e+00 -5.720742027029683818e+00 -1.996997444128352228e+01
1.183333333333333348e+00 -5.391753093696710408e+00 -1.904161185904981579e+01
1.199999999999999956e+00 -5.086021631728023351e+00 -1.775476417712368971e+01
1.216666666666666563e+00 -4.799927621125920751e+00 -1.646032067740974725e+01
1.233333333333333393e+00 -4.537344275814365169e+00 -1.526545992467416291e+01
1.250000000000000000e+00 -4.291078956970115321e+00 -1.449172469424508947e+01
1.266666666666666607e+00 -4.054286786006195520e+00 -1.403019571089202699e+01
1.283333333333333215e+00 -3.823405766607047784e+00 -1.367224699246246900e+01
1.300000000000000044e+00 -3.598545219590779887e+00 -1.332071655365707485e+01
1.316666666666666652e+00 -3.379381881485145289e+00 -1.298666706138492444e+01
1.333333333333333259e+00 -3.165656317544615739e+00 -1.288128917817430086e+01
1.350000000000000089e+00 -2.950005575546001957e+00 -1.264584272888350291e+01
1.366666666666666696e+00 -2.744128226581832308e+00 -1.214609028744410324e+01
1.383333333333333304e+00 -2.545135899297865212e+00 -1.160977997899847658e+01
1.399999999999999911e+00 -2.357135560615216452e+00 -1.102707479755737907e+01
1.416666666666666741e+00 -2.177566739379285909e+00 -1.046109467854878794e+01
1.433333333333333348e+00 -2.008432404663590187e+00 -9.877571302013375742e+00
1.449999999999999956e+00 -1.848314362645506748e+00 -9.281648208538189948e+00
1.466666666666666563e+00 -1.699044131045650552e+00 -8.721031045536960846e+00
1.483333333333333393e+00 -1.557613327794274749e+00 -8.140644214809574564e+00
1.500000000000000000e+00 -1.427689323885331429e+00 -7.564914649211669229e+00
1.516666666666666607e+00 -1.305449506153885775e+00 -7.001162134467500131e+00
1.533333333333333215e+00 -1.194317252736414758e+00 -6.447424435253652497e+00
1.550000000000000044e+00 -1.090535358312097358e+00 -5.913789246982053882e+00
1.566666666666666652e+00 -9.971909445036796216e-01 -5.386583849699696280e+00
1.583333333333333259e+00 -9.109825633221074748e-01 -4.954530229609996006e+00
1.600000000000000089e+00 -8.320399368500130954e-01 -4.562850137889602919e+00
1.616666666666666696e+00 -7.588875587257873923e-01 -4.239501513147543754e+00
1.633333333333333304e+00 -6.907232197450949851e-01 -3.925053012836764665e+00
1.649999999999999911e+00 -6.280524582978952441e-01 -3.608597935172067839e+00
1.666666666666666741e+00 -5.704366219060260645e-01 -3.288372674482897828e+00
1.683333333333333348e+00 -5.184400358151319832e-01 -2.988213625916402272e+00
1.699999999999999956e+00 -4.708295010421459925e-01 -2.735677930392846235e+00
1.716666666666666563e+00 -4.272507714687037716e-01 -2.528864415203726068e+00
1.733333333333333393e+00 -3.865340205353551273e-01 -2.355081896394384700e+00
1.750000000000000000e+00 -3.487480415888909446e-01 -2.171593193377598929e+00
1.766666666666666607e+00 -3.141475807561018296e-01 -1.980547969317538293e+00
1.783333333333333215e+00 -2.827297759449730052e-01 -1.804750817105634342e+00
1.800000000000000044e+00 -2.539892201859140219e-01 -1.669372867892483736e+00
1.816666666666666652e+00 -2.270840136818902122e-01 -1.567444136681637845e+00
1.833333333333333259e+00 -2.017410822965260975e-01 -1.465607184001760155e+00
1.849999999999999867e+00 -1.782304408818315422e-01 -1.376198705167162029e+00
1.866666666666666696e+00 -1.558677921242873632e-01 -1.308985173161269833e+00
1.883333333333333304e+00 -1.345976017764558830e-01 -1.251424932124300282e+00
1.899999999999999911e+00 -1.141536277201440214e-01 -1.205130081267290043e+00
1.916666666666666741e+00 -9.442659906754621857e-02 -1.166726139244840477e+00
1.933333333333333348e+00 -7.526275641198267030e-02 -1.842644503982831417e+00
1.949999999999999956e+00 -3.300511560145184126e-02 -2.093693771386981872e+00
1.966666666666666563e+00 -5.472964032416612230e-03 -9.776940334785756415e-01
1.983333333333333393e+00 -4.153144854993237557e-04 -1.641889209724983756e-01
2.000000000000000000e+00 0.000000000000000000e+00 -2.491886912995942491e-02
