0	1.25918e+08	5.03899e+07
0.0166667	1.25078e+08	9.98159e+07
0.0333333	1.22591e+08	1.95837e+08
0.05	1.1855e+08	2.84502e+08
0.0666667	1.13107e+08	3.62702e+08
0.0833333	1.0646e+08	4.27949e+08
0.1	9.88425e+07	4.78499e+08
0.116667	9.05103e+07	5.13414e+08
0.133333	8.17287e+07	5.32564e+08
0.15	7.27581e+07	5.36571e+08
0.166667	6.3843e+07	5.26717e+08
0.183333	5.52009e+07	5.04812e+08
0.2	4.70159e+07	4.73041e+08
0.216667	3.94329e+07	4.33808e+08
0.233333	3.25556e+07	3.89577e+08
0.25	2.6447e+07	3.42722e+08
0.266667	2.11316e+07	2.95408e+08
0.283333	1.66001e+07	2.49489e+08
0.3	1.28153e+07	2.06446e+08
0.316667	9.71853e+06	1.67351e+08
0.333333	7.23688e+06	1.32874e+08
0.35	5.2894e+06	1.03312e+08
0.366667	3.79316e+06	7.8642e+07
0.383333	2.668e+06	5.85946e+07
0.4	1.84001e+06	4.27227e+07
0.416667	1.24391e+06	3.04767e+07
0.433333	824121	2.12669e+07
0.45	535009	1.45146e+07
0.466667	340302	9.6878e+06
0.483333	212083	6.32339e+06
0.5	129522	4.03642e+06
0.516667	77535.4	2.52016e+06
0.533333	45516.6	1.53946e+06
0.55	26220.1	920479
0.566667	14834	539099
0.583333	8250.16	309571
0.6	4514.99	174518
0.616667	2432.9	96835.8
0.633333	1287.13	52879.5
0.65	670.252	28336.5
0.666667	342.576	15094.8
0.683333	167.091	7863.17
0.7	80.4702	3829.9
0.716667	39.4279	1760.5
0.733333	21.7869	765.348
0.75	13.9163	347.566
0.766667	10.2014	173.014
0.783333	8.1492	104.701
0.8	6.71132	76.5855
0.816667	5.59635	62.4376
0.833333	4.63007	55.3329
0.85	3.75193	49.2797
0.866667	2.98741	44.8869
0.883333	2.25569	41.3269
0.9	1.60985	37.4164
0.916667	1.00848	34.0595
0.933333	0.474531	30.2209
0.95	0.00111696	27.2043
0.966667	-0.432278	23.8887
0.983333	-0.795175	20.7467
1	-1.12383	18.4498
1.01667	-1.41017	16.063
1.03333	-1.65927	13.9085
1.05	-1.87378	12.295
1.06667	-2.0691	10.5853
1.08333	-2.22663	8.60994
1.1	-2.3561	6.88279
1.11667	-2.45606	5.67845
1.13333	-2.54538	4.31202
1.15	-2.59979	2.99052
1.16667	-2.64506	2.07171
1.18333	-2.66885	1.48782
1.2	-2.69466	0.990331
1.21667	-2.70186	0.524611
1.23333	-2.71215	1.0417
1.25	-2.73658	1.35575
1.26667	-2.75734	1.24934
1.28333	-2.77823	1.012
1.3	-2.79107	0.923909
1.31667	-2.80902	0.684606
1.33333	-2.81389	0.360487
1.35	-2.82104	0.297463
1.36667	-2.82381	0.242694
1.38333	-2.82913	0.174923
1.4	-2.82964	-0.184372
1.41667	-2.82298	-0.587759
1.43333	-2.81004	-1.04479
1.45	-2.78816	-1.62666
1.46667	-2.75582	-2.21245
1.48333	-2.71441	-2.68975
1.5	-2.66616	-3.32313
1.51667	-2.60364	-3.97353
1.53333	-2.53371	-4.42471
1.55	-2.45615	-4.91951
1.56667	-2.36973	-5.3201
1.58333	-2.27881	-5.62979
1.6	-2.18207	-5.84462
1.61667	-2.08399	-6.01456
1.63333	-1.98158	-6.19902
1.65	-1.87736	-6.26283
1.66667	-1.77282	-6.27215
1.68333	-1.66828	-6.18174
1.7	-1.56677	-6.06351
1.71667	-1.46617	-5.98074
1.73333	-1.36741	-5.80741
1.75	-1.27259	-5.5821
1.76667	-1.18134	-5.34299
1.78333	-1.09449	-5.15572
1.8	-1.00948	-4.9848
1.81667	-0.928327	-4.80519
1.83333	-0.849307	-4.63591
1.85	-0.773796	-4.44491
1.86667	-0.701143	-4.29927
1.88333	-0.630487	-4.1131
1.9	-0.56404	-3.8377
1.91667	-0.502564	-3.53345
1.93333	-0.446258	-3.16278
1.95	-0.397138	-2.68294
1.96667	-0.356827	-2.08498
1.98333	-0.327639	-1.35946
2	-0.311512	-0.967641
