0	2605.41	1335.52
0.0166667	2583.15	2556.47
0.0333333	2520.19	4707.21
0.05	2426.24	6220.24
0.0666667	2312.85	7097.29
0.0833333	2189.66	7501.58
0.1	2062.8	7631.86
0.116667	1935.27	7633.62
0.133333	1808.35	7577.89
0.15	1682.67	7486.36
0.166667	1558.79	7362.71
0.183333	1437.25	7211.18
0.2	1318.42	7051.48
0.216667	1202.2	6932.21
0.233333	1087.35	6970.79
0.25	969.84	7157.78
0.266667	848.755	7727.54
0.283333	712.258	9283.42
0.3	539.311	12135.4
0.316667	307.737	9108.42
0.333333	235.7	4036.88
0.35	173.175	3443.94
0.366667	120.9	2454.72
0.383333	91.352	1484.31
0.4	71.4233	916.802
0.416667	60.7913	393.667
0.433333	58.3012	201.324
0.45	54.0805	246.677
0.466667	50.0784	215.366
0.483333	46.9017	186.435
0.5	43.864	184.796
0.516667	40.7417	194.832
0.533333	37.3697	172.575
0.55	34.9893	165.112
0.566667	31.8658	162.213
0.583333	29.5823	150.832
0.6	26.8381	146.442
0.616667	24.7007	137.905
0.633333	22.2414	126.733
0.65	20.4764	122.118
0.666667	18.1707	124.347
0.683333	16.3315	106.475
0.7	14.6215	103.779
0.716667	12.8721	97.4229
0.733333	11.3741	92.9232
0.75	9.77474	87.7566
0.766667	8.44886	80.1768
0.783333	7.1022	73.5709
0.8	5.99652	68.507
0.816667	4.81859	67.8181
0.833333	3.73594	59.3492
0.85	2.8403	53.6046
0.866667	1.94908	49.7735
0.883333	1.1812	47.8413
0.9	0.354387	43.7206
0.916667	-0.276184	35.0156
0.933333	-0.812789	32.7733
0.95	-1.36862	31.4285
0.966667	-1.86043	27.592
0.983333	-2.28834	23.5532
1	-2.64553	19.4855
1.01667	-2.93793	17.6355
1.03333	-3.23332	16.3019
1.05	-3.48127	12.9276
1.06667	-3.66432	7.93488
1.08333	-3.74574	6.39446
1.1	-3.87745	7.49747
1.11667	-3.9957	7.40189
1.13333	-4.12416	3.80951
1.15	-4.12268	3.11161
1.16667	-4.2279	4.25825
1.18333	-4.2646	1.9979
1.2	-4.29449	-1.93213
1.21667	-4.20019	-2.69146
1.23333	-4.20478	0.483866
1.25	-4.21631	-0.384172
1.26667	-4.19197	-3.30624
1.28333	-4.10612	-3.70949
1.3	-4.06834	-3.24627
1.31667	-3.99789	-4.47855
1.33333	-3.91907	-4.30103
1.35	-3.85453	-4.73795
1.36667	-3.7611	-5.33918
1.38333	-3.67658	-5.98545
1.4	-3.56161	-6.47383
1.41667	-3.46074	-6.66454
1.43333	-3.33948	-6.26831
1.45	-3.25182	-6.88299
1.46667	-3.11	-8.23877
1.48333	-2.97722	-7.19024
1.5	-2.87035	-8.23281
1.51667	-2.70274	-8.01652
1.53333	-2.60316	-6.12005
1.55	-2.49876	-7.48721
1.56667	-2.35353	-7.75022
1.58333	-2.24044	-6.94426
1.6	-2.12208	-6.80584
1.61667	-2.01354	-7.11927
1.63333	-1.8848	-7.64555
1.65	-1.75871	-7.27042
1.66667	-1.6424	-6.59235
1.68333	-1.53899	-6.14128
1.7	-1.43771	-5.88533
1.71667	-1.34277	-5.54212
1.73333	-1.25299	-5.28614
1.75	-1.16658	-4.94475
1.76667	-1.08814	-5.0789
1.78333	-0.997302	-5.42507
1.8	-0.907318	-5.13816
1.81667	-0.825996	-5.29159
1.83333	-0.730949	-6.02574
1.85	-0.625158	-5.9971
1.86667	-0.531006	-5.84738
1.88333	-0.430265	-5.98254
1.9	-0.331608	-5.43926
1.91667	-0.24892	-4.84411
1.93333	-0.170154	-4.24007
1.95	-0.107598	-3.32892
1.96667	-0.0591676	-2.36155
1.98333	-0.0288881	-1.7752
2	0	-1.73294
