0	426.349	165.891
0.0166667	423.584	306.771
0.0333333	416.123	532.22
0.05	405.844	650.093
0.0666667	394.454	690.072
0.0833333	382.841	696.743
0.1	371.229	696.734
0.116667	359.616	696.749
0.133333	348.004	696.748
0.15	336.392	696.728
0.166667	324.779	696.749
0.183333	313.167	696.749
0.2	301.555	696.728
0.216667	289.942	696.749
0.233333	278.33	696.749
0.25	266.718	696.728
0.266667	255.105	696.749
0.283333	243.493	696.749
0.3	231.88	696.728
0.316667	220.268	696.749
0.333333	208.656	696.749
0.35	197.043	696.728
0.366667	185.431	696.749
0.383333	173.819	696.702
0.4	162.208	696.328
0.416667	150.607	695.253
0.433333	139.033	657.294
0.45	128.698	601.422
0.466667	118.985	518.43
0.483333	111.417	778.964
0.5	93.02	1116.9
0.516667	74.1861	901.284
0.533333	62.9775	658.286
0.55	52.2435	614.041
0.566667	42.509	551.718
0.583333	33.8531	486.306
0.6	26.299	420.669
0.616667	19.8305	357.217
0.633333	14.3919	298.254
0.65	9.88877	245.829
0.666667	6.19739	200.676
0.683333	3.19965	161.702
0.7	0.807389	127.202
0.716667	-1.04051	96.1705
0.733333	-2.39826	68.8078
0.75	-3.33408	46.1238
0.766667	-3.93575	28.8201
0.783333	-4.29474	16.3616
0.8	-4.48113	7.17236
0.816667	-4.53382	-0.197178
0.833333	-4.47456	-6.24141
0.85	-4.32578	-10.8331
0.866667	-4.11345	-14.018
0.883333	-3.85852	-16.1746
0.9	-3.5743	-17.5993
0.916667	-3.27186	-18.2885
0.933333	-2.96469	-18.171
0.95	-2.66617	-17.3387
0.966667	-2.38672	-15.904
0.983333	-2.13604	-13.8536
1	-1.92494	-11.2758
1.01667	-1.76014	-8.68103
1.03333	-1.6356	-6.84753
1.05	-1.53191	-6.25708
1.06667	-1.42699	-6.71341
1.08333	-1.30815	-7.58136
1.1	-1.17431	-8.31256
1.11667	-1.03101	-8.61607
1.13333	-0.887131	-8.24571
1.15	-0.75618	-7.02587
1.16667	-0.652889	-5.13616
1.18333	-0.584992	-3.16963
1.2	-0.547245	-1.79203
1.21667	-0.525246	-1.21829
1.23333	-0.506639	-1.09598
1.25	-0.488717	-0.922267
1.26667	-0.475891	-0.507801
1.28333	-0.471792	-0.0552833
1.3	-0.474048	0.117052
1.31667	-0.475694	-0.0609855
1.33333	-0.472016	-0.335199
1.35	-0.464522	-0.412942
1.36667	-0.458248	-0.265271
1.38333	-0.45568	-0.18663
1.4	-0.452028	-0.562252
1.41667	-0.436935	-1.50058
1.43333	-0.402014	-2.66493
1.45	-0.348113	-3.47113
1.46667	-0.286286	-3.54321
1.48333	-0.230018	-3.03131
1.5	-0.185253	-2.47161
1.51667	-0.147614	-2.27562
1.53333	-0.109406	-2.38932
1.55	-0.0679784	-2.4701
1.56667	-0.0270531	-2.29901
1.58333	0.00864779	-1.92285
1.6	0.0370355	-1.47248
1.61667	0.0577402	-1.00801
1.63333	0.0706325	-0.566707
1.65	0.0766285	-0.246531
1.66667	0.0788518	-0.121028
1.68333	0.0806624	-0.127803
1.7	0.0831115	-0.110944
1.71667	0.0843613	0.0527653
1.73333	0.0813528	0.38209
1.75	0.0716262	0.807677
1.76667	0.0544249	1.22298
1.78333	0.0308642	1.51785
1.8	0.00383501	1.58993
1.81667	-0.0221442	1.38306
1.83333	-0.0422622	0.943712
1.85	-0.0535981	0.433747
1.86667	-0.0567234	0.0383462
1.88333	-0.0548762	-0.161833
1.9	-0.0513295	-0.221184
1.91667	-0.0475019	-0.250231
1.93333	-0.0429893	-0.322894
1.95	-0.0367399	-0.438266
1.96667	-0.0283775	-0.532618
1.98333	-0.0189877	-0.851409
2	0	-1.13903
