0	7.08527e+08	1.6438e+09
0.0166667	6.8113e+08	3.03976e+09
0.0333333	6.07201e+08	5.2737e+09
0.05	5.0534e+08	6.41758e+09
0.0666667	3.93282e+08	6.66301e+09
0.0833333	2.8324e+08	6.26449e+09
0.1	1.84466e+08	5.33015e+09
0.116667	1.05568e+08	3.97925e+09
0.133333	5.18243e+07	2.51665e+09
0.15	2.16798e+07	1.31292e+09
0.166667	8.06032e+06	5.59672e+08
0.183333	3.02407e+06	2.03174e+08
0.2	1.28785e+06	7.26351e+07
0.216667	602904	2.95205e+07
0.233333	303830	1.3214e+07
0.25	162437	6.38002e+06
0.266667	91162.2	3.27475e+06
0.283333	53278.6	1.7681e+06
0.3	32225.6	996175
0.316667	20072.7	582059
0.333333	12823.6	350954
0.35	8374.27	217488
0.366667	5574.01	137853
0.383333	3779.15	89372.5
0.4	2594.93	59254.4
0.416667	1804.01	39827.6
0.433333	1267.34	27179.5
0.45	898.024	18804.4
0.466667	640.529	13178.1
0.483333	458.755	9345.9
0.5	328.999	7491.08
0.516667	209.052	5666.8
0.533333	140.106	3295.03
0.55	99.2179	2108.29
0.566667	69.8296	1511.12
0.583333	48.8472	1080.13
0.6	33.8254	774.059
0.616667	23.0452	556.172
0.633333	15.2864	401.463
0.65	9.66309	292.271
0.666667	5.54401	215.244
0.683333	2.48829	160.557
0.7	0.192112	121.218
0.716667	-1.55229	92.4888
0.733333	-2.89085	71.3739
0.75	-3.93142	55.8281
0.766667	-4.75178	44.0954
0.783333	-5.40127	34.6548
0.8	-5.90694	26.5899
0.816667	-6.2876	19.6861
0.833333	-6.56315	13.9496
0.85	-6.75258	9.14966
0.866667	-6.86813	4.90817
0.883333	-6.91619	1.0607
0.9	-6.90349	-2.31381
0.916667	-6.83906	-5.20202
0.933333	-6.73009	-7.82577
0.95	-6.5782	-10.3736
0.966667	-6.3843	-12.7014
0.983333	-6.15482	-14.4753
1	-5.90179	-15.5482
1.01667	-5.63655	-16.1286
1.03333	-5.36417	-16.5245
1.05	-5.08573	-16.8115
1.06667	-4.80379	-16.823
1.08333	-4.52496	-16.3883
1.1	-4.25751	-15.5497
1.11667	-4.00664	-14.5555
1.13333	-3.77233	-13.6227
1.15	-3.55255	-12.7645
1.16667	-3.34685	-11.8841
1.18333	-3.15642	-10.9556
1.2	-2.98166	-10.099
1.21667	-2.81978	-9.42962
1.23333	-2.66734	-8.88768
1.25	-2.52353	-8.34471
1.26667	-2.38918	-7.78286
1.28333	-2.2641	-7.30263
1.3	-2.14576	-6.98771
1.31667	-2.03117	-6.8207
1.33333	-1.91841	-6.74889
1.35	-1.80621	-6.74718
1.36667	-1.6935	-6.76079
1.38333	-1.58085	-6.67399
1.4	-1.47103	-6.41186
1.41667	-1.36712	-6.03312
1.43333	-1.26993	-5.67843
1.45	-1.17784	-5.41452
1.46667	-1.08945	-5.18332
1.48333	-1.00506	-4.90527
1.5	-0.925937	-4.56751
1.51667	-0.852813	-4.20888
1.53333	-0.785641	-3.85697
1.55	-0.724248	-3.5162
1.56667	-0.668434	-3.20046
1.58333	-0.617566	-2.93155
1.6	-0.570716	-2.71469
1.61667	-0.527076	-2.54264
1.63333	-0.485961	-2.40321
1.65	-0.446969	-2.25861
1.66667	-0.410674	-2.05886
1.68333	-0.37834	-1.8057
1.7	-0.350484	-1.57346
1.71667	-0.325891	-1.4361
1.73333	-0.302614	-1.38851
1.75	-0.279608	-1.37076
1.76667	-0.256922	-1.34276
1.78333	-0.234849	-1.30196
1.8	-0.213523	-1.25071
1.81667	-0.193159	-1.18579
1.83333	-0.173997	-1.11527
1.85	-0.155984	-1.0604
1.86667	-0.13865	-1.03587
1.88333	-0.121455	-1.03571
1.9	-0.104127	-1.0436
1.91667	-0.0866679	-1.04845
1.93333	-0.0691785	-1.0423
1.95	-0.0519244	-1.00332
1.96667	-0.0357344	-0.885907
1.98333	-0.0223942	-1.07203
2	0	-1.34365
