0	627.752	255.693
0.0166667	623.49	472.836
0.0333333	611.991	820.327
0.05	596.146	1002.01
0.0666667	578.59	1063.63
0.0833333	560.692	1073.91
0.1	542.793	1073.9
0.116667	524.895	1073.92
0.133333	506.996	1073.92
0.15	489.098	1073.89
0.166667	471.199	1073.92
0.183333	453.301	1073.92
0.2	435.402	1073.89
0.216667	417.504	1073.92
0.233333	399.605	1073.92
0.25	381.707	1073.89
0.266667	363.808	1073.92
0.283333	345.91	1073.92
0.3	328.011	1073.89
0.316667	310.113	1073.92
0.333333	292.214	1073.92
0.35	274.316	1073.89
0.366667	256.417	1073.92
0.383333	238.519	1073.84
0.4	220.623	1073.7
0.416667	202.728	1074.42
0.433333	184.809	1077.18
0.45	166.822	1036.57
0.466667	150.256	902.072
0.483333	136.753	1027.75
0.5	115.998	1644.66
0.516667	81.9303	1435.59
0.533333	68.146	804.868
0.55	55.1016	733.294
0.566667	43.7024	630.514
0.583333	34.0847	528.971
0.6	26.0702	440.599
0.616667	19.3978	366.545
0.633333	13.8521	303.267
0.65	9.28897	247.688
0.666667	5.59567	198.577
0.683333	2.66979	155.551
0.7	0.410686	118.469
0.716667	-1.27925	86.9487
0.733333	-2.48758	60.3113
0.75	-3.28961	37.9207
0.766667	-3.75162	19.408
0.783333	-3.93654	4.54048
0.8	-3.90297	-6.94885
0.816667	-3.70491	-15.1592
0.833333	-3.39767	-19.789
0.85	-3.04528	-20.6487
0.866667	-2.70936	-18.6849
0.883333	-2.42246	-15.9006
0.9	-2.17935	-13.9412
0.916667	-1.95774	-13.0928
0.933333	-1.74293	-12.8665
0.95	-1.52886	-12.9973
0.966667	-1.30967	-13.3407
0.983333	-1.08418	-13.2937
1	-0.866557	-12.0759
1.01667	-0.681601	-9.68456
1.03333	-0.54377	-7.15713
1.05	-0.443054	-5.84037
1.06667	-0.349053	-6.32505
1.08333	-0.23224	-7.88658
1.1	-0.0861929	-9.03712
1.11667	0.0690573	-8.72175
1.13333	0.204503	-7.07606
1.15	0.304902	-5.0895
1.16667	0.374187	-3.50531
1.18333	0.421734	-2.21276
1.2	0.447938	-0.677657
1.21667	0.444327	1.30063
1.23333	0.404588	3.31337
1.25	0.333892	4.68448
1.26667	0.248408	5.02351
1.28333	0.166459	4.4164
1.3	0.101209	3.27273
1.31667	0.0573459	2.12881
1.33333	0.0302558	1.44505
1.35	0.00918239	1.35551
1.36667	-0.0149369	1.47635
1.38333	-0.0400242	1.1231
1.4	-0.0523699	-0.0368198
1.41667	-0.0387966	-1.6128
1.43333	0.00138459	-2.82966
1.45	0.0555161	-3.1643
1.46667	0.106882	-2.6641
1.48333	0.14431	-1.75708
1.5	0.165446	-0.903581
1.51667	0.174436	-0.350097
1.53333	0.177115	-0.0798337
1.55	0.177097	0.0412223
1.56667	0.17574	0.0660229
1.58333	0.174896	-0.0436172
1.6	0.177194	-0.237117
1.61667	0.182802	-0.308901
1.63333	0.18749	-0.0958912
1.65	0.185998	0.305204
1.66667	0.177314	0.617526
1.68333	0.165415	0.654721
1.7	0.155492	0.480332
1.71667	0.149401	0.332406
1.73333	0.144413	0.407198
1.75	0.135829	0.710703
1.76667	0.120718	1.07979
1.78333	0.0998399	1.33648
1.8	0.0761735	1.42985
1.81667	0.0521687	1.41925
1.83333	0.0288698	1.34985
1.85	0.00717816	1.20388
1.86667	-0.0112677	0.96416
1.88333	-0.0249573	0.670761
1.9	-0.0336241	0.389475
1.91667	-0.0379424	0.139324
1.93333	-0.0382678	-0.104904
1.95	-0.034446	-0.338653
1.96667	-0.0269771	-0.496688
1.98333	-0.0178914	-0.809394
2	0	-1.07327
