0.000000000000000000e+00 4.942451013140536134e+02 7.429234313872603934e+02
1.666669999999999957e-02 4.818630812702518256e+02 7.429189738689575506e+02
3.333330000000000320e-02 4.694811355184216950e+02 7.429189738689558453e+02
5.000000000000000278e-02 4.570991154746199641e+02 7.429212026281055614e+02
6.666669999999999541e-02 4.447170954308181763e+02 7.429189738689575506e+02
8.333329999999999904e-02 4.323351496789880457e+02 7.429189738689575506e+02
1.000000000000000056e-01 4.199531296351862579e+02 7.429278889055581203e+02
1.166670000000000068e-01 4.075708867154694417e+02 7.429122875915066970e+02
1.333330000000000071e-01 3.951893867154693680e+02 7.429122875915066970e+02
1.499999999999999944e-01 3.828071437957525518e+02 7.429345751830089739e+02
1.666670000000000096e-01 3.704249008760357356e+02 7.429122875915049917e+02
1.833329999999999960e-01 3.580434008760357187e+02 7.429122875915049917e+02
2.000000000000000111e-01 3.456611579563189025e+02 7.429345751830089739e+02
2.166669999999999985e-01 3.332789150366020863e+02 7.429122875915066970e+02
2.333330000000000126e-01 3.208974150366020126e+02 7.429122875915066970e+02
2.500000000000000000e-01 3.085151721168851964e+02 7.429345751830089739e+02
2.666669999999999874e-01 2.961329291971683801e+02 7.429122875915049917e+02
2.833330000000000015e-01 2.837514291971683633e+02 7.429122875915049917e+02
2.999999999999999889e-01 2.713691862774515471e+02 7.429345751830089739e+02
3.166669999999999763e-01 2.589869433577347309e+02 7.429122875915066970e+02
3.333329999999999904e-01 2.466054433577346572e+02 7.429122875915059012e+02
3.499999999999999778e-01 2.342232004380178694e+02 7.429345751830089739e+02
3.666670000000000207e-01 2.218409575183010247e+02 7.429122875915059012e+02
3.833329999999999793e-01 2.094594575183010079e+02 7.429122875915059012e+02
4.000000000000000222e-01 1.970772145985841632e+02 7.429345751830098834e+02
4.166670000000000096e-01 1.846949716788673470e+02 7.429122875915059012e+02
4.333330000000000237e-01 1.723134716788673018e+02 7.429122875915059012e+02
4.500000000000000111e-01 1.599312287591504855e+02 7.429345751830089739e+02
4.666669999999999985e-01 1.475489858394336693e+02 7.429122875915059012e+02
4.833330000000000126e-01 1.351674858394336241e+02 7.429122875915054465e+02
5.000000000000000000e-01 1.227852429197168220e+02 7.429345751830085192e+02
5.166669999999999874e-01 1.104030000000000058e+02 7.429122875915045370e+02
5.333329999999999460e-01 9.802150000000000318e+01 7.949790000000001555e+02
5.500000000000000444e-01 8.390370000000000061e+01 8.273880000000000337e+02
5.666670000000000318e-01 7.044190000000000396e+01 7.605780000000000882e+02
5.833329999999999904e-01 5.855109999999999815e+01 6.620820000000001073e+02
5.999999999999999778e-01 4.837250000000000227e+01 5.655060000000000855e+02
6.166669999999999652e-01 3.970089999999999719e+01 4.828800000000001091e+02
6.333330000000000348e-01 3.227649999999999864e+01 4.137029999999999745e+02
6.500000000000000222e-01 2.591079999999999828e+01 3.534029999999999063e+02
6.666670000000000096e-01 2.049640000000000128e+01 2.983919999999999959e+02
6.833329999999999682e-01 1.596439999999999948e+01 2.478090000000000259e+02
6.999999999999999556e-01 1.223610000000000042e+01 2.029568999999999619e+02
7.166670000000000540e-01 9.199170000000000513e+00 1.652061000000000206e+02
7.333330000000000126e-01 6.729230000000000267e+00 1.343202000000000282e+02
7.500000000000000000e-01 4.721829999999999750e+00 1.088484000000000123e+02
7.666669999999999874e-01 3.100950000000000095e+00 8.738339999999999463e+01
7.833329999999999460e-01 1.809050000000000047e+00 6.927459000000000344e+01
8.000000000000000444e-01 7.917969999999999731e-01 5.438198549999999898e+01
8.166670000000000318e-01 -3.682850000000000099e-03 4.228617000000000559e+01
8.333329999999999904e-01 -6.177420000000000133e-01 3.219771450000000357e+01
8.499999999999999778e-01 -1.076940000000000008e+00 2.365283999999999764e+01
8.666669999999999652e-01 -1.406169999999999920e+00 1.662600000000000122e+01
8.833330000000000348e-01 -1.631140000000000034e+00 1.094610000000000127e+01
9.000000000000000222e-01 -1.771039999999999948e+00 6.281699999999998951e+00
9.166670000000000096e-01 -1.840529999999999999e+00 2.518800000000001038e+00
9.333329999999999682e-01 -1.854999999999999982e+00 -3.969000000000022510e-01
9.499999999999999556e-01 -1.827299999999999924e+00 -2.720100000000000851e+00
9.666670000000000540e-01 -1.764329999999999954e+00 -4.656899999999999373e+00
9.833330000000000126e-01 -1.672069999999999945e+00 -6.142800000000002036e+00
1.000000000000000000e+00 -1.559569999999999901e+00 -7.109999999999996767e+00
1.016669999999999963e+00 -1.435070000000000068e+00 -7.762199999999999100e+00
1.033330000000000082e+00 -1.300829999999999931e+00 -8.353200000000001069e+00
1.050000000000000044e+00 -1.156630000000000047e+00 -8.717699999999997118e+00
1.066670000000000007e+00 -1.010240000000000027e+00 -8.443230000000001567e+00
1.083329999999999904e+00 -8.751889999999999947e-01 -7.662599999999999412e+00
1.100000000000000089e+00 -7.548200000000000465e-01 -7.088789999999999480e+00
1.116670000000000051e+00 -6.388960000000000194e-01 -7.096410000000002327e+00
1.133329999999999949e+00 -5.182729999999999837e-01 -7.333260000000000112e+00
1.149999999999999911e+00 -3.944540000000000268e-01 -7.256520000000000081e+00
1.166670000000000096e+00 -2.763889999999999958e-01 -6.547530000000000960e+00
1.183329999999999993e+00 -1.762029999999999985e-01 -5.163719999999999644e+00
1.199999999999999956e+00 -1.042649999999999966e-01 -3.408452999999999733e+00
1.216669999999999918e+00 -6.258790000000000187e-02 -1.782626999999999962e+00
1.233330000000000037e+00 -4.484409999999999785e-02 -5.835870000000000779e-01
1.250000000000000000e+00 -4.313499999999999973e-02 2.052630000000001120e-01
1.266669999999999963e+00 -5.168620000000000159e-02 6.619799999999999018e-01
1.283330000000000082e+00 -6.520099999999999507e-02 8.163480000000000736e-01
1.300000000000000044e+00 -7.889780000000000404e-02 7.919310000000002736e-01
1.316670000000000007e+00 -9.159870000000000512e-02 8.199060000000000237e-01
1.333329999999999904e+00 -1.062280000000000030e-01 9.797789999999996224e-01
1.350000000000000089e+00 -1.242579999999999935e-01 1.027349999999999541e+00
1.366670000000000051e+00 -1.404729999999999868e-01 7.212899999999998757e-01
1.383329999999999949e+00 -1.483009999999999884e-01 2.421900000000007380e-01
1.399999999999999911e+00 -1.485460000000000114e-01 -2.378999999999964476e-02
1.416670000000000096e+00 -1.475080000000000002e-01 2.060999999999979515e-02
1.433329999999999993e+00 -1.492330000000000045e-01 1.890900000000000913e-01
1.449999999999999956e+00 -1.538110000000000033e-01 3.248400000000001286e-01
1.466669999999999918e+00 -1.600610000000000088e-01 3.982500000000002705e-01
1.483330000000000037e+00 -1.670860000000000123e-01 4.150499999999995859e-01
1.500000000000000000e+00 -1.738959999999999950e-01 3.382799999999994145e-01
1.516669999999999963e+00 -1.783619999999999928e-01 1.524300000000000654e-01
1.533330000000000082e+00 -1.789769999999999972e-01 -2.237999999999989997e-02
1.550000000000000044e+00 -1.776159999999999961e-01 -6.939000000000028479e-02
1.566670000000000007e+00 -1.766639999999999877e-01 -8.807999999999982510e-02
1.583329999999999904e+00 -1.746800000000000019e-01 -2.173500000000000432e-01
1.600000000000000089e+00 -1.694189999999999863e-01 -3.602399999999997271e-01
1.616670000000000051e+00 -1.626720000000000110e-01 -3.496199999999999308e-01
1.633329999999999949e+00 -1.577649999999999886e-01 -2.380499999999999283e-01
1.649999999999999911e+00 -1.547370000000000134e-01 -1.958399999999993479e-01
1.666670000000000096e+00 -1.512370000000000103e-01 -2.742900000000003669e-01
1.683329999999999993e+00 -1.455940000000000012e-01 -4.385400000000005960e-01
1.699999999999999956e+00 -1.366189999999999904e-01 -6.780299999999999105e-01
1.716669999999999918e+00 -1.229930000000000051e-01 -9.385499999999997733e-01
1.733330000000000037e+00 -1.053339999999999971e-01 -1.066638000000000197e+00
1.750000000000000000e+00 -8.743839999999999946e-02 -9.382410000000001027e-01
1.766669999999999963e+00 -7.405929999999999458e-02 -5.976479999999999571e-01
1.783330000000000082e+00 -6.751680000000000181e-02 -2.317169999999997565e-01
1.800000000000000044e+00 -6.633540000000000270e-02 -1.769099999999995676e-02
1.816670000000000007e+00 -6.692710000000000325e-02 -6.690000000000029257e-03
1.833329999999999904e+00 -6.611240000000000172e-02 -1.365330000000000710e-01
1.850000000000000089e+00 -6.237600000000000089e-02 -2.988089999999999358e-01
1.866670000000000051e+00 -5.615210000000000340e-02 -3.958349999999999369e-01
1.883329999999999949e+00 -4.918150000000000299e-02 -4.006050000000001554e-01
1.899999999999999911e+00 -4.279859999999999914e-02 -3.676800000000001178e-01
1.916670000000000096e+00 -3.692549999999999999e-02 -3.580679999999999419e-01
1.933329999999999993e+00 -3.086300000000000154e-02 -3.808380000000000098e-01
1.949999999999999956e+00 -2.423089999999999966e-02 -4.136430000000000384e-01
1.966669999999999918e+00 -1.707490000000000049e-02 -4.212899999999999978e-01
1.983330000000000037e+00 -1.018789999999999973e-02 -5.122470000000000079e-01
2.000000000000000000e+00 0.000000000000000000e+00 -7.103009999999999602e-01
