0	9.24161e+07	8.09043e+07
0.0166667	9.10677e+07	1.5488e+08
0.0333333	8.72534e+07	2.85239e+08
0.05	8.15597e+07	3.77098e+08
0.0666667	7.46835e+07	4.30672e+08
0.0833333	6.7204e+07	4.56005e+08
0.1	5.94833e+07	4.65262e+08
0.116667	5.16953e+07	4.66974e+08
0.133333	4.39175e+07	4.64151e+08
0.15	3.62236e+07	4.54988e+08
0.166667	2.87512e+07	4.34732e+08
0.183333	2.17326e+07	3.98396e+08
0.2	1.54714e+07	3.44095e+08
0.216667	1.02627e+07	2.75533e+08
0.233333	6.28693e+06	2.01744e+08
0.25	3.53794e+06	1.33681e+08
0.266667	1.83088e+06	7.96983e+07
0.283333	881326	4.27803e+07
0.3	404872	2.09078e+07
0.316667	184401	9.554e+06
0.333333	86404.8	4.25937e+06
0.35	42422.2	1.93815e+06
0.366667	21799.9	923386
0.383333	11642.6	461284
0.4	6423.78	239975
0.416667	3643.46	129224
0.433333	2116.31	71632.8
0.45	1255.7	40697.4
0.466667	759.727	23635.1
0.483333	467.861	14012
0.5	292.662	8467.79
0.516667	185.601	5204.16
0.533333	119.19	3243.36
0.55	77.4892	2044.15
0.566667	51.0516	1299.95
0.583333	34.1576	833.205
0.6	23.2781	538.645
0.616667	16.2027	352.295
0.633333	11.5349	234.362
0.65	8.39067	159.663
0.666667	6.21282	112.153
0.683333	4.65225	81.6594
0.7	3.49084	61.8012
0.716667	2.5922	48.5845
0.733333	1.87135	39.4754
0.75	1.27636	32.8466
0.766667	0.776468	27.6901
0.783333	0.353355	23.4561
0.8	-0.00540051	19.903
0.816667	-0.31008	16.9328
0.833333	-0.569827	14.4581
0.85	-0.792016	12.354
0.866667	-0.981627	10.4875
0.883333	-1.1416	8.76869
0.9	-1.27392	7.16954
0.916667	-1.38058	5.69594
0.933333	-1.46378	4.34491
0.95	-1.52541	3.08481
0.966667	-1.56661	1.87222
0.983333	-1.58782	0.686004
1	-1.58948	-0.450236
1.01667	-1.57281	-1.47123
1.03333	-1.54043	-2.29474
1.05	-1.49632	-2.85757
1.06667	-1.44518	-3.14963
1.08333	-1.39133	-3.22679
1.1	-1.33762	-3.18687
1.11667	-1.2851	-3.11945
1.13333	-1.23364	-3.06477
1.15	-1.18295	-3.01086
1.16667	-1.13328	-2.92362
1.18333	-1.08549	-2.7819
1.2	-1.04055	-2.59531
1.21667	-0.998981	-2.39995
1.23333	-0.960551	-2.23802
1.25	-0.92438	-2.13367
1.26667	-0.889429	-2.08264
1.28333	-0.854959	-2.06344
1.3	-0.820647	-2.05725
1.31667	-0.786384	-2.05586
1.33333	-0.752119	-2.05533
1.35	-0.717873	-2.05121
1.36667	-0.683745	-2.04315
1.38333	-0.649768	-2.03767
1.4	-0.615823	-2.03833
1.41667	-0.581824	-2.03344
1.43333	-0.548041	-2.00035
1.45	-0.515145	-1.92659
1.46667	-0.483822	-1.82606
1.48333	-0.454277	-1.73133
1.5	-0.426111	-1.66749
1.51667	-0.398694	-1.63196
1.53333	-0.371712	-1.5974
1.55	-0.345447	-1.53306
1.56667	-0.32061	-1.42524
1.58333	-0.297939	-1.28248
1.6	-0.277861	-1.1261
1.61667	-0.260402	-0.976805
1.63333	-0.245301	-0.847139
1.65	-0.232164	-0.741885
1.66667	-0.220571	-0.662156
1.68333	-0.210092	-0.607719
1.7	-0.200314	-0.575659
1.71667	-0.190904	-0.558269
1.73333	-0.181705	-0.544673
1.75	-0.172748	-0.526927
1.76667	-0.164141	-0.505888
1.78333	-0.155885	-0.491268
1.8	-0.147765	-0.49522
1.81667	-0.139378	-0.524288
1.83333	-0.130289	-0.575285
1.85	-0.120202	-0.637018
1.86667	-0.109055	-0.696045
1.88333	-0.0970002	-0.742896
1.9	-0.0842916	-0.775347
1.91667	-0.0711553	-0.797672
1.93333	-0.0577025	-0.812712
1.95	-0.0440649	-0.803958
1.96667	-0.0309039	-0.724884
1.98333	-0.0199021	-0.927118
2	0	-1.19412
