0.000000000000000000e+00 3.571079219014932846e+02 6.724168011513870624e+02
1.666666666666666644e-02 3.459009752156368336e+02 6.724168011513853571e+02
3.333333333333333287e-02 3.346940285297804394e+02 6.724168011513853571e+02
5.000000000000000278e-02 3.234870818439239883e+02 6.724168011513853571e+02
6.666666666666666574e-02 3.122801351580675941e+02 6.724168011513836518e+02
8.333333333333332871e-02 3.010731884722112000e+02 6.724168011513853571e+02
1.000000000000000056e-01 2.898662417863547489e+02 6.724168011513853571e+02
1.166666666666666685e-01 2.786592951004983547e+02 6.724168011513853571e+02
1.333333333333333315e-01 2.674523484146419037e+02 6.724168011513853571e+02
1.499999999999999944e-01 2.562454017287855095e+02 6.724168011513853571e+02
1.666666666666666574e-01 2.450384550429290584e+02 6.724168011513845613e+02
1.833333333333333204e-01 2.338315083570726927e+02 6.724168011513845613e+02
2.000000000000000111e-01 2.226245616712162416e+02 6.724168011513862666e+02
2.166666666666666741e-01 2.114176149853598190e+02 6.724168011513853571e+02
2.333333333333333370e-01 2.002106682995033964e+02 6.724168011513853571e+02
2.500000000000000000e-01 1.890037216136469738e+02 6.724168011513853571e+02
2.666666666666666630e-01 1.777967749277905511e+02 6.724168011513845613e+02
2.833333333333333259e-01 1.665898282419341569e+02 6.724168011513845613e+02
2.999999999999999889e-01 1.553828815560777343e+02 6.724168011513853571e+02
3.166666666666666519e-01 1.441759348702213117e+02 6.724168011513845613e+02
3.333333333333333148e-01 1.329689881843649175e+02 6.724168011513845613e+02
3.499999999999999778e-01 1.217620414985084949e+02 6.724168011513853571e+02
3.666666666666666408e-01 1.105550948126520723e+02 6.724168011513853571e+02
3.833333333333333037e-01 9.934814812679564966e+01 6.724168011513862666e+02
4.000000000000000222e-01 8.814120144093919862e+01 6.724168011513862666e+02
4.166666666666666852e-01 7.693425475508277600e+01 6.724168011513849024e+02
4.333333333333333481e-01 6.572730806922636759e+01 6.724168011513846750e+02
4.500000000000000111e-01 5.452036138336995208e+01 6.724168011513849024e+02
4.666666666666666741e-01 4.331341469751353657e+01 6.724168011513849024e+02
4.833333333333333370e-01 3.210646801165712105e+01 6.724168011513849024e+02
5.000000000000000000e-01 2.089952132580070554e+01 5.045056272001687603e+02
5.166666666666666075e-01 1.528961377165149393e+01 2.872568385494878953e+02
5.333333333333333259e-01 1.132429337415110915e+01 2.096980867370607768e+02
5.500000000000000444e-01 8.299677547082801254e+00 1.616771781692400509e+02
5.666666666666666519e-01 5.935054101843107333e+00 1.267429291103433400e+02
5.833333333333333703e-01 4.074913243404689744e+00 9.984568074770562873e+01
5.999999999999999778e-01 2.606864743586253308e+00 7.897648670566138662e+01
6.166666666666666963e-01 1.442363686549309909e+00 6.310700711683386999e+01
6.333333333333333037e-01 5.032978396917908714e-01 5.121748985971405688e+01
6.500000000000000222e-01 -2.648859754411586054e-01 4.198769663043984934e+01
6.666666666666666297e-01 -8.962920479895373216e-01 3.418304035811704722e+01
6.833333333333333481e-01 -1.404320654045060124e+00 2.691760086384571338e+01
6.999999999999999556e-01 -1.793545410117727723e+00 1.974271983282207898e+01
7.166666666666666741e-01 -2.062411315139129453e+00 1.258793205198097453e+01
7.333333333333332815e-01 -2.213143145183760208e+00 5.744208651903974783e+00
7.500000000000000000e-01 -2.253884936869261946e+00 -2.263668454228939808e-01
7.666666666666666075e-01 -2.205597583669663742e+00 -4.741232447166985331e+00
7.833333333333333259e-01 -2.095843855297029101e+00 -7.509709223716187765e+00
8.000000000000000444e-01 -1.955273942879124149e+00 -8.645521307282002965e+00
8.166666666666666519e-01 -1.807659811720962351e+00 -8.589124323578399611e+00
8.333333333333333703e-01 -1.668969798759844192e+00 -7.894751539407369734e+00
8.499999999999999778e-01 -1.544501427074050026e+00 -6.966459085372210147e+00
8.666666666666666963e-01 -1.436754495914103869e+00 -6.017237284162328947e+00
8.833333333333333037e-01 -1.343926850935305728e+00 -5.227192649121013446e+00
9.000000000000000222e-01 -1.262514740943403435e+00 -4.662605771659080744e+00
9.166666666666666297e-01 -1.188506658546669703e+00 -4.298831135749890286e+00
9.333333333333333481e-01 -1.119220369751740440e+00 -4.189435496194664488e+00
9.499999999999999556e-01 -1.048858808673514220e+00 -4.353236969325359418e+00
9.666666666666666741e-01 -9.741124707742284672e-01 -4.612327634017634459e+00
9.833333333333332815e-01 -8.951145542062597382e-01 -4.673142240062476915e+00
1.000000000000000000e+00 -8.183410627721459107e-01 -4.325681057021542486e+00
1.016666666666666607e+00 -7.509251856388750035e-01 -3.527938061645969015e+00
1.033333333333333215e+00 -7.007431273839469510e-01 -2.428102735245802890e+00
1.050000000000000044e+00 -6.699884277973482405e-01 -1.295274035606897023e+00
1.066666666666666652e+00 -6.575673261970503836e-01 -3.740105557892747790e-01
1.083333333333333259e+00 -6.575214092710390812e-01 1.643553547347231802e-01
1.100000000000000089e+00 -6.630458380215411562e-01 2.103948428731472475e-01
1.116666666666666696e+00 -6.645345707001439894e-01 -2.057386229917168574e-01
1.133333333333333304e+00 -6.561878839218172610e-01 -8.900323912402952065e-01
1.149999999999999911e+00 -6.348668243254674826e-01 -1.592117360382943048e+00
1.166666666666666741e+00 -6.031173052423858261e-01 -2.126429162917066407e+00
1.183333333333333348e+00 -5.639858522282319431e-01 -2.388874797947924122e+00
1.199999999999999956e+00 -5.234881453107883553e-01 -2.337271014244616918e+00
1.216666666666666563e+00 -4.860768184200780495e-01 -2.038011828152577642e+00
1.233333333333333393e+00 -4.555544177057024302e-01 -1.638251512391519782e+00
1.250000000000000000e+00 -4.314684346736940568e-01 -1.309498911661771237e+00
1.266666666666666607e+00 -4.119044539836433927e-01 -1.170968739712144435e+00
1.283333333333333215e+00 -3.924361433499559126e-01 -1.252595171302385957e+00
1.300000000000000044e+00 -3.701512816068971978e-01 -1.466447827977268137e+00
1.316666666666666652e+00 -3.435545490840469784e-01 -1.700014217572750175e+00
1.333333333333333259e+00 -3.134841410211388624e-01 -1.886663294261553103e+00
1.350000000000000089e+00 -2.806657726086618787e-01 -2.008654967511309231e+00
1.366666666666666696e+00 -2.465289754374285491e-01 -2.053125059681228048e+00
1.383333333333333304e+00 -2.122282706192876178e-01 -2.038856783544038986e+00
1.399999999999999911e+00 -1.785670826526272459e-01 -1.962781306454775665e+00
1.416666666666666741e+00 -1.468022270707950994e-01 -1.805361646705401446e+00
1.433333333333333348e+00 -1.183883610957805338e-01 -1.572969640036992134e+00
1.449999999999999956e+00 -9.436990573622869305e-02 -1.321469307210778377e+00
1.466666666666666563e+00 -7.433938418875458976e-02 -1.098871286666597502e+00
1.483333333333333393e+00 -5.774086284734211011e-02 -9.305993574619018105e-01
1.500000000000000000e+00 -4.331940560669119561e-02 -8.212139295802631800e-01
1.516666666666666607e+00 -3.036706519466667031e-02 -7.479220811798631408e-01
1.533333333333333215e+00 -1.838866956736242425e-02 -6.695320431872358036e-01
1.550000000000000044e+00 -8.049330421758807072e-03 -5.648959330019857061e-01
1.566666666666666652e+00 4.411948660370998941e-04 -4.475079270650683672e-01
1.583333333333333259e+00 6.867600480410138500e-03 -3.512903244305975448e-01
1.600000000000000089e+00 1.215087234705701860e-02 -2.970966199339583058e-01
1.616666666666666696e+00 1.677082114487541548e-02 -2.702660495499462634e-01
1.633333333333333304e+00 2.115974066538856002e-02 -2.294736615931533552e-01
1.649999999999999911e+00 2.441994319798052732e-02 -1.348087277448098420e-01
1.666666666666666741e+00 2.565336492354888809e-02 1.520197094692230660e-02
1.683333333333333348e+00 2.391321083308311710e-02 1.939008121483819236e-01
1.699999999999999956e+00 1.919000451860282397e-02 3.688487806798683155e-01
1.716666666666666563e+00 1.161825147708750623e-02 5.097489902567776676e-01
1.733333333333333393e+00 2.198371510043565721e-03 5.862787288620682213e-01
1.750000000000000000e+00 -7.924372818314769085e-03 5.896178727619446613e-01
1.766666666666666607e+00 -1.745555758202125413e-02 5.372628953651933381e-01
1.783333333333333215e+00 -2.583313599715454656e-02 4.580927569283608225e-01
1.800000000000000044e+00 -3.272531614629994867e-02 3.683391703354410018e-01
1.816666666666666652e+00 -3.811110834166924616e-02 2.712518659008753552e-01
1.833333333333333259e+00 -4.176704500966246097e-02 1.639348575334798885e-01
1.849999999999999867e+00 -4.357560359278524198e-02 4.957436328761680167e-02
1.866666666666666696e+00 -4.341952378591635436e-02 -6.589561160936910356e-02
1.883333333333333304e+00 -4.137908320580627186e-02 -1.765372837146930163e-01
1.899999999999999911e+00 -3.753494766209325428e-02 -2.768404501114656302e-01
1.916666666666666741e+00 -3.215106820209075178e-02 -3.557167822878415375e-01
1.933333333333333348e+00 -2.567772158583186970e-02 -9.401707625234391186e-01
1.949999999999999956e+00 -8.120427846427782839e-04 -7.733544938218284148e-01
1.966666666666666563e+00 1.007615415624108624e-04 -2.476818640275644037e-02
1.983333333333333393e+00 1.356342878243633720e-05 3.022846246872326007e-03
2.000000000000000000e+00 0.000000000000000000e+00 8.138057269461802454e-04
