0.0000 817.8677 123.6112
0.0167 813.8417 461.9288
0.0333 803.0885 783.9096
0.0500 788.4345 938.5098
0.0667 772.2395 988.3426
0.0833 755.6436 998.6497
0.1000 738.9831 999.9184
0.1167 722.3165 1000.0298
0.1333 705.6478 1000.4510
0.1500 688.9569 1004.2524
0.1667 672.0993 1028.5327
0.1833 654.3349 1141.2144
0.2000 632.9775 1521.3383
0.2167 601.3586 2433.2818
0.2333 549.2817 3920.6879
0.2500 470.5813 5395.7989
0.2667 373.7441 5876.2851
0.2833 280.7693 4980.0814
0.3000 210.7734 3371.2041
0.3167 167.3687 1962.9784
0.3333 142.9557 1095.1011
0.3500 129.1905 629.8203
0.3667 121.0848 382.0161
0.3833 115.9546 256.6383
0.4000 112.2510 199.1738
0.4167 109.1905 173.5869
0.4333 106.3789 169.3845
0.4500 103.4492 186.9229
0.4667 100.1057 213.9461
0.4833 96.3680 229.9898
0.5000 92.5178 228.4490
0.5167 88.7851 219.0107
0.5333 85.2117 210.3587
0.5500 81.7616 204.8861
0.5667 78.3424 209.3509
0.5833 74.6947 234.3334
0.6000 70.4387 280.5262
0.6167 65.3111 334.1113
0.6333 59.3583 374.4171
0.6500 52.9555 385.8029
0.6667 46.6245 367.8099
0.6833 40.7641 333.2440
0.7000 35.5274 295.4683
0.7167 30.9027 260.3316
0.7333 26.8364 228.3997
0.7500 23.2752 199.9356
0.7667 20.1533 175.8140
0.7833 17.3983 155.5529
0.8000 14.9588 137.6446
0.8167 12.8024 121.6298
0.8333 10.8961 107.5087
0.8500 9.2160 94.0690
0.8667 7.7632 80.1413
0.8833 6.5431 66.6566
0.9000 5.5308 55.5833
0.9167 4.6783 47.2495
0.9333 3.9512 40.0578
0.9500 3.3441 32.7305
0.9667 2.8590 25.7377
0.9833 2.4795 20.2779
1.0000 2.1751 16.6379
1.0167 1.9207 14.0134
1.0333 1.7075 11.5489
1.0500 1.5361 9.0207
1.0667 1.4065 6.5567
1.0833 1.3168 4.2861
1.1000 1.2618 2.4869
1.1167 1.2302 1.5349
1.1333 1.2070 1.4098
1.1500 1.1818 1.6434
1.1667 1.1526 1.8032
1.1833 1.1229 1.6869
1.2000 1.0976 1.2994
1.2167 1.0796 0.8965
1.2333 1.0668 0.6749
1.2500 1.0568 0.5375
1.2667 1.0481 0.6198
1.2833 1.0332 1.3616
1.3000 1.0008 2.5186
1.3167 0.9514 3.2323
1.3333 0.8954 3.4543
1.3500 0.8351 3.8752
1.3667 0.7653 4.4556
1.3833 0.6892 4.4579
1.4000 0.6200 3.7186
1.4167 0.5655 2.9032
1.4333 0.5209 2.6066
1.4500 0.4767 2.7615
1.4667 0.4285 3.0187
1.4833 0.3765 3.1841
1.5000 0.3234 3.0971
1.5167 0.2748 2.6588
1.5333 0.2354 2.0890
1.5500 0.2043 1.6982
1.5667 0.1779 1.4924
1.5833 0.1545 1.3198
1.6000 0.1338 1.1791
1.6167 0.1147 1.1548
1.6333 0.0949 1.2329
1.6500 0.0737 1.2678
1.6667 0.0535 1.0941
1.6833 0.0382 0.7213
1.7000 0.0295 0.3446
1.7167 0.0261 0.0948
1.7333 0.0258 -0.0289
1.7500 0.0263 0.0272
1.7667 0.0241 0.2618
1.7833 0.0179 0.4105
1.8000 0.0117 0.2826
1.8167 0.0088 0.0972
1.8333 0.0074 0.1383
1.8500 0.0032 0.4065
1.8667 -0.0065 0.7729
1.8833 -0.0225 1.1355
1.9000 -0.0442 1.3896
1.9167 -0.0661 1.0643
1.9333 -0.0772 0.1107
1.9500 -0.0677 -1.2555
1.9667 -0.0384 -1.9143
1.9833 -0.0101 -1.2054
2.0000 -0.0000 -0.3036
