0.0000 5.29549e+06 2.74254e+06
0.0167 5.24978e+06 5.35943e+06
0.0333 5.11684e+06 1.02488e+07
0.0500 4.90815e+06 1.43147e+07
0.0667 4.63968e+06 1.7392e+07
0.0833 4.32842e+06 1.95051e+07
0.1000 3.98951e+06 2.0813e+07
0.1167 3.63465e+06 2.1529e+07
0.1333 3.27189e+06 2.18434e+07
0.1500 2.90654e+06 2.18806e+07
0.1667 2.54252e+06 2.16857e+07
0.1833 2.18369e+06 2.12288e+07
0.2000 1.8349e+06 2.0438e+07
0.2167 1.50241e+06 1.92374e+07
0.2333 1.19366e+06 1.75824e+07
0.2500 916337 1.54994e+07
0.2667 677005 1.30979e+07
0.2833 479743 1.05535e+07
0.3000 325226 8.07324e+06
0.3167 210629 5.84641e+06
0.3333 130348 4.00106e+06
0.3500 77262.1 2.5878e+06
0.3667 44086.4 1.5854e+06
0.3833 24416.1 924422
0.4000 13272.6 517207
0.4167 7175.56 280946
0.4333 3907.85 150316
0.4500 2165.09 80431.1
0.4667 1226.76 43605.8
0.4833 711.578 24150
0.5000 421.768 13709.2
0.5167 254.595 7978.32
0.5333 155.826 4752.18
0.5500 96.1904 2888.75
0.5667 59.5324 1783.62
0.5833 36.737 1110.1
0.6000 22.5295 689.41
0.6167 13.7562 422.327
0.6333 8.45211 252.418
0.6500 5.34234 146.184
0.6667 3.57923 82.2048
0.6833 2.60221 45.7357
0.7000 2.05472 26.3196
0.7167 1.72487 16.7088
0.7333 1.49776 12.2187
0.7500 1.31759 10.1185
0.7667 1.16048 9.00006
0.7833 1.01759 8.23206
0.8000 0.88608 7.57604
0.8167 0.76505 6.96112
0.8333 0.65404 6.37323
0.8500 0.55261 5.81363
0.8667 0.46025 5.28434
0.8833 0.37647 4.78364
0.9000 0.3008 4.30877
0.9167 0.23284 3.85778
0.9333 0.17221 3.42997
0.9500 0.11851 3.02734
0.9667 0.07129 2.65345
0.9833 0.03006 2.31121
1.0000 -0.00575 2.0026
1.0167 -0.0367 1.72913
1.0333 -0.06338 1.48907
1.0500 -0.08633 1.2809
1.0667 -0.10608 1.10357
1.0833 -0.12312 0.95329
1.1000 -0.13786 0.82706
1.1167 -0.15069 0.72208
1.1333 -0.16192 0.63379
1.1500 -0.17181 0.55851
1.1667 -0.18055 0.49361
1.1833 -0.18827 0.43645
1.2000 -0.19509 0.38635
1.2167 -0.20115 0.3441
1.2333 -0.20656 0.31036
1.2500 -0.21149 0.28563
1.2667 -0.21608 0.26911
1.2833 -0.22046 0.25754
1.3000 -0.22467 0.2466
1.3167 -0.22868 0.23217
1.3333 -0.23241 0.21122
1.3500 -0.23572 0.18334
1.3667 -0.23852 0.15035
1.3833 -0.24073 0.11464
1.4000 -0.24234 0.07817
1.4167 -0.24334 0.04122
1.4333 -0.24371 0.00215
1.4500 -0.24341 -0.04142
1.4667 -0.24233 -0.0914
1.4833 -0.24036 -0.14773
1.5000 -0.23741 -0.20795
1.5167 -0.23343 -0.26784
1.5333 -0.22848 -0.32202
1.5500 -0.2227 -0.36598
1.5667 -0.21628 -0.39747
1.5833 -0.20945 -0.41598
1.6000 -0.20242 -0.42331
1.6167 -0.19534 -0.42289
1.6333 -0.18832 -0.41761
1.6500 -0.18142 -0.41036
1.6667 -0.17464 -0.4037
1.6833 -0.16796 -0.39886
1.7000 -0.16135 -0.39692
1.7167 -0.15473 -0.39889
1.7333 -0.14805 -0.40444
1.7500 -0.14125 -0.41278
1.7667 -0.13429 -0.42272
1.7833 -0.12716 -0.43192
1.8000 -0.11989 -0.43878
1.8167 -0.11253 -0.44331
1.8333 -0.10512 -0.44633
1.8500 -0.09766 -0.45037
1.8667 -0.0901 -0.45842
1.8833 -0.08238 -0.47086
1.9000 -0.07441 -0.626
1.9167 -0.06151 -0.93036
1.9333 -0.0434 -1.07851
1.9500 -0.02556 -0.95504
1.9667 -0.01156 -0.67846
1.9833 -0.00295 -0.34678
2.0000 0 -0.17667
