0.0000 2500 -0
0.0167 2500 -0
0.0333 2500 -0
0.0500 2500 -0
0.0667 2500 -0
0.0833 2500 -0
0.1000 2500 -0
0.1167 2500 -0
0.1333 2500 -0
0.1500 2500 -0
0.1667 2500 -0
0.1833 2500 -0
0.2000 2500 -0
0.2167 2500 -0
0.2333 2500 -0
0.2500 2500 -0
0.2667 2500 -0
0.2833 2500 0.001225
0.3000 2500 0.27055
0.3167 2499.97 9.9358
0.3333 2499.28 143.935
0.3500 2492.2 1085.09
0.3667 2451.56 4867.29
0.3833 2306.59 14001
0.4000 1966.65 26985.2
0.4167 1424.85 35720.7
0.4333 827.55 32843.7
0.4500 369.376 21004.2
0.4667 125.376 9305.45
0.4833 35.386 2873.25
0.5000 11.7154 671.675
0.5167 6.34885 170.183
0.5333 4.57965 78.258
0.5500 3.49627 57.908
0.5667 2.60473 50.193
0.5833 1.8166 44.5028
0.6000 1.11985 39.2496
0.6167 0.504975 34.7505
0.6333 -0.041625 30.981
0.6500 -0.529375 27.6226
0.6667 -0.96335 24.5163
0.6833 -1.3479 21.735
0.7000 -1.6902 19.5016
0.7167 -2.00045 17.8411
0.7333 -2.28598 16.4447
0.7500 -2.54865 15.0814
0.7667 -2.7888 13.7432
0.7833 -3.00672 12.3923
0.8000 -3.2016 10.9818
0.8167 -3.37283 9.57575
0.8333 -3.52093 8.19625
0.8500 -3.64575 6.75565
0.8667 -3.74578 5.24265
0.8833 -3.82077 3.79042
0.9000 -3.8728 2.48718
0.9167 -3.90397 1.25317
0.9333 -3.9144 -0.00865
0.9500 -3.9038 -1.2353
0.9667 -3.874 -2.2873
0.9833 -3.82835 -3.16067
1.0000 -3.76887 -3.96855
1.0167 -3.6964 -4.67943
1.0333 -3.61428 -5.06885
1.0500 -3.52925 -5.04865
1.0667 -3.44678 -4.83798
1.0833 -3.36775 -4.6606
1.1000 -3.29145 -4.46835
1.1167 -3.21957 -4.10175
1.1333 -3.15548 -3.56878
1.1500 -3.1005 -3.0651
1.1667 -3.05238 -2.768
1.1833 -3.00745 -2.64852
1.2000 -2.9641 -2.5326
1.2167 -2.9235 -2.31162
1.2333 -2.88742 -2.00453
1.2500 -2.85665 -1.70473
1.2667 -2.83005 -1.5296
1.2833 -2.805 -1.50765
1.3000 -2.7796 -1.53445
1.3167 -2.75407 -1.517
1.3333 -2.72915 -1.47822
1.3500 -2.70455 -1.49582
1.3667 -2.6789 -1.6015
1.3833 -2.65095 -1.75543
1.4000 -2.62035 -1.92148
1.4167 -2.58688 -2.09092
1.4333 -2.5509 -2.19457
1.4500 -2.51443 -2.13782
1.4667 -2.48018 -1.96602
1.4833 -2.44862 -1.85335
1.5000 -2.4177 -1.89605
1.5167 -2.38505 -2.02827
1.5333 -2.35012 -2.15833
1.5500 -2.31318 -2.27505
1.5667 -2.27422 -2.40623
1.5833 -2.23285 -2.56405
1.6000 -2.18865 -2.74645
1.6167 -2.14125 -2.94197
1.6333 -2.09068 -3.11097
1.6500 -2.03797 -3.17928
1.6667 -1.98537 -3.09207
1.6833 -1.93535 -2.90583
1.7000 -1.88823 -2.78282
1.7167 -1.8419 -2.80505
1.7333 -1.79465 -2.84678
1.7500 -1.74765 -2.75128
1.7667 -1.7034 -2.55048
1.7833 -1.66243 -2.3899
1.8000 -1.62338 -2.30515
1.8167 -1.58575 -2.18783
1.8333 -1.5509 -1.97325
1.8500 -1.52002 -1.74572
1.8667 -1.4923 -1.60743
1.8833 -1.46608 -1.55635
1.9000 -1.4403 -3.1522
1.9167 -1.3136 -12.7258
1.9333 -1.03428 -19.7124
1.9500 -0.6758 -21.9783
1.9667 -0.326725 -18.3808
1.9833 -0.084225 -9.95645
2.0000 -0 -2.56635
