0.0000 2500 -0
0.0167 2500 -0
0.0333 2500 -0
0.0500 2500 -0
0.0667 2500 -0
0.0833 2500 -0
0.1000 2500 -0
0.1167 2500 -0
0.1333 2500 -0
0.1500 2500 -0
0.1667 2500 -0
0.1833 2500 -0
0.2000 2500 -0
0.2167 2500 -0
0.2333 2500 -0
0.2500 2500 -0
0.2667 2500 -0
0.2833 2500 0.001225
0.3000 2500 0.26925
0.3167 2499.97 9.8832
0.3333 2499.28 143.093
0.3500 2492.25 1078.04
0.3667 2451.89 4831.83
0.3833 2308.05 13884.5
0.4000 1971.16 26721.5
0.4167 1435.17 35293.7
0.4333 845.93 32336
0.4500 396.011 20556.2
0.4667 158.235 9023.95
0.4833 71.2695 2793.03
0.5000 47.2875 785.055
0.5167 38.5508 452.253
0.5333 30.9803 472.689
0.5500 22.9603 469.178
0.5667 15.7102 382.783
0.5833 10.3782 254.782
0.6000 7.135 144.072
0.6167 5.3835 77.132
0.6333 4.41295 45.971
0.6500 3.77668 33.2583
0.6667 3.2732 28.4356
0.6833 2.81363 27.3321
0.7000 2.35665 27.5572
0.7167 1.89807 27.1416
0.7333 1.45798 25.3794
0.7500 1.05455 23.0405
0.7667 0.68785 21.1322
0.7833 0.3479 19.7199
0.8000 0.030825 18.2664
0.8167 -0.259875 16.5745
0.8333 -0.521475 14.825
0.8500 -0.754125 13.0848
0.8667 -0.957275 11.2694
0.8833 -1.12952 9.41095
0.9000 -1.27165 7.71495
0.9167 -1.38845 6.43
0.9333 -1.48832 5.6889
0.9500 -1.57987 5.36735
0.9667 -1.6676 5.1404
0.9833 -1.75057 4.77813
1.0000 -1.82638 4.30488
1.0167 -1.89405 3.81593
1.0333 -1.95358 3.32728
1.0500 -2.00497 2.8408
1.0667 -2.0483 2.3528
1.0833 -2.08315 1.8054
1.1000 -2.10798 1.14645
1.1167 -2.12107 0.4312
1.1333 -2.12288 -0.1589
1.1500 -2.11702 -0.472475
1.1667 -2.10795 -0.603475
1.1833 -2.09638 -0.851225
1.2000 -2.07812 -1.42525
1.2167 -2.04783 -2.23667
1.2333 -2.00385 -2.98838
1.2500 -1.9494 -3.47487
1.2667 -1.8889 -3.7514
1.2833 -1.82472 -3.92367
1.3000 -1.75885 -3.9214
1.3167 -1.6951 -3.67385
1.3333 -1.63685 -3.3143
1.3500 -1.58432 -3.01167
1.3667 -1.53625 -2.75793
1.3833 -1.4926 -2.46405
1.4000 -1.45417 -2.15945
1.4167 -1.42025 -1.93505
1.4333 -1.38955 -1.73273
1.4500 -1.36305 -1.40793
1.4667 -1.34302 -1.00065
1.4833 -1.32912 -0.72285
1.5000 -1.31785 -0.692
1.5167 -1.3052 -0.87055
1.5333 -1.2882 -1.19945
1.5500 -1.2649 -1.59848
1.5667 -1.23525 -1.91735
1.5833 -1.20178 -2.05825
1.6000 -1.16708 -2.10308
1.6167 -1.13135 -2.2167
1.6333 -1.09268 -2.4393
1.6500 -1.05008 -2.65155
1.6667 -1.00483 -2.74788
1.6833 -0.95895 -2.73205
1.7000 -0.914125 -2.62127
1.7167 -0.872025 -2.40937
1.7333 -0.83405 -2.14743
1.7500 -0.800275 -1.91772
1.7667 -0.7699 -1.73937
1.7833 -0.74225 -1.5743
1.8000 -0.71755 -1.38
1.8167 -0.69645 -1.1407
1.8333 -0.67965 -0.8685
1.8500 -0.66755 -0.582325
1.8667 -0.660175 -0.313
1.8833 -0.65685 -0.108775
1.9000 -0.656075 -0.761075
1.9167 -0.6087 -5.31835
1.9333 -0.486125 -8.9095
1.9500 -0.320925 -10.2618
1.9667 -0.15645 -8.7212
1.9833 -0.04065 -4.7828
2.0000 -0 -1.24325
