0.000000000000000000e+00 9.125262448030595124e+02 1.530070796380214233e+03
1.666666666666666644e-02 8.870250648633892752e+02 1.530070796380210822e+03
3.333333333333333287e-02 8.615238849237191516e+02 1.530070796380210822e+03
5.000000000000000278e-02 8.360227049840489144e+02 1.530070796380210822e+03
6.666666666666666574e-02 8.105215250443787909e+02 1.530070796380207412e+03
8.333333333333332871e-02 7.850203451047086673e+02 1.530070796380210822e+03
1.000000000000000056e-01 7.595191651650384301e+02 1.530070796380214233e+03
1.166666666666666685e-01 7.340179852253681929e+02 1.530070796380210822e+03
1.333333333333333315e-01 7.085168052856980694e+02 1.530070796380210822e+03
1.499999999999999944e-01 6.830156253460278322e+02 1.530070796380207412e+03
1.666666666666666574e-01 6.575144454063578223e+02 1.530070796380210822e+03
1.833333333333333204e-01 6.320132654666874714e+02 1.530070796380214233e+03
2.000000000000000111e-01 6.065120855270173479e+02 1.530070796380210822e+03
2.166666666666666741e-01 5.810109055873471107e+02 1.530070796380210822e+03
2.333333333333333370e-01 5.555097256476769871e+02 1.530070796380210822e+03
2.500000000000000000e-01 5.300085457080067499e+02 1.530070796380210822e+03
2.666666666666666630e-01 5.045073657683366264e+02 1.530070796380210822e+03
2.833333333333333259e-01 4.790061858286663892e+02 1.530070796380210822e+03
2.999999999999999889e-01 4.535050058889962656e+02 1.530070796380207412e+03
3.166666666666666519e-01 4.280038259493261421e+02 1.530070796380210822e+03
3.333333333333333148e-01 4.025026460096559049e+02 1.530070796380210822e+03
3.499999999999999778e-01 3.770014660699857814e+02 1.530070796380210822e+03
3.666666666666666408e-01 3.515002861303155441e+02 1.530070796380210822e+03
3.833333333333333037e-01 3.259991061906454206e+02 1.530070796380212641e+03
4.000000000000000222e-01 3.004979262509751265e+02 1.530070796380214233e+03
4.166666666666666852e-01 2.749967463113049462e+02 1.530070796380209913e+03
4.333333333333333481e-01 2.494955663716347942e+02 1.530070796380209913e+03
4.500000000000000111e-01 2.239943864319646138e+02 1.530070796380210822e+03
4.666666666666666741e-01 1.984932064922944335e+02 1.530070796380210822e+03
4.833333333333333370e-01 1.729920265526242531e+02 1.530070796380209913e+03
5.000000000000000000e-01 1.474908466129541011e+02 1.530070796380207867e+03
5.166666666666666075e-01 1.219896666732839918e+02 1.530070796380210822e+03
5.333333333333333259e-01 9.648848673361374040e+01 1.530070796380215597e+03
5.500000000000000444e-01 7.098730679394347476e+01 1.530070796380210595e+03
5.666666666666666519e-01 4.548612685427338675e+01 1.038326408081774389e+03
5.833333333333333703e-01 3.637642652455099324e+01 4.653154575447522916e+02
5.999999999999999778e-01 2.997561160278164394e+01 3.456848314338332671e+02
6.166666666666666963e-01 2.485359881008988481e+01 2.776146280691906441e+02
6.333333333333333037e-01 2.072179066714195628e+01 2.285295389730319755e+02
6.500000000000000222e-01 1.723594751098881872e+01 1.942211282621375972e+02
6.666666666666666297e-01 1.424775305840403661e+01 1.676272117508415818e+02
6.833333333333333481e-01 1.164837378596076611e+01 1.451383996642948375e+02
6.999999999999999556e-01 9.409806402927541669e+00 1.253953325711393347e+02
7.166666666666666741e-01 7.468529366922788348e+00 1.085703919246262927e+02
7.333333333333332815e-01 5.790793338773331911e+00 9.352530134884152346e+01
7.500000000000000000e-01 4.351019321961404174e+00 7.918729676791734562e+01
7.666666666666666075e-01 3.151216779842753724e+00 6.584362227001939516e+01
7.833333333333333259e-01 2.156231912960757668e+00 5.466744271447922188e+01
8.000000000000000444e-01 1.328968689360112920e+00 4.570190245440854682e+01
8.166666666666666519e-01 6.328351644804729448e-01 3.840442802475024564e+01
8.333333333333333703e-01 4.882108853510475771e-02 3.213831756685786445e+01
8.499999999999999778e-01 -4.384420877481224887e-01 2.645156317197713136e+01
8.666666666666666963e-01 -8.328976838641328762e-01 2.110295771892484140e+01
8.833333333333333037e-01 -1.141874011712283865e+00 1.626519095468142950e+01
9.000000000000000222e-01 -1.375070715686847134e+00 1.205705576368145060e+01
9.166666666666666297e-01 -1.543775870501665537e+00 8.465655679612092754e+00
9.333333333333333481e-01 -1.657259238340583529e+00 5.592895402391675930e+00
9.499999999999999556e-01 -1.730205717248054720e+00 3.416666564949712992e+00
9.666666666666666741e-01 -1.771148123838907296e+00 1.433028896841415101e+00
9.833333333333332815e-01 -1.777973347142768556e+00 -7.799148861523108600e-01
1.000000000000000000e+00 -1.745150960967163600e+00 -2.936019366226745309e+00
1.016666666666666607e+00 -1.680106034935210380e+00 -4.445663437088476222e+00
1.033333333333333215e+00 -1.596962179730881060e+00 -5.334640609909531150e+00
1.050000000000000044e+00 -1.502284681271559341e+00 -6.008462494044486846e+00
1.066666666666666652e+00 -1.396680096596064846e+00 -6.560993935691574741e+00
1.083333333333333259e+00 -1.283584883415173516e+00 -6.951030504645990149e+00
1.100000000000000089e+00 -1.164979079774531856e+00 -7.416562595836153626e+00
1.116666666666666696e+00 -1.036366130220635062e+00 -8.172218026851522765e+00
1.133333333333333304e+00 -8.925718122128144527e-01 -8.897422465504009281e+00
1.149999999999999911e+00 -7.397853813705014270e-01 -8.964540513369817276e+00
1.166666666666666741e+00 -5.937537951004872028e-01 -8.043939647583524533e+00
1.183333333333333348e+00 -4.716540597843839611e-01 -6.483982092723640456e+00
1.199999999999999956e+00 -3.776210586763658617e-01 -5.003885470313548467e+00
1.216666666666666563e+00 -3.048578774405990011e-01 -3.987495194189094594e+00
1.233333333333333393e+00 -2.447045522033960419e-01 -3.325532464302983549e+00
1.250000000000000000e+00 -1.940067952971662180e-01 -2.867050306597620946e+00
1.266666666666666607e+00 -1.491362086501420159e-01 -2.580265351854159839e+00
1.283333333333333215e+00 -1.079979502353608928e-01 -2.265541183413858572e+00
1.300000000000000044e+00 -7.361816920301339495e-02 -1.590924873702890041e+00
1.316666666666666652e+00 -5.496712111193122197e-02 -6.664706516996256047e-01
1.333333333333333259e+00 -5.140248081302587618e-02 6.669269676588547580e-02
1.350000000000000089e+00 -5.719021100412740449e-02 4.070317714674368537e-01
1.366666666666666696e+00 -6.497020652860710510e-02 5.541871892480628725e-01
1.383333333333333304e+00 -7.566311731239616645e-02 6.703340419384787863e-01
1.399999999999999911e+00 -8.731467459322306279e-02 6.791027150961886916e-01
1.416666666666666741e+00 -9.829987448226912283e-02 6.005555024836811695e-01
1.433333333333333348e+00 -1.073331913426791018e-01 5.395362365086159295e-01
1.449999999999999956e+00 -1.162844156992229872e-01 4.596531419586173950e-01
1.466666666666666563e+00 -1.226549627412996807e-01 2.810615238542960026e-01
1.483333333333333393e+00 -1.256531331610328539e-01 -3.588851891934335958e-02
1.500000000000000000e+00 -1.214586787773215687e-01 -4.138579593724295291e-01
1.516666666666666607e+00 -1.118578678486185363e-01 -7.230207212909633974e-01
1.533333333333333215e+00 -9.735798806762278879e-02 -9.068356899721905506e-01
1.550000000000000044e+00 -8.163001151621218643e-02 -9.854558813635231340e-01
1.566666666666666652e+00 -6.450945868883868617e-02 -1.005509401162021588e+00
1.583333333333333259e+00 -4.811303147747813397e-02 -9.349114060959546890e-01
1.600000000000000089e+00 -3.334574515230686459e-02 -7.980896199773827027e-01
1.616666666666666696e+00 -2.151004414489871008e-02 -6.641008148699638625e-01
1.633333333333333304e+00 -1.120905132330806894e-02 -5.292759675275710007e-01
1.649999999999999911e+00 -3.867511893979675569e-03 -3.599217155083121455e-01
1.666666666666666741e+00 7.883391936356698784e-04 -1.989347449539107804e-01
1.683333333333333348e+00 2.763646271150682881e-03 -1.025671226077247838e-01
1.699999999999999956e+00 4.207243280559829109e-03 -6.927752878964910099e-02
1.716666666666666563e+00 5.072897230805653059e-03 -6.230136648101823604e-02
1.733333333333333393e+00 6.283955496593770368e-03 -8.765055020492064364e-02
1.750000000000000000e+00 7.994582237636341238e-03 -1.296408481175729821e-01
1.766666666666666607e+00 1.060531710051287012e-02 -1.590057530381172868e-01
1.783333333333333215e+00 1.329477400557358378e-02 -1.691525305240887123e-01
1.800000000000000044e+00 1.624373478464916087e-02 -1.655401216985815382e-01
1.816666666666666652e+00 1.881277806219296828e-02 -1.309403329575508923e-01
1.833333333333333259e+00 2.060841254990085705e-02 -7.598541206838081707e-02
1.849999999999999867e+00 2.134562513113899551e-02 -3.027822564670885896e-02
1.866666666666666696e+00 2.161768673812448568e-02 -2.012378350325257081e-03
1.883333333333333304e+00 2.141270440948317075e-02 3.170160865826974345e-02
1.899999999999999911e+00 2.056096644951549424e-02 8.112920290542943724e-02
1.916666666666666741e+00 1.870839764596885640e-02 1.369503846143119430e-01
1.933333333333333348e+00 1.599595362903842924e-02 4.204572704058441857e-01
1.949999999999999956e+00 4.693155299107383896e-03 4.601925236975077937e-01
1.966666666666666563e+00 6.562028391215031205e-04 1.389802379428688450e-01
1.983333333333333393e+00 6.048070101175522613e-05 1.968608517364509383e-02
2.000000000000000000e+00 0.000000000000000000e+00 3.628842060705313784e-03
