0.000000000000000000e+00 8.280356972213960489e+02 1.559805779772143524e+03
1.666666666666666644e-02 8.020389342251936569e+02 1.559805779772140113e+03
3.333333333333333287e-02 7.760421712289913785e+02 1.559805779772140113e+03
5.000000000000000278e-02 7.500454082327889864e+02 1.559805779772140113e+03
6.666666666666666574e-02 7.240486452365867081e+02 1.559805779772140113e+03
8.333333333333332871e-02 6.980518822403843160e+02 1.559805779772140113e+03
1.000000000000000056e-01 6.720551192441820376e+02 1.559805779772143524e+03
1.166666666666666685e-01 6.460583562479795319e+02 1.559805779772143524e+03
1.333333333333333315e-01 6.200615932517772535e+02 1.559805779772140113e+03
1.499999999999999944e-01 5.940648302555748614e+02 1.559805779772140113e+03
1.666666666666666574e-01 5.680680672593725831e+02 1.559805779772140113e+03
1.833333333333333204e-01 5.420713042631701910e+02 1.559805779772143524e+03
2.000000000000000111e-01 5.160745412669677989e+02 1.559805779772141932e+03
2.166666666666666741e-01 4.900777782707654637e+02 1.559805779772140113e+03
2.333333333333333370e-01 4.640810152745631285e+02 1.559805779772140113e+03
2.500000000000000000e-01 4.380842522783607933e+02 1.559805779772140113e+03
2.666666666666666630e-01 4.120874892821584581e+02 1.559805779772140113e+03
2.833333333333333259e-01 3.860907262859561229e+02 1.559805779772140113e+03
2.999999999999999889e-01 3.600939632897537876e+02 1.559805779772141932e+03
3.166666666666666519e-01 3.340972002935513956e+02 1.559805779772141932e+03
3.333333333333333148e-01 3.081004372973490604e+02 1.559805779772140113e+03
3.499999999999999778e-01 2.821036743011467252e+02 1.559805779772140113e+03
3.666666666666666408e-01 2.561069113049443899e+02 1.559805779772141022e+03
3.833333333333333037e-01 2.301101483087420263e+02 1.559805779772143524e+03
4.000000000000000222e-01 2.041133853125396058e+02 1.559805779772142614e+03
4.166666666666666852e-01 1.781166223163372706e+02 1.559805779772140113e+03
4.333333333333333481e-01 1.521198593201349354e+02 1.559805779772141022e+03
4.500000000000000111e-01 1.261230963239325717e+02 1.559805779772141022e+03
4.666666666666666741e-01 1.001263333277302365e+02 1.559805779772140568e+03
4.833333333333333370e-01 7.412957033152788711e+01 1.559805779772140795e+03
5.000000000000000000e-01 4.813280733532554478e+01 1.559805779772138067e+03
5.166666666666666075e-01 2.213604433912328773e+01 1.006210257521358358e+03
5.333333333333333259e-01 1.459246541794693108e+01 3.719002016442536274e+02
5.500000000000000444e-01 9.739370950981500741e+00 2.526543259801447334e+02
5.666666666666666519e-01 6.170654551942106991e+00 1.901759129780716364e+02
5.833333333333333703e-01 3.400173851712446016e+00 1.499388791226931517e+02
5.999999999999999778e-01 1.172691914519002232e+00 1.190928971922759558e+02
6.166666666666666963e-01 -5.695893880300858525e-01 9.233850628515406811e+01
6.333333333333333037e-01 -1.905258294986133416e+00 7.010148031061032725e+01
6.500000000000000222e-01 -2.906305398383763450e+00 5.205756993121232767e+01
6.666666666666666297e-01 -3.640510626026544294e+00 3.718393235960385823e+01
6.833333333333333481e-01 -4.145769810370558695e+00 2.514875130852830054e+01
6.999999999999999556e-01 -4.478802336310820920e+00 1.578594356140772703e+01
7.166666666666666741e-01 -4.671967929084149596e+00 8.308839995369172726e+00
7.333333333333332815e-01 -4.755763669489793344e+00 1.967789397924670780e+00
7.500000000000000000e-01 -4.737560909014971955e+00 -3.471646733578994670e+00
7.666666666666666075e-01 -4.640042111703826855e+00 -8.370727538197071382e+00
7.833333333333333259e-01 -4.458536657741736242e+00 -1.347751450398353867e+01
8.000000000000000444e-01 -4.190791628237708899e+00 -1.799201094531340672e+01
8.166666666666666519e-01 -3.858802959564622714e+00 -2.071404679154189310e+01
8.333333333333333703e-01 -3.500323401852979188e+00 -2.076967809581898550e+01
8.499999999999999778e-01 -3.166480356370656501e+00 -1.792290120199482928e+01
8.666666666666666963e-01 -2.902893361786484938e+00 -1.376480516985364666e+01
8.833333333333333037e-01 -2.707653517375534946e+00 -1.040026803490027518e+01
9.000000000000000222e-01 -2.556217760623142432e+00 -9.281087923274885298e+00
9.166666666666666297e-01 -2.398283919933038799e+00 -9.970651818097891805e+00
9.333333333333333481e-01 -2.223862700019879401e+00 -1.207077639915565648e+01
9.499999999999999556e-01 -1.995924706627850265e+00 -1.530715131371475834e+01
9.666666666666666741e-01 -1.713624322896054153e+00 -1.774111257279386322e+01
9.833333333333332815e-01 -1.404554287534721446e+00 -1.795485557420824207e+01
1.000000000000000000e+00 -1.115129137089112765e+00 -1.625251621832911653e+01
1.016666666666666607e+00 -8.628037469237509471e-01 -1.414120348329326049e+01
1.033333333333333215e+00 -6.437556876460041044e-01 -1.252150446410423967e+01
1.050000000000000044e+00 -4.454202647869429654e-01 -1.076802052584213776e+01
1.066666666666666652e+00 -2.848216701179328569e-01 -8.831800707000118322e+00
1.083333333333333259e+00 -1.510269078869390103e-01 -7.148120756245761598e+00
1.100000000000000089e+00 -4.655097824307413007e-02 -6.069359864076147915e+00
1.116666666666666696e+00 5.128508758226590913e-02 -5.126831675961150303e+00
1.133333333333333304e+00 1.243434109556308814e-01 -3.690352669875139213e+00
1.149999999999999911e+00 1.742968432447705440e-01 -2.653376480671282955e+00
1.166666666666666741e+00 2.127892936446736383e-01 -2.397653129402742778e+00
1.183333333333333348e+00 2.542186142248619718e-01 -2.181713193693193720e+00
1.199999999999999956e+00 2.855130667677800993e-01 -1.471797562557571881e+00
1.216666666666666563e+00 3.032785329767810345e-01 -7.315306767928037024e-01
1.233333333333333393e+00 3.098974226608735560e-01 1.309341392639090662e-01
1.250000000000000000e+00 2.989140616679840656e-01 1.586059195325353333e+00
1.266666666666666607e+00 2.570287828166951116e-01 3.082093760423115114e+00
1.283333333333333215e+00 1.961776029872135674e-01 3.732539583806694594e+00
1.300000000000000044e+00 1.326107966898052992e-01 3.912964197592896376e+00
1.316666666666666652e+00 6.574546306745036872e-02 4.315107557186657949e+00
1.333333333333333259e+00 -1.122612188308330476e-02 4.758667093900982970e+00
1.350000000000000089e+00 -9.287677339591574044e-02 4.603796113251500621e+00
1.366666666666666696e+00 -1.646859923247999957e-01 3.936063114145278874e+00
1.383333333333333304e+00 -2.240788772007583640e-01 3.426409778525480121e+00
1.399999999999999911e+00 -2.788996516089826683e-01 3.452366563407214262e+00
1.416666666666666741e+00 -3.391577626476655061e-01 3.594607370347810082e+00
1.433333333333333348e+00 -3.987198972872429970e-01 3.209341878089589262e+00
1.449999999999999956e+00 -4.461358252506518185e-01 2.204848289641119674e+00
1.466666666666666563e+00 -4.722148402752803231e-01 1.233600655338624730e+00
1.483333333333333393e+00 -4.872558470952726428e-01 5.127056455812056823e-01
1.500000000000000000e+00 -4.893050284613205125e-01 -3.921890731187399615e-01
1.516666666666666607e+00 -4.741828779913146441e-01 -1.201071037543065545e+00
1.533333333333333215e+00 -4.492693272098849944e-01 -1.192477287271052733e+00
1.550000000000000044e+00 -4.344336350822795567e-01 -6.029990306895849361e-01
1.566666666666666652e+00 -4.291693595202321632e-01 -3.420152940378484718e-01
1.583333333333333259e+00 -4.230331252810179410e-01 -5.479163669353093180e-01
1.600000000000000089e+00 -4.109054806223885192e-01 -6.755094052640847613e-01
1.616666666666666696e+00 -4.005161451055484489e-01 -5.937528168700401121e-01
1.633333333333333304e+00 -3.911137200600538488e-01 -5.104000643744871502e-01
1.649999999999999911e+00 -3.835028096263988773e-01 -5.057845431149410320e-01
1.666666666666666741e+00 -3.742542352895558144e-01 -3.549551127147471119e-01
1.683333333333333348e+00 -3.716709725359073069e-01 8.263290205124340648e-02
1.699999999999999956e+00 -3.770086653579305946e-01 5.374119796097626134e-01
1.716666666666666563e+00 -3.895847051895660607e-01 6.713883883059340585e-01
1.733333333333333393e+00 -3.993882783014617299e-01 3.859418927087071571e-01
1.750000000000000000e+00 -4.024494349465229659e-01 -6.806949023394459619e-02
1.766666666666666607e+00 -3.971192952936635767e-01 -4.812995379528001161e-01
1.783333333333333215e+00 -3.864061170147629620e-01 -8.236699052721008218e-01
1.800000000000000044e+00 -3.696636317845935493e-01 -1.107055137573213610e+00
1.816666666666666652e+00 -3.495042790956558454e-01 -1.245262178542420717e+00
1.833333333333333259e+00 -3.281548924998461958e-01 -1.272831486938496681e+00
1.849999999999999867e+00 -3.070765628643726264e-01 -1.323502979773332200e+00
1.866666666666666696e+00 -2.840381265074017891e-01 -1.416561668486807646e+00
1.883333333333333304e+00 -2.598578405814790382e-01 -1.500889900203796312e+00
1.899999999999999911e+00 -2.340084631672752491e-01 -1.652546116560994482e+00
1.916666666666666741e+00 -2.047729700294458888e-01 -1.908510441807439229e+00
1.933333333333333348e+00 -1.703914484403606100e-01 -5.049403675383719481e+00
1.949999999999999956e+00 -3.645951418332190469e-02 -4.968346430995625340e+00
1.966666666666666563e+00 -4.779900740506440142e-03 -1.080257096369657388e+00
1.983333333333333393e+00 -4.509443043333240014e-04 -1.433970222151932095e-01
2.000000000000000000e+00 0.000000000000000000e+00 -2.705665825999943944e-02
