0	3.80491e+06	119.048
0.0166667	3.80491e+06	220.146
0.0333333	3.80491e+06	381.934
0.05	3.8049e+06	466.524
0.0666667	3.80489e+06	495.213
0.0833333	3.80488e+06	500
0.1	3.80488e+06	500
0.116667	3.80487e+06	500
0.133333	3.80486e+06	500
0.15	3.80485e+06	500
0.166667	3.80484e+06	500
0.183333	3.80483e+06	590381
0.2	3.78516e+06	3.79597e+06
0.216667	3.6783e+06	1.21054e+07
0.233333	3.38165e+06	2.53205e+07
0.25	2.83428e+06	3.84423e+07
0.266667	2.10024e+06	4.44074e+07
0.283333	1.35404e+06	4.00556e+07
0.3	765052	2.87751e+07
0.316667	394868	1.69379e+07
0.333333	200455	8.67668e+06
0.35	105645	4.28772e+06
0.366667	57530.7	2.20211e+06
0.383333	32241.4	1.16968e+06
0.4	18541.3	640282
0.416667	10898.7	360325
0.433333	6530.47	207857
0.45	3970.1	123314
0.466667	2420	79467.8
0.483333	1321.17	53427.5
0.5	639.08	31554.1
0.516667	269.366	16810.3
0.533333	78.7371	7674.82
0.55	13.5386	2695.68
0.566667	-11.1189	1058.73
0.583333	-21.7524	463.156
0.6	-26.5575	211.595
0.616667	-28.8056	101.625
0.633333	-29.945	49.9824
0.65	-30.4717	16.4332
0.666667	-30.4927	-12.0355
0.683333	-30.0705	-34.8414
0.7	-29.3314	-49.9327
0.716667	-28.4061	-59.5714
0.733333	-27.3456	-68.2176
0.75	-26.1321	-77.4832
0.766667	-24.7629	-85.7511
0.783333	-23.2738	-91.8817
0.8	-21.7001	-96.051
0.816667	-20.0721	-97.7676
0.833333	-18.4412	-96.5391
0.85	-16.8541	-94.1374
0.866667	-15.3033	-93.463
0.883333	-13.7387	-95.1693
0.9	-12.131	-96.5247
0.916667	-10.5212	-94.219
0.933333	-8.99037	-87.7965
0.95	-7.59462	-79.6005
0.966667	-6.33702	-72.3545
0.983333	-5.1828	-66.6828
1	-4.11426	-60.9763
1.01667	-3.15026	-53.8724
1.03333	-2.31851	-46.026
1.05	-1.61606	-39.3068
1.06667	-1.00829	-34.5115
1.08333	-0.465675	-30.6641
1.1	0.0138513	-26.5201
1.11667	0.418329	-21.8779
1.13333	0.743115	-17.1739
1.15	0.990791	-12.8028
1.16667	1.16987	-9.02136
1.18333	1.2915	-5.99119
1.2	1.36958	-3.76923
1.21667	1.41714	-2.29962
1.23333	1.44623	-1.62463
1.25	1.4713	-1.64508
1.26667	1.50107	-1.76337
1.28333	1.53008	-1.13926
1.3	1.53904	0.736036
1.31667	1.50554	3.64116
1.33333	1.41767	6.71326
1.35	1.28177	8.90875
1.36667	1.12071	9.44895
1.38333	0.966802	8.46428
1.4	0.838572	7.36033
1.41667	0.721458	7.59213
1.43333	0.585501	9.00603
1.45	0.421257	9.95015
1.46667	0.253829	9.03605
1.48333	0.120055	6.45699
1.5	0.0385959	3.48663
1.51667	0.00383402	1.2174
1.53333	-0.00198421	0.115594
1.55	-1.91018e-05	0.0553026
1.56667	-0.00382763	0.307406
1.58333	-0.010266	0.0703806
1.6	-0.00617365	-0.636304
1.61667	0.0109442	-0.91838
1.63333	0.024439	-0.155085
1.65	0.0161137	1.16305
1.66667	-0.0143292	2.05163
1.68333	-0.052274	2.18393
1.7	-0.0871267	2.02626
1.71667	-0.119816	2.07541
1.73333	-0.156307	2.37019
1.75	-0.198822	2.58156
1.76667	-0.242359	2.33437
1.78333	-0.276635	1.49711
1.8	-0.292263	0.296205
1.81667	-0.286508	-0.868881
1.83333	-0.2633	-1.71555
1.85	-0.229323	-2.1889
1.86667	-0.190337	-2.34258
1.88333	-0.151237	-2.20136
1.9	-0.116958	-1.81003
1.91667	-0.0909028	-1.32621
1.93333	-0.0727511	-0.976215
1.95	-0.0583623	-0.906545
1.96667	-0.0425329	-1.08228
1.98333	-0.0222864	-1.34027
2	0.00214284	-1.46575
