0	1.30021e+07	205.775
0.0166667	1.30021e+07	286.323
0.0333333	1.30021e+07	404.331
0.05	1.3002e+07	465.695
0.0666667	1.3002e+07	477.092
0.0833333	1.3002e+07	528.351
0.1	1.3002e+07	564.425
0.116667	1.3002e+07	526.997
0.133333	1.3002e+07	520.196
0.15	1.3002e+07	494.864
0.166667	1.3002e+07	441.2
0.183333	1.3002e+07	2.015e+06
0.2	1.29348e+07	1.29631e+07
0.216667	1.25699e+07	4.13437e+07
0.233333	1.15567e+07	8.64825e+07
0.25	9.68713e+06	1.31309e+08
0.266667	7.17974e+06	1.51697e+08
0.283333	4.63056e+06	1.3685e+08
0.3	2.61809e+06	9.8332e+07
0.316667	1.35282e+06	5.79042e+07
0.333333	687945	2.96828e+07
0.35	363396	1.46837e+07
0.366667	198487	7.55182e+06
0.383333	111669	4.01971e+06
0.4	64497	2.20609e+06
0.416667	38132.7	1.24434e+06
0.433333	23019.1	719342
0.45	14154.6	425236
0.466667	8844.56	256426
0.483333	5607.08	157533
0.5	3593.47	98413.1
0.516667	2326.65	62371.5
0.533333	1514.42	40554
0.55	974.846	28157.6
0.566667	575.829	20343.2
0.583333	296.74	13272
0.6	133.428	6831.5
0.616667	69.0238	2882.45
0.633333	37.3458	1460.57
0.65	20.3382	762.638
0.666667	11.9245	369.107
0.683333	8.03464	170.647
0.7	6.23631	83.2434
0.716667	5.25986	50.7514
0.733333	4.5446	41.0485
0.75	3.89158	39.0326
0.766667	3.24352	39.2931
0.783333	2.58181	39.5873
0.8	1.92394	37.6417
0.816667	1.32709	32.3377
0.833333	0.846018	25.5468
0.85	0.475527	20.7071
0.866667	0.155782	19.0535
0.883333	-0.159591	18.4769
0.9	-0.460116	16.3271
0.916667	-0.703827	12.3325
0.933333	-0.871199	8.41984
0.95	-0.984489	6.45578
0.966667	-1.08639	6.87753
0.983333	-1.21374	8.597
1	-1.37296	9.67995
1.01667	-1.5364	8.86445
1.03333	-1.66844	6.69535
1.05	-1.75958	4.77836
1.06667	-1.82772	3.93768
1.08333	-1.89084	3.70429
1.1	-1.9512	3.21283
1.11667	-1.99793	2.29223
1.13333	-2.0276	1.54008
1.15	-2.04927	1.19174
1.16667	-2.06733	0.610848
1.18333	-2.06963	-0.883847
1.2	-2.03787	-2.74448
1.21667	-1.97815	-3.3173
1.23333	-1.92729	-1.80356
1.25	-1.91803	0.531774
1.26667	-1.94502	1.67125
1.28333	-1.97374	0.920175
1.3	-1.97569	-0.735128
1.31667	-1.94923	-1.91904
1.33333	-1.91172	-2.15556
1.35	-1.87738	-1.95324
1.36667	-1.84661	-1.96863
1.38333	-1.81176	-2.32321
1.4	-1.76917	-2.62741
1.41667	-1.72418	-2.63766
1.43333	-1.68125	-2.69609
1.45	-1.63431	-3.26337
1.46667	-1.57247	-4.19461
1.48333	-1.49449	-4.86419
1.5	-1.41033	-4.98647
1.51667	-1.32828	-4.89097
1.53333	-1.2473	-5.09009
1.55	-1.15861	-5.7011
1.56667	-1.05726	-6.30967
1.58333	-0.948283	-6.42586
1.6	-0.843066	-5.83375
1.61667	-0.753824	-4.70837
1.63333	-0.68612	-3.57784
1.65	-0.634563	-2.92337
1.66667	-0.588675	-2.73991
1.68333	-0.543233	-2.63431
1.7	-0.500864	-2.32505
1.71667	-0.465731	-1.98628
1.73333	-0.434655	-1.98423
1.75	-0.39959	-2.30339
1.76667	-0.357875	-2.50883
1.78333	-0.315963	-2.25782
1.8	-0.282615	-1.69639
1.81667	-0.259416	-1.27919
1.83333	-0.239975	-1.24395
1.85	-0.217952	-1.41418
1.86667	-0.192835	-1.50503
1.88333	-0.167784	-1.44775
1.9	-0.144577	-1.37052
1.91667	-0.1221	-1.36901
1.93333	-0.0989433	-1.41516
1.95	-0.0749278	-1.45045
1.96667	-0.050595	-1.44704
1.98333	-0.0266932	-1.51785
2	0	-1.60159
