0	161395	119.048
0.0166667	161393	220.146
0.0333333	161387	381.934
0.05	161380	466.524
0.0666667	161372	495.213
0.0833333	161363	500
0.1	161355	500
0.116667	161347	500
0.133333	161338	500
0.15	161330	500
0.166667	161322	500
0.183333	161313	25629.4
0.2	160467	162151
0.216667	155908	515900
0.233333	143271	1.07816e+06
0.25	119970	1.6358e+06
0.266667	88744.1	1.88812e+06
0.283333	57032.4	1.70109e+06
0.3	32041.2	1.21965e+06
0.316667	16377.3	715474
0.333333	8192.07	364290
0.35	4234.3	178336
0.366667	2247.53	90599
0.383333	1214.34	48856
0.4	618.992	28623.9
0.416667	260.208	14336.8
0.433333	141.1	5440.98
0.45	78.842	2849.95
0.466667	46.1015	1502.13
0.483333	28.7711	813.639
0.5	18.9802	478.786
0.516667	12.8115	316.428
0.533333	8.43257	232.241
0.55	5.07019	180.949
0.566667	2.40093	144.88
0.583333	0.240869	118.057
0.6	-1.53429	96.6195
0.616667	-2.97978	76.6155
0.633333	-4.08814	56.0984
0.65	-4.84973	36.2723
0.666667	-5.29722	19.5016
0.683333	-5.49978	6.86575
0.7	-5.52608	-2.27708
0.716667	-5.42388	-8.86939
0.733333	-5.23043	-13.4232
0.75	-4.97644	-16.6151
0.766667	-4.67659	-19.7967
0.783333	-4.31655	-24.1112
0.8	-3.87289	-29.0811
0.816667	-3.34718	-32.8011
0.833333	-2.77952	-33.7048
0.85	-2.22368	-31.937
0.866667	-1.71495	-28.8118
0.883333	-1.26329	-25.4489
0.9	-0.866654	-21.9998
0.916667	-0.529965	-18.1056
0.933333	-0.263135	-13.7167
0.95	-0.0727424	-9.27094
0.966667	0.0458959	-5.54551
0.983333	0.112108	-3.10354
1	0.149347	-1.69255
1.01667	0.168526	-0.371372
1.03333	0.161726	1.54845
1.05	0.116911	3.77706
1.06667	0.0358243	5.42446
1.08333	-0.0639041	5.92423
1.1	-0.16165	5.29269
1.11667	-0.240327	3.61676
1.13333	-0.282209	1.0234
1.15	-0.27444	-1.83466
1.16667	-0.221053	-3.81607
1.18333	-0.147238	-4.11638
1.2	-0.0838405	-2.9782
1.21667	-0.0479648	-1.37144
1.23333	-0.0381258	-0.117132
1.25	-0.0440604	0.674613
1.26667	-0.0606129	1.46749
1.28333	-0.0929767	2.60158
1.3	-0.147332	3.84321
1.31667	-0.221084	4.71668
1.33333	-0.304555	5.04142
1.35	-0.389131	5.00815
1.36667	-0.471493	4.81575
1.38333	-0.549656	4.50456
1.4	-0.621645	4.13698
1.41667	-0.687555	3.69767
1.43333	-0.744901	2.90517
1.45	-0.784394	1.47967
1.46667	-0.794223	-0.310112
1.48333	-0.774057	-1.62666
1.5	-0.740001	-1.89071
1.51667	-0.711034	-1.42258
1.53333	-0.692582	-1.04169
1.55	-0.676311	-1.22087
1.56667	-0.651886	-1.78031
1.58333	-0.616967	-2.29746
1.6	-0.575304	-2.60189
1.61667	-0.530237	-2.78086
1.63333	-0.482609	-2.94264
1.65	-0.432149	-3.10743
1.66667	-0.379028	-3.21215
1.68333	-0.325078	-3.1493
1.7	-0.274051	-2.86112
1.71667	-0.229707	-2.44789
1.73333	-0.192455	-2.13768
1.75	-0.158451	-2.08242
1.76667	-0.123041	-2.20046
1.78333	-0.0851025	-2.24089
1.8	-0.0483444	-1.99712
1.81667	-0.0185319	-1.47281
1.83333	0.000749313	-0.867812
1.85	0.0103951	-0.404778
1.86667	0.0142419	-0.162594
1.88333	0.0158149	-0.0655453
1.9	0.0164267	0.0018564
1.91667	0.015753	0.0929755
1.93333	0.0133276	0.193085
1.95	0.00931686	0.2638
1.96667	0.00453424	0.272398
1.98333	0.000236912	0.136027
2	0	0.0142147
