0	161395	-539.862
0.0166667	161404	-1.74311
0.0333333	161395	555.979
0.05	161385	614.679
0.0666667	161374	570.035
0.0833333	161366	470.667
0.1	161358	438.934
0.116667	161351	413.406
0.133333	161345	405.343
0.15	161338	418.603
0.166667	161331	444.346
0.183333	161323	25597.5
0.2	160477	162141
0.216667	155918	515923
0.233333	143280	1.07822e+06
0.25	119978	1.63588e+06
0.266667	88750.5	1.8882e+06
0.283333	57037.6	1.70116e+06
0.3	32045.1	1.21974e+06
0.316667	16379.6	715578
0.333333	8192.54	364443
0.35	4231.52	178814
0.366667	2232.06	91419.9
0.383333	1184.19	50845.8
0.4	537.205	28830.5
0.416667	223.172	13274.7
0.433333	94.7144	5570.81
0.45	37.4786	2513.26
0.466667	10.9392	1120.21
0.483333	0.138424	428.606
0.5	-3.34772	124.715
0.516667	-4.01874	18.8315
0.533333	-3.97544	-2.14665
0.55	-3.94718	1.79813
0.566667	-4.03538	7.24024
0.583333	-4.18852	9.75478
0.6	-4.36054	9.66432
0.616667	-4.51067	7.3697
0.633333	-4.60619	3.84895
0.65	-4.63896	1.30805
0.666667	-4.64979	1.83342
0.683333	-4.70008	4.6552
0.7	-4.80497	6.27565
0.716667	-4.90927	4.07064
0.733333	-4.94065	-1.27705
0.75	-4.8667	-7.18039
0.766667	-4.70131	-11.5005
0.783333	-4.48335	-12.7791
0.8	-4.27534	-10.3156
0.816667	-4.1395	-6.1449
0.833333	-4.07051	-4.63522
0.85	-3.98499	-7.90742
0.866667	-3.80693	-12.8247
0.883333	-3.5575	-14.2641
0.9	-3.33146	-11.1348
0.916667	-3.18634	-7.12431
0.933333	-3.09398	-5.8813
0.95	-2.99029	-7.62035
0.966667	-2.83997	-9.97588
0.983333	-2.65777	-10.8175
1	-2.47938	-9.96759
1.01667	-2.32551	-8.5955
1.03333	-2.19287	-7.78592
1.05	-2.06598	-7.75003
1.06667	-1.93453	-8.13374
1.08333	-1.79486	-8.67367
1.1	-1.64541	-9.00464
1.11667	-1.4947	-8.63689
1.13333	-1.35751	-7.6033
1.15	-1.24126	-6.38762
1.16667	-1.14459	-5.15515
1.18333	-1.06942	-3.72198
1.2	-1.02053	-2.42182
1.21667	-0.988694	-2.23998
1.23333	-0.945862	-3.43859
1.25	-0.874074	-4.66308
1.26667	-0.790426	-4.31984
1.28333	-0.73008	-2.48041
1.3	-0.707746	-0.750502
1.31667	-0.705063	-0.397559
1.33333	-0.694494	-1.22444
1.35	-0.664248	-2.17177
1.36667	-0.622102	-2.44534
1.38333	-0.582737	-1.99184
1.4	-0.555707	-1.19789
1.41667	-0.542807	-0.433536
1.43333	-0.541256	0.104964
1.45	-0.546306	0.277333
1.46667	-0.5505	-0.0162677
1.48333	-0.545764	-0.601292
1.5	-0.530457	-1.01162
1.51667	-0.512043	-0.93988
1.53333	-0.499128	-0.639272
1.55	-0.490734	-0.587234
1.56667	-0.479553	-0.808029
1.58333	-0.4638	-0.877015
1.6	-0.45032	-0.614902
1.61667	-0.443303	-0.382388
1.63333	-0.437573	-0.534357
1.65	-0.425491	-0.934737
1.66667	-0.406415	-1.17805
1.68333	-0.386223	-1.12486
1.7	-0.36892	-0.987655
1.71667	-0.353301	-0.945551
1.73333	-0.337402	-0.944108
1.75	-0.321831	-0.897303
1.76667	-0.307491	-0.872391
1.78333	-0.292751	-0.997306
1.8	-0.274248	-1.28022
1.81667	-0.250077	-1.59042
1.83333	-0.221234	-1.78547
1.85	-0.190561	-1.7928
1.86667	-0.161474	-1.60686
1.88333	-0.137	-1.31886
1.9	-0.117512	-1.09822
1.91667	-0.100392	-1.05765
1.93333	-0.082257	-1.1611
1.95	-0.0616888	-1.27208
1.96667	-0.0398545	-1.28195
1.98333	-0.0189573	-1.19563
2	0	-1.13744
