0.000000000000000000e+00 1.333283614842013321e+03 2.597792963676224645e+03
1.666666666666666644e-02 1.289987065447409577e+03 2.597792963676217823e+03
3.333333333333333287e-02 1.246690516052806061e+03 2.597792963676217823e+03
5.000000000000000278e-02 1.203393966658202316e+03 2.597792963676217823e+03
6.666666666666666574e-02 1.160097417263598800e+03 2.597792963676217823e+03
8.333333333333332871e-02 1.116800867868995056e+03 2.597792963676224645e+03
1.000000000000000056e-01 1.073504318474391312e+03 2.597792963676217823e+03
1.166666666666666685e-01 1.030207769079787795e+03 2.597792963676217823e+03
1.333333333333333315e-01 9.869112196851840508e+02 2.597792963676214640e+03
1.499999999999999944e-01 9.436146702905806478e+02 2.597792963676217823e+03
1.666666666666666574e-01 9.003181208959767901e+02 2.597792963676217823e+03
1.833333333333333204e-01 8.570215715013733870e+02 2.597792963676214640e+03
2.000000000000000111e-01 8.137250221067696430e+02 2.597792963676221461e+03
2.166666666666666741e-01 7.704284727121660126e+02 2.597792963676217823e+03
2.333333333333333370e-01 7.271319233175623822e+02 2.597792963676217823e+03
2.500000000000000000e-01 6.838353739229587518e+02 2.597792963676217823e+03
2.666666666666666630e-01 6.405388245283551214e+02 2.597792963676217823e+03
2.833333333333333259e-01 5.972422751337514910e+02 2.597792963676214640e+03
2.999999999999999889e-01 5.539457257391479743e+02 2.597792963676214640e+03
3.166666666666666519e-01 5.106491763445443439e+02 2.597792963676217823e+03
3.333333333333333148e-01 4.673526269499407135e+02 2.597792963676217823e+03
3.499999999999999778e-01 4.240560775553370831e+02 2.597792963676217823e+03
3.666666666666666408e-01 3.807595281607334528e+02 2.597792963676214640e+03
3.833333333333333037e-01 3.374629787661299360e+02 2.597792963676219642e+03
4.000000000000000222e-01 2.941664293715261351e+02 2.597792963676221916e+03
4.166666666666666852e-01 2.508698799769225332e+02 2.597792963676216914e+03
4.333333333333333481e-01 2.075733305823189028e+02 2.597792963676216914e+03
4.500000000000000111e-01 1.642767811877153008e+02 2.597792963676216459e+03
4.666666666666666741e-01 1.209802317931116846e+02 2.597792963676216914e+03
4.833333333333333370e-01 7.768368239850806845e+01 2.597792963676216914e+03
5.000000000000000000e-01 3.438713300390445227e+01 1.573724029929572453e+03
5.166666666666666075e-01 2.522621473418898574e+01 4.606005641678081020e+02
5.333333333333333259e-01 1.903378086497751553e+01 3.289723779091639244e+02
5.500000000000000444e-01 1.426046880388352101e+01 2.549231002049499466e+02
5.666666666666666519e-01 1.053634419147918422e+01 1.999152868825561029e+02
5.833333333333333703e-01 7.596625907798317812e+00 1.583817435592818299e+02
5.999999999999999778e-01 5.256952739503123695e+00 1.259635498792294896e+02
6.166666666666666963e-01 3.397840911824002053e+00 9.959504097447663185e+01
6.333333333333333037e-01 1.937118040353902781e+00 7.774662596383956270e+01
6.500000000000000222e-01 8.062867130293496221e-01 6.031238998591693701e+01
6.666666666666666297e-01 -7.329495917666196958e-02 4.754682094146098592e+01
6.833333333333333481e-01 -7.786073183526830421e-01 3.891664971309478460e+01
6.999999999999999556e-01 -1.370516616279821465e+00 3.312402903918315644e+01
7.166666666666666741e-01 -1.882741619658788279e+00 2.871210397748492937e+01
7.333333333333332815e-01 -2.327586748862652488e+00 2.514601356622712203e+01
7.500000000000000000e-01 -2.720942071866359058e+00 2.206210431635163260e+01
7.666666666666666075e-01 -3.062990226074373545e+00 1.848578104445041959e+01
7.833333333333333259e-01 -3.337134773348039651e+00 1.392484202560763862e+01
8.000000000000000444e-01 -3.527151626927961470e+00 8.862304029831294727e+00
8.166666666666666519e-01 -3.632544907675749446e+00 4.175858375403036504e+00
8.333333333333333703e-01 -3.666346906108062687e+00 2.375159273822236017e-01
8.499999999999999778e-01 -3.640462105255156899e+00 -2.863070694094456137e+00
8.666666666666666963e-01 -3.570911216304914149e+00 -4.927375350751197480e+00
8.833333333333333037e-01 -3.476216260230116983e+00 -6.231152978074621096e+00
9.000000000000000222e-01 -3.363206117035760112e+00 -7.302344937959444060e+00
9.166666666666666297e-01 -3.232804762298135515e+00 -8.384931725531524549e+00
9.333333333333333481e-01 -3.083708392851375990e+00 -9.495543349757188167e+00
9.499999999999999556e-01 -2.916286650639562605e+00 -1.032297987286460383e+01
9.666666666666666741e-01 -2.739609063755889196e+00 -1.051889676148821451e+01
9.833333333333332815e-01 -2.565656758589955455e+00 -1.004960486154939936e+01
1.000000000000000000e+00 -2.404622235037575884e+00 -9.346397799445833598e+00
1.016666666666666607e+00 -2.254110165275094335e+00 -8.881554472067861639e+00
1.033333333333333215e+00 -2.108570419301980525e+00 -8.794307545962114503e+00
1.050000000000000044e+00 -1.960966580409690518e+00 -9.127016721876170635e+00
1.066666666666666652e+00 -1.804336528572774823e+00 -9.566785577294307785e+00
1.083333333333333259e+00 -1.642073727833213592e+00 -9.734319279508772738e+00
1.100000000000000089e+00 -1.479859219255815761e+00 -9.561636283432788375e+00
1.116666666666666696e+00 -1.323352518385453980e+00 -8.928443898353217278e+00
1.133333333333333304e+00 -1.182244422644041837e+00 -7.757915486269610916e+00
1.149999999999999911e+00 -1.064755335509800283e+00 -6.345348294783938137e+00
1.166666666666666741e+00 -9.707328128179105731e-01 -5.280018580770081016e+00
1.183333333333333348e+00 -8.887547161507975968e-01 -4.883613473585456610e+00
1.199999999999999956e+00 -8.079456970317286935e-01 -4.809777250919816005e+00
1.216666666666666563e+00 -7.284288077868037448e-01 -4.654560773228406667e+00
1.233333333333333393e+00 -6.527936712574484712e-01 -4.368792413532463392e+00
1.250000000000000000e+00 -5.828023940023883132e-01 -3.999173195257201829e+00
1.266666666666666607e+00 -5.194878980822084102e-01 -3.444926500446192197e+00
1.283333333333333215e+00 -4.679715106541819103e-01 -2.661475859261092314e+00
1.300000000000000044e+00 -4.307720361068386739e-01 -1.941702889929076692e+00
1.316666666666666652e+00 -4.032480809898793539e-01 -1.550518108720943644e+00
1.333333333333333259e+00 -3.790880991494738894e-01 -1.420454757008098978e+00
1.350000000000000089e+00 -3.558995890896093917e-01 -1.361184138119322373e+00
1.366666666666666696e+00 -3.337152945454964770e-01 -1.324127519713521162e+00
1.383333333333333304e+00 -3.117620050991586900e-01 -1.363824334133248550e+00
1.399999999999999911e+00 -2.882544834077215290e-01 -1.406879862805792136e+00
1.416666666666666741e+00 -2.648660096722989521e-01 -1.310728407771114101e+00
1.433333333333333348e+00 -2.445635364820177293e-01 -1.158400595872423056e+00
1.449999999999999956e+00 -2.262526564765515169e-01 -1.109561787948828426e+00
1.466666666666666563e+00 -2.075781435503901151e-01 -1.224729475857756045e+00
1.483333333333333393e+00 -1.854283406146263191e-01 -1.409304257803809524e+00
1.500000000000000000e+00 -1.606013349569297977e-01 -1.483313340812428383e+00
1.516666666666666607e+00 -1.359845625875453767e-01 -1.414440171488374309e+00
1.533333333333333215e+00 -1.134533292406506577e-01 -1.246343028100783235e+00
1.550000000000000044e+00 -9.443979498418593466e-02 -1.020148470155328502e+00
1.566666666666666652e+00 -7.944838023547304284e-02 -7.663031065012896326e-01
1.583333333333333259e+00 -6.889635810080961542e-02 -5.839523214495204728e-01
1.600000000000000089e+00 -5.998330285382236227e-02 -5.600501019591487273e-01
1.616666666666666696e+00 -5.022802136883799257e-02 -6.256169635453691091e-01
1.633333333333333304e+00 -3.912940406897672668e-02 -6.963395938171053068e-01
1.649999999999999911e+00 -2.701670157493448257e-02 -7.422494880651598903e-01
1.666666666666666741e+00 -1.438775446680472941e-02 -7.472869566338873337e-01
1.683333333333333348e+00 -2.107136353804903682e-03 -6.834292090954929844e-01
1.699999999999999956e+00 8.393219169711705133e-03 -5.213437196140671137e-01
1.716666666666666563e+00 1.527098763333066545e-02 -3.418894352173151296e-01
1.733333333333333393e+00 1.978953367695554175e-02 -2.290378149891288406e-01
1.750000000000000000e+00 2.290558146630162703e-02 -1.796836441035853382e-01
1.766666666666666607e+00 2.577898848040838589e-02 -1.524054805756962228e-01
1.783333333333333215e+00 2.798576415215816779e-02 -1.166398135354911464e-01
1.800000000000000044e+00 2.966698226492475721e-02 -7.061392268422496399e-02
1.816666666666666652e+00 3.033956157496566636e-02 -2.441641711164281581e-03
1.833333333333333259e+00 2.974837032196356659e-02 7.487288415047844981e-02
1.849999999999999867e+00 2.784379876994971803e-02 1.293671124816872520e-01
1.866666666666666696e+00 2.543613323924065819e-02 1.395555770297667031e-01
1.883333333333333304e+00 2.319194620229082793e-02 1.176253481410874796e-01
1.899999999999999911e+00 2.151528830120440910e-02 1.082490902960671353e-01
1.916666666666666741e+00 1.958364319242192342e-02 1.352273724392170917e-01
1.933333333333333348e+00 1.700770921989717271e-02 4.485476220758596311e-01
1.949999999999999956e+00 4.632055789893268355e-03 4.912796863202318343e-01
1.966666666666666563e+00 6.317196758894429252e-04 1.371796406730767526e-01
1.983333333333333393e+00 5.940110079070970439e-05 1.895159027668328819e-02
2.000000000000000000e+00 0.000000000000000000e+00 3.564066047442582263e-03
