0.000000000000000000e+00 4.290724050291513549e+02 6.554621805779379429e+02
1.666666666666666644e-02 4.181480353528523892e+02 6.554621805779345323e+02
3.333333333333333287e-02 4.072236656765535372e+02 6.554621805779345323e+02
5.000000000000000278e-02 3.962992960002545715e+02 6.554621805779345323e+02
6.666666666666666574e-02 3.853749263239557195e+02 6.554621805779345323e+02
8.333333333333332871e-02 3.744505566476567537e+02 6.554621805779345323e+02
1.000000000000000056e-01 3.635261869713579017e+02 6.554621805779345323e+02
1.166666666666666685e-01 3.526018172950589360e+02 6.554621805779345323e+02
1.333333333333333315e-01 3.416774476187600840e+02 6.554621805779345323e+02
1.499999999999999944e-01 3.307530779424611183e+02 6.554621805779345323e+02
1.666666666666666574e-01 3.198287082661622662e+02 6.554621805779345323e+02
1.833333333333333204e-01 3.089043385898633005e+02 6.554621805779362376e+02
2.000000000000000111e-01 2.979799689135643916e+02 6.554621805779328270e+02
2.166666666666666741e-01 2.870555992372655396e+02 6.554621805779328270e+02
2.333333333333333370e-01 2.761312295609666307e+02 6.554621805779345323e+02
2.500000000000000000e-01 2.652068598846677219e+02 6.554621805779345323e+02
2.666666666666666630e-01 2.542824902083688130e+02 6.554621805779345323e+02
2.833333333333333259e-01 2.433581205320699041e+02 6.554621805779345323e+02
2.999999999999999889e-01 2.324337508557709953e+02 6.554621805779345323e+02
3.166666666666666519e-01 2.215093811794720864e+02 6.554621805779345323e+02
3.333333333333333148e-01 2.105850115031731775e+02 6.554621805779345323e+02
3.499999999999999778e-01 1.996606418268742686e+02 6.554621805779345323e+02
3.666666666666666408e-01 1.887362721505753598e+02 6.554621805779345323e+02
3.833333333333333037e-01 1.778119024742764509e+02 6.554621805779354418e+02
4.000000000000000222e-01 1.668875327979775136e+02 6.554621805779354418e+02
4.166666666666666852e-01 1.559631631216786047e+02 6.554621805779345323e+02
4.333333333333333481e-01 1.450387934453796959e+02 6.554621805779345323e+02
4.500000000000000111e-01 1.341144237690807870e+02 6.554621805779345323e+02
4.666666666666666741e-01 1.231900540927818781e+02 6.554621805779345323e+02
4.833333333333333370e-01 1.122656844164829693e+02 6.554621805779345323e+02
5.000000000000000000e-01 1.013413147401840604e+02 6.554621805779337365e+02
5.166666666666666075e-01 9.041694506388517993e+01 6.554621805779345323e+02
5.333333333333333259e-01 7.949257538758624264e+01 6.554621805779366923e+02
5.500000000000000444e-01 6.856820571128729114e+01 6.554621805779347596e+02
5.666666666666666519e-01 5.764383603498841779e+01 6.554621805779345323e+02
5.833333333333333703e-01 4.671946635868947340e+01 6.554621805779345323e+02
5.999999999999999778e-01 3.579509668239060005e+01 6.554621805779345323e+02
6.166666666666666963e-01 2.487072700609165565e+01 5.097768694250179919e+02
6.333333333333333037e-01 1.880253436822333413e+01 3.163272782882367551e+02
6.500000000000000222e-01 1.432648439648376382e+01 2.409613346677208767e+02
6.666666666666666297e-01 1.077048987929930490e+01 1.936657539824926744e+02
6.833333333333333481e-01 7.870959263734008005e+00 1.586255094682812796e+02
6.999999999999999556e-01 5.482972897023262071e+00 1.305391647522989444e+02
7.166666666666666741e-01 3.519653771990710389e+00 1.069703810751917530e+02
7.333333333333332815e-01 1.917293527850203461e+00 8.687165799444716185e+01
7.500000000000000000e-01 6.239318388424716089e-01 6.972828510630290566e+01
7.666666666666666075e-01 -4.069826423598936760e-01 5.510611401537545362e+01
7.833333333333333259e-01 -1.212938628336710289e+00 4.255965139896134986e+01
8.000000000000000444e-01 -1.825637688991938568e+00 3.176068815825307468e+01
8.166666666666666519e-01 -2.271628233611812764e+00 2.247157631234408370e+01
8.333333333333333703e-01 -2.574690232736741358e+00 1.451917538346028103e+01
8.499999999999999778e-01 -2.755600746393822131e+00 7.749103321591768179e+00
8.666666666666666963e-01 -2.832993676789800297e+00 1.991321085076966924e+00
8.833333333333333037e-01 -2.821978115896387695e+00 -2.913112427704138696e+00
9.000000000000000222e-01 -2.735889929199662340e+00 -7.009903374757846528e+00
9.166666666666666297e-01 -2.588314670071126145e+00 -1.019027655537898092e+01
9.333333333333333481e-01 -2.396214044020362977e+00 -1.232641306686785931e+01
9.499999999999999556e-01 -2.177434234508864197e+00 -1.339368503397057886e+01
9.666666666666666741e-01 -1.949757876221343667e+00 -1.339957752334994012e+01
9.833333333333332815e-01 -1.730781650397199556e+00 -1.243443470755686064e+01
1.000000000000000000e+00 -1.535276719302781645e+00 -1.078543570523071260e+01
1.016666666666666607e+00 -1.371267126889509136e+00 -8.887299992699675855e+00
1.033333333333333215e+00 -1.239033386212792465e+00 -7.103193701900849533e+00
1.050000000000000044e+00 -1.134494003492814151e+00 -5.608733731763368979e+00
1.066666666666666652e+00 -1.052075595154013499e+00 -4.414991501169240884e+00
1.083333333333333259e+00 -9.873276201205061220e-01 -3.485727387400034960e+00
1.100000000000000089e+00 -9.358846822406790000e-01 -2.844887977418139258e+00
1.116666666666666696e+00 -8.924980208732348208e-01 -2.559695145647459480e+00
1.133333333333333304e+00 -8.505615107190970248e-01 -2.605791494960771892e+00
1.149999999999999911e+00 -8.056383043745424244e-01 -2.875253356391379800e+00
1.166666666666666741e+00 -7.547197321727177055e-01 -3.249828637904887962e+00
1.183333333333333348e+00 -6.973106831110461590e-01 -3.607732270742198821e+00
1.199999999999999956e+00 -6.344619898146444115e-01 -3.820631159702224888e+00
1.216666666666666563e+00 -5.699563111209720034e-01 -3.778335803007371041e+00
1.233333333333333393e+00 -5.085174630477320434e-01 -3.439955476782198485e+00
1.250000000000000000e+00 -4.552911285615653947e-01 -2.860538373552825142e+00
1.266666666666666607e+00 -4.131661839293045424e-01 -2.173443137028010952e+00
1.283333333333333215e+00 -3.828430239939650259e-01 -1.544074230399653525e+00
1.300000000000000044e+00 -3.616970429159827582e-01 -1.107946365268600131e+00
1.316666666666666652e+00 -3.459114784850116919e-01 -9.009579537302514485e-01
1.333333333333333259e+00 -3.316651111249743766e-01 -8.561015693967871654e-01
1.350000000000000089e+00 -3.173747595051187864e-01 -8.589248726210707563e-01
1.366666666666666696e+00 -3.030342820376053514e-01 -8.113000553978855223e-01
1.383333333333333304e+00 -2.903314243251892690e-01 -6.766909062072978820e-01
1.399999999999999911e+00 -2.804779184973620887e-01 -5.116943266424678338e-01
1.416666666666666741e+00 -2.732749467704403412e-01 -4.135538048373416098e-01
1.433333333333333348e+00 -2.666927916694507017e-01 -4.368804500719780659e-01
1.449999999999999956e+00 -2.587122651013744057e-01 -5.737875344660912091e-01
1.466666666666666563e+00 -2.475665405205809966e-01 -7.729720543928764176e-01
1.483333333333333393e+00 -2.329465299549451918e-01 -9.655643843489458700e-01
1.500000000000000000e+00 -2.153810610422828009e-01 -1.092088837260480894e+00
1.516666666666666607e+00 -1.965435687129291620e-01 -1.112114430187483904e+00
1.533333333333333215e+00 -1.783105800360333393e-01 -1.026547236815028130e+00
1.550000000000000044e+00 -1.623253274857615613e-01 -8.930538838890206277e-01
1.566666666666666652e+00 -1.485421172397326517e-01 -7.944885532693157781e-01
1.583333333333333259e+00 -1.358423757101177021e-01 -7.778394395730778843e-01
1.600000000000000089e+00 -1.226141359206300574e-01 -8.295529680278528328e-01
1.616666666666666696e+00 -1.081906101091892752e-01 -8.929650025770973221e-01
1.633333333333333304e+00 -9.284863583472681425e-02 -9.153746217066878188e-01
1.649999999999999911e+00 -7.767812271896634702e-02 -8.746108854286964718e-01
1.666666666666666741e+00 -6.369493965377026612e-02 -7.795926684097090886e-01
1.683333333333333348e+00 -5.169170043864271258e-02 -6.509921375629801332e-01
1.699999999999999956e+00 -4.199520173500426168e-02 -5.127837426766465034e-01
1.716666666666666563e+00 -3.459890901608782959e-02 -3.869626020376262798e-01
1.733333333333333393e+00 -2.909644833375005235e-02 -2.861466714049208382e-01
1.750000000000000000e+00 -2.506068663592380188e-02 -2.052490410675491539e-01
1.766666666666666607e+00 -2.225481363149841435e-02 -1.377160411284166219e-01
1.783333333333333215e+00 -2.047015193164324759e-02 -8.784607127310020691e-02
1.800000000000000044e+00 -1.932661125572840768e-02 -5.907729457614245561e-02
1.816666666666666652e+00 -1.850090877910516574e-02 -4.504282002675545626e-02
1.833333333333333259e+00 -1.782518392150322581e-02 -4.125085766317967972e-02
1.849999999999999867e+00 -1.712588019033250974e-02 -4.659473174078925667e-02
1.866666666666666696e+00 -1.627202619681025059e-02 -5.604827229935083199e-02
1.883333333333333304e+00 -1.525760444702081546e-02 -6.277464550089520423e-02
1.899999999999999911e+00 -1.417953801344707700e-02 -6.561393705966436785e-02
1.916666666666666741e+00 -1.307047321169866987e-02 -7.294975153947842739e-02
1.933333333333333348e+00 -1.174787962879779608e-02 -3.814343892786765111e-01
1.949999999999999956e+00 -3.559935690761203519e-04 -3.514874109732480378e-01
1.966666666666666563e+00 -3.163259635619519120e-05 -1.047575582109206219e-02
1.983333333333333393e+00 -6.801708373051655686e-06 -9.489778906858557361e-04
2.000000000000000000e+00 0.000000000000000000e+00 -4.081025023830993446e-04
