0	5.47662e+06	86.3379
0.0166667	5.47662e+06	165.282
0.0333333	5.47662e+06	304.396
0.05	5.47661e+06	402.425
0.0666667	5.4766e+06	459.596
0.0833333	5.47659e+06	486.646
0.1	5.47659e+06	496.688
0.116667	5.47658e+06	8626.97
0.133333	5.4763e+06	93373.5
0.15	5.47346e+06	531417
0.166667	5.45858e+06	2.0167e+06
0.183333	5.40624e+06	5.69294e+06
0.2	5.26882e+06	1.26742e+07
0.216667	4.98377e+06	2.30453e+07
0.233333	4.50064e+06	3.49979e+07
0.25	3.81717e+06	4.50572e+07
0.266667	2.99874e+06	4.96802e+07
0.283333	2.16117e+06	4.72631e+07
0.3	1.4233e+06	3.90412e+07
0.316667	859791	2.82054e+07
0.333333	483119	1.80212e+07
0.35	259084	1.03799e+07
0.366667	137124	5.55939e+06
0.383333	73771.5	2.88628e+06
0.4	40914.4	1.51157e+06
0.416667	23385.8	816630
0.433333	13693.4	457399
0.45	8139.14	265775
0.466667	4834.25	160099
0.483333	2802.51	98706.1
0.5	1544.05	60321.3
0.516667	791.801	35081
0.533333	374.683	18809
0.55	164.834	9144.82
0.566667	69.856	3987.46
0.583333	31.9187	1517.83
0.6	19.2615	492.053
0.616667	15.517	168.471
0.633333	13.6458	109.607
0.65	11.8634	104.827
0.666667	10.1516	96.6319
0.683333	8.64235	84.7826
0.7	7.32553	74.4523
0.716667	6.16061	66.3001
0.733333	5.11553	59.9691
0.75	4.16164	55.3215
0.766667	3.27147	51.9422
0.783333	2.43023	48.9056
0.8	1.64129	45.4484
0.816667	0.915282	41.5562
0.833333	0.256079	37.6659
0.85	-0.340247	33.9993
0.866667	-0.877231	30.4433
0.883333	-1.35502	26.9254
0.9	-1.77474	23.5302
0.916667	-2.13936	20.1802
0.933333	-2.44742	16.5294
0.95	-2.69034	12.4271
0.966667	-2.86165	8.37328
0.983333	-2.96945	5.27032
1	-3.03733	3.64565
1.01667	-3.09098	3.16234
1.03333	-3.14274	2.90863
1.05	-3.18793	2.17641
1.06667	-3.21529	1.01036
1.08333	-3.22161	0.0279603
1.1	-3.21622	-0.312871
1.11667	-3.21118	-0.232731
1.13333	-3.20846	-0.341764
1.15	-3.19979	-0.878119
1.16667	-3.17919	-1.41402
1.18333	-3.15265	-1.39767
1.2	-3.13261	-0.852314
1.21667	-3.12424	-0.406623
1.23333	-3.11905	-0.694122
1.25	-3.10111	-1.81839
1.26667	-3.05844	-3.32659
1.28333	-2.99022	-4.56079
1.3	-2.90641	-5.07463
1.31667	-2.82106	-4.89468
1.33333	-2.74326	-4.46454
1.35	-2.67225	-4.25822
1.36667	-2.60132	-4.37741
1.38333	-2.52633	-4.55178
1.4	-2.44959	-4.53674
1.41667	-2.37511	-4.42109
1.43333	-2.30222	-4.47936
1.45	-2.2258	-4.79241
1.46667	-2.14247	-5.1321
1.48333	-2.05473	-5.22608
1.5	-1.96827	-5.03767
1.51667	-1.8868	-4.73638
1.53333	-1.81039	-4.46587
1.55	-1.73794	-4.23284
1.56667	-1.6693	-4.02051
1.58333	-1.60392	-3.92961
1.6	-1.53831	-4.13789
1.61667	-1.46599	-4.69367
1.63333	-1.38185	-5.34672
1.65	-1.28777	-5.61992
1.66667	-1.19452	-5.14106
1.68333	-1.1164	-3.99669
1.7	-1.0613	-2.76574
1.71667	-1.02421	-2.12519
1.73333	-0.990459	-2.33576
1.75	-0.946352	-3.06771
1.76667	-0.888202	-3.70763
1.78333	-0.822764	-3.83405
1.8	-0.760401	-3.44626
1.81667	-0.707889	-2.82968
1.83333	-0.666078	-2.27265
1.85	-0.632134	-1.90123
1.86667	-0.602704	-1.71344
1.88333	-0.57502	-1.70866
1.9	-0.545748	-1.96948
1.91667	-0.50937	-2.63396
1.93333	-0.45795	-3.73714
1.95	-0.384799	-4.9494
1.96667	-0.29297	-5.47595
1.98333	-0.202267	-4.45639
2	-0.144423	-3.47063
