0.00000000 3312.14278889 6239.22311909
0.01666667 3208.15573690 6239.22311909
0.03333333 3104.16868492 6239.22311909
0.05000000 3000.18163293 6239.22311909
0.06666667 2896.19458095 6239.22311909
0.08333333 2792.20752896 6239.22311909
0.10000000 2688.22047698 6239.22311909
0.11666667 2584.23342499 6239.22311909
0.13333333 2480.24637301 6239.22311909
0.15000000 2376.25932102 6239.22311909
0.16666667 2272.27226904 6239.22311909
0.18333333 2168.28521705 6239.22311909
0.20000000 2064.29816507 6239.22311909
0.21666667 1960.31111308 6239.22311909
0.23333333 1856.32406110 6239.22311909
0.25000000 1752.33700911 6239.22311909
0.26666667 1648.34995713 6239.22311909
0.28333333 1544.36290514 6239.22311909
0.30000000 1440.37585316 6239.22311909
0.31666667 1336.38880117 6239.22311909
0.33333333 1232.40174919 6239.22311909
0.35000000 1128.41469720 6239.22311909
0.36666667 1024.42764522 6239.22311909
0.38333333 920.44059323 6239.22311909
0.40000000 816.45354125 6239.22311909
0.41666667 712.46648927 6239.22311909
0.43333333 608.47943728 6239.22311909
0.45000000 504.49238530 6239.22311909
0.46666667 400.50533331 6239.22311909
0.48333333 296.51828133 6239.22311909
0.50000000 192.53122934 6239.22311909
0.51666667 88.54417736 4024.84103009
0.53333333 58.36986167 1487.60080658
0.55000000 38.95748380 1010.61730392
0.56666667 24.68261821 760.70365191
0.58333333 13.60069541 599.75551649
0.60000000 4.69076766 476.37158877
0.61666667 -2.27835755 369.35402514
0.63333333 -7.62103318 280.40592124
0.65000000 -11.62522159 208.23027972
0.66666667 -14.56204250 148.73572944
0.68333333 -16.58307924 100.59500523
0.70000000 -17.91520935 63.14377425
0.71666667 -18.68787172 33.23535998
0.73333333 -19.02305468 7.87115759
0.75000000 -18.95024364 -13.88658693
0.76666667 -18.56016845 -33.48291015
0.78333333 -17.83414663 -53.91005802
0.80000000 -16.76316651 -71.96804378
0.81666667 -15.43521184 -82.85618717
0.83333333 -14.00129361 -83.07871238
0.85000000 -12.66592143 -71.69160481
0.86666667 -11.61157345 -55.05922068
0.88333333 -10.83061407 -41.60107214
0.90000000 -10.22487104 -37.12435169
0.91666667 -9.59313568 -39.88260727
0.93333333 -8.89545080 -48.28310560
0.95000000 -7.98369883 -61.22860525
0.96666667 -6.85449729 -70.96445029
0.98333333 -5.61821715 -71.81942230
1.00000000 -4.46051655 -65.01006487
1.01666667 -3.45121499 -56.56481393
1.03333333 -2.57502275 -50.08601786
1.05000000 -1.78168106 -43.07208210
1.06666667 -1.13928668 -35.32720283
1.08333333 -0.60410763 -28.59248302
1.10000000 -0.18620391 -24.27743946
1.11666667 0.20514035 -20.50732670
1.13333333 0.49737364 -14.76141068
1.15000000 0.69718737 -10.61350592
1.16666667 0.85115717 -9.59061252
1.18333333 1.01687446 -8.72685277
1.20000000 1.14205227 -5.88719025
1.21666667 1.21311413 -2.92612271
1.23333333 1.23958969 0.52373656
1.25000000 1.19565625 6.34423678
1.26666667 1.02811513 12.32837504
1.28333333 0.78471041 14.93015834
1.30000000 0.53044319 15.65185679
1.31666667 0.26298185 17.26043023
1.33333333 -0.04490449 19.03466838
1.35000000 -0.37150709 18.41518445
1.36666667 -0.65874397 15.74425246
1.38333333 -0.89631551 13.70563911
1.40000000 -1.11559861 13.80946625
1.41666667 -1.35663105 14.37842948
1.43333333 -1.59487959 12.83736751
1.45000000 -1.78454330 8.81939316
1.46666667 -1.88885936 4.93440262
1.48333333 -1.94902339 2.05082258
1.50000000 -1.95722011 -1.56875629
1.51666667 -1.89673151 -4.80428415
1.53333333 -1.79707731 -4.76990915
1.55000000 -1.73773454 -2.41199612
1.56666667 -1.71667744 -1.36806118
1.58333333 -1.69213250 -2.19166547
1.60000000 -1.64362192 -2.70203762
1.61666667 -1.60206458 -2.37501127
1.63333333 -1.56445488 -2.04160026
1.65000000 -1.53401124 -2.02313817
1.66666667 -1.49701694 -1.41982045
1.68333333 -1.48668389 0.33053161
1.70000000 -1.50803466 2.14964792
1.71666667 -1.55833882 2.68555355
1.73333333 -1.59755311 1.54376757
1.75000000 -1.60979774 -0.27227796
1.76666667 -1.58847718 -1.92519815
1.78333333 -1.54562447 -3.29467962
1.80000000 -1.47865453 -4.42822055
1.81666667 -1.39801712 -4.98104871
1.83333333 -1.31261957 -5.09132595
1.85000000 -1.22830625 -5.29401192
1.86666667 -1.13615251 -5.66624667
1.88333333 -1.03943136 -6.00355960
1.90000000 -0.93603385 -6.61018447
1.91666667 -0.81909188 -7.63404177
1.93333333 -0.68156579 -20.19761470
1.95000000 -0.14583806 -19.87338572
1.96666667 -0.01911960 -4.32102839
1.98333333 -0.00180378 -0.57358809
2.00000000 0.00000000 -0.10822663
