0	1.09915e+07	86.3379
0.0166667	1.09915e+07	165.282
0.0333333	1.09915e+07	304.396
0.05	1.09915e+07	402.425
0.0666667	1.09915e+07	459.596
0.0833333	1.09914e+07	486.646
0.1	1.09914e+07	496.688
0.116667	1.09914e+07	16806.2
0.133333	1.09909e+07	186839
0.15	1.09852e+07	1.06573e+06
0.166667	1.09554e+07	4.04583e+06
0.183333	1.08503e+07	1.1422e+07
0.2	1.05746e+07	2.54299e+07
0.216667	1.00027e+07	4.62401e+07
0.233333	9.03328e+06	7.02246e+07
0.25	7.66186e+06	9.04116e+07
0.266667	6.01956e+06	9.9692e+07
0.283333	4.33879e+06	9.48468e+07
0.3	2.858e+06	7.83536e+07
0.316667	1.727e+06	5.66147e+07
0.333333	970840	3.61829e+07
0.35	520905	2.08522e+07
0.366667	275768	1.11788e+07
0.383333	148280	5.81008e+06
0.4	82098.7	3.04379e+06
0.416667	46820	1.64096e+06
0.433333	27400.2	912529
0.45	16402.4	521547
0.466667	10015.3	305448
0.483333	6220.83	182914
0.5	3918.12	111938
0.516667	2489.57	70290.3
0.533333	1575.11	45422.7
0.55	975.476	30511.5
0.566667	558.06	19557.9
0.583333	323.546	11004.1
0.6	191.257	6267.46
0.616667	114.63	3627.66
0.633333	70.3356	2121.2
0.65	43.9234	1278.66
0.666667	27.7136	790.711
0.683333	17.5664	501.815
0.7	10.9864	331.86
0.716667	6.5044	230.599
0.733333	3.29978	167.021
0.75	0.937042	123.313
0.766667	-0.810662	90.1343
0.783333	-2.06744	63.3506
0.8	-2.92235	41.9247
0.816667	-3.46492	25.9809
0.833333	-3.78838	15.1597
0.85	-3.97025	8.09843
0.866667	-4.05832	3.21292
0.883333	-4.07735	-0.310235
0.9	-4.04798	-2.51468
0.916667	-3.99352	-3.58517
0.933333	-3.92848	-4.13323
0.95	-3.85575	-4.61865
0.966667	-3.77452	-5.02605
0.983333	-3.68821	-5.21448
1	-3.60071	-5.47378
1.01667	-3.50575	-6.3564
1.03333	-3.38883	-7.94588
1.05	-3.24089	-9.67558
1.06667	-3.06631	-10.8932
1.08333	-2.87778	-11.3502
1.1	-2.68797	-11.2261
1.11667	-2.50358	-10.853
1.13333	-2.3262	-10.4481
1.15	-2.15531	-10.1325
1.16667	-1.98845	-9.93666
1.18333	-1.82409	-9.66875
1.2	-1.66616	-8.95234
1.21667	-1.52568	-7.45748
1.23333	-1.41757	-5.19348
1.25	-1.35256	-2.5747
1.26667	-1.33175	-0.15275
1.28333	-1.34747	1.58536
1.3	-1.3846	2.29365
1.31667	-1.42393	1.96482
1.33333	-1.45009	1.04721
1.35	-1.45883	0.236095
1.36667	-1.45796	-0.0738581
1.38333	-1.45637	-0.19241
1.4	-1.45155	-0.772752
1.41667	-1.43061	-2.0303
1.43333	-1.38387	-3.47821
1.45	-1.31467	-4.45751
1.46667	-1.23529	-4.81156
1.48333	-1.15429	-4.94773
1.5	-1.07036	-5.2962
1.51667	-0.977748	-5.85137
1.53333	-0.875316	-6.24818
1.55	-0.769475	-6.19053
1.56667	-0.668965	-5.73225
1.58333	-0.5784	-5.17318
1.6	-0.496525	-4.77256
1.61667	-0.419315	-4.57367
1.63333	-0.34407	-4.44306
1.65	-0.271213	-4.21175
1.66667	-0.203678	-3.79626
1.68333	-0.144671	-3.236
1.7	-0.0958114	-2.6068
1.71667	-0.0577774	-1.9202
1.73333	-0.0318048	-1.16262
1.75	-0.0190232	-0.428295
1.76667	-0.0175283	0.0740432
1.78333	-0.0214913	0.210035
1.8	-0.0245295	0.0790276
1.81667	-0.0241256	-0.0685131
1.83333	-0.0222457	-0.0608628
1.85	-0.0220968	0.0771202
1.86667	-0.0248164	0.209264
1.88333	-0.0290723	0.235308
1.9	-0.03266	0.145928
1.91667	-0.0339366	-0.0132491
1.93333	-0.0322184	-0.188107
1.95	-0.0276663	-0.325266
1.96667	-0.0213762	-0.373574
1.98333	-0.0152139	-0.308917
2	-0.0110789	-0.248095
