0.000000000000000000e+00 2.530376047772449795e+02 4.268535927080512238e+02
1.666666666666666644e-02 2.459233782321107924e+02 4.268535927080495185e+02
3.333333333333333287e-02 2.388091516869766622e+02 4.268535927080486658e+02
5.000000000000000278e-02 2.316949251418425035e+02 4.268535927080495185e+02
6.666666666666666574e-02 2.245806985967083449e+02 4.268535927080495185e+02
8.333333333333332871e-02 2.174664720515741863e+02 4.268535927080495185e+02
1.000000000000000056e-01 2.103522455064400276e+02 4.268535927080503711e+02
1.166666666666666685e-01 2.032380189613058405e+02 4.268535927080495185e+02
1.333333333333333315e-01 1.961237924161717103e+02 4.268535927080495185e+02
1.499999999999999944e-01 1.890095658710375233e+02 4.268535927080495185e+02
1.666666666666666574e-01 1.818953393259033930e+02 4.268535927080495185e+02
1.833333333333333204e-01 1.747811127807692060e+02 4.268535927080503711e+02
2.000000000000000111e-01 1.676668862356350473e+02 4.268535927080495185e+02
2.166666666666666741e-01 1.605526596905008887e+02 4.268535927080495185e+02
2.333333333333333370e-01 1.534384331453667301e+02 4.268535927080495185e+02
2.500000000000000000e-01 1.463242066002325714e+02 4.268535927080495185e+02
2.666666666666666630e-01 1.392099800550984128e+02 4.268535927080495185e+02
2.833333333333333259e-01 1.320957535099642541e+02 4.268535927080495185e+02
2.999999999999999889e-01 1.249815269648300955e+02 4.268535927080495185e+02
3.166666666666666519e-01 1.178673004196959369e+02 4.268535927080495185e+02
3.333333333333333148e-01 1.107530738745617782e+02 4.268535927080495185e+02
3.499999999999999778e-01 1.036388473294276196e+02 4.268535927080495185e+02
3.666666666666666408e-01 9.652462078429346093e+01 4.268535927080499732e+02
3.833333333333333037e-01 8.941039423915928808e+01 4.268535927080508259e+02
4.000000000000000222e-01 8.229616769402510101e+01 4.268535927080503711e+02
4.166666666666666852e-01 7.518194114889094237e+01 4.268535927080495185e+02
4.333333333333333481e-01 6.806771460375678373e+01 4.268535927080495185e+02
4.500000000000000111e-01 6.095348805862262509e+01 4.268535927080495185e+02
4.666666666666666741e-01 5.383926151348846645e+01 4.268535927080495185e+02
4.833333333333333370e-01 4.672503496835430781e+01 4.268535927080495185e+02
5.000000000000000000e-01 3.961080842322014917e+01 4.268535927080488932e+02
5.166666666666666075e-01 3.249658187808601184e+01 4.268535927080496322e+02
5.333333333333333259e-01 2.538235533295182833e+01 4.268535927080509964e+02
5.500000000000000444e-01 1.826812878781764482e+01 3.478549275821938522e+02
5.666666666666666519e-01 1.378719108021203432e+01 2.346674304810177034e+02
5.833333333333333703e-01 1.044588110511705459e+01 1.798963790052339675e+02
5.999999999999999778e-01 7.790645113370902486e+00 1.448225494352753628e+02
6.166666666666666963e-01 5.618462790607876123e+00 1.188478861312105010e+02
6.333333333333333037e-01 3.829048908997219058e+00 9.768039654875788358e+01
6.500000000000000222e-01 2.362449572315946877e+00 7.955962305724118266e+01
6.666666666666666297e-01 1.177061473755846022e+00 6.374642298391308515e+01
6.833333333333333481e-01 2.375688061855106281e-01 4.973156509384225643e+01
6.999999999999999556e-01 -4.806573627055626963e-01 3.705666628826737252e+01
7.166666666666666741e-01 -9.976534034234018078e-01 2.553582404970039832e+01
7.333333333333332815e-01 -1.331851497695575981e+00 1.525517333019519839e+01
7.500000000000000000e-01 -1.506159181096575095e+00 6.524548899921416734e+00
7.666666666666666075e-01 -1.549336461026289857e+00 -2.576729091433449526e-01
7.833333333333333259e-01 -1.497570084125130263e+00 -4.842309293595215003e+00
8.000000000000000444e-01 -1.387926151239782691e+00 -7.335968879479537463e+00
8.166666666666666519e-01 -1.253037788142479014e+00 -8.223691588496585325e+00
8.333333333333333703e-01 -1.113803098289896543e+00 -8.202460530144362494e+00
8.499999999999999778e-01 -9.796224371376669460e-01 -7.890588633909779048e+00
8.666666666666666963e-01 -8.507834771595705892e-01 -7.667142897506855626e+00
8.833333333333333037e-01 -7.240510072207717585e-01 -7.519088391147748851e+00
9.000000000000000222e-01 -6.001471974546456201e-01 -7.153383684178119317e+00
9.166666666666666297e-01 -4.856048844148344590e-01 -6.386286794129744315e+00
9.333333333333333481e-01 -3.872709709836541503e-01 -5.146007681553517621e+00
9.499999999999999556e-01 -3.140712950297172013e-01 -3.352260966437591971e+00
9.666666666666666741e-01 -2.755289387690677549e-01 -1.205841016112592090e+00
9.833333333333332815e-01 -2.738765944926307982e-01 7.957328836282606677e-01
1.000000000000000000e+00 -3.020533682233431105e-01 2.343681176331399385e+00
1.016666666666666607e+00 -3.519993003703441037e-01 3.405058597231771511e+00
1.033333333333333215e+00 -4.155553214644021609e-01 3.971678409966081347e+00
1.050000000000000044e+00 -4.843885807025468115e-01 4.105975888868977464e+00
1.066666666666666652e+00 -5.524211844267014060e-01 3.984314114311570787e+00
1.083333333333333259e+00 -6.171990511795991674e-01 3.750156577755185072e+00
1.100000000000000089e+00 -6.774264036852075677e-01 3.485925103501649414e+00
1.116666666666666696e+00 -7.333965546296541405e-01 3.218592249829887120e+00
1.133333333333333304e+00 -7.847128120128704643e-01 2.910295908157626510e+00
1.149999999999999911e+00 -8.304064182349083501e-01 2.526369375290639319e+00
1.166666666666666741e+00 -8.689251245225584341e-01 2.055143602946807313e+00
1.183333333333333348e+00 -8.989112049998019272e-01 1.502123878111519817e+00
1.199999999999999956e+00 -9.189959204596090947e-01 8.877493484160836612e-01
1.216666666666666563e+00 -9.285028499470047159e-01 2.758534277462920681e-01
1.233333333333333393e+00 -9.281910347178188303e-01 -2.586122131341395125e-01
1.250000000000000000e+00 -9.198824428425333988e-01 -7.196237910110425684e-01
1.266666666666666607e+00 -9.042035750174507447e-01 -1.225434182841381725e+00
1.283333333333333215e+00 -8.790346367478206746e-01 -1.879236002704884889e+00
1.300000000000000044e+00 -8.415623749272879150e-01 -2.640798603247344278e+00
1.316666666666666652e+00 -7.910080166395758727e-01 -3.374397674850837525e+00
1.333333333333333259e+00 -7.290824524322599975e-01 -3.941104758524320850e+00
1.350000000000000089e+00 -6.596378580220985111e-01 -4.221814610747608221e+00
1.366666666666666696e+00 -5.883552987406730495e-01 -4.163221117259143789e+00
1.383333333333333304e+00 -5.208638207801270514e-01 -3.844787491239747279e+00
1.399999999999999911e+00 -4.601957156993481401e-01 -3.438086429589556570e+00
1.416666666666666741e+00 -4.062609397938085065e-01 -3.115890116750916761e+00
1.433333333333333348e+00 -3.563327118076509148e-01 -2.959429332636148047e+00
1.449999999999999956e+00 -3.076132953726035679e-01 -2.934553300788734109e+00
1.466666666666666563e+00 -2.585142684480264408e-01 -2.948678874563783303e+00
1.483333333333333393e+00 -2.093239995538107856e-01 -2.905573980155219171e+00
1.500000000000000000e+00 -1.616618024428524703e-01 -2.735703339269962342e+00
1.516666666666666607e+00 -1.181338882448120381e-01 -2.410783450814149909e+00
1.533333333333333215e+00 -8.130235408238080386e-02 -1.952480888559233296e+00
1.550000000000000044e+00 -5.305119195950426525e-02 -1.437858129357113546e+00
1.566666666666666652e+00 -3.337374977047701669e-02 -9.859302619634853215e-01
1.583333333333333259e+00 -2.018684989405475361e-02 -6.836093527509116141e-01
1.600000000000000089e+00 -1.058677134544663140e-02 -5.458847512582776229e-01
1.616666666666666696e+00 -1.990691518778830386e-03 -5.215744224070426593e-01
1.633333333333333304e+00 6.799042734788122641e-03 -5.198071754785842380e-01
1.649999999999999911e+00 1.533621433050730981e-02 -4.354898538386007822e-01
1.666666666666666741e+00 2.131537119607481573e-02 -2.218359347660008030e-01
1.683333333333333348e+00 2.273074548937400324e-02 8.095753500509249301e-02
1.699999999999999956e+00 1.861678669590506596e-02 3.866663029941719842e-01
1.716666666666666563e+00 9.841868722901603306e-03 6.081617187008562242e-01
1.733333333333333393e+00 -1.655270594123473861e-03 6.886007338287538637e-01
1.750000000000000000e+00 -1.311148907139019285e-02 6.232705471671563524e-01
1.766666666666666607e+00 -2.243095549969535002e-02 4.581111692550622894e-01
1.783333333333333215e+00 -2.838186137989226823e-02 2.583497062165283076e-01
1.800000000000000044e+00 -3.104261237357962624e-02 8.276776647604675019e-02
1.816666666666666652e+00 -3.114078692909382634e-02 -3.132973248543672457e-02
1.833333333333333259e+00 -2.999828795739840209e-02 -7.207416953774962998e-02
1.849999999999999867e+00 -2.873831461116883867e-02 -6.008944339037425308e-02
1.866666666666666696e+00 -2.799530651105259366e-02 -3.729670604175526483e-02
1.883333333333333304e+00 -2.749509107644366318e-02 -4.555498901942300199e-02
1.899999999999999911e+00 -2.647680687707182692e-02 -9.744055264784813597e-02
1.916666666666666741e+00 -2.424707265484872531e-02 -1.754848342476712786e-01
1.933333333333333348e+00 -2.062731240214945097e-02 -6.638087286719384084e-01
1.949999999999999956e+00 -2.120115032450776114e-03 -6.128554246597771593e-01
1.966666666666666563e+00 -1.987982468235473894e-04 -6.303294956454147391e-02
1.983333333333333393e+00 -1.901671363272683122e-05 -5.963947404706421845e-03
2.000000000000000000e+00 0.000000000000000000e+00 -1.141002817963609941e-03
