0	1.09416e+08	1.00195e+08
0.0166667	1.07747e+08	1.85284e+08
0.0333333	1.0324e+08	3.21451e+08
0.05	9.70315e+07	3.92645e+08
0.0666667	9.01522e+07	4.1679e+08
0.0833333	8.31385e+07	4.20819e+08
0.1	7.61248e+07	4.20819e+08
0.116667	6.91112e+07	4.20819e+08
0.133333	6.20975e+07	4.20819e+08
0.15	5.50839e+07	4.20819e+08
0.166667	4.80702e+07	4.20819e+08
0.183333	4.10566e+07	4.20819e+08
0.2	3.40429e+07	4.19695e+08
0.216667	2.70667e+07	4.12478e+08
0.233333	2.02936e+07	3.89534e+08
0.25	1.40823e+07	3.41718e+08
0.266667	8.90304e+06	2.69465e+08
0.283333	5.10012e+06	1.86534e+08
0.3	2.68523e+06	1.12419e+08
0.316667	1.35281e+06	5.99188e+07
0.333333	687936	2.96827e+07
0.35	363388	1.46837e+07
0.366667	198480	7.55174e+06
0.383333	111663	4.01963e+06
0.4	64492.4	2.20601e+06
0.416667	38129.3	1.24426e+06
0.433333	23016.9	719267
0.45	14153.7	425233
0.466667	8842.48	256799
0.483333	5593.75	159297
0.5	3532.59	109615
0.516667	1939.92	77027.5
0.533333	965.005	44499.3
0.55	456.611	23128.5
0.566667	194.055	12027.8
0.583333	55.6859	5072.39
0.6	24.9756	1291.91
0.616667	12.6224	489.381
0.633333	8.66291	224.125
0.65	5.15153	189.722
0.666667	2.33886	147.239
0.683333	0.243568	108.075
0.7	-1.26364	79.0505
0.716667	-2.39145	61.9329
0.733333	-3.32807	52.3135
0.75	-4.13523	44.6023
0.766667	-4.81481	36.1096
0.783333	-5.33889	27.4125
0.8	-5.72856	21.016
0.816667	-6.03942	15.1953
0.833333	-6.23507	5.62815
0.85	-6.22703	-5.83133
0.866667	-6.0407	-13.5851
0.883333	-5.77419	-17.0564
0.9	-5.47215	-18.6017
0.916667	-5.15413	-17.2983
0.933333	-4.89554	-11.7653
0.95	-4.76196	-8.48855
0.966667	-4.61259	-16.5867
0.983333	-4.20907	-30.9692
1	-3.58028	-34.018
1.01667	-3.07514	-19.9137
1.03333	-2.91649	-5.05797
1.05	-2.90654	-5.92573
1.06667	-2.71897	-16.7032
1.08333	-2.34976	-18.9931
1.1	-2.08587	-8.30169
1.11667	-2.07304	1.6243
1.13333	-2.14001	-0.148185
1.15	-2.0681	-8.04806
1.16667	-1.87174	-10.2357
1.18333	-1.72691	-4.81873
1.2	-1.71112	0.789564
1.21667	-1.75323	2.24543
1.23333	-1.78596	1.83714
1.25	-1.81447	2.45665
1.26667	-1.86785	4.02128
1.28333	-1.94851	5.38632
1.3	-2.0474	6.39832
1.31667	-2.16179	6.63098
1.33333	-2.26843	5.46076
1.35	-2.34381	3.92927
1.36667	-2.39941	2.98964
1.38333	-2.44347	1.2258
1.4	-2.44027	-2.33183
1.41667	-2.36574	-5.66784
1.43333	-2.25134	-6.31402
1.45	-2.15527	-4.56538
1.46667	-2.09916	-3.04213
1.48333	-2.05387	-2.95317
1.5	-2.00072	-3.45704
1.51667	-1.93864	-4.1385
1.53333	-1.86277	-5.18938
1.55	-1.76566	-6.31497
1.56667	-1.65227	-6.97982
1.58333	-1.533	-7.05511
1.6	-1.4171	-6.15677
1.61667	-1.32777	-3.61884
1.63333	-1.29647	-0.335233
1.65	-1.3166	0.763193
1.66667	-1.32191	-1.9345
1.68333	-1.25211	-6.01316
1.7	-1.12147	-7.47131
1.71667	-1.00307	-5.5695
1.73333	-0.935822	-3.4795
1.75	-0.887085	-3.67108
1.76667	-0.813453	-4.84147
1.78333	-0.725702	-4.1807
1.8	-0.674097	-1.49503
1.81667	-0.675868	0.51887
1.83333	-0.691392	-0.146539
1.85	-0.670984	-2.48781
1.86667	-0.608465	-4.03124
1.88333	-0.536609	-3.74403
1.9	-0.483664	-2.6332
1.91667	-0.448836	-2.11571
1.93333	-0.41314	-2.71929
1.95	-0.358192	-4.21558
1.96667	-0.272621	-6.15134
1.98333	-0.153148	-8.17863
2	0	-9.18888
