0.00000000 8224.87390606 77972.56836853
0.01666667 6925.33109992 71899.00358351
0.03333333 5828.24045327 60691.34988895
0.05000000 4902.28610362 51217.85572868
0.06666667 4120.97859565 43211.21013570
0.08333333 3461.91243243 36445.22607628
0.10000000 2906.13772644 30728.52023331
0.11666667 2437.62842465 25899.16361348
0.13333333 2042.83227266 21820.15389460
0.15000000 1710.28996150 18375.58332008
0.16666667 1430.31282866 15467.39532400
0.18333333 1194.71011736 13012.63947106
0.20000000 996.55817962 10941.14817937
0.21666667 830.00517805 9193.57044533
0.23333333 690.10583144 7719.70773740
0.25000000 572.68158681 6477.10564552
0.26666667 474.20230993 5429.86200028
0.28333333 391.68618680 4547.61820871
0.30000000 322.61503630 3804.70566046
0.31666667 264.86266478 3179.42338033
0.33333333 216.63425696 2653.42676223
0.35000000 176.41510604 3113.13265288
0.36666667 112.86316853 3282.99485332
0.38333333 66.98194426 1510.03269386
0.40000000 62.52874540 697.23129126
0.41666667 43.74090122 747.85716072
0.43333333 37.60017338 231.61487842
0.45000000 36.02040527 160.64235895
0.46666667 32.24542808 233.94351196
0.48333333 28.22228821 230.74593491
0.50000000 24.55389692 206.98804352
0.51666667 21.32268676 183.89573865
0.53333333 18.42403896 168.82980803
0.55000000 15.69502649 160.26417132
0.56666667 13.08189992 152.61991110
0.58333333 10.60769612 143.11275385
0.60000000 8.31147479 132.40073886
0.61666667 6.19433816 121.64156715
0.63333333 4.25675588 111.49435520
0.65000000 2.47785965 102.51049128
0.66666667 0.83973951 94.50627650
0.68333333 -0.67234957 86.89799063
0.70000000 -2.05686018 79.20313185
0.71666667 -3.31245396 71.30594115
0.73333333 -4.43372489 63.16975477
0.75000000 -5.41811245 54.85323784
0.76666667 -6.26216615 46.65043059
0.78333333 -6.97312681 38.98438909
0.80000000 -7.56164578 32.05244786
0.81666667 -8.04154173 25.89508042
0.83333333 -8.42481513 20.49645166
0.85000000 -8.72475679 15.54683999
0.86666667 -8.94304313 10.46007272
0.88333333 -9.07342588 5.03473326
0.90000000 -9.11086757 -0.32505711
0.91666667 -9.06259064 -4.89737998
0.93333333 -8.94762157 -8.08506440
0.95000000 -8.79308850 -9.91009974
0.96666667 -8.61728491 -11.14756668
0.98333333 -8.42150294 -12.69134335
1.00000000 -8.19424014 -14.76108304
1.01666667 -7.92946684 -16.78347236
1.03333333 -7.63479106 -18.04445013
1.05000000 -7.32798517 -18.31372381
1.06666667 -7.02433360 -17.89138846
1.08333333 -6.73160555 -17.46774566
1.10000000 -6.44207541 -17.82962550
1.11666667 -6.13728470 -19.21742618
1.13333333 -5.80149454 -21.13116389
1.15000000 -5.43291257 -22.93031644
1.16666667 -5.03715065 -24.10009108
1.18333333 -4.62957620 -24.27285479
1.20000000 -4.22805549 -23.42816568
1.21666667 -3.84863735 -21.85714944
1.23333333 -3.49948385 -19.96106348
1.25000000 -3.18326857 -18.21221283
1.26666667 -2.89241009 -17.02640470
1.28333333 -2.61572174 -16.50079797
1.30000000 -2.34238349 -16.46739903
1.31666667 -2.06680844 -16.55625910
1.33333333 -1.79050818 -16.27458438
1.35000000 -1.52432230 -15.29208951
1.36666667 -1.28077187 -13.65242473
1.38333333 -1.06924147 -11.62023528
1.40000000 -0.89343069 -9.54176199
1.41666667 -0.75118274 -7.77336943
1.43333333 -0.63431838 -6.56242686
1.45000000 -0.53243518 -5.87796755
1.46666667 -0.43838612 -5.51084312
1.48333333 -0.34874041 -5.24163093
1.50000000 -0.26366509 -4.85938954
1.51666667 -0.18676075 -4.21922232
1.53333333 -0.12302435 -3.26659690
1.55000000 -0.07787419 -2.04156333
1.56666667 -0.05497224 -0.73516514
1.58333333 -0.05336869 0.34315167
1.60000000 -0.06641063 0.97462362
1.61666667 -0.08585614 1.16921101
1.63333333 -0.10538433 1.08027973
1.65000000 -0.12186546 0.87365768
1.66666667 -0.13450625 0.68156214
1.68333333 -0.14458420 0.56560157
1.70000000 -0.15335964 0.55548489
1.71666667 -0.16310037 0.65148624
1.73333333 -0.17507584 0.79948884
1.75000000 -0.18974999 0.91148919
1.76666667 -0.20545882 0.92027167
1.78333333 -0.22042572 0.80092123
1.80000000 -0.23215619 0.55091459
1.81666667 -0.23878954 0.18981953
1.83333333 -0.23848351 -0.21057118
1.85000000 -0.23177050 -0.55296422
1.86666667 -0.22005137 -0.79568914
1.88333333 -0.20524753 -0.97564953
1.90000000 -0.18752972 -1.16883785
1.91666667 -0.16628626 -1.41320483
1.93333333 -0.14042289 -4.58800612
1.95000000 -0.01335273 -4.16570416
1.96666667 -0.00156608 -0.39587715
1.98333333 -0.00015682 -0.04698254
2.00000000 0.00000000 -0.00940928
