0.000000000000000000e+00 nan nan
1.666666666666666644e-02 5.062783130677975000e+13 nan
3.333333333333333287e-02 1.977637292766500244e+11 1.518603452496898500e+15
5.000000000000000278e-02 7.716223549793790817e+09 5.909738760207309570e+12
6.666666666666666574e-02 7.724372697397224903e+08 2.275995005837268677e+11
8.333333333333332871e-02 1.295735303362281919e+08 2.226933120326158905e+10
1.000000000000000056e-01 3.012622963100293651e+07 3.624002510856661320e+09
1.166666666666666685e-01 8.773446641006147489e+06 8.134118268397346735e+08
1.333333333333333315e-01 3.012502069678448606e+06 2.280164887122046053e+08
1.499999999999999944e-01 1.172897017265993869e+06 7.525002574426135421e+07
1.666666666666666574e-01 5.041678782030700240e+05 2.814467750984057412e+07
1.833333333333333204e-01 2.347411002713081543e+05 1.162324463695578463e+07
2.000000000000000111e-01 1.167263903045438929e+05 5.202468381999426521e+06
2.166666666666666741e-01 6.132548753799393307e+04 2.489103554943299387e+06
2.333333333333333370e-01 3.375627180643391330e+04 1.259643753823684994e+06
2.500000000000000000e-01 1.933736241053777121e+04 6.687159027680662693e+05
2.666666666666666630e-01 1.146574171416503486e+04 3.699689079280960723e+05
2.833333333333333259e-01 7.005065479601235893e+03 2.121754535859321477e+05
2.999999999999999889e-01 4.393226594633963032e+03 1.255781648859359993e+05
3.166666666666666519e-01 2.819126650070035794e+03 7.642191465973641607e+04
3.333333333333333148e-01 1.845829439309416102e+03 4.767019858169260988e+04
3.499999999999999778e-01 1.230120030680282071e+03 3.039733641604604054e+04
3.666666666666666408e-01 8.325848921078813873e+02 1.976845806532995266e+04
3.833333333333333037e-01 5.711714285026170046e+02 1.308496829469998920e+04
4.000000000000000222e-01 3.964192822845484443e+02 8.799336981727905368e+03
4.166666666666666852e-01 2.778601957783534999e+02 6.002069269517575776e+03
4.333333333333333481e-01 1.963503066339625889e+02 4.062679014409441606e+03
4.500000000000000111e-01 1.424375619647054521e+02 2.897890985211574389e+03
4.666666666666666741e-01 9.975394046024344163e+01 2.034582801230926862e+03
4.833333333333333370e-01 7.461813525700789285e+01 1.194385375145978969e+03
5.000000000000000000e-01 5.994109462204414029e+01 8.609934314505928796e+02
5.166666666666666075e-01 4.591835420865479733e+01 6.840982729467983745e+02
5.333333333333333259e-01 3.713781885715086162e+01 4.851793477390964995e+02
5.500000000000000444e-01 2.974570928401824688e+01 4.053325039891290658e+02
5.666666666666666519e-01 2.362673539084655872e+01 3.252920422996697312e+02
5.833333333333333703e-01 1.890264120736258846e+01 2.696615781441907984e+02
5.999999999999999778e-01 1.463801611937353186e+01 2.337709264447753981e+02
6.166666666666666963e-01 1.111027699253674150e+01 1.988163090079804931e+02
6.333333333333333037e-01 8.010805819107515546e+00 1.686086766682095686e+02
6.500000000000000222e-01 5.489987770263089040e+00 1.382825291780895895e+02
6.666666666666666297e-01 3.401388179837862236e+00 1.157861593841416266e+02
6.833333333333333481e-01 1.630449124125034732e+00 9.232955340487053775e+01
6.999999999999999556e-01 3.237363996755113216e-01 7.447954844138121189e+01
7.166666666666666741e-01 -8.522024905876725009e-01 5.811026730603687440e+01
7.333333333333332815e-01 -1.613272510525717740e+00 4.578692993871583639e+01
7.500000000000000000e-01 -2.378433488544867025e+00 3.594407376841373036e+01
7.666666666666666075e-01 -2.811408302806175374e+00 2.608376660919908119e+01
7.833333333333333259e-01 -3.247892375518169672e+00 1.848507648112157753e+01
8.000000000000000444e-01 -3.427577518843561322e+00 8.094138219977198290e+00
8.166666666666666519e-01 -3.517696982850742948e+00 1.350033538917361220e+00
8.333333333333333703e-01 -3.472578636807473362e+00 -3.835079542497332739e-01
8.499999999999999778e-01 -3.504913384375751839e+00 -1.252432807560679429e+00
8.666666666666666963e-01 -3.430830876555450715e+00 -4.519674930480999109e+00
8.833333333333333037e-01 -3.354257553359718536e+00 -8.359826329310649839e+00
9.000000000000000222e-01 -3.152169998911762416e+00 -5.410174777930105705e+00
9.166666666666666297e-01 -3.173918394095381679e+00 -1.310061374179767313e+00
9.333333333333333481e-01 -3.108501286439103506e+00 -6.240130880411820513e-01
9.499999999999999556e-01 -3.153117957827342277e+00 2.706360446780831097e-01
9.666666666666666741e-01 -3.117522487928372943e+00 3.202272194856914389e+00
9.833333333333332815e-01 -3.259860364322572757e+00 3.017707969536309598e+00
1.000000000000000000e+00 -3.218112753579583263e+00 -1.164315095206838180e+00
1.016666666666666607e+00 -3.221049861149011484e+00 -4.231951379733787100e+00
1.033333333333333215e+00 -3.077047707588457026e+00 -7.037960543362640209e+00
1.050000000000000044e+00 -2.986451176370256810e+00 -8.128733938382239899e+00
1.066666666666666652e+00 -2.806089909642382363e+00 -9.167099811438443879e+00
1.083333333333333259e+00 -2.680881182655642014e+00 -8.936359849222595741e+00
1.100000000000000089e+00 -2.508211248001629201e+00 -8.971298151438249491e+00
1.116666666666666696e+00 -2.381837910941033698e+00 -5.841144572541274727e+00
1.133333333333333304e+00 -2.313506428916920044e+00 -5.004159587616383575e+00
1.149999999999999911e+00 -2.215032591353820912e+00 -4.908721092194081592e+00
1.166666666666666741e+00 -2.149882392510450657e+00 -3.969981323961087050e+00
1.183333333333333348e+00 -2.082699880555118011e+00 -1.756553324984810871e+00
1.199999999999999956e+00 -2.091330615010956961e+00 -1.920946869202433405e-01
1.216666666666666563e+00 -2.076296724324443232e+00 -2.777405824406593560e+00
1.233333333333333393e+00 -1.998750420864070509e+00 -4.600950012298228309e+00
1.250000000000000000e+00 -1.922931723914502289e+00 -6.138598148290488332e+00
1.266666666666666607e+00 -1.794130482587720898e+00 -7.973216602235975614e+00
1.283333333333333215e+00 -1.657157837173303117e+00 -9.955017603058699649e+00
1.300000000000000044e+00 -1.462296562485764229e+00 -1.136008179477162372e+01
1.316666666666666652e+00 -1.278488444014248993e+00 -9.504501325604667983e+00
1.333333333333333259e+00 -1.145479851632275281e+00 -6.404978341595104929e+00
1.350000000000000089e+00 -1.064989165961078843e+00 -3.251950417179025887e+00
1.366666666666666696e+00 -1.037081504392974418e+00 -1.074753976000402123e+00
1.383333333333333304e+00 -1.029164033427732106e+00 1.235975781797087336e+00
1.399999999999999911e+00 -1.078280697119543996e+00 2.647526010692931031e+00
1.416666666666666741e+00 -1.117414900450829807e+00 2.147506343463807532e+00
1.433333333333333348e+00 -1.149864241901670914e+00 2.675738954797337588e+00
1.449999999999999956e+00 -1.206606198944074393e+00 2.295596132310455673e+00
1.466666666666666563e+00 -1.226384112978686103e+00 9.375133327072182610e-01
1.483333333333333393e+00 -1.237856643367648335e+00 -8.714260944028717759e-02
1.500000000000000000e+00 -1.223479359330676530e+00 -1.532061493235548078e-01
1.516666666666666607e+00 -1.232749771723529841e+00 -1.036406940652740971e+00
1.533333333333333215e+00 -1.188932461308918498e+00 -2.971935890392729540e+00
1.550000000000000044e+00 -1.133685242043772190e+00 -4.673383881354869374e+00
1.566666666666666652e+00 -1.033152998597089534e+00 -5.106961143071235831e+00
1.583333333333333259e+00 -9.634532039413976623e-01 -5.332180178708312290e+00
1.600000000000000089e+00 -8.554136593068124572e-01 -4.908034403851377014e+00
1.616666666666666696e+00 -7.998520571463517692e-01 -4.116848473457616286e+00
1.633333333333333304e+00 -7.181853768582252551e-01 -3.590405876410811548e+00
1.649999999999999911e+00 -6.801718612659913843e-01 -3.055275191653664901e+00
1.666666666666666741e+00 -6.163428704697697658e-01 -2.470799508969173885e+00
1.683333333333333348e+00 -5.978118776336855955e-01 -4.713371846846814428e-01
1.699999999999999956e+00 -6.006316309802803843e-01 5.856230055182165550e-01
1.716666666666666563e+00 -6.173326444842928140e-01 1.643693708831893696e+00
1.733333333333333393e+00 -6.554214212746768409e-01 1.398767632253208326e+00
1.750000000000000000e+00 -6.639582322260664249e-01 7.336508133698682599e-01
1.766666666666666607e+00 -6.798764483870057829e-01 3.692635002841215819e-01
1.783333333333333215e+00 -6.762670155688704776e-01 -3.222781628956850053e-01
1.800000000000000044e+00 -6.691338429571496160e-01 -1.371780277468825915e+00
1.816666666666666652e+00 -6.305410063199096138e-01 -2.310766848646911509e+00
1.833333333333333259e+00 -5.921082813355859065e-01 -2.408171431824014608e+00
1.849999999999999867e+00 -5.502686252591091343e-01 -2.718551883753737020e+00
1.866666666666666696e+00 -5.014898852104613391e-01 -2.961230909952429435e+00
1.883333333333333304e+00 -4.515609282606948272e-01 -2.801473086178869476e+00
1.899999999999999911e+00 -4.081074490044990233e-01 -2.517456747005941242e+00
1.916666666666666741e+00 -3.676457033604967894e-01 -2.629956244020916767e+00
1.933333333333333348e+00 -3.204422408704684644e-01 -1.058249969326096718e+01
1.949999999999999956e+00 -1.489571358513117234e-02 -9.549041679517051406e+00
1.966666666666666563e+00 -2.140851553233379719e-03 -4.407454619481528391e-01
1.983333333333333393e+00 -2.041981868594116775e-04 -6.422554659700138724e-02
2.000000000000000000e+00 0.000000000000000000e+00 -1.225189121156470065e-02
