0.000000000000000000e+00 8.577581078272792183e+02 2.141081740573433763e+03
1.666666666666666644e-02 8.220734121510553223e+02 2.141081740573430579e+03
3.333333333333333287e-02 7.863887164748315399e+02 2.141081740573430579e+03
5.000000000000000278e-02 7.507040207986076439e+02 2.141081740573430579e+03
6.666666666666666574e-02 7.150193251223838615e+02 2.141081740573430579e+03
8.333333333333332871e-02 6.793346294461599655e+02 2.141081740573433763e+03
1.000000000000000056e-01 6.436499337699360694e+02 2.141081740573430579e+03
1.166666666666666685e-01 6.079652380937122871e+02 2.141081740573430579e+03
1.333333333333333315e-01 5.722805424174883910e+02 2.141081740573430579e+03
1.499999999999999944e-01 5.365958467412646087e+02 2.141081740573430579e+03
1.666666666666666574e-01 5.009111510650407126e+02 2.141081740573430579e+03
1.833333333333333204e-01 4.652264553888169303e+02 2.141081740573433763e+03
2.000000000000000111e-01 4.295417597125929206e+02 2.141081740573433763e+03
2.166666666666666741e-01 3.938570640363691382e+02 2.141081740573428760e+03
2.333333333333333370e-01 3.581723683601452990e+02 2.141081740573430579e+03
2.500000000000000000e-01 3.224876726839214598e+02 2.141081740573431944e+03
2.666666666666666630e-01 2.868029770076975637e+02 2.141081740573430579e+03
2.833333333333333259e-01 2.511182813314737814e+02 2.141081740573429670e+03
2.999999999999999889e-01 2.154335856552499138e+02 2.141081740573431034e+03
3.166666666666666519e-01 1.797488899790260746e+02 2.141081740573430579e+03
3.333333333333333148e-01 1.440641943028022354e+02 1.657984684200214588e+03
3.499999999999999778e-01 1.244827338390189198e+02 1.466124381720528390e+03
3.666666666666666408e-01 9.519338157878462425e+01 1.882640805546266392e+03
3.833333333333333037e-01 6.172804032081003811e+01 1.535013192339514490e+03
4.000000000000000222e-01 4.402627516746747460e+01 8.989556959180613376e+02
4.166666666666666852e-01 3.176285045687465924e+01 6.656785447293113975e+02
4.333333333333333481e-01 2.183699034315709397e+01 5.354869055072573474e+02
4.500000000000000111e-01 1.391328693996608123e+01 4.195278592038468446e+02
4.666666666666666741e-01 7.852728369695531896e+00 2.993260421506408875e+02
4.833333333333333370e-01 3.935752201611384393e+00 1.897356163588596019e+02
5.000000000000000000e-01 1.528207824400212633e+00 1.033036605511508412e+02
5.166666666666666075e-01 4.922968499063565817e-01 4.177034763470449974e+01
5.333333333333333259e-01 1.358629032433958939e-01 6.680155232819968703e+00
5.500000000000000444e-01 2.696250088123576250e-01 -5.041274602785485115e+00
5.666666666666666519e-01 3.039053900029120570e-01 -3.090664628702669781e+00
5.833333333333333703e-01 3.726471631024466102e-01 1.898722784597317581e-01
5.999999999999999778e-01 2.975763140542543317e-01 3.658252825646885142e+00
6.166666666666666963e-01 2.507054022475504462e-01 9.736614083380102258e+00
6.333333333333333037e-01 -2.697748872508243245e-02 1.128313854265821270e+01
6.500000000000000222e-01 -1.253992158410566216e-01 8.939411652113061990e+00
6.666666666666666297e-01 -3.249578771288511581e-01 1.758801242046405022e+01
6.833333333333333481e-01 -7.116662965231915772e-01 2.795452193241372996e+01
6.999999999999999556e-01 -1.256775274875975512e+00 3.268743580246449199e+01
7.166666666666666741e-01 -1.801247489938674562e+00 2.902513210311718694e+01
7.333333333333332815e-01 -2.224279678313215047e+00 2.494749807778050510e+01
7.500000000000000000e-01 -2.632830759198024673e+00 1.964914364971163252e+01
7.666666666666666075e-01 -2.879251133303602828e+00 1.864796305460512116e+00
7.833333333333333259e-01 -2.694990636046708410e+00 -1.754869316403032187e+01
8.000000000000000444e-01 -2.294294694502592158e+00 -2.605883327474281330e+01
8.166666666666666519e-01 -1.826362860221947937e+00 -2.733030949924793163e+01
8.333333333333333703e-01 -1.383284377860994452e+00 -2.650970631758982776e+01
8.499999999999999778e-01 -9.427059829689536929e-01 -2.602934733108642718e+01
8.666666666666666963e-01 -5.156394668247802349e-01 -2.666816386990127086e+01
8.833333333333333037e-01 -5.376718730557810549e-02 -2.651465829184819967e+01
9.000000000000000222e-01 3.681824762368264281e-01 -2.400824860478939726e+01
9.166666666666666297e-01 7.465077661874018888e-01 -1.693377412491365419e+01
9.333333333333333481e-01 9.326416137339482715e-01 -1.277198536556953457e+01
9.499999999999999556e-01 1.172240611706386382e+00 -1.203764015167421242e+01
9.666666666666666741e-01 1.333896285456422026e+00 -8.586698359066216923e+00
9.833333333333332815e-01 1.458463890341926916e+00 -5.928496063830239748e+00
1.000000000000000000e+00 1.531512820917430018e+00 -1.817357784989301894e+00
1.016666666666666607e+00 1.519042483174903646e+00 1.524556485375652137e+00
1.033333333333333215e+00 1.480694271404908280e+00 3.760965035266357059e+00
1.050000000000000044e+00 1.393676981999358411e+00 6.601867021808514480e+00
1.066666666666666652e+00 1.260632037344624479e+00 9.186938907410580057e+00
1.083333333333333259e+00 1.087445685085672409e+00 1.307113551212147406e+01
1.100000000000000089e+00 8.249275202739086987e-01 1.361270650470081556e+01
1.116666666666666696e+00 6.336888015956452236e-01 1.209390541807486308e+01
1.133333333333333304e+00 4.217973396714132517e-01 1.382998768363424880e+01
1.149999999999999911e+00 1.726892121411702785e-01 1.448095091633372533e+01
1.166666666666666741e+00 -6.090102420637758668e-02 1.360675728819370534e+01
1.183333333333333348e+00 -2.808693641319532364e-01 1.170073656773283233e+01
1.199999999999999956e+00 -4.509255764641386666e-01 9.703033689535796924e+00
1.216666666666666563e+00 -6.043038204498131227e-01 7.836368252698398429e+00
1.233333333333333393e+00 -7.121378515540852661e-01 8.339715383102458190e+00
1.250000000000000000e+00 -8.822943332198950328e-01 8.924164327512720263e+00
1.266666666666666607e+00 -1.009609995804509275e+00 9.071817800009188915e+00
1.283333333333333215e+00 -1.184688259886867989e+00 7.014389802028762055e+00
1.300000000000000044e+00 -1.243422989205468010e+00 4.964372038266406939e+00
1.316666666666666652e+00 -1.350167327829081554e+00 5.054278276489427846e+00
1.333333333333333259e+00 -1.411898931755115605e+00 3.302399059239515822e+00
1.350000000000000089e+00 -1.460247296470398748e+00 1.721382940600060252e+00
1.366666666666666696e+00 -1.469278363108450947e+00 -3.338768116994095259e-01
1.383333333333333304e+00 -1.449118069413751764e+00 -6.501552599008841860e-01
1.399999999999999911e+00 -1.447606521111754807e+00 -4.079195864502493940e-01
1.416666666666666741e+00 -1.435520749865410117e+00 1.619579446416730129e-01
1.433333333333333348e+00 -1.453005119266477241e+00 9.225788987501681859e-01
1.449999999999999956e+00 -1.466273379823749057e+00 1.327636339721562919e+00
1.466666666666666563e+00 -1.497259663923862671e+00 1.892382603564375376e+00
1.483333333333333393e+00 -1.529352799942561569e+00 1.641822918389117536e+00
1.500000000000000000e+00 -1.551987094536833256e+00 7.927843555060776204e-01
1.516666666666666607e+00 -1.555778945126097490e+00 1.809603548702076736e-01
1.533333333333333215e+00 -1.558019106365840178e+00 -1.265034296303291228e-01
1.550000000000000044e+00 -1.551562164138419853e+00 -4.977903890020796140e-01
1.566666666666666652e+00 -1.541426093399104191e+00 -1.724866253863071019e+00
1.583333333333333259e+00 -1.494066622342984152e+00 -2.535440798245278682e+00
1.600000000000000089e+00 -1.456911400124261569e+00 -1.531918454390126527e+00
1.616666666666666696e+00 -1.443002673863313268e+00 -1.354922020532713933e+00
1.633333333333333304e+00 -1.411747332773171104e+00 -2.262917944685540750e+00
1.649999999999999911e+00 -1.367572075707128576e+00 -3.646941803412229177e+00
1.666666666666666741e+00 -1.290182605992763465e+00 -4.267960539850528257e+00
1.683333333333333348e+00 -1.225306724378777634e+00 -3.631647697249706930e+00
1.699999999999999956e+00 -1.169127682751106567e+00 -3.186938617827184128e+00
1.716666666666666563e+00 -1.119075437117871497e+00 -2.877279827935079748e+00
1.733333333333333393e+00 -1.073218355153270576e+00 -3.507387619284596525e+00
1.750000000000000000e+00 -1.002162516475051612e+00 -4.134124461228267933e+00
1.766666666666666607e+00 -9.354142064456616446e-01 -4.138569075678947051e+00
1.783333333333333215e+00 -8.642102139524200366e-01 -4.109465551804247774e+00
1.800000000000000044e+00 -7.984320213855200521e-01 -3.777717572320979933e+00
1.816666666666666652e+00 -7.382862948750540388e-01 -4.155584185901951777e+00
1.833333333333333259e+00 -6.599125485221216669e-01 -4.497754487656016487e+00
1.849999999999999867e+00 -5.883611452865201707e-01 -4.370633503097661965e+00
1.866666666666666696e+00 -5.142247650855329422e-01 -4.106996908845355065e+00
1.883333333333333304e+00 -4.514612483250083352e-01 -3.545363611773976409e+00
1.899999999999999911e+00 -3.960459780264004026e-01 -3.330463321601061732e+00
1.916666666666666741e+00 -3.404458042716396182e-01 -3.201827759392698702e+00
1.933333333333333348e+00 -2.893183860466437829e-01 -9.713667960983958238e+00
1.949999999999999956e+00 -1.665687223884101259e-02 -8.612691328607933627e+00
1.966666666666666563e+00 -2.228675093046026019e-03 -4.934533418213223332e-01
1.983333333333333393e+00 -2.084275114636019281e-04 -6.686025279138077537e-02
2.000000000000000000e+00 0.000000000000000000e+00 -1.250565068781611666e-02
