0	8.65665e+07	5.79122e+07
0.0166667	8.56013e+07	1.13165e+08
0.0333333	8.27944e+07	2.16369e+08
0.05	7.8389e+07	3.02073e+08
0.0666667	7.27253e+07	3.66577e+08
0.0833333	6.61698e+07	4.09967e+08
0.1	5.90597e+07	4.34813e+08
0.116667	5.1676e+07	4.44392e+08
0.133333	4.42466e+07	4.41254e+08
0.15	3.69676e+07	4.26658e+08
0.166667	3.00247e+07	4.00945e+08
0.183333	2.36027e+07	3.64473e+08
0.2	1.78756e+07	3.1859e+08
0.216667	1.29831e+07	2.66142e+08
0.233333	9.0042e+06	2.11269e+08
0.25	5.94074e+06	1.58588e+08
0.266667	3.71793e+06	1.12121e+08
0.283333	2.20337e+06	7.44416e+07
0.3	1.23654e+06	4.63365e+07
0.316667	658818	2.70388e+07
0.333333	335250	1.48241e+07
0.35	164680	7.67811e+06
0.366667	79313	3.7951e+06
0.383333	38176.8	1.81754e+06
0.4	18728.3	860619
0.416667	9489.49	412101
0.433333	4991.62	203160
0.45	2717.5	103964
0.466667	1526.16	55085.4
0.483333	881.321	30144.5
0.5	521.341	16975.9
0.516667	315.456	9781.34
0.533333	195.297	5742.75
0.55	124.031	3421.19
0.566667	81.2568	2060.58
0.583333	55.3453	1252.82
0.6	39.4962	770.887
0.616667	29.6491	484.313
0.633333	23.3524	315.568
0.65	19.1301	217.307
0.666667	16.1088	160.379
0.683333	13.7841	127.129
0.7	11.8712	107.192
0.716667	10.2111	94.6277
0.733333	8.71694	85.9111
0.75	7.34736	78.8025
0.766667	6.09019	72.0263
0.783333	4.94648	65.2382
0.8	3.91559	58.7211
0.816667	2.98911	52.8629
0.833333	2.15349	47.7661
0.85	1.39691	43.2198
0.866667	0.71283	38.9279
0.883333	0.0993157	34.7067
0.9	-0.444059	30.5554
0.916667	-0.919196	26.5836
0.933333	-1.33018	22.8666
0.95	-1.68142	19.3508
0.966667	-1.97521	15.9196
0.983333	-2.21207	12.528
1	-2.39281	9.24625
1.01667	-2.52028	6.20248
1.03333	-2.59956	3.53154
1.05	-2.638	1.39475
1.06667	-2.64605	-0.0813867
1.08333	-2.63529	-0.970003
1.1	-2.61371	-1.56748
1.11667	-2.58304	-2.1591
1.13333	-2.54174	-2.78504
1.15	-2.4902	-3.3078
1.16667	-2.43148	-3.63724
1.18333	-2.36896	-3.78206
1.2	-2.30542	-3.76647
1.21667	-2.24341	-3.6475
1.23333	-2.18383	-3.57283
1.25	-2.12432	-3.6724
1.26667	-2.06142	-3.90306
1.28333	-1.99422	-4.11888
1.3	-1.92412	-4.27376
1.31667	-1.85176	-4.43736
1.33333	-1.77621	-4.63347
1.35	-1.69731	-4.79028
1.36667	-1.61653	-4.8663
1.38333	-1.5351	-4.92878
1.4	-1.45224	-5.05094
1.41667	-1.36673	-5.18416
1.43333	-1.27944	-5.18957
1.45	-1.19375	-4.98359
1.46667	-1.11332	-4.63337
1.48333	-1.0393	-4.30353
1.5	-0.969866	-4.11377
1.51667	-0.902176	-4.05123
1.53333	-0.834825	-4.00117
1.55	-0.768804	-3.84633
1.56667	-0.706614	-3.54358
1.58333	-0.650685	-3.12631
1.6	-0.602404	-2.66131
1.61667	-0.561974	-2.21007
1.63333	-0.528735	-1.81315
1.65	-0.501536	-1.49024
1.66667	-0.47906	-1.24601
1.68333	-0.460003	-1.08216
1.7	-0.442988	-0.998907
1.71667	-0.426706	-0.975863
1.73333	-0.410459	-0.965362
1.75	-0.394527	-0.924368
1.76667	-0.379647	-0.855339
1.78333	-0.366016	-0.802971
1.8	-0.352881	-0.814776
1.81667	-0.338856	-0.910922
1.83333	-0.322517	-1.08089
1.85	-0.302827	-1.2931
1.86667	-0.279414	-1.50703
1.88333	-0.252593	-1.6911
1.9	-0.223044	-1.83514
1.91667	-0.191421	-1.95074
1.93333	-0.158019	-2.05244
1.95	-0.123007	-2.10876
1.96667	-0.087727	-2.00704
1.98333	-0.0561054	-2.63181
2	0	-3.36632
