0 577840000 4824440000
0.0166667 497432000 4824440000
0.0333333 417024000 4824440000
0.05 336618000 4824440000
0.0666667 256210000 4824440000
0.0833333 175802400 4824440000
0.1 95395000 4824440000
0.116667 14987740 2771480000
0.133333 3012720 427724000
0.15 730294 84234600
0.166667 204906 19970960
0.183333 64595.4 5476720
0.2 22348.2 1690992
0.216667 8228.96 579498
0.233333 3031.5 214384
0.25 1082.84 82146
0.266667 293.31 30779.8
0.283333 56.8428 8168.76
0.3 21.0172 256.438
0.316667 48.2948 -950.98
0.333333 52.7164 43.2662
0.35 46.8526 369.328
0.366667 40.4056 359.252
0.383333 34.8776 283.058
0.4 30.9702 171.529
0.416667 29.16 85.8694
0.433333 28.108 98.9992
0.45 25.86 170.298
0.466667 22.4314 197.191
0.483333 19.287 150.006
0.5 17.4312 82.3078
0.516667 16.5434 54.3548
0.533333 15.6193 71.3014
0.55 14.1667 89.4096
0.566667 12.639 77.1912
0.583333 11.5936 51.0016
0.6 10.939 39.0398
0.616667 10.2923 43.8568
0.633333 9.47708 49.7914
0.65 8.63258 47.3106
0.666667 7.90006 41.8
0.683333 7.23924 41.072
0.7 6.53098 45.7726
0.716667 5.71348 50.7846
0.733333 4.83816 49.6806
0.75 4.05746 39.5368
0.766667 3.52026 25.036
0.783333 3.22292 15.8943
0.8 2.99046 15.9402
0.816667 2.69158 16.4139
0.833333 2.44332 8.08874
0.85 2.42196 -3.73234
0.866667 2.56774 -5.152
0.883333 2.5937 8.59882
0.9 2.28112 26.2818
0.916667 1.71764 32.2406
0.933333 1.20643 22.0518
0.95 0.98258 4.83492
0.966667 1.04526 -5.92254
0.983333 1.18 -2.79594
1 1.13846 8.6705
1.01667 0.890982 16.2576
1.03333 0.596538 14.2664
1.05 0.415434 6.53908
1.06667 0.37857 0.71199
1.08333 0.3917 -0.284604
1.1 0.388056 0.68073
1.11667 0.36901 2.13364
1.13333 0.316934 5.71074
1.15 0.178651 10.9307
1.16667 -0.0474208 14.0288
1.18333 -0.288976 11.9934
1.2 -0.4472 5.90804
1.21667 -0.485912 0.205078
1.23333 -0.454036 -1.99401
1.25 -0.419444 -0.119889
1.26667 -0.45004 4.78252
1.28333 -0.578862 9.6868
1.3 -0.772932 11.2579
1.31667 -0.954124 8.52054
1.33333 -1.05695 4.00472
1.35 -1.08761 1.63915
1.36667 -1.11159 2.8208
1.38333 -1.18164 5.4079
1.4 -1.29185 5.96976
1.41667 -1.38063 3.04284
1.43333 -1.39328 -0.918582
1.45 -1.35001 -2.74608
1.46667 -1.30174 -2.704
1.48333 -1.25988 -3.0545
1.5 -1.19993 -3.96042
1.51667 -1.12787 -3.2346
1.53333 -1.09211 -0.490176
1.55 -1.11153 1.38616
1.56667 -1.13831 0.222608
1.58333 -1.11895 -2.21742
1.6 -1.0644 -2.89276
1.61667 -1.02252 -1.6182
1.63333 -1.01046 -0.867886
1.65 -0.993592 -2.48876
1.66667 -0.9275 -5.32662
1.68333 -0.816038 -6.53878
1.7 -0.709542 -4.85668
1.71667 -0.65415 -1.91772
1.73333 -0.645618 -0.468242
1.75 -0.638542 -1.19188
1.76667 -0.605888 -1.88189
1.78333 -0.575812 -0.4667
1.8 -0.590332 1.89282
1.81667 -0.638906 2.30898
1.83333 -0.667298 -0.011015
1.85 -0.638538 -3.09862
1.86667 -0.56401 -4.8858
1.88333 -0.475678 -5.20066
1.9 -0.390654 -4.93786
1.91667 -0.311084 -4.6796
1.93333 -0.234668 -4.49006
1.95 -0.161414 -4.15866
1.96667 -0.096046 -3.5435
1.98333 -0.0432972 -2.88138
2 0 -2.59782
