0	2.8892e+08	2.41222e+09
0.0166667	2.48716e+08	2.41222e+09
0.0333333	2.08512e+08	2.41222e+09
0.05	1.68309e+08	2.41222e+09
0.0666667	1.28105e+08	2.41222e+09
0.0833333	8.79012e+07	2.41222e+09
0.1	4.76975e+07	2.41222e+09
0.116667	7.49387e+06	1.38574e+09
0.133333	1.50636e+06	2.13862e+08
0.15	365147	4.21173e+07
0.166667	102453	9.9857e+06
0.183333	32290.3	2.73849e+06
0.2	11169.7	843640
0.216667	4168.94	285869
0.233333	1640.72	107096
0.25	599.088	44105.6
0.266667	170.531	16979.4
0.283333	33.1094	4896.93
0.3	7.29974	1357.9
0.316667	-12.1539	482.268
0.333333	-8.77586	-258.716
0.35	-3.53002	-134.979
0.366667	-4.27655	62.2825
0.383333	-5.6061	45.972
0.4	-5.80895	-0.713034
0.416667	-5.58233	6.58209
0.433333	-6.02836	44.9824
0.45	-7.08175	58.7284
0.466667	-7.98597	38.9088
0.483333	-8.37871	15.5524
0.5	-8.50438	12.6558
0.516667	-8.80057	22.4605
0.533333	-9.25307	20.558
0.55	-9.48583	2.69173
0.566667	-9.34279	-11.8411
0.583333	-9.09113	-9.59762
0.6	-9.02287	1.86614
0.616667	-9.15333	8.27476
0.633333	-9.2987	2.94901
0.65	-9.25164	-9.18919
0.666667	-8.99239	-16.5757
0.683333	-8.69911	-13.343
0.7	-8.54763	-5.22919
0.716667	-8.52481	-1.95887
0.733333	-8.48233	-6.91122
0.75	-8.29443	-16.1358
0.766667	-7.94447	-24.237
0.783333	-7.48653	-27.5551
0.8	-7.02597	-23.4905
0.816667	-6.70351	-14.5072
0.833333	-6.5424	-9.31665
0.85	-6.39296	-13.7451
0.866667	-6.08423	-22.8213
0.883333	-5.63225	-25.8439
0.9	-5.22276	-19.7382
0.916667	-4.97431	-11.4846
0.933333	-4.83994	-8.60219
0.95	-4.68757	-12.6554
0.966667	-4.41809	-19.3166
0.983333	-4.04368	-22.4358
1	-3.67023	-19.6427
1.01667	-3.38892	-13.9453
1.03333	-3.20539	-9.81289
1.05	-3.06183	-8.75495
1.06667	-2.91356	-9.36452
1.08333	-2.74968	-10.8921
1.1	-2.55049	-12.903
1.11667	-2.31958	-13.4174
1.13333	-2.10324	-11.4605
1.15	-1.93756	-8.97594
1.16667	-1.80404	-7.74437
1.18333	-1.67941	-6.68658
1.2	-1.58116	-4.62896
1.21667	-1.52512	-3.39418
1.23333	-1.46802	-5.1829
1.25	-1.35235	-8.13003
1.26667	-1.19702	-7.99055
1.28333	-1.086	-3.91271
1.3	-1.06659	0.215564
1.31667	-1.09319	0.69321
1.33333	-1.0897	-2.06214
1.35	-1.02445	-4.76965
1.36667	-0.930711	-4.85189
1.38333	-0.862718	-2.63373
1.4	-0.84292	-0.250464
1.41667	-0.854369	0.718759
1.43333	-0.866878	0.256151
1.45	-0.862907	-0.86746
1.46667	-0.837963	-1.90813
1.48333	-0.799303	-2.26502
1.5	-0.762462	-1.72505
1.51667	-0.741801	-0.80362
1.53333	-0.735675	-0.542786
1.55	-0.723708	-1.36817
1.56667	-0.690069	-2.42895
1.58333	-0.642743	-2.46394
1.6	-0.607938	-1.33779
1.61667	-0.59815	-0.263823
1.63333	-0.599144	-0.353217
1.65	-0.586376	-1.43533
1.66667	-0.551299	-2.37291
1.68333	-0.50728	-2.39454
1.7	-0.471482	-1.76868
1.71667	-0.448324	-1.18592
1.73333	-0.431951	-0.923825
1.75	-0.417529	-0.877748
1.76667	-0.402692	-1.01472
1.78333	-0.383706	-1.42542
1.8	-0.355178	-2.07412
1.81667	-0.314568	-2.72856
1.83333	-0.264226	-3.12743
1.85	-0.21032	-3.03213
1.86667	-0.163155	-2.27035
1.88333	-0.134642	-1.10364
1.9	-0.126367	-0.279947
1.91667	-0.12531	-0.342437
1.93333	-0.114953	-1.06597
1.95	-0.0897781	-1.7524
1.96667	-0.0565394	-1.95118
1.98333	-0.0247388	-1.69618
2	0	-1.48433
