0	2.12286e+07	86.3379
0.0166667	2.12286e+07	165.282
0.0333333	2.12286e+07	304.396
0.05	2.12286e+07	402.425
0.0666667	2.12286e+07	459.596
0.0833333	2.12286e+07	486.646
0.1	2.12286e+07	496.688
0.116667	2.12285e+07	31987.1
0.133333	2.12275e+07	360316
0.15	2.12165e+07	2.05744e+06
0.166667	2.11589e+07	7.81203e+06
0.183333	2.09561e+07	2.20557e+07
0.2	2.04237e+07	4.91055e+07
0.216667	1.93193e+07	8.92917e+07
0.233333	1.74473e+07	1.35609e+08
0.25	1.4799e+07	1.74596e+08
0.266667	1.16275e+07	1.92522e+08
0.283333	8.38157e+06	1.83172e+08
0.3	5.52174e+06	1.51327e+08
0.316667	3.33733e+06	1.09351e+08
0.333333	1.87672e+06	6.98954e+07
0.35	1.00748e+06	4.02884e+07
0.366667	533773	2.1605e+07
0.383333	287315	1.12341e+07
0.4	159303	5.88905e+06
0.416667	91013.3	3.1775e+06
0.433333	53386.1	1.76885e+06
0.45	32051.6	1.0123e+06
0.466667	19642.7	593786
0.483333	12258.7	356071
0.5	7773.69	217825
0.516667	4997.88	135775
0.533333	3247.84	86300.1
0.55	2121.21	56081
0.566667	1378.47	38287.3
0.583333	844.964	27279.9
0.6	469.142	17074.9
0.616667	275.801	9312.85
0.633333	158.713	5520.35
0.65	91.7899	3146.14
0.666667	53.8418	1807.32
0.683333	31.5459	1072.59
0.7	18.0888	647.526
0.716667	9.96169	392.856
0.733333	4.99365	242.984
0.75	1.86224	155.873
0.766667	-0.202122	104.551
0.783333	-1.6228	72.7085
0.8	-2.62574	51.4609
0.816667	-3.33816	36.4448
0.833333	-3.84056	25.4667
0.85	-4.18705	17.0387
0.866667	-4.40852	9.93433
0.883333	-4.5182	3.4999
0.9	-4.52518	-2.04316
0.916667	-4.45009	-5.97867
0.933333	-4.32589	-8.08812
0.95	-4.18049	-9.08161
0.966667	-4.02317	-9.85495
0.983333	-3.85199	-10.6381
1	-3.66857	-11.1709
1.01667	-3.47962	-11.4458
1.03333	-3.28704	-11.7987
1.05	-3.08633	-12.3441
1.06667	-2.87557	-12.7505
1.08333	-2.66132	-12.6099
1.1	-2.45524	-11.8826
1.11667	-2.26523	-10.982
1.13333	-2.08917	-10.4682
1.15	-1.91629	-10.548
1.16667	-1.73757	-10.8445
1.18333	-1.55481	-10.7056
1.2	-1.38072	-9.73558
1.21667	-1.23029	-8.04725
1.23333	-1.11248	-6.06445
1.25	-1.02814	-4.27233
1.26667	-0.970067	-3.08816
1.28333	-0.925203	-2.66387
1.3	-0.881271	-2.70908
1.31667	-0.8349	-2.60804
1.33333	-0.794337	-1.86301
1.35	-0.7728	-0.525321
1.36667	-0.776826	0.802441
1.38333	-0.799548	1.4812
1.4	-0.826199	1.37587
1.41667	-0.84541	0.87419
1.43333	-0.855339	0.436347
1.45	-0.859955	0.187935
1.46667	-0.861603	-0.0209452
1.48333	-0.859257	-0.318659
1.5	-0.850981	-0.718854
1.51667	-0.835295	-1.22898
1.53333	-0.810015	-1.87361
1.55	-0.772841	-2.59463
1.56667	-0.723528	-3.23468
1.58333	-0.665019	-3.65151
1.6	-0.601811	-3.83088
1.61667	-0.537323	-3.86226
1.63333	-0.473069	-3.83325
1.65	-0.409548	-3.75187
1.66667	-0.348007	-3.55013
1.68333	-0.29121	-3.17014
1.7	-0.242335	-2.65977
1.71667	-0.202551	-2.17213
1.73333	-0.169931	-1.8445
1.75	-0.141068	-1.67216
1.76667	-0.114192	-1.51398
1.78333	-0.0906015	-1.24442
1.8	-0.0727117	-0.887058
1.81667	-0.0610329	-0.583708
1.83333	-0.0532548	-0.439172
1.85	-0.0463939	-0.418397
1.86667	-0.0393082	-0.407363
1.88333	-0.0328151	-0.342683
1.9	-0.0278854	-0.252598
1.91667	-0.0243951	-0.193822
1.93333	-0.0214247	-0.185115
1.95	-0.0182247	-0.199558
1.96667	-0.0147728	-0.19534
1.98333	-0.0117133	-0.145285
2	-0.00992993	-0.107004
