0.000000000000000000e+00 9.638616709755806369e+02 2.441635058202634809e+03
1.666666666666666644e-02 9.231677533388700567e+02 2.441635058202634809e+03
3.333333333333333287e-02 8.824738357021594766e+02 2.441635058202634809e+03
5.000000000000000278e-02 8.417799180654488964e+02 2.441635058202631626e+03
6.666666666666666574e-02 8.010860004287384299e+02 2.441635058202631626e+03
8.333333333333332871e-02 7.603920827920278498e+02 2.441635058202634809e+03
1.000000000000000056e-01 7.196981651553172696e+02 2.441635058202634809e+03
1.166666666666666685e-01 6.790042475186066895e+02 2.441635058202634809e+03
1.333333333333333315e-01 6.383103298818961093e+02 2.441635058202631626e+03
1.499999999999999944e-01 5.976164122451856429e+02 2.441635058202631626e+03
1.666666666666666574e-01 5.569224946084750627e+02 2.441635058202634809e+03
1.833333333333333204e-01 5.162285769717644826e+02 2.441635058202634809e+03
2.000000000000000111e-01 4.755346593350539024e+02 2.441635058202634809e+03
2.166666666666666741e-01 4.348407416983433222e+02 2.441635058202632990e+03
2.333333333333333370e-01 3.941468240616327989e+02 2.441635058202631626e+03
2.500000000000000000e-01 3.534529064249222756e+02 2.441635058202632990e+03
2.666666666666666630e-01 3.127589887882116955e+02 2.441635058202632990e+03
2.833333333333333259e-01 2.720650711515011722e+02 2.441635058202632081e+03
2.999999999999999889e-01 2.313711535147906204e+02 2.441635058202632990e+03
3.166666666666666519e-01 1.906772358780800687e+02 2.441635058202632990e+03
3.333333333333333148e-01 1.499833182413695170e+02 1.740951532558783128e+03
3.499999999999999778e-01 1.326455181261206349e+02 1.538496708175150843e+03
3.666666666666666408e-01 9.870009463553115836e+01 1.783667531309384685e+03
3.833333333333333037e-01 7.318993374914114725e+01 1.520009798453698295e+03
4.000000000000000222e-01 4.803310135374121614e+01 1.112394057367762116e+03
4.166666666666666852e-01 3.611013183688240957e+01 6.515614210845683374e+02
4.333333333333333481e-01 2.631438731758893823e+01 5.376147666645953223e+02
4.500000000000000111e-01 1.818963961472923430e+01 4.376728601830596403e+02
4.666666666666666741e-01 1.172529197815361712e+01 3.241045048931911197e+02
4.833333333333333370e-01 7.386156118289530781e+00 2.087244503242639837e+02
5.000000000000000000e-01 4.767810300678150703e+00 1.236475073565032829e+02
5.166666666666666075e-01 3.264572539739421408e+00 6.359129208945023493e+01
5.333333333333333259e-01 2.648100564363142784e+00 3.089938427304618429e+01
5.500000000000000444e-01 2.234593063971215265e+00 1.444148080676633583e+01
5.666666666666666519e-01 2.166717870804264923e+00 1.399761904763635023e+01
5.833333333333333703e-01 1.768005762383336954e+00 2.678355837866286748e+01
5.999999999999999778e-01 1.273932591515502644e+00 3.060642499536026406e+01
6.166666666666666963e-01 7.477915958713281519e-01 3.573437428265948768e+01
6.333333333333333037e-01 8.278678209351983397e-02 4.152743145532048885e+01
6.500000000000000222e-01 -6.364561193060215283e-01 4.248882593876522407e+01
6.666666666666666297e-01 -1.333507415865321066e+00 3.893815095846827745e+01
6.833333333333333481e-01 -1.934394484588297214e+00 3.687035192684425056e+01
6.999999999999999556e-01 -2.562519146760129374e+00 3.791087080523548991e+01
7.166666666666666741e-01 -3.198090178096146818e+00 3.101991602884861621e+01
7.333333333333332815e-01 -3.596516347721749884e+00 2.109974799279379809e+01
7.500000000000000000e-01 -3.901415111189273421e+00 1.476885040318124709e+01
7.666666666666666075e-01 -4.088811361161124758e+00 1.357847207215056784e+01
7.833333333333333259e-01 -4.354030846927625653e+00 9.920967922277075246e+00
8.000000000000000444e-01 -4.419510291903693933e+00 -7.323511929517589891e-01
8.166666666666666519e-01 -4.329619140495900353e+00 -1.093742735740186767e+01
8.333333333333333703e-01 -4.054929379990298344e+00 -1.622726344274768806e+01
8.499999999999999778e-01 -3.788710359070977418e+00 -1.637072291209035768e+01
8.666666666666666963e-01 -3.509238616253953058e+00 -1.807852970980835750e+01
8.833333333333333037e-01 -3.186092702077365502e+00 -2.166988917748704679e+01
9.000000000000000222e-01 -2.786908977004384891e+00 -2.402112921885251140e+01
9.166666666666666297e-01 -2.385388394782281818e+00 -2.312964332815031554e+01
9.333333333333333481e-01 -2.015920866066041039e+00 -1.982158541579124389e+01
9.499999999999999556e-01 -1.724668880922573644e+00 -1.531414933340359497e+01
9.666666666666666741e-01 -1.505449221619254541e+00 -1.296507575104384280e+01
9.833333333333332815e-01 -1.292499689221112247e+00 -1.071005355125616987e+01
1.000000000000000000e+00 -1.148447436577382241e+00 -7.360234429476280482e+00
1.016666666666666607e+00 -1.047158541571902912e+00 -5.220302828553718300e+00
1.033333333333333215e+00 -9.744373422922583128e-01 -8.062112145852596612e+00
1.050000000000000044e+00 -7.784214700434830547e-01 -1.060960650066420108e+01
1.066666666666666652e+00 -6.207837922701182620e-01 -9.371966514987690289e+00
1.083333333333333259e+00 -4.660225862105600303e-01 -6.595730080199582623e+00
1.100000000000000089e+00 -4.009261229301321894e-01 -4.943851338319374733e+00
1.116666666666666696e+00 -3.012275415999142170e-01 -3.737372393425882233e+00
1.133333333333333304e+00 -2.763470431492694446e-01 1.093990242585329842e-01
1.149999999999999911e+00 -3.048741757418653164e-01 2.403497403198338045e+00
1.166666666666666741e+00 -3.564636232558807127e-01 2.995862784999992368e+00
1.183333333333333348e+00 -4.047362685751983991e-01 2.870573046862182842e+00
1.199999999999999956e+00 -4.521493914846201334e-01 5.595895810101794154e+00
1.216666666666666563e+00 -5.912661289119248709e-01 7.116191970945180856e+00
1.233333333333333393e+00 -6.893557905161261656e-01 7.471965575062722742e+00
1.250000000000000000e+00 -8.403316480806822808e-01 6.558272168389246204e+00
1.266666666666666607e+00 -9.079648627957677132e-01 6.736526716139731086e+00
1.283333333333333215e+00 -1.064882538618673324e+00 8.286994964979653489e+00
1.300000000000000044e+00 -1.184198028295089467e+00 9.991782696255873120e+00
1.316666666666666652e+00 -1.397941961827202428e+00 1.297315415341100575e+01
1.333333333333333259e+00 -1.616636500075456340e+00 1.235200647724138179e+01
1.350000000000000089e+00 -1.809675511068581821e+00 9.965648996551948358e+00
1.366666666666666696e+00 -1.948824799960521270e+00 6.596511513508110269e+00
1.383333333333333304e+00 -2.029559228185518815e+00 5.446590803191376118e+00
1.399999999999999911e+00 -2.130377826733567126e+00 3.441024472008393786e+00
1.416666666666666741e+00 -2.144260043919131942e+00 6.138508388313557163e-01
1.433333333333333348e+00 -2.150839521361278983e+00 -1.766628439883977109e+00
1.449999999999999956e+00 -2.085372429256332705e+00 -2.522510511817088741e+00
1.466666666666666563e+00 -2.066755837634042692e+00 -3.521822609805365101e+00
1.483333333333333393e+00 -1.967978342262820535e+00 -4.605587405417786329e+00
1.500000000000000000e+00 -1.913236257453449829e+00 -3.710820720942737960e+00
1.516666666666666607e+00 -1.844284318231395936e+00 -3.397843444704244931e+00
1.533333333333333215e+00 -1.799974809296641665e+00 -3.326783156973125433e+00
1.550000000000000044e+00 -1.733391546332291755e+00 -4.820391102525334759e+00
1.566666666666666652e+00 -1.639295105879130521e+00 -5.117231979551604582e+00
1.583333333333333259e+00 -1.562817147013904950e+00 -4.828934212124473824e+00
1.600000000000000089e+00 -1.478330632141648060e+00 -4.786849661144841228e+00
1.616666666666666696e+00 -1.403255491642410258e+00 -5.551020207558754471e+00
1.633333333333333304e+00 -1.293296625223022911e+00 -6.010292403083224322e+00
1.649999999999999911e+00 -1.202912411539636128e+00 -5.742662382247345931e+00
1.666666666666666741e+00 -1.101874545814778061e+00 -5.563582620635130205e+00
1.683333333333333348e+00 -1.017459657518465121e+00 -5.306416056652065727e+00
1.699999999999999956e+00 -9.249940105930425371e-01 -4.492288403759639337e+00
1.716666666666666563e+00 -8.677167107264771584e-01 -2.936509207851234482e+00
1.733333333333333393e+00 -8.271103703313347211e-01 -2.091822017163347258e+00
1.750000000000000000e+00 -7.979893101543655831e-01 -2.429502435035575392e+00
1.766666666666666607e+00 -7.461269558301488747e-01 -2.512979987880015198e+00
1.783333333333333215e+00 -7.142233105583650765e-01 -1.807500752308482950e+00
1.800000000000000044e+00 -6.858769307531994430e-01 -1.493567078769277856e+00
1.816666666666666652e+00 -6.644377412660558146e-01 -1.629152566590451601e+00
1.833333333333333259e+00 -6.315718452001843897e-01 -2.006437111754860947e+00
1.849999999999999867e+00 -5.975565042075604572e-01 -2.101128310030515589e+00
1.866666666666666696e+00 -5.615342348658338700e-01 -2.311063406585680546e+00
1.883333333333333304e+00 -5.205210573213711056e-01 -2.782096924336566968e+00
1.899999999999999911e+00 -4.687976707212816452e-01 -3.163868675779851092e+00
1.916666666666666741e+00 -4.150587681287093988e-01 -3.519632908528285142e+00
1.933333333333333348e+00 -3.514765737703388071e-01 -1.195528322988860381e+01
1.949999999999999956e+00 -1.654932713242262057e-02 -1.048763733441500712e+01
1.966666666666666563e+00 -1.888662623171897051e-03 -4.907314416587763017e-01
1.983333333333333393e+00 -1.916124104634114368e-04 -5.665987869515691500e-02
2.000000000000000000e+00 0.000000000000000000e+00 -1.149674462780468642e-02
