0.000000000000000000e+00 5.202372474393980610e+02 1.023741730846857081e+03
1.666666666666666644e-02 5.031748852586171097e+02 1.023741730846853670e+03
3.333333333333333287e-02 4.861125230778362720e+02 1.023741730846853670e+03
5.000000000000000278e-02 4.690501608970553207e+02 1.023741730846857081e+03
6.666666666666666574e-02 4.519877987162743693e+02 1.023741730846857081e+03
8.333333333333332871e-02 4.349254365354934180e+02 1.023741730846853670e+03
1.000000000000000056e-01 4.178630743547125803e+02 1.023741730846853670e+03
1.166666666666666685e-01 4.008007121739316290e+02 1.023741730846857081e+03
1.333333333333333315e-01 3.837383499931506776e+02 1.023741730846857081e+03
1.499999999999999944e-01 3.666759878123697263e+02 1.023741730846853670e+03
1.666666666666666574e-01 3.496136256315888886e+02 1.023741730846853670e+03
1.833333333333333204e-01 3.325512634508079373e+02 1.023741730846857081e+03
2.000000000000000111e-01 3.154889012700269859e+02 1.023741730846857081e+03
2.166666666666666741e-01 2.984265390892460346e+02 1.023741730846857081e+03
2.333333333333333370e-01 2.813641769084650832e+02 1.023741730846855376e+03
2.500000000000000000e-01 2.643018147276841887e+02 1.023741730846854580e+03
2.666666666666666630e-01 2.472394525469032658e+02 1.023741730846855376e+03
2.833333333333333259e-01 2.301770903661223429e+02 1.023741730846855376e+03
2.999999999999999889e-01 2.131147281853414199e+02 1.023741730846855376e+03
3.166666666666666519e-01 1.960523660045604970e+02 1.023741730846855376e+03
3.333333333333333148e-01 1.789900038237795741e+02 1.023741730846855376e+03
3.499999999999999778e-01 1.619276416429986512e+02 1.023741730846855376e+03
3.666666666666666408e-01 1.448652794622177282e+02 1.023741730846855376e+03
3.833333333333333037e-01 1.278029172814368053e+02 1.023741730846857081e+03
4.000000000000000222e-01 1.107405551006558255e+02 1.023741730846857081e+03
4.166666666666666852e-01 9.367819291987490260e+01 1.023741730846855376e+03
4.333333333333333481e-01 7.661583073909397967e+01 1.023741730846855376e+03
4.500000000000000111e-01 5.955346855831305675e+01 1.023741730846855376e+03
4.666666666666666741e-01 4.249110637753213382e+01 1.023741730846855376e+03
4.833333333333333370e-01 2.542874419675121089e+01 7.582628896476726368e+02
5.000000000000000000e-01 1.721567672260971449e+01 3.916293899593148353e+02
5.166666666666666075e-01 1.237443119810738246e+01 2.330191399550632241e+02
5.333333333333333259e-01 9.448372057440939997e+00 1.377306476338210359e+02
5.500000000000000444e-01 7.783409610313348104e+00 7.465442467645162594e+01
5.666666666666666519e-01 6.959891234892552347e+00 3.596481846438845764e+01
5.833333333333333703e-01 6.584582328167066123e+00 1.994430834852470369e+01
5.999999999999999778e-01 6.295080956608395617e+00 2.195904781444736287e+01
6.166666666666666963e-01 5.852614067685487420e+00 3.201077404100199431e+01
6.333333333333333037e-01 5.228055155241662533e+00 4.038785151813903695e+01
6.500000000000000222e-01 4.506352350414186247e+00 4.390585634821007233e+01
6.666666666666666297e-01 3.764526610301326848e+00 4.358996160609183335e+01
6.833333333333333481e-01 3.053353630211125047e+00 3.956757386295847567e+01
6.999999999999999556e-01 2.445607481536044236e+00 3.188550294502236326e+01
7.166666666666666741e-01 1.990503532043712998e+00 2.237377413697429773e+01
7.333333333333332815e-01 1.699815010303567631e+00 1.357335736569109663e+01
7.500000000000000000e-01 1.538058286520676443e+00 8.070538208845981387e+00
7.666666666666666075e-01 1.430797070008701599e+00 6.981796374711293218e+00
7.833333333333333259e-01 1.305331740696966669e+00 9.843573056219506512e+00
8.000000000000000444e-01 1.102677968134718078e+00 1.528598550640758980e+01
8.166666666666666519e-01 7.957988904833803723e-01 2.129344532591082029e+01
8.333333333333333703e-01 3.928964572710240688e-01 2.475048079128814393e+01
8.499999999999999778e-01 -2.921713589289109958e-02 2.349426402612455433e+01
8.666666666666666963e-01 -3.902456769331276720e-01 1.746661573172312742e+01
8.833333333333333037e-01 -6.114376602836619767e-01 7.247488095887663739e+00
9.000000000000000222e-01 -6.318286134627164596e-01 -6.175002664146549414e+00
9.166666666666666297e-01 -4.056042381454436629e-01 -2.039051340155770831e+01
9.333333333333333481e-01 4.785516658920714594e-02 -3.154873445996179271e+01
9.499999999999999556e-01 6.460202438532827163e-01 -3.551839760986065642e+01
9.666666666666666741e-01 1.231801753584562231e+00 -3.059535421548793721e+01
9.833333333333332815e-01 1.665865384369547231e+00 -1.991267164687209856e+01
1.000000000000000000e+00 1.895557475146965487e+00 -9.407875136194855159e+00
1.016666666666666607e+00 1.979461222242709040e+00 -2.983527552504725566e+00
1.033333333333333215e+00 1.995008393563789673e+00 1.312892954474897955e-01
1.050000000000000044e+00 1.975084912394459380e+00 2.016811790112009728e+00
1.066666666666666652e+00 1.927781333893389348e+00 3.443813300358860019e+00
1.083333333333333259e+00 1.860291135715830713e+00 4.766849638673991585e+00
1.100000000000000089e+00 1.768886345937589644e+00 6.572548777374945139e+00
1.116666666666666696e+00 1.641206176469999223e+00 8.769942832254869813e+00
1.133333333333333304e+00 1.476554918195760679e+00 1.085569647012258443e+01
1.149999999999999911e+00 1.279349627465913075e+00 1.257049466132281168e+01
1.166666666666666741e+00 1.057538429485000320e+00 1.392933792795302139e+01
1.183333333333333348e+00 8.150383632008123547e-01 1.492867211093770585e+01
1.199999999999999956e+00 5.599160257870767765e-01 1.552244400875469843e+01
1.216666666666666563e+00 2.976235629089891144e-01 1.538958060061435695e+01
1.233333333333333393e+00 4.693000576659826090e-02 1.407941642962925854e+01
1.250000000000000000e+00 -1.716903180786527872e-01 1.157322107015585111e+01
1.266666666666666607e+00 -3.388440299052634108e-01 8.304383042114970692e+00
1.283333333333333215e+00 -4.485030861491517973e-01 4.673815874143135041e+00
1.300000000000000044e+00 -4.946378923767012492e-01 8.675189391775189884e-01
1.316666666666666652e+00 -4.774203841217357636e-01 -2.822626804955453039e+00
1.333333333333333259e+00 -4.005503322115194775e-01 -5.758163951005702330e+00
1.350000000000000089e+00 -2.854815857548790303e-01 -7.526863605827257331e+00
1.366666666666666696e+00 -1.496548786839442535e-01 -8.326312198254774088e+00
1.383333333333333304e+00 -7.937845813053210492e-03 -8.476782824940491068e+00
1.399999999999999911e+00 1.329045488140721265e-01 -7.935839344638771387e+00
1.416666666666666741e+00 2.565901323415724633e-01 -6.681712940229034281e+00
1.433333333333333348e+00 3.556283134883732600e-01 -4.952515891299213990e+00
1.449999999999999956e+00 4.216739953848795963e-01 -2.975271060352102648e+00
1.466666666666666563e+00 4.548040155001100149e-01 -1.099398320294818321e+00
1.483333333333333393e+00 4.583206060613735366e-01 2.696506199030385131e-01
1.500000000000000000e+00 4.458156615033420644e-01 1.065192202408599798e+00
1.516666666666666607e+00 4.228141993144202138e-01 1.602152105497802292e+00
1.533333333333333215e+00 3.924105913200819917e-01 2.009716816538922757e+00
1.550000000000000044e+00 3.558236387631227848e-01 2.263420542021996607e+00
1.566666666666666652e+00 3.169632399193487715e-01 2.347990926262526479e+00
1.583333333333333259e+00 2.775572745543719022e-01 2.193031731974130594e+00
1.600000000000000089e+00 2.438621821868777462e-01 1.647929043216368017e+00
1.616666666666666696e+00 2.226263064471596387e-01 8.204895353615271336e-01
1.633333333333333304e+00 2.165125310081601751e-01 5.388479383378053100e-03
1.649999999999999911e+00 2.224466904677137036e-01 -6.185585574887922933e-01
1.666666666666666741e+00 2.371311495911199163e-01 -1.074013707732647260e+00
1.683333333333333348e+00 2.582471473921352789e-01 -1.379098738763406828e+00
1.699999999999999956e+00 2.831011075499001439e-01 -1.556004262810629646e+00
1.716666666666666563e+00 3.101139561524896004e-01 -1.616524066423111305e+00
1.733333333333333393e+00 3.369852430973371837e-01 -1.407595634828862741e+00
1.750000000000000000e+00 3.570338106467850214e-01 -7.746170120264411763e-01
1.766666666666666607e+00 3.628058101648852229e-01 1.833411659309758246e-01
1.783333333333333215e+00 3.509224384490858273e-01 1.207064385107086135e+00
1.800000000000000044e+00 3.225703306613156851e-01 2.148792322653741316e+00
1.816666666666666652e+00 2.792960276939611131e-01 2.952014051048846621e+00
1.833333333333333259e+00 2.241698622930207996e-01 3.523511365338182433e+00
1.849999999999999867e+00 1.618456488493550394e-01 3.776313420299093782e+00
1.866666666666666696e+00 9.829274828305101241e-02 3.694333249593769963e+00
1.883333333333333304e+00 3.870120719622938826e-02 3.289507656295732829e+00
1.899999999999999911e+00 -1.135750692680674578e-02 2.576746660396664002e+00
1.916666666666666741e+00 -4.719034815032606411e-02 1.622718878540345244e+00
1.933333333333333348e+00 -6.544813621148491689e-02 -9.921332327356784386e-01
1.949999999999999956e+00 -1.411924039247011708e-02 -1.913855637128830223e+00
1.966666666666666563e+00 -1.652948307190577884e-03 -4.188922996469385263e-01
1.983333333333333393e+00 -1.561637375721648723e-04 -4.958844921571733955e-02
2.000000000000000000e+00 0.000000000000000000e+00 -9.369824254329892771e-03
