0.000000000000000000e+00 3.839208508237204001e+02 5.448084917383732773e+02
1.666666666666666644e-02 3.748407092947475121e+02 5.448084917383698667e+02
3.333333333333333287e-02 3.657605677657747378e+02 5.448084917383698667e+02
5.000000000000000278e-02 3.566804262368018499e+02 5.448084917383715720e+02
6.666666666666666574e-02 3.476002847078290188e+02 5.448084917383698667e+02
8.333333333333332871e-02 3.385201431788561877e+02 5.448084917383698667e+02
1.000000000000000056e-01 3.294400016498833565e+02 5.448084917383698667e+02
1.166666666666666685e-01 3.203598601209105254e+02 5.448084917383698667e+02
1.333333333333333315e-01 3.112797185919376943e+02 5.448084917383715720e+02
1.499999999999999944e-01 3.021995770629648064e+02 5.448084917383698667e+02
1.666666666666666574e-01 2.931194355339920321e+02 5.448084917383698667e+02
1.833333333333333204e-01 2.840392940050191442e+02 5.448084917383715720e+02
2.000000000000000111e-01 2.749591524760463130e+02 5.448084917383698667e+02
2.166666666666666741e-01 2.658790109470734819e+02 5.448084917383698667e+02
2.333333333333333370e-01 2.567988694181006508e+02 5.448084917383690708e+02
2.500000000000000000e-01 2.477187278891278481e+02 5.448084917383698667e+02
2.666666666666666630e-01 2.386385863601549886e+02 5.448084917383707761e+02
2.833333333333333259e-01 2.295584448311821575e+02 5.448084917383698667e+02
2.999999999999999889e-01 2.204783033022093264e+02 5.448084917383698667e+02
3.166666666666666519e-01 2.113981617732364953e+02 5.448084917383698667e+02
3.333333333333333148e-01 2.023180202442636642e+02 5.448084917383707761e+02
3.499999999999999778e-01 1.932378787152908046e+02 5.448084917383707761e+02
3.666666666666666408e-01 1.841577371863179735e+02 5.448084917383698667e+02
3.833333333333333037e-01 1.750775956573451424e+02 5.448084917383715720e+02
4.000000000000000222e-01 1.659974541283722544e+02 5.448084917383715720e+02
4.166666666666666852e-01 1.569173125993994233e+02 5.448084917383698667e+02
4.333333333333333481e-01 1.478371710704265922e+02 5.448084917383698667e+02
4.500000000000000111e-01 1.387570295414537611e+02 5.448084917383698667e+02
4.666666666666666741e-01 1.296768880124809300e+02 5.448084917383698667e+02
4.833333333333333370e-01 1.205967464835080989e+02 5.448084917383707761e+02
5.000000000000000000e-01 1.115166049545352394e+02 5.448084917383698667e+02
5.166666666666666075e-01 1.024364634255624367e+02 5.448084917383698667e+02
5.333333333333333259e-01 9.335632189658957714e+01 5.448084917383715720e+02
5.500000000000000444e-01 8.427618036761671760e+01 5.448084917383703214e+02
5.666666666666666519e-01 7.519603883864390070e+01 5.448084917383707761e+02
5.833333333333333703e-01 6.611589730967102696e+01 5.448084917383703214e+02
5.999999999999999778e-01 5.703575578069822427e+01 5.448084917383698667e+02
6.166666666666666963e-01 4.795561425172536474e+01 5.448084917383700940e+02
6.333333333333333037e-01 3.887547272275255494e+01 5.448084917383703214e+02
6.500000000000000222e-01 2.979533119377968831e+01 4.576153995930812926e+02
6.666666666666666297e-01 2.362162606964984590e+01 3.324044914738456100e+02
6.833333333333333481e-01 1.871518147798483511e+01 2.701881463738214393e+02
6.999999999999999556e-01 1.461535452385579781e+01 2.274709218920551450e+02
7.166666666666666741e-01 1.113281741491632992e+01 1.940090775653945059e+02
7.333333333333332815e-01 8.148385271675980590e+00 1.664947573236537721e+02
7.500000000000000000e-01 5.582992170794537579e+00 1.433006426795118671e+02
7.666666666666666075e-01 3.371697182358918354e+00 1.234729093627806975e+02
7.833333333333333259e-01 1.467228525368514891e+00 1.061931303113240688e+02
8.000000000000000444e-01 -1.680738280185505862e-01 9.083568530872574343e+01
8.166666666666666519e-01 -1.560627651589009623e+00 7.694939383236837216e+01
8.333333333333333703e-01 -2.733053622430829943e+00 6.428106246318830586e+01
8.499999999999999778e-01 -3.703329733695286397e+00 5.264261756764474143e+01
8.666666666666666963e-01 -4.487807541352321294e+00 4.191450035873790370e+01
8.833333333333333037e-01 -5.100479745653216490e+00 3.203691578287898523e+01
9.000000000000000222e-01 -5.555704734114954135e+00 2.302297771589516273e+01
9.166666666666666297e-01 -5.867912336183055189e+00 1.488142131962795212e+01
9.333333333333333481e-01 -6.051752111435885872e+00 7.615694063428550820e+00
9.499999999999999556e-01 -6.121768804964006883e+00 1.268863896420340254e+00
9.666666666666666741e-01 -6.094047574649897214e+00 -4.093863981830407894e+00
9.833333333333332815e-01 -5.985306672236326619e+00 -8.453524769596825195e+00
1.000000000000000000e+00 -5.812263415663336374e+00 -1.185897176322470159e+01
1.016666666666666607e+00 -5.590007613462169900e+00 -1.435973011471421756e+01
1.033333333333333215e+00 -5.333605745172862456e+00 -1.596304216372002927e+01
1.050000000000000044e+00 -5.057906208004835591e+00 -1.671333604252852822e+01
1.066666666666666652e+00 -4.776494543755244848e+00 -1.681433952703867263e+01
1.083333333333333259e+00 -4.497428223770213229e+00 -1.660392183943169897e+01
1.100000000000000089e+00 -4.223030482440854882e+00 -1.645715355378418820e+01
1.116666666666666696e+00 -3.948856438644073652e+00 -1.658759521432307338e+01
1.133333333333333304e+00 -3.670110641963419074e+00 -1.695358983304316070e+01
1.149999999999999911e+00 -3.383736777542635021e+00 -1.734892513159720551e+01
1.166666666666666741e+00 -3.091813137576845616e+00 -1.761500265737256044e+01
1.183333333333333348e+00 -2.796570022296883007e+00 -1.769832084398636241e+01
1.199999999999999956e+00 -2.501869109443966899e+00 -1.757023432459039469e+01
1.216666666666666563e+00 -2.210895544810536517e+00 -1.717323696934665378e+01
1.233333333333333393e+00 -1.929427877132411817e+00 -1.648228629855889693e+01
1.250000000000000000e+00 -1.661486001525239953e+00 -1.553074384447581657e+01
1.266666666666666607e+00 -1.411736415649884613e+00 -1.438420445772738354e+01
1.283333333333333215e+00 -1.182012519600993850e+00 -1.314505385495622214e+01
1.300000000000000044e+00 -9.735679538180105341e-01 -1.188033635725739323e+01
1.316666666666666652e+00 -7.860013076924140529e-01 -1.060950531476980885e+01
1.333333333333333259e+00 -6.199177766590169281e-01 -9.318074216437080892e+00
1.350000000000000089e+00 -4.753988338111780343e-01 -7.959461599467797299e+00
1.366666666666666696e+00 -3.546023900100903625e-01 -6.480914831003945054e+00
1.383333333333333304e+00 -2.593683394443798695e-01 -4.952948849643979301e+00
1.399999999999999911e+00 -1.895040950219577247e-01 -3.517661098355177263e+00
1.416666666666666741e+00 -1.421129694992072923e-01 -2.298711329397702841e+00
1.433333333333333348e+00 -1.128803840420342930e-01 -1.337848081683888468e+00
1.449999999999999956e+00 -9.751803344307767574e-02 -6.071399605348498651e-01
1.466666666666666563e+00 -9.264238535753929749e-02 -1.776338686624231999e-02
1.483333333333333393e+00 -9.692592054753626507e-02 5.092915759847388424e-01
1.500000000000000000e+00 -1.096187712236972589e-01 1.004262136408434980e+00
1.516666666666666607e+00 -1.304013250944840996e-01 1.448307484129966571e+00
1.533333333333333215e+00 -1.578956873613628076e-01 1.786058165896281080e+00
1.550000000000000044e+00 -1.899365972910267986e-01 1.948733273648415532e+00
1.566666666666666652e+00 -2.228534631496433271e-01 1.910800517222771111e+00
1.583333333333333259e+00 -2.536299478651191652e-01 1.719247617041050447e+00
1.600000000000000089e+00 -2.801617170510116717e-01 1.435674761447821579e+00
1.616666666666666696e+00 -3.014857732467132179e-01 1.095729552310311217e+00
1.633333333333333304e+00 -3.166860354613553752e-01 7.301594868257904603e-01
1.649999999999999911e+00 -3.258244228075728999e-01 3.661782855723566543e-01
1.666666666666666741e+00 -3.288919783137672637e-01 4.077364683409134827e-03
1.683333333333333348e+00 -3.259603349636865377e-01 -3.448689990878273104e-01
1.699999999999999956e+00 -3.173963450108396867e-01 -6.472951111897573551e-01
1.716666666666666563e+00 -3.043838312573612925e-01 -8.720435087375766336e-01
1.733333333333333393e+00 -2.883282280529204655e-01 -1.012653245086470699e+00
1.750000000000000000e+00 -2.706287230878122729e-01 -1.082956140389975230e+00
1.766666666666666607e+00 -2.522296900399212949e-01 -1.115111773357954750e+00
1.783333333333333215e+00 -2.334583306425471183e-01 -1.138673684177619716e+00
1.800000000000000044e+00 -2.142739005673339747e-01 -1.168999803625935030e+00
1.816666666666666652e+00 -1.944916705216826192e-01 -1.208786654191504661e+00
1.833333333333333259e+00 -1.739810120942838212e-01 -1.250968828773906028e+00
1.849999999999999867e+00 -1.527927095625524201e-01 -1.272557942049654667e+00
1.866666666666666696e+00 -1.315624140259619990e-01 -1.251520535273474621e+00
1.883333333333333304e+00 -1.110753583867699346e-01 -1.188207847225219549e+00
1.899999999999999911e+00 -9.195548578512134641e-02 -1.104465907032126104e+00
1.916666666666666741e+00 -7.425982815236573109e-02 -1.024372203898309408e+00
1.933333333333333348e+00 -5.780974565517769947e-02 -2.078992789573727240e+00
1.949999999999999956e+00 -4.960068499908156306e-03 -1.739865475678943119e+00
1.966666666666666563e+00 1.857702007870706774e-04 -1.494669018708402186e-01
1.983333333333333393e+00 2.216156245318431499e-05 5.573106023612120485e-03
2.000000000000000000e+00 0.000000000000000000e+00 1.329693747191058872e-03
