0.000000000000000000e+00 4.569818426185581757e+02 9.385241060782198019e+02
1.666666666666666644e-02 4.413397741839211790e+02 9.385241060782180966e+02
3.333333333333333287e-02 4.256977057492842391e+02 9.385241060782180966e+02
5.000000000000000278e-02 4.100556373146472424e+02 9.385241060782198019e+02
6.666666666666666574e-02 3.944135688800102457e+02 9.385241060782180966e+02
8.333333333333332871e-02 3.787715004453733059e+02 9.385241060782198019e+02
1.000000000000000056e-01 3.631294320107362523e+02 9.385241060782198019e+02
1.166666666666666685e-01 3.474873635760993125e+02 9.385241060782180966e+02
1.333333333333333315e-01 3.318452951414623158e+02 9.385241060782180966e+02
1.499999999999999944e-01 3.162032267068253759e+02 9.385241060782198019e+02
1.666666666666666574e-01 3.005611582721883224e+02 9.385241060782180966e+02
1.833333333333333204e-01 2.849190898375514394e+02 9.385241060782180966e+02
2.000000000000000111e-01 2.692770214029143858e+02 9.385241060782207114e+02
2.166666666666666741e-01 2.536349529682774175e+02 9.385241060782190061e+02
2.333333333333333370e-01 2.379928845336404208e+02 9.385241060782190061e+02
2.500000000000000000e-01 2.223508160990034526e+02 9.385241060782180966e+02
2.666666666666666630e-01 2.067087476643664843e+02 9.385241060782190061e+02
2.833333333333333259e-01 1.910666792297294876e+02 9.385241060782190061e+02
2.999999999999999889e-01 1.754246107950925193e+02 9.385241060782180966e+02
3.166666666666666519e-01 1.597825423604555510e+02 9.385241060782190061e+02
3.333333333333333148e-01 1.441404739258185543e+02 9.385241060782190061e+02
3.499999999999999778e-01 1.284984054911815861e+02 9.385241060782180966e+02
3.666666666666666408e-01 1.128563370565446178e+02 9.385241060782185514e+02
3.833333333333333037e-01 9.721426862190763529e+01 9.385241060782207114e+02
4.000000000000000222e-01 8.157220018727059596e+01 9.385241060782202567e+02
4.166666666666666852e-01 6.593013175263362768e+01 9.385241060782185514e+02
4.333333333333333481e-01 5.028806331799664520e+01 9.385241060782187787e+02
4.500000000000000111e-01 3.464599488335966981e+01 9.385241060782186651e+02
4.666666666666666741e-01 1.900392644872269088e+01 6.753568889970968030e+02
4.833333333333333370e-01 1.213409858345644388e+01 3.396068926997226640e+02
5.000000000000000000e-01 7.683696692065269396e+00 2.304443277805561934e+02
5.166666666666666075e-01 4.452620990771237075e+00 1.689968328596953597e+02
5.333333333333333259e-01 2.050468930075424190e+00 1.244088924258782072e+02
5.500000000000000444e-01 3.056579099086301210e-01 8.833566096951463464e+01
5.666666666666666519e-01 -8.940531022417300688e-01 5.887244582241922330e+01
5.833333333333333703e-01 -1.656756950838677245e+00 3.569256395714113239e+01
5.999999999999999778e-01 -2.083805234146434593e+00 1.809508576874062769e+01
6.166666666666666963e-01 -2.259926476463364864e+00 5.125695189818406661e+00
6.333333333333333037e-01 -2.254661740473714815e+00 -3.825022428483149106e+00
6.500000000000000222e-01 -2.132425728847259894e+00 -8.930891071327634378e+00
6.666666666666666297e-01 -1.956965371429460365e+00 -1.086309344309756320e+01
6.833333333333333481e-01 -1.770322614077341150e+00 -1.094927700940338156e+01
6.999999999999999556e-01 -1.591989471116014299e+00 -1.006872459512841544e+01
7.166666666666666741e-01 -1.434698460906393969e+00 -8.338202375973160940e+00
7.333333333333332815e-01 -1.314049391916908949e+00 -6.070459473051244004e+00
7.500000000000000000e-01 -1.232349811804685835e+00 -4.580400251510297061e+00
7.666666666666666075e-01 -1.161369383533232380e+00 -4.618425075273091984e+00
7.833333333333333259e-01 -1.078402309295582784e+00 -5.449995152630476625e+00
8.000000000000000444e-01 -9.797028784455498185e-01 -6.036162598318970396e+00
8.166666666666666519e-01 -8.771968893516171040e-01 -6.161993934585759725e+00
8.333333333333333703e-01 -7.743030806260244869e-01 -6.161044258139141583e+00
8.499999999999999778e-01 -6.718287474136457327e-01 -5.799011945741437302e+00
8.666666666666666963e-01 -5.810026824346432583e-01 -4.747151955223181119e+00
8.833333333333333037e-01 -5.135903489062063620e-01 -3.283856853383715801e+00
9.000000000000000222e-01 -4.715407873218527279e-01 -1.876899260028594973e+00
9.166666666666666297e-01 -4.510270402385865296e-01 -6.213413943890699898e-01
9.333333333333333481e-01 -4.508294075088837283e-01 8.719983611711945581e-01
9.499999999999999556e-01 -4.800936522776263482e-01 2.451238246145806432e+00
9.666666666666666741e-01 -5.325373490470772797e-01 3.716485064731815058e+00
9.833333333333332815e-01 -6.039764877686868427e-01 4.599982247513621836e+00
1.000000000000000000e+00 -6.858700906308646816e-01 5.166930077677958089e+00
1.016666666666666607e+00 -7.762074903579521123e-01 5.452792341890278394e+00
1.033333333333333215e+00 -8.676298353605406133e-01 5.356001372634152879e+00
1.050000000000000044e+00 -9.547408694457572009e-01 4.916662807709998084e+00
1.066666666666666652e+00 -1.031518595617540557e+00 4.094700090803521597e+00
1.083333333333333259e+00 -1.091230872472541247e+00 2.942658450057453745e+00
1.100000000000000089e+00 -1.129607210619455682e+00 1.688367020713175126e+00
1.116666666666666696e+00 -1.147509773162980418e+00 4.740789779346465949e-01
1.133333333333333304e+00 -1.145409843217277235e+00 -6.449890277777448055e-01
1.149999999999999911e+00 -1.126010138903722257e+00 -1.580272136789488968e+00
1.166666666666666741e+00 -1.092734105324294269e+00 -2.221753074970558295e+00
1.183333333333333348e+00 -1.051951703071370314e+00 -2.584674967769151621e+00
1.199999999999999956e+00 -1.006578273065322549e+00 -2.843522836318596259e+00
1.216666666666666563e+00 -9.571676085274171131e-01 -3.117832207969299940e+00
1.233333333333333393e+00 -9.026505327996792172e-01 -3.538760374011071796e+00
1.250000000000000000e+00 -8.392089293937147199e-01 -3.970814139369562845e+00
1.266666666666666607e+00 -7.702900614873604557e-01 -4.190036925554482039e+00
1.283333333333333215e+00 -6.995410318752319778e-01 -4.159738305912815015e+00
1.300000000000000044e+00 -6.316321179569333033e-01 -4.026191188366341933e+00
1.316666666666666652e+00 -5.653346589296872615e-01 -3.807361779889576692e+00
1.333333333333333259e+00 -5.047200586272807543e-01 -3.462851414406038053e+00
1.350000000000000089e+00 -4.499062784494859968e-01 -3.230018667876215499e+00
1.366666666666666696e+00 -3.970527696980735710e-01 -3.278409356199296631e+00
1.383333333333333304e+00 -3.406259665761761091e-01 -3.417781448465371685e+00
1.399999999999999911e+00 -2.831267214158945111e-01 -3.438611816735010596e+00
1.416666666666666741e+00 -2.260055726850090929e-01 -3.329841331138092109e+00
1.433333333333333348e+00 -1.721320103779581112e-01 -3.093331210886221427e+00
1.449999999999999956e+00 -1.228945323221350416e-01 -2.647067505849372004e+00
1.466666666666666563e+00 -8.389642684964571107e-02 -2.066446015142498815e+00
1.483333333333333393e+00 -5.401299848405174964e-02 -1.558115171257880904e+00
1.500000000000000000e+00 -3.195925447438301148e-02 -1.240547927556239882e+00
1.516666666666666607e+00 -1.266140089884374917e-02 -1.166811216317595656e+00
1.533333333333333215e+00 6.934452736203511151e-03 -1.234801069564042564e+00
1.550000000000000044e+00 2.849863475329100435e-02 -1.286374524743573167e+00
1.566666666666666652e+00 4.981360356098928077e-02 -1.227104478854329495e+00
1.583333333333333259e+00 6.940211738176865763e-02 -1.052062974006447771e+00
1.600000000000000089e+00 8.488236936120420462e-02 -7.552285006137554602e-01
1.616666666666666696e+00 9.457640073556050631e-02 -3.978746731735207098e-01
1.633333333333333304e+00 9.814485846698822735e-02 -1.284304494627559745e-01
1.649999999999999911e+00 9.885741571765237212e-02 4.029481423775127524e-03
1.666666666666666741e+00 9.801054241952905643e-02 9.862691282835484019e-02
1.683333333333333348e+00 9.556985195670721078e-02 1.868963282051031016e-01
1.699999999999999956e+00 9.178066481269228638e-02 2.271029634682227016e-01
1.716666666666666563e+00 8.799975317443312073e-02 2.231193119120655766e-01
1.733333333333333393e+00 8.434335441562343383e-02 2.262244199899994535e-01
1.750000000000000000e+00 8.045893917476647228e-02 2.321772084411934112e-01
1.766666666666666607e+00 7.660411413425032012e-02 2.243710814512298035e-01
1.783333333333333215e+00 7.297990312639214550e-02 2.108193781787266741e-01
1.800000000000000044e+00 6.957680152829276432e-02 2.142818247929652309e-01
1.816666666666666652e+00 6.583717563329330447e-02 2.518790049066664816e-01
1.833333333333333259e+00 6.118083469807054919e-02 3.094884369044236250e-01
1.849999999999999867e+00 5.552089440314585123e-02 3.544089734736333708e-01
1.866666666666666696e+00 4.936720224894943637e-02 3.691146441811583023e-01
1.883333333333333304e+00 4.321707293044057402e-02 3.649006224135287746e-01
1.899999999999999911e+00 3.720384816849847676e-02 3.530946233181233018e-01
1.916666666666666741e+00 3.144725215316979822e-02 3.407586159850912733e-01
1.933333333333333348e+00 2.584522763566210121e-02 7.641654715656976959e-01
1.949999999999999956e+00 5.975069767646541338e-03 7.525911408986728501e-01
1.966666666666666563e+00 7.588562723730057956e-04 1.771424958958646156e-01
1.983333333333333393e+00 7.031990445105375362e-05 2.276568817119017582e-02
2.000000000000000000e+00 0.000000000000000000e+00 4.219194267063225597e-03
