0.000000000000000000e+00 4.134802497592634154e+02 5.787726452101765062e+02
1.666666666666666644e-02 4.038340390057604736e+02 5.787726452101765062e+02
3.333333333333333287e-02 3.941878282522575319e+02 5.787726452101765062e+02
5.000000000000000278e-02 3.845416174987545901e+02 5.787726452101730956e+02
6.666666666666666574e-02 3.748954067452517620e+02 5.787726452101765062e+02
8.333333333333332871e-02 3.652491959917487065e+02 5.787726452101765062e+02
1.000000000000000056e-01 3.556029852382458785e+02 5.787726452101730956e+02
1.166666666666666685e-01 3.459567744847429367e+02 5.787726452101765062e+02
1.333333333333333315e-01 3.363105637312399949e+02 5.787726452101765062e+02
1.499999999999999944e-01 3.266643529777370532e+02 5.787726452101765062e+02
1.666666666666666574e-01 3.170181422242341114e+02 5.787726452101765062e+02
1.833333333333333204e-01 3.073719314707311696e+02 5.787726452101765062e+02
2.000000000000000111e-01 2.977257207172282278e+02 5.787726452101765062e+02
2.166666666666666741e-01 2.880795099637252861e+02 5.787726452101765062e+02
2.333333333333333370e-01 2.784332992102223443e+02 5.787726452101765062e+02
2.500000000000000000e-01 2.687870884567194025e+02 5.787726452101765062e+02
2.666666666666666630e-01 2.591408777032164608e+02 5.787726452101748009e+02
2.833333333333333259e-01 2.494946669497135758e+02 5.787726452101748009e+02
2.999999999999999889e-01 2.398484561962106341e+02 5.787726452101765062e+02
3.166666666666666519e-01 2.302022454427076923e+02 5.787726452101757104e+02
3.333333333333333148e-01 2.205560346892047789e+02 5.787726452101757104e+02
3.499999999999999778e-01 2.109098239357018372e+02 5.787726452101765062e+02
3.666666666666666408e-01 2.012636131821988954e+02 5.787726452101757104e+02
3.833333333333333037e-01 1.916174024286959821e+02 5.787726452101765062e+02
4.000000000000000222e-01 1.819711916751930119e+02 5.787726452101774157e+02
4.166666666666666852e-01 1.723249809216900701e+02 5.787726452101757104e+02
4.333333333333333481e-01 1.626787701681871567e+02 5.787726452101757104e+02
4.500000000000000111e-01 1.530325594146842150e+02 5.787726452101765062e+02
4.666666666666666741e-01 1.433863486611812732e+02 5.787726452101765062e+02
4.833333333333333370e-01 1.337401379076783314e+02 5.787726452101757104e+02
5.000000000000000000e-01 1.240939271541754181e+02 5.787726452101743462e+02
5.166666666666666075e-01 1.144477164006725189e+02 5.787726452101760515e+02
5.333333333333333259e-01 1.048015056471695488e+02 5.787726452101777568e+02
5.500000000000000444e-01 9.515529489366659277e+01 5.787726452101757104e+02
5.666666666666666519e-01 8.550908414016369363e+01 5.787726452101757104e+02
5.833333333333333703e-01 7.586287338666073765e+01 5.787726452101760515e+02
5.999999999999999778e-01 6.621666263315782430e+01 5.787726452101760515e+02
6.166666666666666963e-01 5.657045187965486832e+01 5.787726452101758241e+02
6.333333333333333037e-01 4.692424112615196208e+01 5.787726452101760515e+02
6.500000000000000222e-01 3.727803037264899899e+01 5.787726452101758241e+02
6.666666666666666297e-01 2.763181961914609985e+01 4.730413989453210775e+02
6.833333333333333481e-01 2.150998374113829570e+01 3.222882330449655228e+02
6.999999999999999556e-01 1.688887851764724957e+01 2.506947233562305826e+02
7.166666666666666741e-01 1.315349296259727652e+01 2.047207613960203219e+02
7.333333333333332815e-01 1.006485313777990598e+01 1.695441267141051753e+02
7.500000000000000000e-01 7.502022072127104479e+00 1.399781826639415385e+02
7.666666666666666075e-01 5.398913715648521183e+00 1.146079084910376906e+02
7.833333333333333259e-01 3.681758455759181370e+00 9.342226254615175662e+01
8.000000000000000444e-01 2.284838297443462896e+00 7.569330514706545898e+01
8.166666666666666519e-01 1.158648284190332944e+00 6.044397204036342686e+01
8.333333333333333703e-01 2.700392294313487818e-01 4.747939185508464277e+01
8.499999999999999778e-01 -4.239981109791551295e-01 3.690571917857212014e+01
8.666666666666666963e-01 -9.601514098543885156e-01 2.836141642006957397e+01
8.833333333333333037e-01 -1.369378658314807540e+00 2.136787144186700260e+01
9.000000000000000222e-01 -1.672413791249955262e+00 1.566476772840789344e+01
9.166666666666666297e-01 -1.891537582595070655e+00 1.101166159868111905e+01
9.333333333333333481e-01 -2.039469177872659245e+00 7.077153718667561932e+00
9.499999999999999556e-01 -2.127442706550656037e+00 3.662484478307588276e+00
9.666666666666666741e-01 -2.161551993816245520e+00 6.587146832435930577e-01
9.833333333333332815e-01 -2.149399862658775806e+00 -1.954213063315775045e+00
1.000000000000000000e+00 -2.096411558372386352e+00 -4.067952441452971080e+00
1.016666666666666607e+00 -2.013801447943676770e+00 -5.543787089346174923e+00
1.033333333333333215e+00 -1.911618655394180522e+00 -6.493569075310999139e+00
1.050000000000000044e+00 -1.797349145433310147e+00 -7.047643353988979342e+00
1.066666666666666652e+00 -1.676697210261214543e+00 -7.141842812480632574e+00
1.083333333333333259e+00 -1.559287718350622409e+00 -6.805148323319656356e+00
1.100000000000000089e+00 -1.449858932817225998e+00 -6.372697341864443921e+00
1.116666666666666696e+00 -1.346864473621807612e+00 -6.099558308699459808e+00
1.133333333333333304e+00 -1.246540322527244005e+00 -5.893654335333360805e+00
1.149999999999999911e+00 -1.150409329110695600e+00 -5.632971437815855076e+00
1.166666666666666741e+00 -1.058774607933382184e+00 -5.378265256952843743e+00
1.183333333333333348e+00 -9.711338205456008232e-01 -5.097320617346427163e+00
1.199999999999999956e+00 -8.888639206885012856e-01 -4.720010725977016541e+00
1.216666666666666563e+00 -8.138001296797002793e-01 -4.231973176113634771e+00
1.233333333333333393e+00 -7.477981481513801265e-01 -3.731099193844310768e+00
1.250000000000000000e+00 -6.894301565515565944e-01 -3.322809653907282890e+00
1.266666666666666607e+00 -6.370378263544707043e-01 -3.039295759447301570e+00
1.283333333333333215e+00 -5.881202979033132161e-01 -2.848566290674745538e+00
1.300000000000000044e+00 -5.420856166653125197e-01 -2.682612330634002173e+00
1.316666666666666652e+00 -4.986998868821798103e-01 -2.548464451846754741e+00
1.333333333333333259e+00 -4.571368016037540283e-01 -2.448553773108581133e+00
1.350000000000000089e+00 -4.170814277785604429e-01 -2.283904383608257316e+00
1.366666666666666696e+00 -3.810066554834787844e-01 -2.023768407935770952e+00
1.383333333333333304e+00 -3.496224808473680778e-01 -1.749455328315648872e+00
1.399999999999999911e+00 -3.226914778729571553e-01 -1.600088718385638265e+00
1.416666666666666741e+00 -2.962861902345134690e-01 -1.559497229462405432e+00
1.433333333333333348e+00 -2.707082368908769743e-01 -1.489976239618356013e+00
1.449999999999999956e+00 -2.466203155805682667e-01 -1.385130154511643230e+00
1.466666666666666563e+00 -2.245372317404888685e-01 -1.311698355855449583e+00
1.483333333333333393e+00 -2.028970370520532807e-01 -1.272461333274720552e+00
1.500000000000000000e+00 -1.821218539646648482e-01 -1.207567351738201955e+00
1.516666666666666607e+00 -1.626447919941132192e-01 -1.136356624914850455e+00
1.533333333333333215e+00 -1.442432998008364997e-01 -1.113360642061162809e+00
1.550000000000000044e+00 -1.255327705920744608e-01 -1.122767004870088625e+00
1.566666666666666652e+00 -1.068177329718335428e-01 -1.122241705543762347e+00
1.583333333333333259e+00 -8.812471374061571494e-02 -1.094795191894161190e+00
1.600000000000000089e+00 -7.032455990869483642e-02 -1.044775904518815635e+00
1.616666666666666696e+00 -5.329885025665519194e-02 -9.782744671977393613e-01
1.633333333333333304e+00 -3.771541100210352299e-02 -8.669413658434991232e-01
1.649999999999999911e+00 -2.440080472853855403e-02 -7.149279691166194883e-01
1.666666666666666741e+00 -1.388447869821620752e-02 -5.738384117123991324e-01
1.683333333333333348e+00 -5.272857671458583764e-03 -5.026673254562857851e-01
1.699999999999999956e+00 2.871098816993318363e-03 -4.802515900489279232e-01
1.716666666666666563e+00 1.073552866350568208e-02 -4.460322435482494963e-01
1.733333333333333393e+00 1.773884026860163624e-02 -3.948758126431670679e-01
1.750000000000000000e+00 2.389805575161125031e-02 -3.470225912127012369e-01
1.766666666666666607e+00 2.930625997569167793e-02 -2.904252636034327373e-01
1.783333333333333215e+00 3.357889787172567420e-02 -2.150150818230356087e-01
1.800000000000000044e+00 3.647342936979286465e-02 -1.374443459688404201e-01
1.816666666666666652e+00 3.816037607068702153e-02 -7.651208486609772930e-02
1.833333333333333259e+00 3.902383219866278896e-02 -2.611964898111641953e-02
1.849999999999999867e+00 3.903103103672423552e-02 2.598052862037181221e-02
1.866666666666666696e+00 3.815781457798372855e-02 8.444171215217399773e-02
1.883333333333333304e+00 3.621630729831843559e-02 1.438175724276177236e-01
1.899999999999999911e+00 3.336389549706313823e-02 1.959049271094400746e-01
1.916666666666666741e+00 2.968614306133710024e-02 2.480845341056299169e-01
1.933333333333333348e+00 2.509441102687547456e-02 6.996088841306136175e-01
1.949999999999999956e+00 6.365846923649980810e-03 7.281118418467538156e-01
1.966666666666666563e+00 8.240162986503467551e-04 1.886527968983418846e-01
1.983333333333333393e+00 7.742036037191765121e-05 2.472048895951040395e-02
2.000000000000000000e+00 0.000000000000000000e+00 4.645221622315059452e-03
