0.000000000000000000e+00 3.565382291800926032e+04 3.012353035144041060e+05
1.666666666666666644e-02 3.063323452610252571e+04 2.801377404311191058e+05
3.333333333333333287e-02 2.631589823697195607e+04 2.408898429591839958e+05
5.000000000000000278e-02 2.260357309412972609e+04 2.071252627819859481e+05
6.666666666666666574e-02 1.941172281090575780e+04 1.780790326583619753e+05
8.333333333333332871e-02 1.666760533885099358e+04 1.530928247973829566e+05
1.000000000000000056e-01 1.430862865099299233e+04 1.316000906472781207e+05
1.166666666666666685e-01 1.228093565060838955e+04 1.131132710402335651e+05
1.333333333333333315e-01 1.053818628298520707e+04 9.721278827669624297e+04
1.499999999999999944e-01 9.040509374718514664e+03 8.353757190926284238e+04
1.666666666666666574e-01 7.753600552676445659e+03 7.177690456624211220e+04
1.833333333333333204e-01 6.647945889177110985e+03 6.166340391809821449e+04
2.000000000000000111e-01 5.698153755406505297e+03 5.296698250720106444e+04
2.166666666666666741e-01 4.882379805603742170e+03 4.548964921013689309e+04
2.333333333333333370e-01 4.181832115068608800e+03 3.906103507927346800e+04
2.500000000000000000e-01 3.580345302961293328e+03 3.353454264422773122e+04
2.666666666666666630e-01 3.064014026927684426e+03 2.878403181251376009e+04
2.833333333333333259e-01 2.620877575877501386e+03 2.470096760894288309e+04
2.999999999999999889e-01 2.240648439962921657e+03 2.119196540806522898e+04
3.166666666666666519e-01 1.914478728941993722e+03 1.817667827788725117e+04
3.333333333333333148e-01 1.634759164033346678e+03 1.558597876836157411e+04
3.499999999999999778e-01 1.394946103329941252e+03 1.336039411865877810e+04
3.666666666666666408e-01 1.189412693411387409e+03 1.144875957270387698e+04
3.833333333333333037e-01 1.013320784239812042e+03 9.807059411750271465e+03
4.000000000000000222e-01 8.625107130197117158e+02 8.397429546775674680e+03
4.166666666666666852e-01 7.334064660139562193e+02 7.187299157681869474e+03
4.333333333333333481e-01 6.229340744303160591e+02 6.148652002814376829e+03
4.500000000000000111e-01 5.284513992534770068e+02 5.257390721911736364e+03
4.666666666666666741e-01 4.476877170332581954e+02 4.492789779115696547e+03
4.833333333333333370e-01 3.786917399496204553e+02 3.837024692502330254e+03
5.000000000000000000e-01 3.197868939498471832e+02 3.274766917827273119e+03
5.166666666666666075e-01 2.695328426887113551e+02 2.792835235622012078e+03
5.333333333333333259e-01 2.266923860957801082e+02 2.379895765836279679e+03
5.500000000000000444e-01 1.902029838275020381e+02 2.026203831644163529e+03
5.666666666666666519e-01 1.591522583743079906e+02 1.723381838563943802e+03
5.833333333333333703e-01 1.327569225420372447e+02 1.464228147982432574e+03
5.999999999999999778e-01 1.103446534415602400e+02 1.242552623855525781e+03
6.166666666666666963e-01 9.133850174685305490e+01 1.442986485340329637e+03
6.333333333333333037e-01 6.224510393021591881e+01 1.601752743446763816e+03
6.500000000000000222e-01 3.794674363196092770e+01 8.190656240410207829e+02
6.666666666666666297e-01 3.494291646218189129e+01 2.609218374170504831e+02
6.833333333333333481e-01 2.924934905139257779e+01 3.335298583845140001e+02
6.999999999999999556e-01 2.382525451603142486e+01 3.064833718070804025e+02
7.166666666666666741e-01 1.903323665782323104e+01 2.678077243539278243e+02
7.333333333333332815e-01 1.489833037090049750e+01 2.294460661828622108e+02
7.500000000000000000e-01 1.138503445172782413e+01 1.941503816329463348e+02
7.666666666666666075e-01 8.426650983135619555e+00 1.629085274941892578e+02
7.833333333333333259e-01 5.954750201921515718e+00 1.356264088862519941e+02
8.000000000000000444e-01 3.905770686927219959e+00 1.120546732754120569e+02
8.166666666666666519e-01 2.219594426074447124e+00 9.204588424959665360e+01
8.333333333333333703e-01 8.375745452739977726e-01 7.527576423631205671e+01
8.499999999999999778e-01 -2.895977151359545587e-01 6.114307986804833916e+01
8.666666666666666963e-01 -1.200528116994280303e+00 4.912143548924881031e+01
8.833333333333333037e-01 -1.926978898110914828e+00 3.884700443762556432e+01
9.000000000000000222e-01 -2.495428264915132477e+00 3.012859685164448820e+01
9.166666666666666297e-01 -2.931265459832397724e+00 2.285601930027328876e+01
9.333333333333333481e-01 -3.257295574924242043e+00 1.689852811611691052e+01
9.499999999999999556e-01 -3.494549730369628016e+00 1.201947138717626906e+01
9.666666666666666741e-01 -3.657944621163450982e+00 7.940034919830298854e+00
9.833333333333332815e-01 -3.759217561030637977e+00 4.412691552276197804e+00
1.000000000000000000e+00 -3.805034339572657576e+00 1.333535389487296996e+00
1.016666666666666607e+00 -3.803668740680214544e+00 -1.278251484989252340e+00
1.033333333333333215e+00 -3.762425956739682498e+00 -3.337405316978259151e+00
1.050000000000000044e+00 -3.692421896780939239e+00 -4.785346116830035967e+00
1.066666666666666652e+00 -3.602914419512014632e+00 -5.717022119160173332e+00
1.083333333333333259e+00 -3.501854492808933461e+00 -6.392203797102808949e+00
1.100000000000000089e+00 -3.389840959608587667e+00 -6.963553484195594834e+00
1.116666666666666696e+00 -3.269736043335746967e+00 -7.420160370578705589e+00
1.133333333333333304e+00 -3.142502280589297481e+00 -7.714280174100216492e+00
1.149999999999999911e+00 -3.012593370865739750e+00 -7.779250186777284526e+00
1.166666666666666741e+00 -2.883193941030054663e+00 -7.593032865189832670e+00
1.183333333333333348e+00 -2.759492275359411995e+00 -7.275013333031550289e+00
1.199999999999999956e+00 -2.640693496595669654e+00 -7.044975006492326663e+00
1.216666666666666563e+00 -2.524659775143001106e+00 -7.101282575944001252e+00
1.233333333333333393e+00 -2.403984077397536279e+00 -7.476737826381021357e+00
1.250000000000000000e+00 -2.275435180930300394e+00 -7.988155620293078130e+00
1.266666666666666607e+00 -2.137712223387767008e+00 -8.407355248345060872e+00
1.283333333333333215e+00 -1.995190005985465032e+00 -8.589596156756806877e+00
1.300000000000000044e+00 -1.851392351495873445e+00 -8.492968508222878299e+00
1.316666666666666652e+00 -1.712091055711369103e+00 -8.135949266779679334e+00
1.333333333333333259e+00 -1.580194042603217497e+00 -7.594545857321646665e+00
1.350000000000000089e+00 -1.458939527133980896e+00 -6.973149769172142243e+00
1.366666666666666696e+00 -1.347755716964146089e+00 -6.399074664159856596e+00
1.383333333333333304e+00 -1.245637038328652357e+00 -5.949283481547427144e+00
1.399999999999999911e+00 -1.149446267579231851e+00 -5.608686113313772204e+00
1.416666666666666741e+00 -1.058680834551526617e+00 -5.288187413543394833e+00
1.433333333333333348e+00 -9.731733537944520229e-01 -4.902731251434108373e+00
1.449999999999999956e+00 -8.952564595037230122e-01 -4.392187805231166031e+00
1.466666666666666563e+00 -8.267670936200798293e-01 -3.781857542162247121e+00
1.483333333333333393e+00 -7.691945414316481155e-01 -3.166447217131841629e+00
1.500000000000000000e+00 -7.212188530490184490e-01 -2.686917462512895760e+00
1.516666666666666607e+00 -6.796306260145515976e-01 -2.425594147297820413e+00
1.533333333333333215e+00 -6.403657148057577686e-01 -2.360649348574450634e+00
1.550000000000000044e+00 -6.009423143954032431e-01 -2.400928069039121038e+00
1.566666666666666652e+00 -5.603347791711204007e-01 -2.463544538847122212e+00
1.583333333333333259e+00 -5.188241631004991694e-01 -2.490844044119027600e+00
1.600000000000000089e+00 -4.773066443671528103e-01 -2.465937744002209442e+00
1.616666666666666696e+00 -4.366262383004255176e-01 -2.400570677831537658e+00
1.633333333333333304e+00 -3.972876217727682180e-01 -2.331843324959863128e+00
1.649999999999999911e+00 -3.588981274684300837e-01 -2.284965119168010261e+00
1.666666666666666741e+00 -3.211221178005012056e-01 -2.257775448116180694e+00
1.683333333333333348e+00 -2.836389458645574013e-01 -2.223179387737512780e+00
1.699999999999999956e+00 -2.470161382092507796e-01 -2.140890644555244471e+00
1.716666666666666563e+00 -2.122759243793825856e-01 -1.995035157127596825e+00
1.733333333333333393e+00 -1.805149663049975539e-01 -1.802421365087695460e+00
1.750000000000000000e+00 -1.521952122097927351e-01 -1.581002472636483080e+00
1.766666666666666607e+00 -1.278148838837814549e-01 -1.342246389610489254e+00
1.783333333333333215e+00 -1.074536658894430924e-01 -1.113916047161654044e+00
1.800000000000000044e+00 -9.068434897839298958e-02 -9.179637619320178965e-01
1.816666666666666652e+00 -7.685487382504249676e-02 -7.587785694893872668e-01
1.833333333333333259e+00 -6.539172999541341402e-02 -6.311593304567603147e-01
1.849999999999999867e+00 -5.581622947648381960e-02 -5.313527053943492007e-01
1.866666666666666696e+00 -4.767997314893510780e-02 -4.564378903877426841e-01
1.883333333333333304e+00 -4.060163313022573106e-02 -4.059678586026976288e-01
1.899999999999999911e+00 -3.414771119551185397e-02 -3.775577036557627442e-01
1.916666666666666741e+00 -2.801637634170030602e-02 -3.661650246919040952e-01
1.933333333333333348e+00 -2.194221037244838482e-02 -8.166805709254797430e-01
1.949999999999999956e+00 -7.936906441843130959e-04 -6.555536142098367103e-01
1.966666666666666563e+00 -9.042323212049561997e-05 -2.360161734424336133e-02
1.983333333333333393e+00 -6.970066042867673273e-06 -2.712696963614868572e-03
2.000000000000000000e+00 0.000000000000000000e+00 -4.182039625720603828e-04
