0	468213	272707
0.0166667	463668	529130
0.0333333	450575	998527
0.05	430384	1.36729e+06
0.0666667	404999	1.62292e+06
0.0833333	376286	1.77839e+06
0.1	345720	1.86058e+06
0.116667	314267	1.89764e+06
0.133333	282465	1.91059e+06
0.15	250580	1.91051e+06
0.166667	218781	1.89918e+06
0.183333	187274	1.871e+06
0.2	156415	1.81527e+06
0.216667	126765	1.71967e+06
0.233333	99092.3	1.57516e+06
0.25	74260	1.38128e+06
0.266667	53049.8	1.14914e+06
0.283333	35955.5	900158
0.3	23044.5	660255
0.316667	13947	452035
0.333333	7976.64	288725
0.35	4322.81	172651
0.366667	2221.62	98578.2
0.383333	1036.87	52166.3
0.4	482.743	24660.6
0.416667	214.847	11758
0.433333	90.8106	5395.66
0.45	34.9915	2409.01
0.466667	10.5101	1040.23
0.483333	0.317237	420.237
0.5	-3.49777	148.407
0.516667	-4.62965	37.3491
0.533333	-4.74274	-3.28973
0.55	-4.51999	-16.3503
0.566667	-4.19773	-20.2079
0.583333	-3.8464	-21.1414
0.6	-3.49302	-20.6148
0.616667	-3.15924	-18.6745
0.633333	-2.87054	-15.2328
0.65	-2.65148	-10.7397
0.666667	-2.51254	-6.45179
0.683333	-2.43642	-3.65373
0.7	-2.39075	-2.44636
0.716667	-2.35487	-2.08246
0.733333	-2.32134	-2.21458
0.75	-2.28105	-3.17154
0.766667	-2.21562	-5.12835
0.783333	-2.11011	-7.51461
0.8	-1.96513	-9.55645
0.816667	-1.79156	-11.0193
0.833333	-1.59782	-12.2087
0.85	-1.3846	-13.4167
0.866667	-1.1506	-14.5709
0.883333	-0.898907	-15.4073
0.9	-0.637021	-15.7706
0.916667	-0.373222	-15.6918
0.933333	-0.113961	-15.2783
0.95	0.136056	-14.5789
0.966667	0.372002	-13.6283
0.983333	0.590334	-12.6244
1	0.792814	-11.7859
1.01667	0.983197	-11.0584
1.03333	1.16143	-10.1425
1.05	1.32128	-8.75795
1.06667	1.45336	-6.88997
1.08333	1.55094	-4.73676
1.1	1.61125	-2.52383
1.11667	1.63507	-0.453242
1.13333	1.62636	1.31286
1.15	1.59131	2.71906
1.16667	1.53572	3.8249
1.18333	1.46381	4.74066
1.2	1.3777	5.59662
1.21667	1.27726	6.49616
1.23333	1.16116	7.46238
1.25	1.02851	8.35872
1.26667	0.882538	8.91285
1.28333	0.731419	8.91119
1.3	0.585498	8.36565
1.31667	0.452564	7.49125
1.33333	0.33579	6.53639
1.35	0.234684	5.65904
1.36667	0.147155	4.92165
1.38333	0.0706295	4.33131
1.4	0.00277831	3.82656
1.41667	-0.0569224	3.2884
1.43333	-0.106835	2.63772
1.45	-0.144846	1.92307
1.46667	-0.170937	1.28946
1.48333	-0.187828	0.848471
1.5	-0.19922	0.589864
1.51667	-0.20749	0.412713
1.53333	-0.212977	0.246971
1.55	-0.215723	0.119233
1.56667	-0.216951	0.0696721
1.58333	-0.218045	0.0259198
1.6	-0.217815	-0.185822
1.61667	-0.211851	-0.64052
1.63333	-0.196464	-1.16374
1.65	-0.17306	-1.48368
1.66667	-0.147008	-1.50699
1.68333	-0.122827	-1.36212
1.7	-0.101605	-1.19958
1.71667	-0.0828409	-1.02986
1.73333	-0.0672757	-0.798896
1.75	-0.056211	-0.544743
1.76667	-0.0491176	-0.378456
1.78333	-0.0435958	-0.355545
1.8	-0.0372661	-0.425522
1.81667	-0.0294117	-0.492832
1.83333	-0.0208383	-0.502017
1.85	-0.0126778	-0.463419
1.86667	-0.00539103	-0.414039
1.88333	0.00112346	-0.365259
1.9	0.00678426	-0.293917
1.91667	0.0109207	-0.183765
1.93333	0.0129098	-0.0646388
1.95	0.0130753	0.00840383
1.96667	0.0126296	0.00871993
1.98333	0.0127847	-0.0404452
2	0.0139778	-0.07159
