0	2.8892e+08	2.41222e+09
0.0166667	2.48716e+08	2.41222e+09
0.0333333	2.08512e+08	2.41222e+09
0.05	1.68309e+08	2.41222e+09
0.0666667	1.28105e+08	2.41222e+09
0.0833333	8.79012e+07	2.41222e+09
0.1	4.76975e+07	2.41222e+09
0.116667	7.49387e+06	1.38574e+09
0.133333	1.50636e+06	2.13862e+08
0.15	365147	4.21173e+07
0.166667	102453	9.98548e+06
0.183333	32297.7	2.73836e+06
0.2	11174.1	845496
0.216667	4114.48	289749
0.233333	1515.75	107192
0.25	541.418	41073
0.266667	146.655	15389.9
0.283333	28.4214	4084.38
0.3	10.5086	128.219
0.316667	24.1474	-475.49
0.333333	26.3582	21.6331
0.35	23.4263	184.664
0.366667	20.2028	179.626
0.383333	17.4388	141.529
0.4	15.4851	85.7644
0.416667	14.58	42.9347
0.433333	14.054	49.4996
0.45	12.93	85.149
0.466667	11.2157	98.5957
0.483333	9.64348	75.003
0.5	8.71559	41.1539
0.516667	8.27168	27.1774
0.533333	7.80967	35.6507
0.55	7.08333	44.7048
0.566667	6.31951	38.5956
0.583333	5.79681	25.5008
0.6	5.46948	19.5199
0.616667	5.14614	21.9284
0.633333	4.73854	24.8957
0.65	4.31629	23.6553
0.666667	3.95003	20.9
0.683333	3.61962	20.536
0.7	3.26549	22.8863
0.716667	2.85674	25.3923
0.733333	2.41908	24.8403
0.75	2.02873	19.7684
0.766667	1.76013	12.518
0.783333	1.61146	7.94717
0.8	1.49523	7.97012
0.816667	1.34579	8.20693
0.833333	1.22166	4.04437
0.85	1.21098	-1.86617
0.866667	1.28387	-2.576
0.883333	1.29685	4.29941
0.9	1.14056	13.1409
0.916667	0.858818	16.1203
0.933333	0.603213	11.0259
0.95	0.49129	2.41746
0.966667	0.522631	-2.96127
0.983333	0.589999	-1.39797
1	0.56923	4.33525
1.01667	0.445491	8.12881
1.03333	0.298269	7.13322
1.05	0.207717	3.26954
1.06667	0.189285	0.355995
1.08333	0.19585	-0.142302
1.1	0.194028	0.340365
1.11667	0.184505	1.06682
1.13333	0.158467	2.85537
1.15	0.0893256	5.46533
1.16667	-0.0237104	7.01442
1.18333	-0.144488	5.99669
1.2	-0.2236	2.95402
1.21667	-0.242956	0.102539
1.23333	-0.227018	-0.997006
1.25	-0.209722	-0.0599443
1.26667	-0.22502	2.39126
1.28333	-0.289431	4.8434
1.3	-0.386466	5.62893
1.31667	-0.477062	4.26027
1.33333	-0.528475	2.00236
1.35	-0.543807	0.819576
1.36667	-0.555794	1.4104
1.38333	-0.59082	2.70395
1.4	-0.645926	2.98488
1.41667	-0.690317	1.52142
1.43333	-0.69664	-0.459291
1.45	-0.675007	-1.37304
1.46667	-0.650872	-1.352
1.48333	-0.62994	-1.52725
1.5	-0.599964	-1.98021
1.51667	-0.563933	-1.6173
1.53333	-0.546054	-0.245088
1.55	-0.555763	0.693082
1.56667	-0.569156	0.111304
1.58333	-0.559474	-1.10871
1.6	-0.532199	-1.44638
1.61667	-0.511261	-0.809098
1.63333	-0.50523	-0.433943
1.65	-0.496796	-1.24438
1.66667	-0.46375	-2.66331
1.68333	-0.408019	-3.26939
1.7	-0.354771	-2.42834
1.71667	-0.327075	-0.958861
1.73333	-0.322809	-0.234121
1.75	-0.319271	-0.595939
1.76667	-0.302944	-0.940945
1.78333	-0.287906	-0.23335
1.8	-0.295166	0.946411
1.81667	-0.319453	1.15449
1.83333	-0.333649	-0.00550751
1.85	-0.319269	-1.54931
1.86667	-0.282005	-2.4429
1.88333	-0.237839	-2.60033
1.9	-0.195327	-2.46893
1.91667	-0.155542	-2.3398
1.93333	-0.117334	-2.24503
1.95	-0.080707	-2.07933
1.96667	-0.048023	-1.77175
1.98333	-0.0216486	-1.44069
2	0	-1.29891
