0.000000000000000000e+00 nan nan
1.666666666666666644e-02 6.169251570300651562e+13 nan
3.333333333333333287e-02 2.409847173944464417e+11 1.850493394122796250e+15
5.000000000000000278e-02 9.402565579977251053e+09 7.201304260391958984e+12
6.666666666666666574e-02 9.412420480478088856e+08 2.773403497578262329e+11
8.333333333333332871e-02 1.578872547163765132e+08 2.713601756885311508e+10
1.000000000000000056e-01 3.670812908603837341e+07 4.415926458163324356e+09
1.166666666666666685e-01 1.068970611093237810e+07 9.911380117745440006e+08
1.333333333333333315e-01 3.670195360220237635e+06 2.778270676121010184e+08
1.499999999999999944e-01 1.428803857195678167e+06 9.168370346176791191e+07
1.666666666666666574e-01 6.140719114946406335e+05 3.428857626333973557e+07
1.833333333333333204e-01 2.858513150843537296e+05 1.415912473500204645e+07
2.000000000000000111e-01 1.421010869945724553e+05 6.336652847959979437e+06
2.166666666666666741e-01 7.462955348568774934e+04 3.031220782301523257e+06
2.333333333333333370e-01 4.106039425118835061e+04 1.533649045291946735e+06
2.500000000000000000e-01 2.350791864262285526e+04 8.139533497279463336e+05
2.666666666666666630e-01 1.392861592692347403e+04 4.501681272831772221e+05
2.833333333333333259e-01 8.502314399850281916e+03 2.580619548922009999e+05
2.999999999999999889e-01 5.326550763850106705e+03 1.526599502351305564e+05
3.166666666666666519e-01 3.413649392012596763e+03 9.284711289537363336e+04
3.333333333333333148e-01 2.231647000670985562e+03 5.787462444542858429e+04
3.499999999999999778e-01 1.484495243831644075e+03 3.687327953575146967e+04
3.666666666666666408e-01 1.002537682812603066e+03 2.395633505970261467e+04
3.833333333333333037e-01 6.859507418415569191e+02 1.583867334765028136e+04
4.000000000000000222e-01 4.745819045575937025e+02 1.063680531354047707e+04
4.166666666666666852e-01 3.313905647235410470e+02 7.608646554717030085e+03
4.333333333333333481e-01 2.209603527336927016e+02 6.966241835394870577e+03
4.500000000000000111e-01 9.918250354371203059e+01 4.936090315552959510e+03
4.666666666666666741e-01 5.642400888192739217e+01 1.731300909624080987e+03
4.833333333333333370e-01 4.147247322290932914e+01 6.470511798925293760e+02
5.000000000000000000e-01 3.485563621884308105e+01 3.589429911708969598e+02
5.166666666666666075e-01 2.950770685054609643e+01 3.157391732448747916e+02
5.333333333333333259e-01 2.433099711068058824e+01 2.825294657999117476e+02
5.500000000000000444e-01 2.009005799054903818e+01 2.261722330015711009e+02
5.666666666666666519e-01 1.679192267729488464e+01 1.852447358465024365e+02
5.833333333333333703e-01 1.391523346233229042e+01 1.536707084388552289e+02
5.999999999999999778e-01 1.166956572933304415e+01 1.252975176628010843e+02
6.166666666666666963e-01 9.738649540238920821e+00 1.002642372705339824e+02
6.333333333333333037e-01 8.327424486981911400e+00 7.863765994512193913e+01
6.500000000000000222e-01 7.117394208734856065e+00 6.980692115445252455e+01
6.666666666666666297e-01 6.000527115166827130e+00 6.671496754536978813e+01
6.833333333333333481e-01 4.893561957222529735e+00 6.509752009391661431e+01
6.999999999999999556e-01 3.830609778702939838e+00 5.583941676392820597e+01
7.166666666666666741e-01 3.032248065091589506e+00 4.640970257785224362e+01
7.333333333333332815e-01 2.283619692774531806e+00 4.079297536879190034e+01
7.500000000000000000e-01 1.672482219465192932e+00 3.156351455848884058e+01
7.666666666666666075e-01 1.231502540824903846e+00 2.285313178572503645e+01
7.833333333333333259e-01 9.107111599410250280e-01 1.821028473835922767e+01
8.000000000000000444e-01 6.244930495462629461e-01 1.738271552351734073e+01
8.166666666666666519e-01 3.312873091571137407e-01 1.560961686313995855e+01
8.333333333333333703e-01 1.041724874415976831e-01 1.093475779664129632e+01
8.499999999999999778e-01 -3.320461739759612840e-02 7.482007139716268185e+00
8.666666666666666963e-01 -1.452277505489445730e-01 9.916444442587460273e+00
8.833333333333333037e-01 -3.637527654838447755e-01 1.125190643383838385e+01
9.000000000000000222e-01 -5.202912983435573624e-01 1.200342457750331349e+01
9.166666666666666297e-01 -7.638669180672885695e-01 1.089751426214882102e+01
9.333333333333333481e-01 -8.835417737485180556e-01 8.600032946366306774e+00
9.499999999999999556e-01 -1.050534682946165477e+00 8.413797059612404539e+00
9.666666666666666741e-01 -1.164001675735598207e+00 6.237401794395934118e+00
9.833333333333332815e-01 -1.258448076092696599e+00 6.911730647305209807e+00
1.000000000000000000e+00 -1.394392697312438534e+00 6.984371357409687064e+00
1.016666666666666607e+00 -1.491260454673019487e+00 7.538498007762564512e+00
1.033333333333333215e+00 -1.645675964237857336e+00 1.032015210676815720e+01
1.050000000000000044e+00 -1.835265524898624712e+00 1.076237663894027641e+01
1.066666666666666652e+00 -2.004421852202533216e+00 8.003797204920921615e+00
1.083333333333333259e+00 -2.102058765062655432e+00 5.629630355254433560e+00
1.100000000000000089e+00 -2.192076197377681002e+00 2.584715965048816066e+00
1.116666666666666696e+00 -2.188215963897615968e+00 -2.940159904476828956e+00
1.133333333333333304e+00 -2.094070867228453370e+00 -8.037259080337918249e+00
1.149999999999999911e+00 -1.920307327886352056e+00 -1.144332940101848806e+01
1.166666666666666741e+00 -1.712626553861170464e+00 -1.058673859433940834e+01
1.183333333333333348e+00 -1.567416041408371763e+00 -9.362163022617806973e+00
1.199999999999999956e+00 -1.400554453107243580e+00 -9.027937742217215344e+00
1.216666666666666563e+00 -1.266484783334464570e+00 -5.586608851831316613e+00
1.233333333333333393e+00 -1.214334158046199708e+00 -3.665369962523352676e+00
1.250000000000000000e+00 -1.144305784583686147e+00 8.030051991615994034e-01
1.266666666666666607e+00 -1.241100998018253021e+00 5.239443012111997255e+00
1.283333333333333215e+00 -1.318953884987419389e+00 7.751844673303520672e+00
1.300000000000000044e+00 -1.499495820461703710e+00 9.809507011527527354e+00
1.316666666666666652e+00 -1.645937452038336968e+00 9.571209537686167224e+00
1.333333333333333259e+00 -1.818536138384575951e+00 9.150403695172736107e+00
1.350000000000000089e+00 -1.950950908544094808e+00 5.959846185897335502e+00
1.366666666666666696e+00 -2.017197677914487119e+00 4.172505775274029105e+00
1.383333333333333304e+00 -2.090034434386562445e+00 2.167980765479957661e+00
1.399999999999999911e+00 -2.089463703430485708e+00 6.767084488109142981e-01
1.416666666666666741e+00 -2.112591382680259589e+00 -3.473267626039833189e-01
1.433333333333333348e+00 -2.077886144677019598e+00 -1.066962398704638382e+00
1.449999999999999956e+00 -2.077025969390104976e+00 -1.645645967550342093e+00
1.466666666666666563e+00 -2.023031279092008194e+00 -3.051708920528530822e+00
1.483333333333333393e+00 -1.975302338705820615e+00 -3.336776959314431412e+00
1.500000000000000000e+00 -1.911805380448193814e+00 -4.156131164349909923e+00
1.516666666666666607e+00 -1.836764633227490284e+00 -4.634356679306179672e+00
1.533333333333333215e+00 -1.757326824471321158e+00 -5.058848998848886502e+00
1.550000000000000044e+00 -1.668136333265860749e+00 -5.829696979400365464e+00
1.566666666666666652e+00 -1.563003591824642324e+00 -6.298997650184896990e+00
1.583333333333333259e+00 -1.458169744926364197e+00 -6.039747290629744469e+00
1.600000000000000089e+00 -1.361678682136984175e+00 -5.015427182769705006e+00
1.616666666666666696e+00 -1.290988838834040697e+00 -4.734831652258238321e+00
1.633333333333333304e+00 -1.203850960395042913e+00 -4.757746884231424112e+00
1.649999999999999911e+00 -1.132397276026326560e+00 -4.050276154230270542e+00
1.666666666666666741e+00 -1.068841755254033909e+00 -3.622509889330844945e+00
1.683333333333333348e+00 -1.011646946381965062e+00 -4.123573627452497448e+00
1.699999999999999956e+00 -9.313893010056173427e-01 -4.289490778186165088e+00
1.716666666666666563e+00 -8.686639204424262406e-01 -3.142978086057356624e+00
1.733333333333333393e+00 -8.266233648037054627e-01 -2.410167173930273243e+00
1.750000000000000000e+00 -7.883250146447504658e-01 -2.651541740265871638e+00
1.766666666666666607e+00 -7.382386401281764154e-01 -3.059814488205063743e+00
1.783333333333333215e+00 -6.863311983712483411e-01 -2.868084899136471577e+00
1.800000000000000044e+00 -6.426358101569606962e-01 -2.474488513131980483e+00
1.816666666666666652e+00 -6.038482479335156583e-01 -2.539802807854214528e+00
1.833333333333333259e+00 -5.579757165618202119e-01 -2.499031942736460454e+00
1.849999999999999867e+00 -5.205471831756336432e-01 -2.499815711693021303e+00
1.866666666666666696e+00 -4.746485261720528315e-01 -2.787992701155277420e+00
1.883333333333333304e+00 -4.276140931371243958e-01 -2.929650052015829953e+00
1.899999999999999911e+00 -3.769935244381918404e-01 -2.694733180595363820e+00
1.916666666666666741e+00 -3.377896537839455982e-01 -2.514426037239400280e+00
1.933333333333333348e+00 -2.931793231968785052e-01 -9.658185215001381607e+00
1.949999999999999956e+00 -1.585014661723289572e-02 -8.728687412236828536e+00
1.966666666666666563e+00 -2.223076122317527679e-03 -4.691106128670873288e-01
1.983333333333333393e+00 -2.131261883299857807e-04 -6.669228366952582865e-02
2.000000000000000000e+00 0.000000000000000000e+00 -1.278757129979914663e-02
