0.000000000000000000e+00 nan nan
1.666666666666666644e-02 1.548146721629254451e+19 nan
3.333333333333333287e-02 3.779655043827543500e+15 4.644431425555228918e+20
5.000000000000000278e-02 2.913110844792025781e+13 1.133619683124272480e+17
6.666666666666666574e-02 9.227667466355789795e+11 8.720308955236663750e+14
8.333333333333332871e-02 6.341193046471131134e+10 2.746964136347296484e+13
1.000000000000000056e-01 7.112034519813422203e+09 1.868803575622552490e+12
1.166666666666666685e-01 1.118477943959567785e+09 2.066027704222057800e+11
1.333333333333333315e-01 2.252755057398969531e+08 3.191001900369592667e+10
1.499999999999999944e-01 5.481064383637028188e+07 6.293895810335094452e+09
1.666666666666666574e-01 1.547897872872713767e+07 1.496375278934772253e+09
1.833333333333333204e-01 4.931467871877874248e+06 4.123038763212565184e+08
2.000000000000000111e-01 1.735516184685253538e+06 1.280246449016954601e+08
2.166666666666666741e-01 6.639797084880257025e+05 4.388326838369753212e+07
2.333333333333333370e-01 2.727405718953358009e+05 1.634631425422046147e+07
2.500000000000000000e-01 1.191025666806769732e+05 6.536630289686316624e+06
2.666666666666666630e-01 5.485289557245858305e+04 2.779008360531594604e+06
2.833333333333333259e-01 2.646895466295715960e+04 1.246302339143540477e+06
2.999999999999999889e-01 1.330948426767390083e+04 5.858145543846332002e+05
3.166666666666666519e-01 6.941802850136052257e+03 2.870613307018901105e+05
3.333333333333333148e-01 3.740773244277562753e+03 1.459849046311485872e+05
3.499999999999999778e-01 2.075639362431099926e+03 7.675218229653609160e+04
3.666666666666666408e-01 1.182367167726359412e+03 4.158012065580749913e+04
3.833333333333333037e-01 6.896353405708500759e+02 2.314423779887170167e+04
4.000000000000000222e-01 4.108925744306360457e+02 1.320274344172440033e+04
4.166666666666666852e-01 2.495438925133700536e+02 7.627563856418280920e+03
4.333333333333333481e-01 1.566404458833600302e+02 3.925686838538164011e+03
4.500000000000000111e-01 1.186876645620979218e+02 1.707034764319206261e+03
4.666666666666666741e-01 9.973928707271981864e+01 1.117645978648462687e+03
4.833333333333333370e-01 8.143279860714916651e+01 9.641453865224214042e+02
5.000000000000000000e-01 6.760110752197243755e+01 7.405519362923367908e+02
5.166666666666666075e-01 5.674773406407127396e+01 5.988888613119256661e+02
5.333333333333333259e-01 4.763814547824158296e+01 5.069252145322382148e+02
5.500000000000000444e-01 3.985022691299666775e+01 4.357697159366306892e+02
5.666666666666666519e-01 3.311248828035389380e+01 3.800924720172095590e+02
5.833333333333333703e-01 2.718047784575635006e+01 3.310022389586517875e+02
5.999999999999999778e-01 2.207908031506550017e+01 2.855230703647588939e+02
6.166666666666666963e-01 1.766304216693105289e+01 2.481281283363983334e+02
6.333333333333333037e-01 1.380814270385222287e+01 2.139195848546337118e+02
6.500000000000000222e-01 1.053238933844326297e+01 1.817550151137891987e+02
6.666666666666666297e-01 7.749642200059249753e+00 1.548937009560257252e+02
6.833333333333333481e-01 5.369265973242405288e+00 1.316424664435187140e+02
6.999999999999999556e-01 3.361559985275292650e+00 1.132953925400990016e+02
7.166666666666666741e-01 1.592752888572438463e+00 9.500780044415944303e+01
7.333333333333332815e-01 1.946333038033114526e-01 7.787090413514123100e+01
7.500000000000000000e-01 -1.002943915932268837e+00 6.195809443106610104e+01
7.666666666666666075e-01 -1.870636510565558686e+00 4.614387429917440642e+01
7.833333333333333259e-01 -2.541073059238082354e+00 3.429723314712784088e+01
8.000000000000000444e-01 -3.013877615469819915e+00 2.329760561655506379e+01
8.166666666666666519e-01 -3.317659913123251147e+00 1.602461268745018330e+01
8.333333333333333703e-01 -3.548031371718159299e+00 9.721354806144640648e+00
8.499999999999999778e-01 -3.641705073328072473e+00 3.088983735627324201e+00
8.666666666666666963e-01 -3.650997496239070106e+00 -2.740392751706468566e+00
8.833333333333333037e-01 -3.550358648271190187e+00 -7.261393261139859057e+00
9.000000000000000222e-01 -3.408951054201074804e+00 -9.528847644715767728e+00
9.166666666666666297e-01 -3.232730393447331263e+00 -1.271901721283129838e+01
9.333333333333333481e-01 -2.984983813773364858e+00 -1.330795289260728076e+01
9.499999999999999556e-01 -2.789131963693755267e+00 -1.253767436443117589e+01
9.666666666666666741e-01 -2.567061334958992358e+00 -1.265161284187533930e+01
9.833333333333332815e-01 -2.367411535631243957e+00 -1.415750038686848100e+01
1.000000000000000000e+00 -2.095144655396709688e+00 -1.359875972987820880e+01
1.016666666666666607e+00 -1.914119544635303649e+00 -1.054697360360522040e+01
1.033333333333333215e+00 -1.743578868609868993e+00 -9.520653740352789995e+00
1.050000000000000044e+00 -1.596764419956877346e+00 -9.588860749191052690e+00
1.066666666666666652e+00 -1.423950176970167236e+00 -1.045461223786663219e+01
1.083333333333333259e+00 -1.248277345361322954e+00 -9.674612430512910421e+00
1.100000000000000089e+00 -1.101463095953070237e+00 -8.927147005904451760e+00
1.116666666666666696e+00 -9.507057784978412140e-01 -8.116200108033051919e+00
1.133333333333333304e+00 -8.309230923519684842e-01 -6.482367618042675694e+00
1.149999999999999911e+00 -7.346268578964186835e-01 -5.248934098518689417e+00
1.166666666666666741e+00 -6.559586224013455036e-01 -4.207205723495724747e+00
1.183333333333333348e+00 -5.943866671132278512e-01 -2.679916918156752814e+00
1.199999999999999956e+00 -5.666280584627870764e-01 -9.126798430250482319e-01
1.216666666666666563e+00 -5.639640056790595768e-01 -3.311067308895765393e-01
1.233333333333333393e+00 -5.555911674331345251e-01 -1.986799442242659364e-01
1.250000000000000000e+00 -5.573413408715840456e-01 -2.877365417994659502e-02
1.266666666666666607e+00 -5.546320456271363053e-01 3.289644255805235229e-01
1.283333333333333215e+00 -5.683068217242681630e-01 6.641475659710527335e-01
1.300000000000000044e+00 -5.767702978261713964e-01 1.303219748494297558e+00
1.316666666666666652e+00 -6.117474800074114150e-01 2.318373187526176160e+00
1.333333333333333259e+00 -6.540494040770439277e-01 2.028226454885516894e+00
1.350000000000000089e+00 -6.793550285035953040e-01 1.093308781427856369e+00
1.366666666666666696e+00 -6.904930301246391400e-01 4.627926585755659517e-01
1.383333333333333304e+00 -6.947814504561141691e-01 3.580384740178854663e-01
1.399999999999999911e+00 -7.024276459252353222e-01 -5.866080072387647171e-02
1.416666666666666741e+00 -6.928260904319849534e-01 -5.457736997663842349e-01
1.433333333333333348e+00 -6.842351892663558477e-01 -8.413864312938812429e-01
1.449999999999999956e+00 -6.647798760555222453e-01 -1.208924140479381570e+00
1.466666666666666563e+00 -6.439377179170431287e-01 -1.730382411866555614e+00
1.483333333333333393e+00 -6.071004623266370581e-01 -2.156527879720388174e+00
1.500000000000000000e+00 -5.720534552596968636e-01 -1.701883170641994569e+00
1.516666666666666607e+00 -5.503710233052372391e-01 -1.632605816761643069e+00
1.533333333333333215e+00 -5.176332613676420946e-01 -1.759849034564235470e+00
1.550000000000000044e+00 -4.917093888197627272e-01 -1.897024645237278540e+00
1.566666666666666652e+00 -4.543991065263994766e-01 -1.773745384589181073e+00
1.583333333333333259e+00 -4.325845426667900284e-01 -1.621261892411786754e+00
1.600000000000000089e+00 -4.003570434460065885e-01 -1.908703417357757726e+00
1.616666666666666696e+00 -3.689610954215314376e-01 -2.077828849154844892e+00
1.633333333333333304e+00 -3.310960818075117662e-01 -2.217293704942350896e+00
1.649999999999999911e+00 -2.950513052567864114e-01 -2.221055556849357959e+00
1.666666666666666741e+00 -2.570608965791998379e-01 -2.268103866869157326e+00
1.683333333333333348e+00 -2.194478430278145042e-01 -1.969366120208271065e+00
1.699999999999999956e+00 -1.914153592389241376e-01 -1.589338226783971741e+00
1.716666666666666563e+00 -1.664699021350154462e-01 -1.144625393101981414e+00
1.733333333333333393e+00 -1.532611794688580886e-01 -1.060598581423291886e+00
1.750000000000000000e+00 -1.311166160875723852e-01 -1.180703805677252083e+00
1.766666666666666607e+00 -1.139043859462830210e-01 -1.188133353070040865e+00
1.783333333333333215e+00 -9.151217098523768689e-02 -1.152879528570002421e+00
1.800000000000000044e+00 -7.547506832728294313e-02 -9.735164534503969458e-01
1.816666666666666652e+00 -5.906162253689112296e-02 -8.281526029442508596e-01
1.833333333333333259e+00 -4.786998156247457975e-02 -6.517013504679659563e-01
1.849999999999999867e+00 -3.733824418795892580e-02 -5.854117883979005343e-01
1.866666666666666696e+00 -2.835625528254456101e-02 -5.276485455218858922e-01
1.883333333333333304e+00 -1.974995933722939467e-02 -4.537088954304321353e-01
1.899999999999999911e+00 -1.323262543486349030e-02 -3.132391868839874971e-01
1.916666666666666741e+00 -9.308653107763145695e-03 -2.037057529081051643e-01
1.933333333333333348e+00 -6.442433671259985110e-03 -2.570851100837043823e-01
1.949999999999999956e+00 -7.391494383063336449e-04 -1.923247310672876464e-01
1.966666666666666563e+00 -3.160930235039657253e-05 -2.209071142966350168e-02
1.983333333333333393e+00 -2.792390650883689894e-06 -9.482790705118972164e-04
2.000000000000000000e+00 0.000000000000000000e+00 -1.675434390530214021e-04
