0.000000000000000000e+00 9.638616709755806369e+02 2.441635058202634809e+03
1.666666666666666644e-02 9.231677533388700567e+02 2.441635058202634809e+03
3.333333333333333287e-02 8.824738357021594766e+02 2.441635058202634809e+03
5.000000000000000278e-02 8.417799180654488964e+02 2.441635058202631626e+03
6.666666666666666574e-02 8.010860004287384299e+02 2.441635058202631626e+03
8.333333333333332871e-02 7.603920827920278498e+02 2.441635058202634809e+03
1.000000000000000056e-01 7.196981651553172696e+02 2.441635058202634809e+03
1.166666666666666685e-01 6.790042475186066895e+02 2.441635058202634809e+03
1.333333333333333315e-01 6.383103298818961093e+02 2.441635058202631626e+03
1.499999999999999944e-01 5.976164122451856429e+02 2.441635058202631626e+03
1.666666666666666574e-01 5.569224946084750627e+02 2.441635058202634809e+03
1.833333333333333204e-01 5.162285769717644826e+02 2.441635058202634809e+03
2.000000000000000111e-01 4.755346593350539024e+02 2.441635058202634809e+03
2.166666666666666741e-01 4.348407416983433222e+02 2.441635058202632990e+03
2.333333333333333370e-01 3.941468240616327989e+02 2.441635058202631626e+03
2.500000000000000000e-01 3.534529064249222756e+02 2.441635058202632990e+03
2.666666666666666630e-01 3.127589887882116955e+02 2.441635058202632990e+03
2.833333333333333259e-01 2.720650711515011722e+02 2.441635058202632081e+03
2.999999999999999889e-01 2.313711535147906204e+02 2.441635058202632990e+03
3.166666666666666519e-01 1.906772358780800687e+02 2.441635058202632990e+03
3.333333333333333148e-01 1.499833182413695170e+02 1.740951532558783128e+03
3.499999999999999778e-01 1.326455181261206349e+02 1.549980021426340954e+03
3.666666666666666408e-01 9.831731752715815276e+01 1.821357243581905550e+03
3.833333333333333037e-01 7.193361000672378225e+01 1.531299955505413209e+03
4.000000000000000222e-01 4.727398567697771625e+01 1.087536513362348614e+03
4.166666666666666852e-01 3.568239289464549557e+01 6.387432463409518277e+02
4.333333333333333481e-01 2.598254413227932247e+01 5.335779819274952160e+02
4.500000000000000111e-01 1.789646016372898885e+01 4.368980618172111008e+02
4.666666666666666741e-01 1.141927540503895244e+01 3.243349098002347546e+02
4.833333333333333370e-01 7.085296503721163930e+00 2.083834775182854173e+02
5.000000000000000000e-01 4.473159487762772279e+00 1.225883937768736303e+02
5.166666666666666075e-01 2.999016711158710269e+00 6.195779192114225253e+01
5.333333333333333259e-01 2.407899757058030499e+00 2.902422167673767461e+01
5.500000000000000444e-01 2.031542655267454478e+00 1.241541401612334994e+01
5.666666666666666519e-01 1.994052623187252182e+00 1.241823832377731840e+01
5.833333333333333703e-01 1.617601377808210561e+00 2.577871471937398340e+01
5.999999999999999778e-01 1.134762132541452750e+00 2.976483990903067678e+01
6.166666666666666963e-01 6.254400475071879573e-01 3.411453903671507248e+01
6.333333333333333037e-01 -2.389168682382918074e-03 3.927249033246664567e+01
6.500000000000000222e-01 -6.836429635750335132e-01 4.047013025223793647e+01
6.666666666666666297e-01 -1.351393510423647415e+00 3.709992171720241316e+01
6.833333333333333481e-01 -1.920307020815114063e+00 3.523974327625956704e+01
6.999999999999999556e-01 -2.526051619632299516e+00 3.650359919172532130e+01
7.166666666666666741e-01 -3.137093660539291395e+00 2.980810121943667923e+01
7.333333333333332815e-01 -3.519654993613522187e+00 1.992773554838045413e+01
7.500000000000000000e-01 -3.801351512151973200e+00 1.367952532151378797e+01
7.666666666666666075e-01 -3.975639170997315119e+00 1.276251797409117295e+01
7.833333333333333259e-01 -4.226768777955012268e+00 9.359221590581245920e+00
8.000000000000000444e-01 -4.287613224016689983e+00 -8.464904383512372732e-01
8.166666666666666519e-01 -4.198552430009971026e+00 -1.027228363272691958e+01
8.333333333333333703e-01 -3.945203769592459331e+00 -1.503310383800988781e+01
8.499999999999999778e-01 -3.697448968742974795e+00 -1.499092198564348699e+01
8.666666666666666963e-01 -3.445506370071009794e+00 -1.656723209562240839e+01
8.833333333333333037e-01 -3.145207898888894515e+00 -1.988404981723833131e+01
9.000000000000000222e-01 -2.782704709496398809e+00 -2.217249868790833744e+01
9.166666666666666297e-01 -2.406124609291949934e+00 -2.168952426696629487e+01
9.333333333333333481e-01 -2.059720567264188951e+00 -1.866187991378768274e+01
9.499999999999999556e-01 -1.784061945499027191e+00 -1.448123708300698453e+01
9.666666666666666741e-01 -1.577012664497289496e+00 -1.255591808413649701e+01
9.833333333333332815e-01 -1.365531342694477290e+00 -1.087603298750602754e+01
1.000000000000000000e+00 -1.214478231580421896e+00 -7.831212544082124971e+00
1.016666666666666607e+00 -1.104490924558406473e+00 -5.576121210023350372e+00
1.033333333333333215e+00 -1.028607524579643551e+00 -8.235375961108168497e+00
1.050000000000000044e+00 -8.299783925214675451e-01 -1.064841432308386793e+01
1.066666666666666652e+00 -6.736603804768479531e-01 -9.271165786570520595e+00
1.083333333333333259e+00 -5.209395329691168808e-01 -6.447691957995181689e+00
1.100000000000000089e+00 -4.587373152103418894e-01 -4.735349364077693579e+00
1.116666666666666696e+00 -3.630945541665270837e-01 -3.596763002860876579e+00
1.133333333333333304e+00 -3.388452151149793368e-01 6.229677314580794878e-02
1.149999999999999911e+00 -3.651711132713873487e-01 2.151638480411782073e+00
1.166666666666666741e+00 -4.105664977953720762e-01 2.577038348976552040e+00
1.183333333333333348e+00 -4.510723915706057463e-01 2.506416525735423395e+00
1.199999999999999956e+00 -4.941137153198861820e-01 5.285132803188799855e+00
1.216666666666666563e+00 -6.272434850102324155e-01 6.843455378779995435e+00
1.233333333333333393e+00 -7.222288946125526854e-01 7.275434636960913970e+00
1.250000000000000000e+00 -8.697579729089295331e-01 6.232040736968524897e+00
1.266666666666666607e+00 -9.299635858448368486e-01 6.322190842355741580e+00
1.283333333333333215e+00 -1.080497667654120919e+00 7.931834218718859297e+00
1.300000000000000044e+00 -1.194358059802132166e+00 9.810167768321054638e+00
1.316666666666666652e+00 -1.407503259931489392e+00 1.293491906808252701e+01
1.333333333333333259e+00 -1.625522028738216385e+00 1.232165471738532148e+01
1.350000000000000089e+00 -1.818225083844333456e+00 9.979772010332261800e+00
1.366666666666666696e+00 -1.958181095749291778e+00 6.670221727198100581e+00
1.383333333333333304e+00 -2.040565808084270127e+00 5.536891065951095037e+00
1.399999999999999911e+00 -2.142744131280994946e+00 3.462920938939366700e+00
1.416666666666666741e+00 -2.155996506048915684e+00 4.764894010803688573e-01
1.433333333333333348e+00 -2.158627111317007241e+00 -1.956972700123804643e+00
1.449999999999999956e+00 -2.090764082711455529e+00 -2.773527256052585876e+00
1.466666666666666563e+00 -2.066176202781921045e+00 -3.793694935952112157e+00
1.483333333333333393e+00 -1.964307584846385124e+00 -4.855040915501498411e+00
1.500000000000000000e+00 -1.904341505598537765e+00 -3.970411237355544465e+00
1.516666666666666607e+00 -1.831960543601200309e+00 -3.656645642202671631e+00
1.533333333333333215e+00 -1.782453317525115377e+00 -3.612899987639162092e+00
1.550000000000000044e+00 -1.711530544013228239e+00 -5.001580217848489163e+00
1.566666666666666652e+00 -1.615733976930165738e+00 -5.186457556941357794e+00
1.583333333333333259e+00 -1.538648625448516327e+00 -4.868978416053100666e+00
1.600000000000000089e+00 -1.453434696395062398e+00 -4.808610849467358506e+00
1.616666666666666696e+00 -1.378361597132937710e+00 -5.532616784072373228e+00
1.633333333333333304e+00 -1.269014136925983305e+00 -5.937164226005420709e+00
1.649999999999999911e+00 -1.180456122932757035e+00 -5.634538633369825966e+00
1.666666666666666741e+00 -1.081196182480322454e+00 -5.408963869291152804e+00
1.683333333333333348e+00 -1.000157327289718623e+00 -5.070577197016246984e+00
1.699999999999999956e+00 -9.121769425797808806e-01 -4.217443548834656220e+00
1.716666666666666563e+00 -8.595758756618967489e-01 -2.679119689321658448e+00
1.733333333333333393e+00 -8.228729529357255990e-01 -1.865293082553167725e+00
1.750000000000000000e+00 -7.973994395767911580e-01 -2.214206799098901168e+00
1.766666666666666607e+00 -7.490660596324288933e-01 -2.336593426559804509e+00
1.783333333333333215e+00 -7.195129920247976818e-01 -1.702835409669034572e+00
1.800000000000000044e+00 -6.923048793101277409e-01 -1.438562978998537689e+00
1.816666666666666652e+00 -6.715608927248464255e-01 -1.594458511161086500e+00
1.833333333333333259e+00 -6.391562622714248576e-01 -1.992512414154361533e+00
1.849999999999999867e+00 -6.051438122530343744e-01 -2.100603037526599604e+00
1.866666666666666696e+00 -5.691361610205382116e-01 -2.328963987373705802e+00
1.883333333333333304e+00 -5.275116793405775217e-01 -2.823255285880327481e+00
1.899999999999999911e+00 -4.750276514911939696e-01 -3.245988182797157506e+00
1.916666666666666741e+00 -4.193120732473389345e-01 -3.635891380220599878e+00
1.933333333333333348e+00 -3.538312721505073033e-01 -1.199267603723654574e+01
1.949999999999999956e+00 -1.955620533945406220e-02 -1.054204375398090399e+01
1.966666666666666563e+00 -2.429813684477197862e-03 -5.796171094010670322e-01
1.983333333333333393e+00 -2.356350260851588162e-04 -7.289441053431593154e-02
2.000000000000000000e+00 0.000000000000000000e+00 -1.413810156510952876e-02
