0	7.02761e+09	1.63037e+10
0.0166667	6.75588e+09	3.01493e+10
0.0333333	6.02263e+09	5.23063e+10
0.05	5.01234e+09	6.36516e+10
0.0666667	3.90091e+09	6.6086e+10
0.0833333	2.80947e+09	6.21336e+10
0.1	1.82979e+09	5.2867e+10
0.116667	1.04724e+09	3.94689e+10
0.133333	5.14159e+08	2.49628e+10
0.15	2.15143e+08	1.30239e+10
0.166667	8.00294e+07	5.55268e+09
0.183333	3.00537e+07	2.01641e+09
0.2	1.28158e+07	7.21297e+08
0.216667	6.01046e+06	2.93392e+08
0.233333	3.03607e+06	1.31472e+08
0.25	1.62808e+06	6.35669e+07
0.266667	917173	3.2686e+07
0.283333	538547	1.76869e+07
0.3	327611	9.99203e+06
0.316667	205479	5.85745e+06
0.333333	132363	3.54566e+06
0.35	87290.5	2.20759e+06
0.366667	58776.5	1.40914e+06
0.383333	40319.1	919564
0.4	28124.3	612136
0.416667	19914.6	414912
0.433333	14293.9	285842
0.45	10386.5	199858
0.466667	7632	141635
0.483333	5665.36	101616
0.5	4244.81	73730.9
0.516667	3207.66	54058
0.533333	2442.88	40018.7
0.55	1873.71	29893.4
0.566667	1446.43	22519.3
0.583333	1123.06	17100.1
0.6	876.432	13083.7
0.616667	686.94	10083.3
0.633333	540.323	7826.15
0.65	426.069	6122.09
0.666667	336.253	5217.71
0.683333	252.145	5259.5
0.7	160.936	4436.08
0.716667	104.276	2759.11
0.733333	68.9662	1679.17
0.75	48.3034	985.717
0.766667	36.109	620.214
0.783333	27.6296	436.406
0.8	21.5621	317.46
0.816667	17.0476	239.066
0.833333	13.5933	184.912
0.85	10.8839	147.389
0.866667	8.68031	122.293
0.883333	6.80745	105.676
0.9	5.15777	93.5279
0.916667	3.68985	82.7128
0.933333	2.40068	72.1786
0.95	1.2839	62.7235
0.966667	0.309894	55.3847
0.983333	-0.56226	50.0805
1	-1.35946	45.569
1.01667	-2.08123	40.6898
1.03333	-2.71578	35.4005
1.05	-3.26125	30.377
1.06667	-3.72835	26.0274
1.08333	-4.12883	22.1888
1.1	-4.46797	18.6266
1.11667	-4.74971	15.4464
1.13333	-4.98285	12.7918
1.15	-5.1761	10.3765
1.16667	-5.32874	7.73365
1.18333	-5.43389	4.76378
1.2	-5.48753	1.7911
1.21667	-5.49359	-0.805855
1.23333	-5.46067	-2.89875
1.25	-5.39697	-4.51342
1.26667	-5.31022	-5.72658
1.28333	-5.20608	-6.76351
1.3	-5.08477	-7.93776
1.31667	-4.94149	-9.35266
1.33333	-4.77301	-10.7307
1.35	-4.5838	-11.6138
1.36667	-4.38589	-11.7808
1.38333	-4.19111	-11.4978
1.4	-4.00262	-11.3031
1.41667	-3.81434	-11.484
1.43333	-3.61982	-11.7768
1.45	-3.42178	-11.6982
1.46667	-3.22988	-11.1168
1.48333	-3.05122	-10.3218
1.5	-2.88582	-9.59953
1.51667	-2.73124	-8.9725
1.53333	-2.58674	-8.36753
1.55	-2.45232	-7.81717
1.56667	-2.32617	-7.42555
1.58333	-2.2048	-7.22634
1.6	-2.08529	-7.15231
1.61667	-1.96639	-7.10976
1.63333	-1.8483	-7.04261
1.65	-1.73164	-6.95546
1.66667	-1.61645	-6.85837
1.68333	-1.50302	-6.70108
1.7	-1.39308	-6.42041
1.71667	-1.28901	-6.04744
1.73333	-1.1915	-5.70649
1.75	-1.09879	-5.46885
1.76667	-1.0092	-5.27073
1.78333	-0.923102	-5.03561
1.8	-0.841351	-4.80391
1.81667	-0.762972	-4.66638
1.83333	-0.685805	-4.62438
1.85	-0.608826	-4.58885
1.86667	-0.532843	-4.49093
1.88333	-0.459128	-4.34085
1.9	-0.388148	-4.18274
1.91667	-0.319703	-4.04595
1.93333	-0.253283	-3.92853
1.95	-0.188752	-3.76651
1.96667	-0.127733	-3.42416
1.98333	-0.0746134	-3.83199
2	0	-4.4768
