0	3.02754e+08	7.02401e+08
0.0166667	2.91048e+08	1.2989e+09
0.0333333	2.59458e+08	2.25347e+09
0.05	2.15932e+08	2.74226e+09
0.0666667	1.68049e+08	2.84713e+09
0.0833333	1.21027e+08	2.67684e+09
0.1	7.8821e+07	2.27759e+09
0.116667	4.51078e+07	1.70033e+09
0.133333	2.21432e+07	1.07535e+09
0.15	9.26265e+06	5.60996e+08
0.166667	3.44331e+06	2.39133e+08
0.183333	1.29157e+06	8.68038e+07
0.2	549853	3.1028e+07
0.216667	257299	1.26079e+07
0.233333	129589	5.64206e+06
0.25	69230.5	2.72317e+06
0.266667	38816.6	1.39714e+06
0.283333	22659.2	753927
0.3	13685.7	424489
0.316667	8509.6	247890
0.333333	5422.7	149339
0.35	3531.63	92512.3
0.366667	2338.95	58811.2
0.383333	1571.25	38184.8
0.4	1066.12	25696.9
0.416667	714.688	18877.6
0.433333	436.87	13606.5
0.45	261.138	8922.13
0.466667	139.466	5835.11
0.483333	66.6346	3093.3
0.5	36.3557	1447.53
0.516667	18.3834	842.077
0.533333	8.28651	467.494
0.55	2.80027	251.837
0.566667	-0.108046	132.88
0.583333	-1.62908	70.1189
0.6	-2.44534	38.9996
0.616667	-2.92907	24.9162
0.633333	-3.27588	19.4648
0.65	-3.5779	17.4764
0.666667	-3.85843	15.8981
0.683333	-4.10783	13.7152
0.7	-4.3156	11.2845
0.716667	-4.48398	9.05709
0.733333	-4.61751	6.67558
0.75	-4.7065	3.2511
0.766667	-4.72588	-1.4753
0.783333	-4.65733	-6.44087
0.8	-4.51118	-10.0728
0.816667	-4.32157	-11.7459
0.833333	-4.11965	-12.2537
0.85	-3.91311	-12.7793
0.866667	-3.69367	-13.5932
0.883333	-3.46	-14.0675
0.9	-3.22476	-13.7284
0.916667	-3.00239	-12.8113
0.933333	-2.79771	-11.8609
0.95	-2.60702	-11.1784
0.966667	-2.4251	-10.8281
0.983333	-2.24609	-10.8368
1	-2.06388	-11.169
1.01667	-1.87379	-11.6532
1.03333	-1.67544	-12.0721
1.05	-1.47138	-12.3282
1.06667	-1.2645	-12.3733
1.08333	-1.05894	-12.0961
1.1	-0.861293	-11.4507
1.11667	-0.677249	-10.6109
1.13333	-0.507596	-9.86179
1.15	-0.348523	-9.41197
1.16667	-0.193864	-9.26789
1.18333	-0.0395932	-9.18578
1.2	0.112329	-8.77041
1.21667	0.252754	-7.76108
1.23333	0.371031	-6.39246
1.25	0.465836	-5.25291
1.26667	0.546128	-4.60921
1.28333	0.619476	-4.12111
1.3	0.683499	-3.32028
1.31667	0.730152	-2.24942
1.33333	0.758479	-1.42881
1.35	0.777779	-1.16094
1.36667	0.797177	-1.16057
1.38333	0.816465	-0.930801
1.4	0.828204	-0.304884
1.41667	0.826627	0.444493
1.43333	0.813387	0.959666
1.45	0.794639	1.12218
1.46667	0.775981	1.01348
1.48333	0.760856	0.810235
1.5	0.748973	0.771543
1.51667	0.735138	1.13389
1.53333	0.711177	1.87877
1.55	0.672512	2.6365
1.56667	0.623294	3.00321
1.58333	0.572405	2.93117
1.6	0.525588	2.70528
1.61667	0.482229	2.58483
1.63333	0.439427	2.54776
1.65	0.397303	2.39911
1.66667	0.359457	2.0429
1.68333	0.329207	1.59665
1.7	0.306235	1.27517
1.71667	0.286701	1.19598
1.73333	0.266369	1.29565
1.75	0.243513	1.42848
1.76667	0.218754	1.49902
1.78333	0.193546	1.48575
1.8	0.169229	1.39887
1.81667	0.146917	1.25217
1.83333	0.127489	1.07611
1.85	0.111046	0.914003
1.86667	0.0970227	0.788972
1.88333	0.0847473	0.70251
1.9	0.0736057	0.661507
1.91667	0.0626971	0.677675
1.93333	0.0510165	0.733973
1.95	0.0382313	0.776937
1.96667	0.0251186	0.755999
1.98333	0.0130313	0.753559
2	0	0.78188
