0	1.13625e+08	1.58963e+08
0.0166667	1.10975e+08	3.07377e+08
0.0333333	1.03379e+08	5.74822e+08
0.05	9.18146e+07	7.70754e+08
0.0666667	7.7687e+07	8.77821e+08
0.0833333	6.25539e+07	8.94875e+08
0.1	4.78578e+07	8.35015e+08
0.116667	3.472e+07	7.20858e+08
0.133333	2.38292e+07	5.78641e+08
0.15	1.5432e+07	4.32694e+08
0.166667	9.40612e+06	3.01422e+08
0.183333	5.3846e+06	1.95425e+08
0.2	2.89195e+06	1.17778e+08
0.216667	1.45869e+06	6.59314e+07
0.233333	694241	3.43056e+07
0.25	315165	1.66512e+07
0.266667	139199	7.60605e+06
0.283333	61630.2	3.32596e+06
0.3	28334	1.43164e+06
0.316667	13909	629350
0.333333	7355.69	292603
0.35	4155.54	146533
0.366667	2471.25	78869.1
0.383333	1526.57	45069.3
0.4	968.942	27092
0.416667	623.504	16843.1
0.433333	407.504	10982.5
0.45	257.422	7001
0.466667	174.138	4062.31
0.483333	122.011	2531.91
0.5	89.7409	1590.95
0.516667	68.9797	1054.39
0.533333	54.5946	753.521
0.55	43.8623	575.729
0.566667	35.4036	461.075
0.583333	28.4932	379.503
0.6	22.7535	315.701
0.616667	17.9698	262.841
0.633333	13.9921	218.316
0.65	10.6926	181.054
0.666667	7.95699	150.129
0.683333	5.68832	124.412
0.7	3.80994	102.732
0.716667	2.26392	84.0778
0.733333	1.00735	67.6567
0.75	0.00870145	52.9385
0.766667	-0.757268	39.7859
0.783333	-1.3175	28.4472
0.8	-1.70551	19.1979
0.816667	-1.95742	11.9528
0.833333	-2.10394	6.27851
0.85	-2.16671	1.75071
0.866667	-2.16229	-1.79561
0.883333	-2.10685	-4.40354
0.9	-2.01551	-6.23659
0.916667	-1.89897	-7.57647
0.933333	-1.76296	-8.62682
0.95	-1.61141	-9.40512
0.966667	-1.44946	-9.85467
0.983333	-1.28292	-10.0123
1	-1.11571	-10.0398
1.01667	-0.948259	-10.1333
1.03333	-0.777935	-10.4001
1.05	-0.601589	-10.7878
1.06667	-0.418343	-11.1265
1.08333	-0.230707	-11.2256
1.1	-0.0441572	-10.944
1.11667	0.134093	-10.2171
1.13333	0.296414	-9.06403
1.15	0.436228	-7.61979
1.16667	0.550407	-6.12612
1.18333	0.640432	-4.80748
1.2	0.710656	-3.7393
1.21667	0.765075	-2.83411
1.23333	0.805126	-1.95561
1.25	0.830262	-1.05103
1.26667	0.840161	-0.180206
1.28333	0.836269	0.561152
1.3	0.821456	1.1314
1.31667	0.798555	1.55788
1.33333	0.769526	1.8791
1.35	0.735919	2.10412
1.36667	0.699389	2.24218
1.38333	0.661179	2.33273
1.4	0.621631	2.41154
1.41667	0.580795	2.4604
1.43333	0.539618	2.41841
1.45	0.500181	2.24858
1.46667	0.464665	1.97661
1.48333	0.434294	1.67304
1.5	0.408897	1.41067
1.51667	0.387272	1.22788
1.53333	0.367968	1.11879
1.55	0.349979	1.05081
1.56667	0.332941	0.991061
1.58333	0.316943	0.916684
1.6	0.302385	0.813877
1.61667	0.289814	0.683103
1.63333	0.279615	0.544853
1.65	0.271652	0.428602
1.66667	0.265328	0.353396
1.68333	0.259872	0.324079
1.7	0.254526	0.335251
1.71667	0.248697	0.371618
1.73333	0.242138	0.411153
1.75	0.234992	0.440992
1.76667	0.227439	0.470466
1.78333	0.21931	0.520273
1.8	0.210096	0.599951
1.81667	0.199312	0.699866
1.83333	0.186767	0.80186
1.85	0.172583	0.891483
1.86667	0.157051	0.963541
1.88333	0.140465	1.02121
1.9	0.123011	1.06944
1.91667	0.104817	1.11076
1.93333	0.0859856	1.14385
1.95	0.0666888	1.14687
1.96667	0.0477566	1.05749
1.98333	0.0314392	1.4327
2	0	1.88635
