0.000000000000000000e+00 4.210459899694777732e+02 7.585396949439666514e+02
1.666666666666666644e-02 4.084036617204116624e+02 7.585396949439666514e+02
3.333333333333333287e-02 3.957613334713455515e+02 7.585396949439666514e+02
5.000000000000000278e-02 3.831190052222794407e+02 7.585396949439666514e+02
6.666666666666666574e-02 3.704766769732133298e+02 7.585396949439666514e+02
8.333333333333332871e-02 3.578343487241472189e+02 7.585396949439666514e+02
1.000000000000000056e-01 3.451920204750811081e+02 7.585396949439666514e+02
1.166666666666666685e-01 3.325496922260149972e+02 7.585396949439649461e+02
1.333333333333333315e-01 3.199073639769489432e+02 7.585396949439666514e+02
1.499999999999999944e-01 3.072650357278827755e+02 7.585396949439666514e+02
1.666666666666666574e-01 2.946227074788167215e+02 7.585396949439666514e+02
1.833333333333333204e-01 2.819803792297505538e+02 7.585396949439683567e+02
2.000000000000000111e-01 2.693380509806844429e+02 7.585396949439649461e+02
2.166666666666666741e-01 2.566957227316183889e+02 7.585396949439658556e+02
2.333333333333333370e-01 2.440533944825522497e+02 7.585396949439675609e+02
2.500000000000000000e-01 2.314110662334861388e+02 7.585396949439666514e+02
2.666666666666666630e-01 2.187687379844200279e+02 7.585396949439666514e+02
2.833333333333333259e-01 2.061264097353539171e+02 7.585396949439666514e+02
2.999999999999999889e-01 1.934840814862878062e+02 7.585396949439658556e+02
3.166666666666666519e-01 1.808417532372217238e+02 7.585396949439658556e+02
3.333333333333333148e-01 1.681994249881556129e+02 7.585396949439666514e+02
3.499999999999999778e-01 1.555570967390895021e+02 7.585396949439666514e+02
3.666666666666666408e-01 1.429147684900233912e+02 7.585396949439666514e+02
3.833333333333333037e-01 1.302724402409572804e+02 7.585396949439675609e+02
4.000000000000000222e-01 1.176301119918911411e+02 7.585396949439675609e+02
4.166666666666666852e-01 1.049877837428250302e+02 7.585396949439666514e+02
4.333333333333333481e-01 9.234545549375891937e+01 7.585396949439661967e+02
4.500000000000000111e-01 7.970312724469282273e+01 7.585396949439661967e+02
4.666666666666666741e-01 6.706079899562671187e+01 7.585396949439664240e+02
4.833333333333333370e-01 5.441847074656060812e+01 7.585396949439661967e+02
5.000000000000000000e-01 4.177614249749450437e+01 7.585396949439650598e+02
5.166666666666666075e-01 2.913381424842843970e+01 5.956663702695748270e+02
5.333333333333333259e-01 2.192059682184201108e+01 3.716241202599616145e+02
5.500000000000000444e-01 1.674634357309638588e+01 2.746826699451805212e+02
5.666666666666666519e-01 1.276450782366932657e+01 2.154960590136718963e+02
5.833333333333333703e-01 9.563141605973989101e+00 1.747364105115062500e+02
5.999999999999999778e-01 6.939960806619118294e+00 1.431362726527310087e+02
6.166666666666666963e-01 4.791932517549621906e+00 1.168527713835844963e+02
6.333333333333333037e-01 3.044868427166301572e+00 9.561363910143505507e+01
6.500000000000000222e-01 1.604811214168453182e+00 7.997162255914649620e+01
6.666666666666666297e-01 3.791476751947517876e-01 6.862157698825478747e+01
6.833333333333333481e-01 -6.825746854400400743e-01 5.875192027036035824e+01
6.999999999999999556e-01 -1.579249667150593561e+00 4.936698558132574988e+01
7.166666666666666741e-01 -2.328140871484231766e+00 4.070295979984216217e+01
7.333333333333332815e-01 -2.936014993811999041e+00 3.237023964939150744e+01
7.500000000000000000e-01 -3.407148859797282103e+00 2.372626650958621042e+01
7.666666666666666075e-01 -3.726890544131539418e+00 1.472573321191276818e+01
7.833333333333333259e-01 -3.898006633527707709e+00 6.181961006146292625e+00
8.000000000000000444e-01 -3.932955911003082505e+00 -1.274009096883599312e+00
8.166666666666666519e-01 -3.855539663631587732e+00 -7.467132941230114618e+00
8.333333333333333703e-01 -3.684051479628745351e+00 -1.225547950437875322e+01
8.499999999999999778e-01 -3.447023680152295988e+00 -1.509275589115655158e+01
8.666666666666666963e-01 -3.180959616590193662e+00 -1.528033040914759866e+01
8.833333333333333037e-01 -2.937679333180709396e+00 -1.340446149854217062e+01
9.000000000000000222e-01 -2.734144233305454641e+00 -1.101218368580957652e+01
9.166666666666666297e-01 -2.570606543653723541e+00 -9.280847987826975398e+00
9.333333333333333481e-01 -2.424782633711222157e+00 -8.459074697141813814e+00
9.499999999999999556e-01 -2.288637387082329777e+00 -8.488323307403007334e+00
9.666666666666666741e-01 -2.141838523464455246e+00 -9.450373432670412299e+00
9.833333333333332815e-01 -1.973624939326649397e+00 -1.055076137755676591e+01
1.000000000000000000e+00 -1.790146477545896397e+00 -1.078217352347885694e+01
1.016666666666666607e+00 -1.614219155210687484e+00 -9.915995673125095777e+00
1.033333333333333215e+00 -1.459613288441726553e+00 -8.255852610642158140e+00
1.050000000000000044e+00 -1.339024068189282213e+00 -6.251504653744371254e+00
1.066666666666666652e+00 -1.251229799983580859e+00 -4.563758885110622998e+00
1.083333333333333259e+00 -1.186898772018928128e+00 -3.807623379467206526e+00
1.100000000000000089e+00 -1.124309020668007308e+00 -4.107161583008620553e+00
1.116666666666666696e+00 -1.049993385918640776e+00 -5.048011830880029471e+00
1.133333333333333304e+00 -9.560419596386730001e-01 -5.868782299547304682e+00
1.149999999999999911e+00 -8.543673092670639457e-01 -5.915586234699162560e+00
1.166666666666666741e+00 -7.588557518153675741e-01 -5.527481083202202328e+00
1.183333333333333348e+00 -6.701179398269905274e-01 -5.229921560696791261e+00
1.199999999999999956e+00 -5.845250331254745468e-01 -4.910239349094482897e+00
1.216666666666666563e+00 -5.064432948571744308e-01 -4.364328110157107865e+00
1.233333333333333393e+00 -4.390474294535709476e-01 -3.905640488356849183e+00
1.250000000000000000e+00 -3.762552785786127951e-01 -3.695516337944641627e+00
1.266666666666666607e+00 -3.158635515220828971e-01 -3.325466423348627742e+00
1.283333333333333215e+00 -2.654063978003252111e-01 -2.618667875931051992e+00
1.300000000000000044e+00 -2.285746223243811659e-01 -1.878608814773150115e+00
1.316666666666666652e+00 -2.027861039745535443e-01 -1.276959616968783573e+00
1.333333333333333259e+00 -1.860093017587550468e-01 -7.577723064749386506e-01
1.350000000000000089e+00 -1.775270270920555893e-01 -3.709028236961037228e-01
1.366666666666666696e+00 -1.736458743022182560e-01 -2.220978036302526104e-01
1.383333333333333304e+00 -1.701237669710471689e-01 -2.315564245049853143e-01
1.399999999999999911e+00 -1.659273268187187456e-01 -2.865934537456787945e-01
1.416666666666666741e+00 -1.605706518461912091e-01 -2.974057225958628981e-01
1.433333333333333348e+00 -1.560138027321899823e-01 -1.092320762068765827e-01
1.449999999999999956e+00 -1.569295826392953230e-01 1.760162696608708055e-01
1.466666666666666563e+00 -1.618810117208856758e-01 2.932431858692347015e-01
1.483333333333333393e+00 -1.667043555016031464e-01 1.906876551558775446e-01
1.500000000000000000e+00 -1.682372668927482606e-01 4.025950287994684018e-03
1.516666666666666607e+00 -1.668385538445363026e-01 -2.231372085362864910e-01
1.533333333333333215e+00 -1.607993599415387109e-01 -4.790924004911514822e-01
1.550000000000000044e+00 -1.508688071614979198e-01 -6.526260127528155097e-01
1.566666666666666652e+00 -1.390451595164448606e-01 -7.033231214454003233e-01
1.583333333333333259e+00 -1.274247031133179109e-01 -6.647412210611612915e-01
1.600000000000000089e+00 -1.168871188144061518e-01 -5.451683079548680366e-01
1.616666666666666696e+00 -1.092524261814889763e-01 -4.198722547623236490e-01
1.633333333333333304e+00 -1.028913769889953644e-01 -4.379418912230019778e-01
1.649999999999999911e+00 -9.465436314072224466e-02 -5.946887745452921203e-01
1.666666666666666741e+00 -8.306841783748562802e-02 -7.452243418789146201e-01
1.683333333333333348e+00 -6.981355174475842307e-02 -8.266754479921405441e-01
1.699999999999999956e+00 -5.551256957108094414e-02 -8.695207843531677083e-01
1.716666666666666563e+00 -4.082952559965283279e-02 -8.612883946015210679e-01
1.733333333333333393e+00 -2.680295641769690762e-02 -7.922826258225793561e-01
1.750000000000000000e+00 -1.442010473890018539e-02 -7.074142310980275905e-01
1.766666666666666607e+00 -3.222482047762654546e-03 -6.410730873198193791e-01
1.783333333333333215e+00 6.948998171760459655e-03 -5.723539576412618457e-01
1.800000000000000044e+00 1.585598320694607544e-02 -4.886831483230457129e-01
1.816666666666666652e+00 2.323843644919531756e-02 -3.807858523595565869e-01
1.833333333333333259e+00 2.854884495226462857e-02 -2.485440988078635172e-01
1.849999999999999867e+00 3.152323974279076790e-02 -1.153189816655083855e-01
1.866666666666666696e+00 3.239281100778157452e-02 4.105699380396385378e-03
1.883333333333333304e+00 3.138638309677755506e-02 1.100016682963086689e-01
1.899999999999999911e+00 2.872608873123795245e-02 1.965948805387872644e-01
1.916666666666666741e+00 2.483322041215131268e-02 2.509203141740877774e-01
1.933333333333333348e+00 2.036207825876835964e-02 5.755260142863680706e-01
1.949999999999999956e+00 5.649019935939043197e-03 5.872278265119628138e-01
1.966666666666666563e+00 7.878173750362650737e-04 1.672431265823355884e-01
1.983333333333333393e+00 7.424904986119042617e-05 2.363452125108795113e-02
2.000000000000000000e+00 0.000000000000000000e+00 4.454942991671425462e-03
