0	2.12286e+07	86.3379
0.0166667	2.12286e+07	165.282
0.0333333	2.12286e+07	304.396
0.05	2.12286e+07	402.425
0.0666667	2.12286e+07	459.596
0.0833333	2.12286e+07	486.646
0.1	2.12286e+07	496.688
0.116667	2.12285e+07	31987.1
0.133333	2.12275e+07	360316
0.15	2.12165e+07	2.05744e+06
0.166667	2.11589e+07	7.81203e+06
0.183333	2.09561e+07	2.20557e+07
0.2	2.04237e+07	4.91055e+07
0.216667	1.93193e+07	8.92917e+07
0.233333	1.74473e+07	1.35609e+08
0.25	1.4799e+07	1.74596e+08
0.266667	1.16275e+07	1.92522e+08
0.283333	8.38157e+06	1.83172e+08
0.3	5.52174e+06	1.51327e+08
0.316667	3.33733e+06	1.0935e+08
0.333333	1.87675e+06	6.98931e+07
0.35	1.00756e+06	4.02845e+07
0.366667	533930	2.16003e+07
0.383333	287548	1.12306e+07
0.4	159578	5.88799e+06
0.416667	91282	3.17887e+06
0.433333	53615.4	1.77148e+06
0.45	32232.7	1.01503e+06
0.466667	19781.1	596363
0.483333	12354	359344
0.5	7802.95	223114
0.516667	4916.82	143538
0.533333	3018.35	94954.4
0.55	1751.67	62475.4
0.566667	935.836	38902.4
0.583333	454.923	21974.2
0.6	203.363	11060.2
0.616667	86.2494	5009.62
0.633333	36.3758	2070.41
0.65	17.2357	750.94
0.666667	11.3444	226.246
0.683333	9.69422	80.8919
0.7	8.64802	64.4139
0.716667	7.54709	62.5822
0.733333	6.56195	54.8047
0.75	5.72027	49.156
0.766667	4.92342	47.1842
0.783333	4.14746	44.951
0.8	3.42505	41.086
0.816667	2.77793	36.6115
0.833333	2.20467	32.274
0.85	1.70213	28.0182
0.866667	1.27073	24.0158
0.883333	0.901605	20.8864
0.9	0.574517	18.8162
0.916667	0.274396	17.1184
0.933333	0.00390462	15.003
0.95	-0.225705	12.5153
0.966667	-0.413272	10.4018
0.983333	-0.572432	9.16578
1	-0.718798	8.54378
1.01667	-0.857225	7.91916
1.03333	-0.98277	6.99456
1.05	-1.09038	5.92735
1.06667	-1.18035	4.95149
1.08333	-1.25543	4.0707
1.1	-1.31604	3.16268
1.11667	-1.36085	2.29703
1.13333	-1.39261	1.8611
1.15	-1.42289	2.28283
1.16667	-1.4687	3.52574
1.18333	-1.54041	4.84698
1.2	-1.63027	5.22428
1.21667	-1.71455	4.23976
1.23333	-1.77159	2.56791
1.25	-1.80015	1.42432
1.26667	-1.81907	1.4319
1.28333	-1.84788	2.09218
1.3	-1.88881	2.38715
1.31667	-1.92745	1.76185
1.33333	-1.94754	0.466644
1.35	-1.94301	-0.833116
1.36667	-1.91977	-1.54538
1.38333	-1.89149	-1.39641
1.4	-1.87322	-0.577749
1.41667	-1.87224	0.220883
1.43333	-1.88058	0.182972
1.45	-1.87833	-0.957689
1.46667	-1.84866	-2.61077
1.48333	-1.79131	-3.82336
1.5	-1.72121	-4.09707
1.51667	-1.65474	-3.68706
1.53333	-1.59831	-3.18645
1.55	-1.54852	-2.97069
1.56667	-1.49929	-3.05516
1.58333	-1.44669	-3.31191
1.6	-1.38889	-3.64445
1.61667	-1.3252	-3.94947
1.63333	-1.25724	-4.04991
1.65	-1.19021	-3.79003
1.66667	-1.13091	-3.21235
1.68333	-1.08313	-2.59061
1.7	-1.04455	-2.24686
1.71667	-1.00823	-2.31659
1.73333	-0.967335	-2.66617
1.75	-0.919362	-3.00753
1.76667	-0.867084	-3.10294
1.78333	-0.81593	-2.92226
1.8	-0.769675	-2.65727
1.81667	-0.727355	-2.57099
1.83333	-0.683975	-2.77774
1.85	-0.634763	-3.14076
1.86667	-0.579284	-3.39848
1.88333	-0.521481	-3.41114
1.9	-0.465579	-3.29257
1.91667	-0.411728	-3.31481
1.93333	-0.355085	-3.65786
1.95	-0.289799	-4.15662
1.96667	-0.216532	-4.25614
1.98333	-0.147928	-3.3398
2	-0.105205	-2.5634
