0	5.47663e+06	119.048
0.0166667	5.47662e+06	220.146
0.0333333	5.47662e+06	381.934
0.05	5.47661e+06	466.524
0.0666667	5.4766e+06	495.213
0.0833333	5.47659e+06	500
0.1	5.47659e+06	500
0.116667	5.47658e+06	500
0.133333	5.47657e+06	500
0.15	5.47656e+06	500
0.166667	5.47655e+06	500
0.183333	5.47654e+06	849372
0.2	5.44824e+06	5.46245e+06
0.216667	5.29446e+06	1.74205e+07
0.233333	4.86756e+06	3.64388e+07
0.25	4.07984e+06	5.53237e+07
0.266667	3.02343e+06	6.39104e+07
0.283333	1.94949e+06	5.76502e+07
0.3	1.10176e+06	4.1418e+07
0.316667	568887	2.43834e+07
0.333333	288976	1.24939e+07
0.35	152425	6.17642e+06
0.366667	83095.7	3.17371e+06
0.383333	46634.4	1.68738e+06
0.4	26849.8	924702
0.416667	15811	520603
0.433333	9496.39	300249
0.45	5802.68	176995
0.466667	3596.57	106526
0.483333	2251.8	65720.9
0.5	1405.88	43990.6
0.516667	785.451	30579.4
0.533333	386.561	19261.4
0.55	143.403	9580.36
0.566667	67.2161	3217.76
0.583333	36.1447	1387.16
0.6	20.9775	657.239
0.616667	14.2367	290.243
0.633333	11.3027	134.607
0.65	9.7498	82.8802
0.666667	8.54005	71.8809
0.683333	7.35377	70.9743
0.7	6.17424	68.475
0.716667	5.07127	62.4423
0.733333	4.09283	55.4326
0.75	3.22352	50.5919
0.766667	2.40643	48.6963
0.783333	1.60031	47.4984
0.8	0.823153	44.4627
0.816667	0.118215	39.768
0.833333	-0.502447	35.2822
0.85	-1.05786	31.5904
0.866667	-1.55546	27.7926
0.883333	-1.98428	23.7832
0.9	-2.34823	20.5984
0.916667	-2.67089	18.418
0.933333	-2.96216	15.5983
0.95	-3.19084	10.8262
0.966667	-3.32304	5.44632
0.983333	-3.37238	2.03216
1	-3.39078	1.39374
1.01667	-3.41884	1.88847
1.03333	-3.45373	1.38762
1.05	-3.46509	-0.742509
1.06667	-3.42898	-3.26854
1.08333	-3.35614	-4.3732
1.1	-3.2832	-3.4852
1.11667	-3.23997	-2.24782
1.13333	-3.20828	-3.01473
1.15	-3.13948	-5.55263
1.16667	-3.02319	-7.05439
1.18333	-2.90433	-5.58584
1.2	-2.83699	-2.61233
1.21667	-2.81725	-1.15012
1.23333	-2.79866	-2.05619
1.25	-2.74871	-3.97506
1.26667	-2.66615	-5.5617
1.28333	-2.56332	-6.38681
1.3	-2.45326	-6.32782
1.31667	-2.3524	-5.54493
1.33333	-2.26843	-4.82062
1.35	-2.19171	-4.99224
1.36667	-2.10202	-5.87605
1.38333	-1.99584	-6.31139
1.4	-1.89164	-5.63907
1.41667	-1.80787	-4.44698
1.43333	-1.74341	-3.82951
1.45	-1.68022	-4.12656
1.46667	-1.60586	-4.7826
1.48333	-1.5208	-5.22226
1.5	-1.43178	-5.31144
1.51667	-1.34375	-5.19886
1.53333	-1.25849	-4.89947
1.55	-1.18044	-4.30363
1.56667	-1.11503	-3.57486
1.58333	-1.06128	-3.1772
1.6	-1.00913	-3.46399
1.61667	-0.945809	-4.33037
1.63333	-0.86478	-5.17904
1.65	-0.773174	-5.18831
1.66667	-0.691836	-3.95671
1.68333	-0.641284	-2.02209
1.7	-0.624433	-0.568862
1.71667	-0.622322	-0.41746
1.73333	-0.610518	-1.30688
1.75	-0.578759	-2.30841
1.76667	-0.533571	-2.74303
1.78333	-0.487325	-2.56002
1.8	-0.448237	-2.10136
1.81667	-0.41728	-1.72897
1.83333	-0.390605	-1.58857
1.85	-0.364327	-1.6075
1.86667	-0.337021	-1.66655
1.88333	-0.308775	-1.74545
1.9	-0.27884	-1.91953
1.91667	-0.244791	-2.22936
1.93333	-0.204528	-2.59636
1.95	-0.158246	-2.89763
1.96667	-0.10794	-3.07547
1.98333	-0.0557299	-3.2382
2	0	-3.34379
