0.000000000000000000e+00 6.349525158514022678e+02 8.959418423389797681e+02
1.666666666666666644e-02 6.200201518124192717e+02 8.959418423389797681e+02
3.333333333333333287e-02 6.050877877734362755e+02 8.959418423389797681e+02
5.000000000000000278e-02 5.901554237344532794e+02 8.959418423389797681e+02
6.666666666666666574e-02 5.752230596954702833e+02 8.959418423389797681e+02
8.333333333333332871e-02 5.602906956564872871e+02 8.959418423389797681e+02
1.000000000000000056e-01 5.453583316175042910e+02 8.959418423389797681e+02
1.166666666666666685e-01 5.304259675785212949e+02 8.959418423389797681e+02
1.333333333333333315e-01 5.154936035395382987e+02 8.959418423389814734e+02
1.499999999999999944e-01 5.005612395005552457e+02 8.959418423389797681e+02
1.666666666666666574e-01 4.856288754615723064e+02 8.959418423389797681e+02
1.833333333333333204e-01 4.706965114225892535e+02 8.959418423389814734e+02
2.000000000000000111e-01 4.557641473836062573e+02 8.959418423389797681e+02
2.166666666666666741e-01 4.408317833446232612e+02 8.959418423389814734e+02
2.333333333333333370e-01 4.258994193056402082e+02 8.959418423389814734e+02
2.500000000000000000e-01 4.109670552666572121e+02 8.959418423389797681e+02
2.666666666666666630e-01 3.960346912276742160e+02 8.959418423389797681e+02
2.833333333333333259e-01 3.811023271886912198e+02 8.959418423389797681e+02
2.999999999999999889e-01 3.661699631497082237e+02 8.959418423389797681e+02
3.166666666666666519e-01 3.512375991107252275e+02 8.959418423389797681e+02
3.333333333333333148e-01 3.363052350717422314e+02 8.959418423389797681e+02
3.499999999999999778e-01 3.213728710327592353e+02 8.959418423389797681e+02
3.666666666666666408e-01 3.064405069937762391e+02 8.959418423389797681e+02
3.833333333333333037e-01 2.915081429547932430e+02 8.959418423389831787e+02
4.000000000000000222e-01 2.765757789158101332e+02 8.959418423389831787e+02
4.166666666666666852e-01 2.616434148768271370e+02 8.959418423389789723e+02
4.333333333333333481e-01 2.467110508378441693e+02 8.959418423389797681e+02
4.500000000000000111e-01 2.317786867988611448e+02 8.959418423389806776e+02
4.666666666666666741e-01 2.168463227598781486e+02 8.959418423389797681e+02
4.833333333333333370e-01 2.019139587208951525e+02 8.959418423389797681e+02
5.000000000000000000e-01 1.869815946819121564e+02 8.959418423389789723e+02
5.166666666666666075e-01 1.720492306429291887e+02 8.959418423389797681e+02
5.333333333333333259e-01 1.571168666039461641e+02 8.959418423389823829e+02
5.500000000000000444e-01 1.421845025649631111e+02 8.959418423389806776e+02
5.666666666666666519e-01 1.272521385259801434e+02 8.959418423389806776e+02
5.833333333333333703e-01 1.123197744869970904e+02 8.959418423389802228e+02
5.999999999999999778e-01 9.738741044801413693e+01 8.959418423389802228e+02
6.166666666666666963e-01 8.245504640903108395e+01 8.959418423389802228e+02
6.333333333333333037e-01 6.752268237004813045e+01 8.959418423389802228e+02
6.500000000000000222e-01 5.259031833106507747e+01 8.959418423389802228e+02
6.666666666666666297e-01 3.765795429208212397e+01 6.783397030716179188e+02
6.833333333333333481e-01 2.997899489534448136e+01 3.955858444233786599e+02
6.999999999999999556e-01 2.447175947796950268e+01 2.967828772177196583e+02
7.166666666666666741e-01 2.008623232142049275e+01 2.438365412304448796e+02
7.333333333333332815e-01 1.634387477028800717e+01 2.071335176487996819e+02
7.500000000000000000e-01 1.318178173312717050e+01 1.757859523113814930e+02
7.666666666666666075e-01 1.048434302657529038e+01 1.501398511058867200e+02
7.833333333333333259e-01 8.177120029597613637e+00 1.290953497475677523e+02
8.000000000000000444e-01 6.181164701656365779e+00 1.099539355639826823e+02
8.166666666666666519e-01 4.511988844131524345e+00 9.106122130089750044e+01
8.333333333333333703e-01 3.145790658293115882e+00 7.381998757423373547e+01
8.499999999999999778e-01 2.051322591657066319e+00 5.909976664423332693e+01
8.666666666666666963e-01 1.175798436818671577e+00 4.696929995056798646e+01
8.833333333333333037e-01 4.856792599714667147e-01 3.742010734325648968e+01
9.000000000000000222e-01 -7.153847462321122341e-02 3.059593995461499816e+01
9.166666666666666297e-01 -5.341854051823664573e-01 2.610123228622487090e+01
9.333333333333333481e-01 -9.415795508307068795e-01 2.303524979531898964e+01
9.499999999999999556e-01 -1.302027065026332808e+00 2.040558913801476137e+01
9.666666666666666741e-01 -1.621765855431198888e+00 1.734065394573385177e+01
9.833333333333332815e-01 -1.880048863217461230e+00 1.347927641250996800e+01
1.000000000000000000e+00 -2.071075069181531170e+00 9.525665770319971415e+00
1.016666666666666607e+00 -2.197571055561460263e+00 5.941678057760251264e+00
1.033333333333333215e+00 -2.269131004440206212e+00 2.654261479473674079e+00
1.050000000000000044e+00 -2.286046438210582732e+00 -2.830514717021959115e-01
1.066666666666666652e+00 -2.259695955383466348e+00 -2.445297163482198499e+00
1.083333333333333259e+00 -2.204536532761176115e+00 -3.842408484645098987e+00
1.100000000000000089e+00 -2.131615672561963049e+00 -4.801763426102279020e+00
1.116666666666666696e+00 -2.044477751891100148e+00 -5.485251903664862816e+00
1.133333333333333304e+00 -1.948773942439800955e+00 -5.891408513930314506e+00
1.149999999999999911e+00 -1.848097468093423013e+00 -6.030182754821584723e+00
1.166666666666666741e+00 -1.747767850612414797e+00 -5.890511662000792903e+00
1.183333333333333348e+00 -1.651747079360063264e+00 -5.713308616526870942e+00
1.199999999999999956e+00 -1.557324230061519099e+00 -5.813079306791326673e+00
1.216666666666666563e+00 -1.457977769133685708e+00 -6.211379537704194043e+00
1.233333333333333393e+00 -1.350278245471379313e+00 -6.666951453292404572e+00
1.250000000000000000e+00 -1.235746054023938889e+00 -7.119102880009500645e+00
1.266666666666666607e+00 -1.112974816137729306e+00 -7.500930137363893913e+00
1.283333333333333215e+00 -9.857150494451424327e-01 -7.459755535518436176e+00
1.300000000000000044e+00 -8.643162982871147593e-01 -6.682166528522555105e+00
1.316666666666666652e+00 -7.629761651610572626e-01 -5.351527983541481071e+00
1.333333333333333259e+00 -6.859320321690653977e-01 -4.055419127271256308e+00
1.350000000000000089e+00 -6.277955275853487338e-01 -3.147754701656615417e+00
1.366666666666666696e+00 -5.810068754471782171e-01 -2.706470313721283105e+00
1.383333333333333304e+00 -5.375798504613059636e-01 -2.557866315706271543e+00
1.399999999999999911e+00 -4.957446649236358360e-01 -2.483121484551992886e+00
1.416666666666666741e+00 -4.548091343095728711e-01 -2.440952074504070701e+00
1.433333333333333348e+00 -4.143795957735001423e-01 -2.379331661026970135e+00
1.449999999999999956e+00 -3.754980789420072074e-01 -2.195518630259842841e+00
1.466666666666666563e+00 -3.411956414315053809e-01 -1.884802613034837870e+00
1.483333333333333393e+00 -3.126713251741792821e-01 -1.623473492531420925e+00
1.500000000000000000e+00 -2.870798583471246834e-01 -1.524027896590273157e+00
1.516666666666666607e+00 -2.618703952878368435e-01 -1.451521018763125115e+00
1.533333333333333215e+00 -2.386958243883538500e-01 -1.284875094220782055e+00
1.550000000000000044e+00 -2.190412254804774417e-01 -1.055293603154655591e+00
1.566666666666666652e+00 -2.035193709498653303e-01 -8.502811622745113374e-01
1.583333333333333259e+00 -1.906985200713270656e-01 -7.135861405989860629e-01
1.600000000000000089e+00 -1.797331662632324634e-01 -6.069494966698794070e-01
1.616666666666666696e+00 -1.704668701823310872e-01 -5.977562745311563175e-01
1.633333333333333304e+00 -1.598079571121939213e-01 -7.213221898530275400e-01
1.649999999999999911e+00 -1.464227971872301692e-01 -8.957794694520740952e-01
1.666666666666666741e+00 -1.299486414637914533e-01 -1.032445146295010385e+00
1.683333333333333348e+00 -1.120079589773964879e-01 -1.123673087754495814e+00
1.699999999999999956e+00 -9.249287187197492710e-02 -1.214196299098602161e+00
1.716666666666666563e+00 -7.153474900744308251e-02 -1.283959200306891146e+00
1.733333333333333393e+00 -4.969423186174522222e-02 -1.275756721025310680e+00
1.750000000000000000e+00 -2.900952497326605983e-02 -1.157678730107777110e+00
1.766666666666666607e+00 -1.110494085815265375e-02 -9.242145182374470469e-01
1.783333333333333215e+00 1.797625634648840603e-03 -6.351695616153566482e-01
1.800000000000000044e+00 1.006737786235923672e-02 -3.844663078839560266e-01
1.816666666666666652e+00 1.461316923078070928e-02 -2.142176468365738495e-01
1.833333333333333259e+00 1.720796609024503182e-02 -1.280070012550478531e-01
1.849999999999999867e+00 1.888006927261563772e-02 -9.816041543581961737e-02
1.866666666666666696e+00 2.047997993810568573e-02 -9.250410253953060546e-02
1.883333333333333304e+00 2.196353935726665790e-02 -6.446336269000207952e-02
1.899999999999999911e+00 2.262875869443908838e-02 -3.009460191873286616e-03
1.916666666666666741e+00 2.206385469699576746e-02 6.760715307509057581e-02
1.933333333333333348e+00 2.037518692526940275e-02 4.818836844088811855e-01
1.949999999999999956e+00 6.001065216699727478e-03 5.865488491318390230e-01
1.966666666666666563e+00 8.235586208747692994e-04 1.776363039793315002e-01
1.983333333333333393e+00 7.985508405534410626e-05 2.470675862624308050e-02
2.000000000000000000e+00 0.000000000000000000e+00 4.791305043320646592e-03
