0.00000000 419.77144396 687.25265192
0.01666667 408.31723310 687.25265192
0.03333333 396.86302223 687.25265192
0.05000000 385.40881136 687.25265192
0.06666667 373.95460050 687.25265192
0.08333333 362.50038963 687.25265192
0.10000000 351.04617877 687.25265192
0.11666667 339.59196790 687.25265192
0.13333333 328.13775704 687.25265192
0.15000000 316.68354617 687.25265192
0.16666667 305.22933531 687.25265192
0.18333333 293.77512444 687.25265192
0.20000000 282.32091358 687.25265192
0.21666667 270.86670271 687.25265192
0.23333333 259.41249185 687.25265192
0.25000000 247.95828098 687.25265192
0.26666667 236.50407011 687.25265192
0.28333333 225.04985925 687.25265192
0.30000000 213.59564838 687.25265192
0.31666667 202.14143752 687.25265192
0.33333333 190.68722665 687.25265192
0.35000000 179.23301579 687.25265192
0.36666667 167.77880492 687.25265192
0.38333333 156.32459406 687.25265192
0.40000000 144.87038319 687.25265192
0.41666667 133.41617233 687.25265192
0.43333333 121.96196146 687.25265192
0.45000000 110.50775060 687.25265192
0.46666667 99.05353973 687.25265192
0.48333333 87.59932887 687.25265192
0.50000000 76.14511800 687.25265192
0.51666667 64.69090713 687.25265192
0.53333333 53.23669627 687.25265192
0.55000000 41.78248540 687.25265192
0.56666667 30.32827454 549.58504278
0.58333333 23.46298398 360.41024915
0.60000000 18.31459957 277.81917821
0.61666667 14.20234470 224.73635474
0.63333333 10.82338774 186.45034011
0.65000000 7.98733337 157.65929227
0.66666667 5.56807800 135.61423248
0.68333333 3.46685895 118.44310809
0.70000000 1.61997440 103.80533199
0.71666667 0.00668122 89.66703507
0.73333333 -1.36892677 75.26642827
0.75000000 -2.50219972 60.65641113
0.76666667 -3.39080714 46.09591512
0.78333333 -4.03873023 32.19682170
0.80000000 -4.46403453 19.85023764
0.81666667 -4.70040482 10.11417678
0.83333333 -4.80117376 3.56608672
0.85000000 -4.81927437 0.03360120
0.86666667 -4.80229380 -1.32237584
0.88333333 -4.77519518 -1.50920934
0.90000000 -4.75198682 -1.33040740
0.91666667 -4.73084827 -1.53143490
0.93333333 -4.70093899 -2.63816604
0.95000000 -4.64290940 -4.28273987
0.96666667 -4.55818100 -5.39441148
0.98333333 -4.46309568 -5.23919202
1.00000000 -4.38354126 -4.07547530
1.01666667 -4.32724650 -2.25492159
1.03333333 -4.30837721 0.03684046
1.05000000 -4.32847452 2.43695356
1.06666667 -4.38960899 4.12539243
1.08333333 -4.46598760 4.07787457
1.10000000 -4.52553815 1.95099946
1.11666667 -4.53102092 -1.73625416
1.13333333 -4.46766301 -6.26953264
1.15000000 -4.32203649 -11.12830047
1.16666667 -4.09671966 -15.59298840
1.18333333 -3.80227021 -18.60743801
1.20000000 -3.47647172 -19.83505994
1.21666667 -3.14110155 -19.75095985
1.23333333 -2.81810640 -18.87631351
1.25000000 -2.51189110 -17.48717316
1.26666667 -2.23520062 -15.74101005
1.28333333 -1.98719076 -13.85857003
1.30000000 -1.77324829 -11.76589363
1.31666667 -1.59499431 -9.50751259
1.33333333 -1.45633120 -7.44757758
1.35000000 -1.34674172 -6.01632507
1.36666667 -1.25578703 -5.30707736
1.38333333 -1.16983915 -5.14415733
1.40000000 -1.08431512 -5.12748285
1.41666667 -0.99892305 -4.90189974
1.43333333 -0.92091847 -4.40320755
1.45000000 -0.85214947 -3.85624783
1.46666667 -0.79237687 -3.48255389
1.48333333 -0.73606434 -3.47484599
1.50000000 -0.67654867 -3.78876721
1.51666667 -0.60977210 -4.23032673
1.53333333 -0.53553778 -4.68283286
1.55000000 -0.45367767 -5.15585891
1.56666667 -0.36367582 -5.64758273
1.58333333 -0.26542491 -5.93867116
1.60000000 -0.16572011 -5.84961060
1.61666667 -0.07043789 -5.44427439
1.63333333 0.01575570 -4.92284634
1.65000000 0.09365699 -4.37945353
1.66666667 0.16173749 -3.81375118
1.68333333 0.22078203 -3.26110764
1.70000000 0.27044107 -2.73354994
1.71666667 0.31190036 -2.15378733
1.73333333 0.34223398 -1.40838285
1.75000000 0.35884646 -0.50984668
1.76666667 0.35922887 0.36275126
1.78333333 0.34675475 1.08461127
1.80000000 0.32307516 1.65396213
1.81666667 0.29162268 2.05481545
1.83333333 0.25458132 2.26360448
1.85000000 0.21616919 2.26855023
1.86666667 0.17896298 2.13529993
1.88333333 0.14499253 1.91493778
1.90000000 0.11513172 1.65185664
1.91666667 0.08993064 1.41305836
1.93333333 0.06802977 2.24715977
1.95000000 0.01502531 1.98576556
1.96666667 0.00183759 0.44607102
1.98333333 0.00015628 0.05512758
2.00000000 0.00000000 0.00937685
