0.000000000000000000e+00 3.363298125556974014e+02 4.940709521701603535e+02
1.666666666666666644e-02 3.280952966861947289e+02 4.940709521701569429e+02
3.333333333333333287e-02 3.198607808166921700e+02 4.940709521701569429e+02
5.000000000000000278e-02 3.116262649471894974e+02 4.940709521701569429e+02
6.666666666666666574e-02 3.033917490776869386e+02 4.940709521701569429e+02
8.333333333333332871e-02 2.951572332081842660e+02 4.940709521701586482e+02
1.000000000000000056e-01 2.869227173386816503e+02 4.940709521701569429e+02
1.166666666666666685e-01 2.786882014691790346e+02 4.940709521701569429e+02
1.333333333333333315e-01 2.704536855996764189e+02 4.940709521701569429e+02
1.499999999999999944e-01 2.622191697301738031e+02 4.940709521701577955e+02
1.666666666666666574e-01 2.539846538606711590e+02 4.940709521701586482e+02
1.833333333333333204e-01 2.457501379911685149e+02 4.940709521701577955e+02
2.000000000000000111e-01 2.375156221216658992e+02 4.940709521701569429e+02
2.166666666666666741e-01 2.292811062521632834e+02 4.940709521701569429e+02
2.333333333333333370e-01 2.210465903826606677e+02 4.940709521701569429e+02
2.500000000000000000e-01 2.128120745131580520e+02 4.940709521701577955e+02
2.666666666666666630e-01 2.045775586436554079e+02 4.940709521701577955e+02
2.833333333333333259e-01 1.963430427741527922e+02 4.940709521701569429e+02
2.999999999999999889e-01 1.881085269046501764e+02 4.940709521701569429e+02
3.166666666666666519e-01 1.798740110351475607e+02 4.940709521701569429e+02
3.333333333333333148e-01 1.716394951656449450e+02 4.940709521701569429e+02
3.499999999999999778e-01 1.634049792961423293e+02 4.940709521701569429e+02
3.666666666666666408e-01 1.551704634266397136e+02 4.940709521701577955e+02
3.833333333333333037e-01 1.469359475571370695e+02 4.940709521701586482e+02
4.000000000000000222e-01 1.387014316876344253e+02 4.940709521701577955e+02
4.166666666666666852e-01 1.304669158181318096e+02 4.940709521701569429e+02
4.333333333333333481e-01 1.222323999486291939e+02 4.940709521701569429e+02
4.500000000000000111e-01 1.139978840791265782e+02 4.940709521701569429e+02
4.666666666666666741e-01 1.057633682096239625e+02 4.940709521701573976e+02
4.833333333333333370e-01 9.752885234012133253e+01 4.940709521701577955e+02
5.000000000000000000e-01 8.929433647061870261e+01 4.940709521701565450e+02
5.166666666666666075e-01 8.105982060111611531e+01 4.940709521701569429e+02
5.333333333333333259e-01 7.282530473161347118e+01 4.940709521701586482e+02
5.500000000000000444e-01 6.459078886211082704e+01 4.940709521701573976e+02
5.666666666666666519e-01 5.635627299260822554e+01 4.940709521701573976e+02
5.833333333333333703e-01 4.812175712310558140e+01 4.940709521701571703e+02
5.999999999999999778e-01 3.988724125360298700e+01 4.940709521701572839e+02
6.166666666666666963e-01 3.165272538410033931e+01 4.286266751782982283e+02
6.333333333333333037e-01 2.559968541432638034e+01 3.305359919513958857e+02
6.500000000000000222e-01 2.063485898572047716e+01 2.753722630803178504e+02
6.666666666666666297e-01 1.642060997831578462e+01 2.346678843163414285e+02
6.833333333333333481e-01 1.281259617517576288e+01 2.013447644263216603e+02
6.999999999999999556e-01 9.709117830771729629e+00 1.730317706848151715e+02
7.166666666666666741e-01 7.044870485681923533e+00 1.482607726463776316e+02
7.333333333333332815e-01 4.767092075892475300e+00 1.261699218743672049e+02
7.500000000000000000e-01 2.839206423203016527e+00 1.062344674338839070e+02
7.666666666666666075e-01 1.225943161429678518e+00 8.833807177947883815e+01
7.833333333333333259e-01 -1.053959694462780206e-01 7.256985593020650072e+01
8.000000000000000444e-01 -1.193052036243871239e+00 5.900346636812550116e+01
8.166666666666666519e-01 -2.072178181717128087e+00 4.745288635264117261e+01
8.333333333333333703e-01 -2.774814914665243659e+00 3.760076441420351046e+01
8.499999999999999778e-01 -3.325536995523911799e+00 2.910792928798073831e+01
8.666666666666666963e-01 -3.745079224264601603e+00 2.164041726362505358e+01
8.833333333333333037e-01 -4.046884237644746918e+00 1.483814634407279875e+01
9.000000000000000222e-01 -4.239684102400361532e+00 8.467957043009768370e+00
9.166666666666666297e-01 -4.329149472411739197e+00 2.537640474906464050e+00
9.333333333333333481e-01 -4.324272118230577000e+00 -2.733164483651950860e+00
9.499999999999999556e-01 -4.238043989623340835e+00 -7.123201350184134029e+00
9.666666666666666741e-01 -4.086832073224439199e+00 -1.057171719781685759e+01
9.833333333333332815e-01 -3.885653416362778945e+00 -1.318721685398574905e+01
1.000000000000000000e+00 -3.647258178091580927e+00 -1.503733161005599150e+01
1.016666666666666607e+00 -3.384409029360912591e+00 -1.608029212947887387e+01
1.033333333333333215e+00 -3.111248440442285101e+00 -1.634029503829859209e+01
1.050000000000000044e+00 -2.839732528084292884e+00 -1.603781941644508180e+01
1.066666666666666652e+00 -2.576654459894115679e+00 -1.536399652060725352e+01
1.083333333333333259e+00 -2.327599310730717797e+00 -1.438833644173485915e+01
1.100000000000000089e+00 -2.097043245169620374e+00 -1.328127272157840366e+01
1.116666666666666696e+00 -1.884890220011437689e+00 -1.235524858947515625e+01
1.133333333333333304e+00 -1.685201625520448498e+00 -1.177996424353715099e+01
1.149999999999999911e+00 -1.492224745226865990e+00 -1.146695886377813345e+01
1.166666666666666741e+00 -1.302969663394510702e+00 -1.114933451519141805e+01
1.183333333333333348e+00 -1.120580261387152055e+00 -1.060621249132942623e+01
1.199999999999999956e+00 -9.494292470168631537e-01 -9.871883859166468156e+00
1.216666666666666563e+00 -7.915174660816031160e-01 -9.131054933024545406e+00
1.233333333333333393e+00 -6.450607492493782846e-01 -8.428974858387451974e+00
1.250000000000000000e+00 -5.105516374686880354e-01 -7.680387307759304782e+00
1.266666666666666607e+00 -3.890478389907348067e-01 -6.853340317470689946e+00
1.283333333333333215e+00 -2.821069602196650261e-01 -5.912748949344400096e+00
1.300000000000000044e+00 -1.919562073459214757e-01 -4.767660186761387919e+00
1.316666666666666652e+00 -1.231849539942854316e-01 -3.421870216808368337e+00
1.333333333333333259e+00 -7.789386678564252930e-02 -2.067894903976522425e+00
1.350000000000000089e+00 -5.425512386173468593e-02 -9.419776131082320259e-01
1.366666666666666696e+00 -4.649461301536812752e-02 -1.747590592486678029e-01
1.383333333333333304e+00 -4.842982188677909250e-02 2.745408528474863052e-01
1.399999999999999911e+00 -5.564597477695100436e-02 5.549928536343766705e-01
1.416666666666666741e+00 -6.692958367459164726e-02 8.116793654770241284e-01
1.433333333333333348e+00 -8.270195362618514012e-02 1.059984552426908699e+00
1.449999999999999956e+00 -1.022624020888219382e-01 1.227170015276651815e+00
1.466666666666666563e+00 -1.236076208020735340e-01 1.259559267492939894e+00
1.483333333333333393e+00 -1.442477110052532707e-01 1.155671476619029692e+00
1.500000000000000000e+00 -1.621300033560411913e-01 9.376063437163695280e-01
1.516666666666666607e+00 -1.755012557957989217e-01 6.833722800642264561e-01
1.533333333333333215e+00 -1.849090793581820713e-01 4.875141290714016251e-01
1.550000000000000044e+00 -1.917517267648456425e-01 3.724958974695868896e-01
1.566666666666666652e+00 -1.973256092738349676e-01 2.950670757128681654e-01
1.583333333333333259e+00 -2.015872959552745813e-01 2.084778700548547969e-01
1.600000000000000089e+00 -2.042748716089967942e-01 8.363410661432341131e-02
1.616666666666666696e+00 -2.043750995090853617e-01 -9.786677315305886138e-02
1.633333333333333304e+00 -2.010126458372281655e-01 -3.199543049258751770e-01
1.649999999999999911e+00 -1.937099560115561891e-01 -5.449886823739994446e-01
1.666666666666666741e+00 -1.828463564247615192e-01 -7.549717163454991997e-01
1.683333333333333348e+00 -1.685442321333728843e-01 -9.432471624387434028e-01
1.699999999999999956e+00 -1.514047843434700724e-01 -1.078373589749118455e+00
1.716666666666666563e+00 -1.325984458084022710e-01 -1.124461599311684434e+00
1.733333333333333393e+00 -1.139227310330805931e-01 -1.071916644389139028e+00
1.750000000000000000e+00 -9.686789099543097192e-02 -9.443373137743453771e-01
1.766666666666666607e+00 -8.244482057393574814e-02 -7.884566396043153347e-01
1.783333333333333215e+00 -7.058600300862045984e-02 -6.532356505782717093e-01
1.800000000000000044e+00 -6.067029888799335691e-02 -5.559461867667675472e-01
1.816666666666666652e+00 -5.205446344972820827e-02 -4.838622703331350028e-01
1.833333333333333259e+00 -4.454155654355552302e-02 -4.263746912091299079e-01
1.849999999999999867e+00 -3.784197374275721087e-02 -3.778936596481268784e-01
1.866666666666666696e+00 -3.194510122195129420e-02 -3.296719430241545346e-01
1.883333333333333304e+00 -2.685290897528539236e-02 -2.814270434518572617e-01
1.899999999999999911e+00 -2.256419977355605261e-02 -2.452944483030565503e-01
1.916666666666666741e+00 -1.867642736518350735e-02 -2.326639322237865071e-01
1.933333333333333348e+00 -1.480873536609650203e-02 -5.510464471653078178e-01
1.949999999999999956e+00 -3.082124596732468773e-04 -4.456468392873503270e-01
1.966666666666666563e+00 4.615927681517504677e-05 -9.459814575708233239e-03
1.983333333333333393e+00 7.114692850360911361e-06 1.384778304455251512e-03
2.000000000000000000e+00 0.000000000000000000e+00 4.268815710216547054e-04
