0	3.80491e+06	119.048
0.0166667	3.80491e+06	220.146
0.0333333	3.80491e+06	381.934
0.05	3.8049e+06	466.524
0.0666667	3.80489e+06	495.213
0.0833333	3.80488e+06	500
0.1	3.80488e+06	500
0.116667	3.80487e+06	500
0.133333	3.80486e+06	500
0.15	3.80485e+06	500
0.166667	3.80484e+06	500
0.183333	3.80483e+06	590381
0.2	3.78516e+06	3.79597e+06
0.216667	3.6783e+06	1.21054e+07
0.233333	3.38165e+06	2.53205e+07
0.25	2.83428e+06	3.84423e+07
0.266667	2.10024e+06	4.44074e+07
0.283333	1.35404e+06	4.00556e+07
0.3	765052	2.87751e+07
0.316667	394868	1.69379e+07
0.333333	200455	8.67668e+06
0.35	105645	4.28772e+06
0.366667	57530.7	2.20211e+06
0.383333	32241.4	1.17004e+06
0.4	18529.3	640661
0.416667	10886	360308
0.433333	6519.07	207527
0.45	3968.44	122103
0.466667	2448.96	73143.9
0.483333	1530.31	45431.5
0.5	934.575	31177.4
0.516667	491.065	20125.4
0.533333	263.727	10126.7
0.55	153.507	5096.33
0.566667	93.8491	2885.16
0.583333	57.3349	1762.5
0.6	35.0991	1076.95
0.616667	21.4366	669.039
0.633333	12.7977	431.528
0.65	7.05229	293.836
0.666667	3.00321	210.179
0.683333	0.0463119	153.495
0.7	-2.1133	111.316
0.716667	-3.66423	79.3475
0.733333	-4.75821	55.438
0.75	-5.51216	37.0619
0.766667	-5.99361	21.5903
0.783333	-6.23184	7.24228
0.8	-6.23502	-6.32225
0.816667	-6.0211	-17.5047
0.833333	-5.65153	-23.4183
0.85	-5.24049	-22.3897
0.866667	-4.90521	-16.6276
0.883333	-4.68623	-10.8253
0.9	-4.54436	-7.89677
0.916667	-4.42301	-7.53376
0.933333	-4.29324	-8.65153
0.95	-4.13462	-11.1621
0.966667	-3.92117	-14.5433
0.983333	-3.64985	-16.9035
1	-3.35772	-16.5994
1.01667	-3.09653	-14.0912
1.03333	-2.88801	-11.6158
1.05	-2.70934	-11.169
1.06667	-2.51571	-12.9
1.08333	-2.27934	-14.9626
1.1	-2.01696	-15.0846
1.11667	-1.77652	-12.6797
1.13333	-1.5943	-9.50305
1.15	-1.45975	-7.82679
1.16667	-1.33341	-7.90391
1.18333	-1.19629	-7.75037
1.2	-1.07506	-5.54604
1.21667	-1.01142	-1.85255
1.23333	-1.01331	1.19396
1.25	-1.05122	2.22588
1.26667	-1.08751	1.63568
1.28333	-1.10574	0.596924
1.3	-1.10741	-0.230709
1.31667	-1.09805	-0.600861
1.33333	-1.08738	-0.305174
1.35	-1.08788	0.412521
1.36667	-1.10113	0.60816
1.38333	-1.10815	-0.485533
1.4	-1.08494	-2.56285
1.41667	-1.02272	-4.628
1.43333	-0.930676	-5.96462
1.45	-0.823903	-6.4318
1.46667	-0.716283	-6.01936
1.48333	-0.623258	-4.78489
1.5	-0.556787	-3.28511
1.51667	-0.513754	-2.36475
1.53333	-0.477962	-2.27463
1.55	-0.437933	-2.47148
1.56667	-0.395579	-2.43005
1.58333	-0.356932	-2.2257
1.6	-0.321389	-2.12727
1.61667	-0.286023	-1.98342
1.63333	-0.255275	-1.47813
1.65	-0.236751	-0.747242
1.66667	-0.230367	-0.292827
1.68333	-0.226991	-0.417185
1.7	-0.216461	-0.930875
1.71667	-0.195961	-1.3358
1.73333	-0.171934	-1.24136
1.75	-0.154583	-0.644949
1.76667	-0.150436	0.0802755
1.78333	-0.157258	0.504229
1.8	-0.167244	0.532263
1.81667	-0.175001	0.383637
1.83333	-0.180031	0.22166
1.85	-0.182389	-0.0191959
1.86667	-0.179392	-0.403419
1.88333	-0.168942	-0.792563
1.9	-0.152973	-1.00735
1.91667	-0.135364	-1.07537
1.93333	-0.117127	-1.17702
1.95	-0.0961296	-1.40595
1.96667	-0.0702623	-1.70259
1.98333	-0.0393767	-2.10787
2	0	-2.3626
