0	2.48882e+07	119.048
0.0166667	2.48882e+07	220.146
0.0333333	2.48882e+07	381.934
0.05	2.48882e+07	466.524
0.0666667	2.48882e+07	495.213
0.0833333	2.48882e+07	500
0.1	2.48882e+07	500
0.116667	2.48882e+07	500
0.133333	2.48882e+07	500
0.15	2.48882e+07	500
0.166667	2.48882e+07	500
0.183333	2.48882e+07	3.85599e+06
0.2	2.47596e+07	2.48088e+07
0.216667	2.40612e+07	7.91253e+07
0.233333	2.21221e+07	1.65516e+08
0.25	1.8544e+07	2.51313e+08
0.266667	1.3745e+07	2.90343e+08
0.283333	8.86589e+06	2.61937e+08
0.3	5.0138e+06	1.88226e+08
0.316667	2.59169e+06	1.10854e+08
0.333333	1.31867e+06	5.68385e+07
0.35	697074	2.81269e+07
0.366667	381105	1.44721e+07
0.383333	214672	7.70764e+06
0.4	124183	4.23316e+06
0.416667	73567	2.38988e+06
0.433333	44520.8	1.38312e+06
0.45	27462.9	818622
0.466667	17233.4	494453
0.483333	10981.1	304201
0.5	7093.34	190304
0.516667	4637.67	120679
0.533333	3070.73	77621.6
0.55	2050.29	50863.1
0.566667	1375.29	33965.7
0.583333	918.095	24039.6
0.6	573.968	19320.7
0.616667	274.07	12638.6
0.633333	152.682	5102.19
0.65	103.997	2429.03
0.666667	71.7146	1588.14
0.683333	51.0586	1019.54
0.7	37.7301	667.864
0.716667	28.7965	459.035
0.733333	22.4289	337.131
0.75	17.5588	264.788
0.766667	13.6026	218.767
0.783333	10.2666	185.87
0.8	7.40695	159.551
0.816667	4.94818	136.923
0.833333	2.84285	116.738
0.85	1.05693	98.5711
0.866667	-0.442855	82.6012
0.883333	-1.69644	69.2117
0.9	-2.74991	58.3566
0.916667	-3.64166	49.2249
0.933333	-4.39074	40.6844
0.95	-4.99781	32.124
0.966667	-5.46154	23.9515
0.983333	-5.79619	17.094
1	-6.03135	12.0352
1.01667	-6.19737	8.33502
1.03333	-6.30918	4.98977
1.05	-6.36369	1.29976
1.06667	-6.35251	-2.71092
1.08333	-6.27333	-6.49712
1.1	-6.13594	-9.44194
1.11667	-5.9586	-11.2532
1.13333	-5.76083	-12.1774
1.15	-5.55268	-12.8803
1.16667	-5.33149	-13.8463
1.18333	-5.09114	-14.7862
1.2	-4.83861	-14.8227
1.21667	-4.59705	-13.5006
1.23333	-4.38859	-11.4001
1.25	-4.21705	-9.69787
1.26667	-4.06533	-9.27388
1.28333	-3.90792	-10.2496
1.3	-3.72368	-12.1467
1.31667	-3.50303	-14.1189
1.33333	-3.25305	-15.257
1.35	-2.99446	-15.0949
1.36667	-2.74988	-13.8326
1.38333	-2.53338	-12.1319
1.4	-2.34549	-10.7089
1.41667	-2.17641	-10.0954
1.43333	-2.00897	-10.5554
1.45	-1.82456	-11.8577
1.46667	-1.61372	-13.2531
1.48333	-1.3828	-13.8802
1.5	-1.15104	-13.2358
1.51667	-0.941603	-11.3762
1.53333	-0.771837	-8.87948
1.55	-0.64562	-6.64867
1.56667	-0.550215	-5.46105
1.58333	-0.463586	-5.39502
1.6	-0.370381	-5.74444
1.61667	-0.272104	-5.65004
1.63333	-0.182046	-4.8264
1.65	-0.111224	-3.63682
1.66667	-0.0608189	-2.5761
1.68333	-0.0253545	-1.8316
1.7	0.00023442	-1.3029
1.71667	0.0180755	-0.848503
1.73333	0.0285178	-0.403161
1.75	0.0315142	0.0275821
1.76667	0.0275984	0.378998
1.78333	0.0188809	0.553434
1.8	0.00915064	0.503029
1.81667	0.00211329	0.282101
1.83333	-0.000252708	0.00941456
1.85	0.00179947	-0.197134
1.86667	0.00631843	-0.258396
1.88333	0.0104127	-0.155223
1.9	0.0114925	0.0463161
1.91667	0.0088688	0.220415
1.93333	0.00414535	0.2748
1.95	-0.000291185	0.223769
1.96667	-0.00331363	0.162405
1.98333	-0.00570469	-0.099409
2	0	-0.342281
