0	161395	119.048
0.0166667	161393	220.146
0.0333333	161387	381.934
0.05	161380	466.524
0.0666667	161372	495.213
0.0833333	161363	500
0.1	161355	500
0.116667	161347	500
0.133333	161338	500
0.15	161330	500
0.166667	161322	500
0.183333	161313	25629.4
0.2	160467	162151
0.216667	155908	515900
0.233333	143271	1.07816e+06
0.25	119970	1.6357e+06
0.266667	88747.5	1.88799e+06
0.283333	57036.7	1.70107e+06
0.3	32045.1	1.21979e+06
0.316667	16377	716123
0.333333	8174.28	365555
0.35	4191.85	181540
0.366667	2122.95	97899.7
0.383333	928.531	50926.7
0.4	425.397	21869
0.416667	199.563	10175
0.433333	86.2319	5026.5
0.45	32.013	2348.11
0.466667	7.9615	1003.01
0.483333	-1.42078	367.757
0.5	-4.29708	100.715
0.516667	-4.77794	10.8484
0.533333	-4.6587	-8.64039
0.55	-4.48993	-10.1462
0.566667	-4.32049	-10.2778
0.583333	-4.14734	-8.89643
0.6	-4.02394	-4.79784
0.616667	-3.98741	0.10187
0.633333	-4.02734	4.05487
0.65	-4.12257	7.00052
0.666667	-4.26069	8.88058
0.683333	-4.41859	8.87633
0.7	-4.55657	6.55138
0.716667	-4.63697	2.76101
0.733333	-4.6486	-0.797195
0.75	-4.6104	-2.74693
0.766667	-4.55704	-3.07644
0.783333	-4.50785	-3.37217
0.8	-4.44463	-5.41254
0.816667	-4.32743	-9.34351
0.833333	-4.13318	-13.598
0.85	-3.87417	-16.7219
0.866667	-3.57578	-18.7603
0.883333	-3.24882	-20.4464
0.9	-2.89424	-21.6228
0.916667	-2.52807	-21.5581
0.933333	-2.17563	-20.2622
0.95	-1.85266	-18.4484
0.966667	-1.56068	-16.8051
0.983333	-1.29249	-15.6583
1	-1.03874	-15.194
1.01667	-0.786023	-15.5368
1.03333	-0.520849	-16.3369
1.05	-0.241458	-16.8786
1.06667	0.0417713	-16.6279
1.08333	0.312805	-15.3519
1.1	0.5535	-12.8648
1.11667	0.741632	-9.18152
1.13333	0.85955	-5.03382
1.15	0.909426	-1.58634
1.16667	0.912428	0.534496
1.18333	0.891609	1.56121
1.2	0.860388	1.99592
1.21667	0.825078	2.11373
1.23333	0.78993	2.20097
1.25	0.751713	2.78375
1.26667	0.697139	4.20409
1.28333	0.611576	6.24491
1.3	0.488975	8.23835
1.31667	0.336965	9.44052
1.33333	0.174291	9.34521
1.35	0.0254575	7.95757
1.36667	-0.0909613	5.92801
1.38333	-0.172143	4.2208
1.4	-0.231655	3.4453
1.41667	-0.286986	3.41308
1.43333	-0.345424	3.38932
1.45	-0.399963	2.76701
1.46667	-0.437658	1.59658
1.48333	-0.453183	0.500181
1.5	-0.45433	0.0365666
1.51667	-0.454402	0.169124
1.53333	-0.459968	0.379128
1.55	-0.467039	0.22778
1.56667	-0.46756	-0.275215
1.58333	-0.457865	-0.752021
1.6	-0.442493	-0.846832
1.61667	-0.429638	-0.509213
1.63333	-0.425519	-0.00874212
1.65	-0.429346	0.251181
1.66667	-0.433892	0.0400344
1.68333	-0.430681	-0.531676
1.7	-0.41617	-1.12751
1.71667	-0.393097	-1.49972
1.73333	-0.366179	-1.669
1.75	-0.337464	-1.80522
1.76667	-0.306005	-1.98202
1.78333	-0.271396	-2.10021
1.8	-0.235998	-2.04301
1.81667	-0.203296	-1.8223
1.83333	-0.175254	-1.55771
1.85	-0.151373	-1.34838
1.86667	-0.130308	-1.20369
1.88333	-0.11125	-1.10908
1.9	-0.093339	-1.07597
1.91667	-0.0753842	-1.09199
1.93333	-0.0569393	-1.08731
1.95	-0.0391405	-0.994631
1.96667	-0.023785	-0.824083
1.98333	-0.011671	-0.713549
2	0	-0.700262
