0.000000000000000000e+00 2.193743302681394653e+03 3.184739999999999782e+03
1.666669999999999957e-02 2.129521302681394900e+03 3.184739999999999782e+03
3.333330000000000320e-02 2.065299688012624301e+03 3.184739999999999782e+03
5.000000000000000278e-02 2.001077688012624321e+03 3.184739999999999782e+03
6.666669999999999541e-02 1.936855688012624341e+03 3.184739999999999782e+03
8.333329999999999904e-02 1.872634073343853515e+03 3.184739999999999782e+03
1.000000000000000056e-01 1.808412073343853535e+03 3.184739999999999782e+03
1.166670000000000068e-01 1.744188917350165411e+03 3.184739999999999782e+03
1.333330000000000071e-01 1.679969614668770646e+03 3.184739999999999782e+03
1.499999999999999944e-01 1.615746458675082977e+03 3.184739999999999782e+03
1.666670000000000096e-01 1.551523302681394853e+03 3.184739999999999782e+03
1.833329999999999960e-01 1.487304000000000315e+03 3.184739999999999782e+03
2.000000000000000111e-01 1.423080844006312191e+03 3.184739999999999782e+03
2.166669999999999985e-01 1.358857688012624067e+03 3.184739999999999782e+03
2.333330000000000126e-01 1.294638385331229301e+03 3.184739999999999782e+03
2.500000000000000000e-01 1.230415229337541632e+03 3.184739999999999782e+03
2.666669999999999874e-01 1.166192073343853508e+03 3.184739999999999782e+03
2.833330000000000015e-01 1.101972770662458743e+03 3.184739999999999782e+03
2.999999999999999889e-01 1.037749614668770846e+03 3.184739999999999782e+03
3.166669999999999763e-01 9.735264586750828357e+02 3.184739999999999782e+03
3.333329999999999904e-01 9.093071559936880703e+02 3.184739999999999782e+03
3.499999999999999778e-01 8.450840000000001737e+02 3.184739999999999782e+03
3.666670000000000207e-01 7.808608440063119360e+02 3.184739999999999782e+03
3.833329999999999793e-01 7.166415413249175117e+02 3.184739999999999782e+03
4.000000000000000222e-01 6.524183853312292740e+02 3.184739999999999782e+03
4.166670000000000096e-01 5.881952293375412637e+02 3.184739999999999782e+03
4.333330000000000237e-01 5.239759266561466120e+02 3.184739999999999782e+03
4.500000000000000111e-01 4.597527706624586017e+02 3.184739999999999782e+03
4.666669999999999985e-01 3.955296146687706482e+02 3.184739999999999782e+03
4.833330000000000126e-01 3.313103119873759397e+02 3.184739999999999782e+03
5.000000000000000000e-01 2.670871559936879862e+02 3.184739999999999782e+03
5.166669999999999874e-01 2.028640000000000043e+02 3.184739999999999782e+03
5.333329999999999460e-01 1.386419999999999959e+02 3.184739999999999782e+03
5.500000000000000444e-01 9.670619999999999550e+01 2.081300000000000182e+03
5.666670000000000318e-01 6.926539999999999964e+01 1.361869999999999891e+03
5.833329999999999904e-01 5.131040000000000134e+01 8.913519999999999754e+02
5.999999999999999778e-01 3.955369999999999919e+01 5.847569999999999482e+02
6.166669999999999652e-01 3.181850000000000023e+01 3.865539999999999736e+02
6.333330000000000348e-01 2.666860000000000142e+01 2.596820000000000164e+02
6.500000000000000222e-01 2.316240000000000165e+01 1.796100000000000136e+02
6.666670000000000096e-01 2.068159999999999954e+01 1.303420000000000130e+02
6.833329999999999682e-01 1.881769999999999854e+01 1.013229999999999933e+02
6.999999999999999556e-01 1.730420000000000158e+01 8.534040000000000248e+01
7.166670000000000540e-01 1.597300000000000075e+01 7.732519999999999527e+01
7.333330000000000126e-01 1.472669999999999924e+01 7.363169999999999504e+01
7.500000000000000000e-01 1.351859999999999928e+01 7.171259999999999479e+01
7.666669999999999874e-01 1.233619999999999983e+01 7.008020000000000493e+01
7.833329999999999460e-01 1.118260000000000076e+01 6.815040000000000475e+01
8.000000000000000444e-01 1.006460000000000043e+01 6.578060000000000684e+01
8.166670000000000318e-01 8.989940000000000708e+00 6.285349999999999682e+01
8.333329999999999904e-01 7.969439999999999635e+00 5.927850000000000108e+01
8.499999999999999778e-01 7.013989999999999725e+00 5.525430000000000064e+01
8.666669999999999652e-01 6.127629999999999910e+00 5.132229999999999848e+01
8.833330000000000348e-01 5.303250000000000242e+00 4.803750000000000142e+01
9.000000000000000222e-01 4.526390000000000136e+00 4.556210000000000093e+01
9.166670000000000096e-01 3.784510000000000041e+00 4.357600000000000051e+01
9.333329999999999682e-01 3.073850000000000193e+00 4.156009999999999849e+01
9.499999999999999556e-01 2.399169999999999803e+00 3.918549999999999756e+01
9.666670000000000540e-01 1.767670000000000075e+00 3.650010000000000332e+01
9.833330000000000126e-01 1.182500000000000107e+00 3.381830000000000069e+01
1.000000000000000000e+00 6.403959999999999653e-01 3.143080000000000140e+01
1.016669999999999963e+00 1.348070000000000102e-01 2.934909999999999997e+01
1.033330000000000082e+00 -3.379059999999999842e-01 2.724919999999999831e+01
1.050000000000000044e+00 -7.734990000000000476e-01 2.467999999999999972e+01
1.066670000000000007e+00 -1.160570000000000102e+00 2.143469999999999942e+01
1.083329999999999904e+00 -1.487989999999999924e+00 1.777939999999999898e+01
1.100000000000000089e+00 -1.753220000000000001e+00 1.427699999999999925e+01
1.116670000000000051e+00 -1.963889999999999914e+00 1.135159999999999947e+01
1.133329999999999949e+00 -2.131609999999999783e+00 9.031750000000000611e+00
1.149999999999999911e+00 -2.264949999999999797e+00 7.086630000000000429e+00
1.166670000000000096e+00 -2.367830000000000101e+00 5.326620000000000132e+00
1.183329999999999993e+00 -2.442499999999999893e+00 3.734239999999999782e+00
1.199999999999999956e+00 -2.492300000000000182e+00 2.390579999999999927e+00
1.216669999999999918e+00 -2.522190000000000154e+00 1.386570000000000080e+00
1.233330000000000037e+00 -2.538520000000000110e+00 7.936879999999999491e-01
1.250000000000000000e+00 -2.548639999999999795e+00 6.045530000000000070e-01
1.266669999999999963e+00 -2.558670000000000222e+00 6.416330000000000089e-01
1.283330000000000082e+00 -2.570030000000000037e+00 5.919659999999999922e-01
1.300000000000000044e+00 -2.578409999999999869e+00 2.260000000000000064e-01
1.316670000000000007e+00 -2.577560000000000073e+00 -4.025020000000000264e-01
1.333329999999999904e+00 -2.564989999999999881e+00 -1.013349999999999973e+00
1.350000000000000089e+00 -2.543789999999999996e+00 -1.377699999999999925e+00
1.366670000000000051e+00 -2.519070000000000142e+00 -1.530739999999999990e+00
1.383329999999999949e+00 -2.492760000000000087e+00 -1.709060000000000024e+00
1.399999999999999911e+00 -2.462099999999999955e+00 -2.114360000000000017e+00
1.416670000000000096e+00 -2.422280000000000211e+00 -2.761740000000000084e+00
1.433329999999999993e+00 -2.370039999999999925e+00 -3.510470000000000201e+00
1.449999999999999956e+00 -2.305270000000000152e+00 -4.181530000000000413e+00
1.466669999999999918e+00 -2.230649999999999800e+00 -4.660759999999999792e+00
1.483330000000000037e+00 -2.149910000000000210e+00 -4.946609999999999729e+00
1.500000000000000000e+00 -2.065770000000000106e+00 -5.123560000000000336e+00
1.516669999999999963e+00 -1.979119999999999990e+00 -5.282149999999999679e+00
1.533330000000000082e+00 -1.889699999999999935e+00 -5.452689999999999593e+00
1.550000000000000044e+00 -1.797369999999999912e+00 -5.601460000000000328e+00
1.566670000000000007e+00 -1.702979999999999938e+00 -5.677940000000000431e+00
1.583329999999999904e+00 -1.608100000000000085e+00 -5.663190000000000168e+00
1.600000000000000089e+00 -1.514210000000000056e+00 -5.575129999999999697e+00
1.616670000000000051e+00 -1.422260000000000080e+00 -5.434980000000000366e+00
1.633329999999999949e+00 -1.333040000000000003e+00 -5.244270000000000209e+00
1.649999999999999911e+00 -1.247460000000000013e+00 -5.000549999999999606e+00
1.666670000000000096e+00 -1.166360000000000063e+00 -4.723359999999999559e+00
1.683329999999999993e+00 -1.090009999999999923e+00 -4.450520000000000032e+00
1.699999999999999956e+00 -1.018010000000000081e+00 -4.208910000000000373e+00
1.716669999999999918e+00 -9.497139999999999471e-01 -3.998949999999999783e+00
1.733330000000000037e+00 -8.847070000000000212e-01 -3.811230000000000118e+00
1.750000000000000000e+00 -8.226719999999999589e-01 -3.647800000000000153e+00
1.766669999999999963e+00 -7.631139999999999590e-01 -3.519820000000000171e+00
1.783330000000000082e+00 -7.053449999999999998e-01 -3.431540000000000035e+00
1.800000000000000044e+00 -6.487290000000000001e-01 -3.374109999999999943e+00
1.816670000000000007e+00 -5.928750000000000409e-01 -3.331519999999999815e+00
1.833329999999999904e+00 -5.376790000000000180e-01 -3.288600000000000190e+00
1.850000000000000089e+00 -4.832549999999999901e-01 -3.238010000000000055e+00
1.866670000000000051e+00 -4.297449999999999881e-01 -3.183419999999999916e+00
1.883329999999999949e+00 -3.771399999999999753e-01 -3.133589999999999876e+00
1.899999999999999911e+00 -3.252920000000000256e-01 -3.090460000000000207e+00
1.916670000000000096e+00 -2.741250000000000075e-01 -3.054409999999999847e+00
1.933329999999999993e+00 -2.234780000000000100e-01 -3.030790000000000095e+00
1.949999999999999956e+00 -1.730990000000000029e-01 -2.974110000000000031e+00
1.966669999999999918e+00 -1.243409999999999932e-01 -2.716549999999999798e+00
1.983330000000000037e+00 -8.254709999999999825e-02 -3.730230000000000157e+00
2.000000000000000000e+00 0.000000000000000000e+00 -4.952829999999999622e+00
