0	2.12286e+07	119.048
0.0166667	2.12286e+07	220.146
0.0333333	2.12286e+07	381.934
0.05	2.12286e+07	466.524
0.0666667	2.12286e+07	495.213
0.0833333	2.12286e+07	500
0.1	2.12286e+07	500
0.116667	2.12285e+07	500
0.133333	2.12285e+07	500
0.15	2.12285e+07	500
0.166667	2.12285e+07	500
0.183333	2.12285e+07	3.2892e+06
0.2	2.11189e+07	2.11617e+07
0.216667	2.05231e+07	6.7493e+07
0.233333	1.88691e+07	1.41183e+08
0.25	1.5817e+07	2.14365e+08
0.266667	1.17236e+07	2.47656e+08
0.283333	7.56182e+06	2.23424e+08
0.3	4.27613e+06	1.60549e+08
0.316667	2.2102e+06	9.45509e+07
0.333333	1.12443e+06	4.8477e+07
0.35	594301	2.39874e+07
0.366667	324849	1.2341e+07
0.383333	182935	6.57182e+06
0.4	105788	3.60878e+06
0.416667	62642.6	2.03696e+06
0.433333	37889.2	1.17858e+06
0.45	23356.5	697344
0.466667	14644.4	421045
0.483333	9321.7	258932
0.5	6013.34	161915
0.516667	3924.55	102807
0.533333	2586.45	66223.9
0.55	1717.09	43261.7
0.566667	1144.39	30116.7
0.583333	713.196	22239.4
0.6	403.076	13562.7
0.616667	261.106	7048.67
0.633333	168.12	4595.61
0.65	107.919	2977.23
0.666667	68.879	1937.63
0.683333	43.3314	1270.76
0.7	26.5203	836.537
0.716667	15.4468	551.818
0.733333	8.12636	365.504
0.75	3.26335	243.318
0.766667	0.0157567	162.933
0.783333	-2.16773	109.925
0.8	-3.6484	74.6774
0.816667	-4.65698	50.4451
0.833333	-5.3299	32.7538
0.85	-5.74877	19.4287
0.866667	-5.97752	9.84722
0.883333	-6.07701	3.43902
0.9	-6.09216	-1.14472
0.916667	-6.03885	-5.28713
0.933333	-5.91592	-9.28566
0.95	-5.72933	-12.4105
0.966667	-5.50224	-14.053
0.983333	-5.2609	-14.4319
1	-5.02117	-14.2049
1.01667	-4.7874	-13.9097
1.03333	-4.55752	-13.9603
1.05	-4.32206	-14.7166
1.06667	-4.06696	-16.0919
1.08333	-3.78566	-17.4308
1.1	-3.48594	-18.1093
1.11667	-3.18202	-18.1567
1.13333	-2.88072	-18.0143
1.15	-2.58154	-17.8229
1.16667	-2.28662	-17.2641
1.18333	-2.00607	-16.0303
1.2	-1.75228	-14.226
1.21667	-1.53187	-12.2479
1.23333	-1.34401	-10.4348
1.25	-1.18405	-8.87707
1.26667	-1.04811	-7.45508
1.28333	-0.935546	-6.04535
1.3	-0.846598	-4.70182
1.31667	-0.778819	-3.57562
1.33333	-0.727411	-2.76048
1.35	-0.686803	-2.26552
1.36667	-0.651893	-2.037
1.38333	-0.618903	-1.98176
1.4	-0.585834	-2.00664
1.41667	-0.552015	-2.08375
1.43333	-0.516376	-2.28447
1.45	-0.475866	-2.67668
1.46667	-0.427153	-3.19208
1.48333	-0.369464	-3.64353
1.5	-0.305702	-3.82887
1.51667	-0.241835	-3.65899
1.53333	-0.183736	-3.23506
1.55	-0.134	-2.76719
1.56667	-0.0914963	-2.40386
1.58333	-0.053871	-2.13776
1.6	-0.0202377	-1.88868
1.61667	0.00908488	-1.63911
1.63333	0.0343993	-1.4269
1.65	0.0566482	-1.2325
1.66667	0.0754825	-0.961007
1.68333	0.0886817	-0.56517
1.7	0.0943215	-0.126549
1.71667	0.0929	0.233636
1.73333	0.0865336	0.484521
1.75	0.0767493	0.672929
1.76667	0.0641026	0.820102
1.78333	0.0494126	0.891164
1.8	0.0343972	0.856082
1.81667	0.0208765	0.738658
1.83333	0.00977526	0.598115
1.85	0.000939353	0.484384
1.86667	-0.00637087	0.411633
1.88333	-0.0127817	0.353065
1.9	-0.0181397	0.261253
1.91667	-0.0214902	0.113031
1.93333	-0.0219074	-0.0635449
1.95	-0.019372	-0.209256
1.96667	-0.0149322	-0.277737
1.98333	-0.0101141	-0.447966
2	0	-0.606848
