0	2.48896e+06	1.46694e+06
0.0166667	2.46451e+06	2.87878e+06
0.0333333	2.393e+06	5.54831e+06
0.05	2.27957e+06	7.83991e+06
0.0666667	2.13167e+06	9.65185e+06
0.0833333	1.95784e+06	1.09536e+07
0.1	1.76655e+06	1.17701e+07
0.116667	1.5655e+06	1.21547e+07
0.133333	1.36139e+06	1.2164e+07
0.15	1.16003e+06	1.18436e+07
0.166667	966605	1.12271e+07
0.183333	785798	1.03459e+07
0.2	621741	9.24248e+06
0.216667	477715	7.97863e+06
0.233333	355787	6.63512e+06
0.25	256545	5.30204e+06
0.266667	179052	4.06399e+06
0.283333	121078	2.98579e+06
0.3	79526.3	2.10367e+06
0.316667	50955.9	1.42421e+06
0.333333	32052.5	930021
0.35	19955.2	589230
0.366667	12411.5	365146
0.383333	7783.63	223560
0.4	4959.5	136729
0.416667	3225.99	84416.2
0.433333	2145.62	53050.9
0.45	1457.62	34118.1
0.466667	1008.35	22521.1
0.483333	706.92	15276.8
0.5	499.126	10798.5
0.516667	346.968	7776.78
0.533333	239.9	5409
0.55	166.668	3638.63
0.566667	118.613	2416.85
0.583333	86.1068	1644.94
0.6	63.7815	1134.32
0.616667	48.2962	794.769
0.633333	37.2892	573.841
0.65	29.1681	429.193
0.666667	22.9828	330.442
0.683333	18.1534	261.394
0.7	14.2697	212.03
0.716667	11.0857	172.97
0.733333	8.50401	139.726
0.75	6.42819	113.815
0.766667	4.71018	95.2106
0.783333	3.2545	79.9688
0.8	2.04455	65.4807
0.816667	1.07181	51.8688
0.833333	0.315588	39.8152
0.85	-0.255362	31.1038
0.866667	-0.721204	25.4093
0.883333	-1.10234	18.9121
0.9	-1.35161	11.2486
0.916667	-1.47729	5.09597
0.933333	-1.52147	0.98308
0.95	-1.51006	-1.8795
0.966667	-1.45882	-3.71967
0.983333	-1.38607	-4.16008
1	-1.32015	-3.59805
1.01667	-1.26614	-3.08326
1.03333	-1.21738	-2.68007
1.05	-1.1768	-2.16579
1.06667	-1.14519	-1.34302
1.08333	-1.13204	-0.283308
1.1	-1.13574	0.516347
1.11667	-1.14925	0.844278
1.13333	-1.16388	0.617462
1.15	-1.16983	0.276587
1.16667	-1.1731	0.232245
1.18333	-1.17757	-0.108401
1.2	-1.16949	-1.03779
1.21667	-1.14298	-1.70483
1.23333	-1.11266	-1.55206
1.25	-1.09124	-0.914303
1.26667	-1.08219	-0.258529
1.28333	-1.08263	-0.0844663
1.3	-1.07937	-0.408845
1.31667	-1.069	-0.585598
1.33333	-1.05985	-0.274157
1.35	-1.05986	0.127685
1.36667	-1.06411	0.178656
1.38333	-1.06581	0.266842
1.4	-1.073	0.93972
1.41667	-1.09714	1.90978
1.43333	-1.13666	2.30048
1.45	-1.17382	1.80049
1.46667	-1.19668	0.785395
1.48333	-1.2	-0.405782
1.5	-1.18315	-1.29504
1.51667	-1.15683	-1.64568
1.53333	-1.1283	-1.93613
1.55	-1.09229	-2.62815
1.56667	-1.04069	-3.53039
1.58333	-0.974615	-4.14447
1.6	-0.902541	-4.38593
1.61667	-0.828417	-4.66958
1.63333	-0.746889	-5.18805
1.65	-0.655482	-5.57398
1.66667	-0.561089	-5.56681
1.68333	-0.469922	-5.19462
1.7	-0.387935	-4.53684
1.71667	-0.318694	-3.99569
1.73333	-0.254746	-3.84566
1.75	-0.190506	-3.69439
1.76667	-0.131599	-3.15325
1.78333	-0.0853971	-2.42527
1.8	-0.0507567	-1.88452
1.81667	-0.0225797	-1.54552
1.83333	0.000760678	-1.20252
1.85	0.0175042	-0.833178
1.86667	0.0285333	-0.563753
1.88333	0.036296	-0.358515
1.9	0.0404838	-0.127574
1.91667	0.0405485	0.118293
1.93333	0.0365407	0.326658
1.95	0.0296599	0.450944
1.96667	0.0215092	0.481264
1.98333	0.0136178	0.645276
2	0	0.817065
