0.0000 1682.9955 71.0785
0.0167 1680.6970 260.2559
0.0333 1674.7575 422.9948
0.0500 1667.0322 484.9567
0.0667 1658.7872 498.4501
0.0833 1650.4599 499.9355
0.1000 1642.1267 500.0106
0.1167 1633.7933 499.9900
0.1333 1625.4600 499.9900
0.1500 1617.1267 500.0200
0.1667 1608.7933 499.9900
0.1833 1600.4600 499.9900
0.2000 1592.1267 500.0200
0.2167 1583.7933 499.9900
0.2333 1575.4600 499.9900
0.2500 1567.1267 500.0200
0.2667 1558.7933 499.9914
0.2833 1550.4598 500.0477
0.3000 1542.1227 500.7055
0.3167 1533.7608 503.5915
0.3333 1525.3199 510.0122
0.3500 1516.7598 516.3256
0.3667 1508.1358 516.8631
0.3833 1499.5512 512.8673
0.4000 1491.0323 510.5676
0.4167 1482.5051 514.7394
0.4333 1473.8374 527.4869
0.4500 1464.8902 547.9995
0.4667 1455.5318 579.0265
0.4833 1445.4792 636.5430
0.5000 1434.1345 734.5890
0.5167 1420.8892 856.3936
0.5333 1405.6309 970.0187
0.5500 1388.6189 1069.8121
0.5667 1369.9740 1165.9577
0.5833 1349.8596 1236.5995
0.6000 1328.9180 1278.8839
0.6167 1306.7835 1437.4228
0.6333 1279.3622 1995.5045
0.6500 1236.9496 3371.2238
0.6667 1160.6913 6258.8348
0.6833 1019.6317 11085.6353
0.7000 789.5366 16098.5768
0.7167 500.0467 17188.1528
0.7333 241.8313 12647.3163
0.7500 86.7451 6145.1483
0.7667 26.1589 1935.0329
0.7833 10.3501 458.3641
0.8000 6.1940 170.7391
0.8167 3.8387 127.0226
0.8333 1.8920 107.9149
0.8500 0.2285 92.2775
0.8667 -1.1904 78.2324
0.8833 -2.3812 64.7128
0.9000 -3.3484 51.4937
0.9167 -4.1031 39.5897
0.9333 -4.6792 30.3001
0.9500 -5.1253 23.8686
0.9667 -5.4830 19.3629
0.9833 -5.7725 15.2805
1.0000 -5.9886 10.3969
1.0167 -6.1157 4.8382
1.0333 -6.1534 0.0853
1.0500 -6.1272 -2.6816
1.0667 -6.0724 -3.4816
1.0833 -6.0164 -3.0251
1.1000 -5.9737 -2.0380
1.1167 -5.9489 -0.9568
1.1333 -5.9406 -0.1724
1.1500 -5.9402 -0.0411
1.1667 -5.9369 -0.4278
1.1833 -5.9260 -0.8388
1.2000 -5.9100 -1.0265
1.2167 -5.8922 -1.1142
1.2333 -5.8723 -1.3265
1.2500 -5.8469 -1.7747
1.2667 -5.8123 -2.4152
1.2833 -5.7660 -3.1646
1.3000 -5.7066 -3.9715
1.3167 -5.6336 -4.7812
1.3333 -5.5473 -5.5757
1.3500 -5.4478 -6.3494
1.3667 -5.3362 -7.0147
1.3833 -5.2142 -7.6532
1.4000 -5.0791 -8.7570
1.4167 -4.9189 -10.6227
1.4333 -4.7239 -12.7187
1.4500 -4.4969 -14.4161
1.4667 -4.2444 -15.9140
1.4833 -3.9655 -17.5500
1.5000 -3.6607 -18.8640
1.5167 -3.3404 -19.3699
1.5333 -3.0176 -19.2040
1.5500 -2.7031 -18.3411
1.5667 -2.4101 -16.6377
1.5833 -2.1500 -14.5686
1.6000 -1.9228 -12.8592
1.6167 -1.7182 -11.9009
1.6333 -1.5232 -11.6001
1.6500 -1.3307 -11.5049
1.6667 -1.1407 -11.2089
1.6833 -0.9586 -10.5336
1.7000 -0.7913 -9.4646
1.7167 -0.6442 -8.1433
1.7333 -0.5201 -6.7508
1.7500 -0.4189 -5.4148
1.7667 -0.3391 -4.2103
1.7833 -0.2779 -3.1870
1.8000 -0.2314 -2.5054
1.8167 -0.1925 -2.2415
1.8333 -0.1563 -2.0656
1.8500 -0.1251 -1.5581
1.8667 -0.1061 -0.6444
1.8833 -0.1043 0.4249
1.9000 -0.1194 1.2968
1.9167 -0.1456 1.7056
1.9333 -0.1736 1.4550
1.9500 -0.1904 0.3402
1.9667 -0.1824 -1.2752
1.9833 -0.1519 -1.9251
2.0000 -0.1275 -1.0950
