0	1.09914e+07	2134.7
0.0166667	1.09914e+07	6609.28
0.0333333	1.09912e+07	25676
0.05	1.09906e+07	83734.5
0.0666667	1.09884e+07	241573
0.0833333	1.09825e+07	623603
0.1	1.09676e+07	1.45233e+06
0.116667	1.09341e+07	3.07249e+06
0.133333	1.08652e+07	5.93811e+06
0.15	1.07361e+07	1.05336e+07
0.166667	1.05141e+07	1.72172e+07
0.183333	1.01622e+07	2.6014e+07
0.2	9.64698e+06	3.64308e+07
0.216667	8.94788e+06	4.73928e+07
0.233333	8.06722e+06	5.73765e+07
0.25	7.03533e+06	6.4744e+07
0.266667	5.90908e+06	6.81814e+07
0.283333	4.76262e+06	6.70834e+07
0.3	3.67297e+06	6.17285e+07
0.316667	2.705e+06	5.31758e+07
0.333333	1.90044e+06	4.29331e+07
0.35	1.2739e+06	3.25339e+07
0.366667	815978	2.31844e+07
0.383333	501086	1.55808e+07
0.4	296617	9.91505e+06
0.416667	170584	6.00983e+06
0.433333	96288.9	3.4982e+06
0.45	53977.6	1.97662e+06
0.466667	30401.6	1.09847e+06
0.483333	17362.1	609058
0.5	10099.7	341594
0.516667	5975.65	195956
0.533333	3567.83	115636
0.55	2121.14	72127.2
0.566667	1163.59	45139.3
0.583333	616.494	25097.8
0.6	327	13496
0.616667	166.626	7328.91
0.633333	82.7025	3779.62
0.65	40.6392	1870.25
0.666667	20.3608	890.466
0.683333	10.957	414.268
0.7	6.55189	201.657
0.716667	4.23515	115.342
0.733333	2.70715	83.417
0.75	1.45458	71.7599
0.766667	0.315151	64.9715
0.783333	-0.711134	55.835
0.8	-1.54601	42.0331
0.816667	-2.11224	25.888
0.833333	-2.40895	12.4188
0.85	-2.5262	5.13684
0.866667	-2.58017	3.21956
0.883333	-2.63352	2.7809
0.9	-2.67287	0.65953
0.916667	-2.6555	-3.27676
0.933333	-2.56365	-7.29768
0.95	-2.41224	-10.1209
0.966667	-2.22628	-11.588
0.983333	-2.02598	-11.905
1	-1.82945	-11.1547
1.01667	-1.65416	-9.76367
1.03333	-1.50399	-8.6595
1.05	-1.36551	-8.31482
1.06667	-1.22683	-8.19114
1.08333	-1.09247	-7.52736
1.1	-0.975921	-6.31194
1.11667	-0.88207	-5.20044
1.13333	-0.802572	-4.66131
1.15	-0.726693	-4.53361
1.16667	-0.651452	-4.45504
1.18333	-0.578192	-4.34179
1.2	-0.506726	-4.34514
1.21667	-0.433354	-4.57724
1.23333	-0.354151	-4.84842
1.25	-0.27174	-4.78332
1.26667	-0.194707	-4.13269
1.28333	-0.133984	-2.84923
1.3	-0.0997327	-1.01611
1.31667	-0.100114	1.15224
1.33333	-0.138141	3.16543
1.35	-0.205628	4.34144
1.36667	-0.282855	4.32898
1.38333	-0.349927	3.55314
1.4	-0.401293	2.97026
1.41667	-0.448936	3.21689
1.43333	-0.508523	4.0242
1.45	-0.583076	4.56272
1.46667	-0.660614	4.24847
1.48333	-0.724692	3.1714
1.5	-0.766327	1.82728
1.51667	-0.785601	0.636322
1.53333	-0.787538	-0.235914
1.55	-0.777737	-0.851241
1.56667	-0.759163	-1.40736
1.58333	-0.730825	-2.08044
1.6	-0.689815	-2.86123
1.61667	-0.635451	-3.57281
1.63333	-0.570721	-4.07077
1.65	-0.499759	-4.36242
1.66667	-0.425307	-4.46846
1.68333	-0.35081	-4.29032
1.7	-0.282297	-3.75999
1.71667	-0.225477	-3.03213
1.73333	-0.181226	-2.4137
1.75	-0.14502	-2.07212
1.76667	-0.112155	-1.88589
1.78333	-0.0821574	-1.62603
1.8	-0.057954	-1.19663
1.81667	-0.0422697	-0.68804
1.83333	-0.0350193	-0.263045
1.85	-0.0335016	-0.0350425
1.86667	-0.0338512	-0.0175374
1.88333	-0.032917	-0.128652
1.9	-0.0295628	-0.243513
1.91667	-0.0247999	-0.277773
1.93333	-0.0203037	-0.242699
1.95	-0.0167099	-0.204489
1.96667	-0.0134874	-0.199127
1.98333	-0.0100724	-0.404622
2	0	-0.604342
