0	3.84843e+07	3.5243e+07
0.0166667	3.78969e+07	6.51724e+07
0.0333333	3.63119e+07	1.13068e+08
0.05	3.4128e+07	1.3811e+08
0.0666667	3.17082e+07	1.46603e+08
0.0833333	2.92412e+07	1.48021e+08
0.1	2.67742e+07	1.48021e+08
0.116667	2.43072e+07	1.48021e+08
0.133333	2.18402e+07	1.48021e+08
0.15	1.93732e+07	1.48021e+08
0.166667	1.69062e+07	1.48021e+08
0.183333	1.44392e+07	1.48021e+08
0.2	1.19721e+07	1.47625e+08
0.216667	9.51833e+06	1.45086e+08
0.233333	7.13595e+06	1.37013e+08
0.25	4.95121e+06	1.20191e+08
0.266667	3.12958e+06	9.47718e+07
0.283333	1.79215e+06	6.55973e+07
0.3	943008	3.95257e+07
0.316667	474629	2.10595e+07
0.333333	241025	1.04264e+07
0.35	127082	5.15342e+06
0.366667	69244.3	2.64742e+06
0.383333	38834.9	1.40713e+06
0.4	22340.1	770818
0.416667	13141	433751
0.433333	7881.76	250004
0.45	4807.5	147246
0.466667	2973.57	93977.6
0.483333	1674.92	65772.8
0.5	781.146	40421.7
0.516667	327.527	19228.8
0.533333	140.187	7553.14
0.55	75.7551	2741.48
0.566667	48.8043	1221.35
0.583333	35.0434	650.514
0.6	27.1206	397.038
0.616667	21.8088	292.558
0.633333	17.3686	255.058
0.65	13.3069	227.446
0.666667	9.78708	190.074
0.683333	6.97107	148.93
0.7	4.82274	111.659
0.716667	3.2491	77.7406
0.733333	2.23138	46.1459
0.75	1.7109	24.4944
0.766667	1.4149	20.3577
0.783333	1.03231	27.9606
0.8	0.482883	33.9482
0.816667	-0.0992953	32.2068
0.833333	-0.590676	26.566
0.85	-0.98483	21.4464
0.866667	-1.30556	16.9804
0.883333	-1.55084	10.7923
0.9	-1.6653	1.00649
0.916667	-1.58439	-10.4649
0.933333	-1.31647	-17.8751
0.95	-0.988556	-17.9576
0.966667	-0.717881	-15.2941
0.983333	-0.478752	-16.2696
1	-0.17556	-19.9229
1.01667	0.185344	-19.6462
1.03333	0.479314	-13.4242
1.05	0.632816	-6.14076
1.06667	0.684006	-1.93083
1.08333	0.697177	-0.403636
1.1	0.697461	0.10422
1.11667	0.693703	0.0695026
1.13333	0.695144	0.470201
1.15	0.67803	3.40118
1.16667	0.581771	9.22962
1.18333	0.370376	15.4644
1.2	0.0662912	18.8832
1.21667	-0.259063	17.7975
1.23333	-0.526958	13.919
1.25	-0.72303	10.8217
1.26667	-0.887681	9.74458
1.28333	-1.04785	8.77848
1.3	-1.1803	6.50562
1.31667	-1.2647	4.58968
1.33333	-1.33329	4.36384
1.35	-1.41017	3.49877
1.36667	-1.44991	-0.545075
1.38333	-1.392	-5.49907
1.4	-1.26661	-6.22902
1.41667	-1.18436	-1.90153
1.43333	-1.20323	2.78999
1.45	-1.27736	4.13299
1.46667	-1.34099	2.71256
1.48333	-1.36778	0.969388
1.5	-1.37331	0.471189
1.51667	-1.38349	1.21137
1.53333	-1.41368	2.34977
1.55	-1.46181	2.70848
1.56667	-1.50397	1.89174
1.58333	-1.52487	0.916793
1.6	-1.53453	0.178318
1.61667	-1.53081	-1.46802
1.63333	-1.48559	-4.2073
1.65	-1.39057	-6.12609
1.66667	-1.28139	-5.56609
1.68333	-1.20503	-3.47464
1.7	-1.16557	-2.56191
1.71667	-1.11964	-3.83966
1.73333	-1.03758	-5.87225
1.75	-0.923896	-7.12986
1.76667	-0.799917	-6.93934
1.78333	-0.692584	-5.51883
1.8	-0.615956	-3.85427
1.81667	-0.564109	-2.96406
1.83333	-0.517154	-3.04674
1.85	-0.462551	-3.26465
1.86667	-0.408333	-2.76328
1.88333	-0.370441	-1.6607
1.9	-0.352976	-0.737024
1.91667	-0.345874	-0.554937
1.93333	-0.334478	-1.27609
1.95	-0.303338	-2.8771
1.96667	-0.238575	-5.04192
1.98333	-0.135274	-7.15724
2	0	-8.11641
