0.000000000000000000e+00 8.725246089660520738e+03 1.663987428663767787e+04
1.666666666666666644e-02 8.447914851549892774e+03 1.663987428663759783e+04
3.333333333333333287e-02 8.170583613439267538e+03 1.663987428663754326e+04
5.000000000000000278e-02 7.893252375328641392e+03 1.663987428663756873e+04
6.666666666666666574e-02 7.615921137218015247e+03 1.663987428663756873e+04
8.333333333333332871e-02 7.338589899107389101e+03 1.663987428663759783e+04
1.000000000000000056e-01 7.061258660996762046e+03 1.663987428663756873e+04
1.166666666666666685e-01 6.783927422886136810e+03 1.663987428663756873e+04
1.333333333333333315e-01 6.506596184775509755e+03 1.663987428663759783e+04
1.499999999999999944e-01 6.229264946664883610e+03 1.663987428663759783e+04
1.666666666666666574e-01 5.951933708554256555e+03 1.663987428663756873e+04
1.833333333333333204e-01 5.674602470443631319e+03 1.663987428663756873e+04
2.000000000000000111e-01 5.397271232333004264e+03 1.663987428663759783e+04
2.166666666666666741e-01 5.119939994222378118e+03 1.663987428663759783e+04
2.333333333333333370e-01 4.842608756111751063e+03 1.663987428663759783e+04
2.500000000000000000e-01 4.565277518001124918e+03 1.663987428663756873e+04
2.666666666666666630e-01 4.287946279890498772e+03 1.663987428663756873e+04
2.833333333333333259e-01 4.010615041779872627e+03 1.663987428663756873e+04
2.999999999999999889e-01 3.733283803669246481e+03 1.663987428663756873e+04
3.166666666666666519e-01 3.455952565558620336e+03 1.663987428663756873e+04
3.333333333333333148e-01 3.178621327447994190e+03 1.663987428663758328e+04
3.499999999999999778e-01 2.901290089337367590e+03 1.663987428663758328e+04
3.666666666666666408e-01 2.623958851226741444e+03 1.663987428663758328e+04
3.833333333333333037e-01 2.346627613116114844e+03 1.663987428663760875e+04
4.000000000000000222e-01 2.069296375005487789e+03 1.663987428663759783e+04
4.166666666666666852e-01 1.791965136894861644e+03 1.663987428663756873e+04
4.333333333333333481e-01 1.514633898784235498e+03 1.663987428663757601e+04
4.500000000000000111e-01 1.237302660673609125e+03 1.663987428663757964e+04
4.666666666666666741e-01 9.599714225629828661e+02 1.443414717997977095e+04
4.833333333333333370e-01 7.561644213409500708e+02 1.082229928677990938e+04
5.000000000000000000e-01 5.992281130036525383e+02 8.419405041110028833e+03
5.166666666666666075e-01 4.755175866372824203e+02 6.698877269213510772e+03
5.333333333333333259e-01 3.759322040298688421e+02 5.442510641762117302e+03
5.500000000000000444e-01 2.941005652452118397e+02 4.509363536089814261e+03
5.666666666666666519e-01 2.256200861602083592e+02 3.792831570773838848e+03
5.833333333333333703e-01 1.676728462194172096e+02 4.040437863126616321e+03
5.999999999999999778e-01 9.093882405598783691e+01 3.130763709384739286e+03
6.166666666666666963e-01 6.331405590659257143e+01 1.498274749355924996e+03
6.333333333333333037e-01 4.099633241079033752e+01 1.147965375095822310e+03
6.500000000000000222e-01 2.504854340339849372e+01 7.978668235817336836e+02
6.666666666666666297e-01 1.440077162473254901e+01 5.305588401302428565e+02
6.833333333333333481e-01 7.363248732390401230e+00 3.559550250356426773e+02
6.999999999999999556e-01 2.535604123544458854e+00 2.505321288034853069e+02
7.166666666666666741e-01 -9.878222277257747708e-01 1.869576236263595774e+02
7.333333333333332815e-01 -3.696316664000860452e+00 1.448041044823760899e+02
7.500000000000000000e-01 -5.814625710471644560e+00 1.133456829257306708e+02
7.666666666666666075e-01 -7.474506094858549332e+00 8.924671600416394313e+01
7.833333333333333259e-01 -8.789516243943776175e+00 7.151056218807305243e+01
8.000000000000000444e-01 -9.858191501127651080e+00 5.870275136137879457e+01
8.166666666666666519e-01 -1.074627462265640254e+01 4.800980581342859210e+01
8.333333333333333703e-01 -1.145851836157527082e+01 3.532811140993877075e+01
8.499999999999999778e-01 -1.192387833632102812e+01 1.756613555066953936e+01
8.666666666666666963e-01 -1.204405621326425546e+01 -4.370216508724666937e+00
8.833333333333333037e-01 -1.177820445269687255e+01 -2.604593537801036973e+01
9.000000000000000222e-01 -1.117585836733057647e+01 -4.272205401235847688e+01
9.166666666666666297e-01 -1.035413598561825665e+01 -5.215712769756342482e+01
9.333333333333333481e-01 -9.437287444078462428e+00 -5.568654150746546350e+01
9.499999999999999556e-01 -8.497917935369407871e+00 -5.652875633364153884e+01
9.666666666666666741e-01 -7.552995566290411134e+00 -5.689759080710526717e+01
9.833333333333332815e-01 -6.601331575132565632e+00 -5.707079733435959668e+01
1.000000000000000000e+00 -5.650635655145091363e+00 -5.652546736555368767e+01
1.016666666666666607e+00 -4.717149329614109377e+00 -5.463441024750490271e+01
1.033333333333333215e+00 -3.829488646894927850e+00 -5.061115238600491040e+01
1.050000000000000044e+00 -3.030110916747279060e+00 -4.358512037020332741e+01
1.066666666666666652e+00 -2.376651301221483603e+00 -3.362438411853360520e+01
1.083333333333333259e+00 -1.909298112796159019e+00 -2.267344590991549325e+01
1.100000000000000089e+00 -1.620869770890967176e+00 -1.406709124148184031e+01
1.116666666666666696e+00 -1.440395071413431038e+00 -1.061850677453186265e+01
1.133333333333333304e+00 -1.266919545073238451e+00 -1.222756018356760599e+01
1.149999999999999911e+00 -1.032809731961177535e+00 -1.595519780891840256e+01
1.166666666666666741e+00 -7.350796181092916770e-01 -1.820632998672038383e+01
1.183333333333333348e+00 -4.259320657371647445e-01 -1.643471991013919720e+01
1.199999999999999956e+00 -1.872556211046517982e-01 -9.908971561792926153e+00
1.216666666666666563e+00 -9.563301367740059677e-02 -7.087022837093848171e-01
1.233333333333333393e+00 -1.636322116476723043e-01 7.183412475544937337e+00
1.250000000000000000e+00 -3.350800961955651691e-01 1.091286143097745409e+01
1.266666666666666607e+00 -5.273942593469207463e-01 1.067017064430601891e+01
1.283333333333333215e+00 -6.907524510057657663e-01 8.760508296095634861e+00
1.300000000000000044e+00 -8.194112025501085750e-01 7.487534766643269002e+00
1.316666666666666652e+00 -9.403369432272080664e-01 7.740940762459754154e+00
1.333333333333333259e+00 -1.077442561298767032e+00 9.150944183387268893e+00
1.350000000000000089e+00 -1.245368416006783718e+00 1.105555417669610030e+01
1.366666666666666696e+00 -1.445961033855303723e+00 1.305242665671457303e+01
1.383333333333333304e+00 -1.680449304563936153e+00 1.493754319412570730e+01
1.399999999999999911e+00 -1.943879140326160604e+00 1.618683530783535574e+01
1.416666666666666741e+00 -2.220010481491781373e+00 1.599168722402677645e+01
1.433333333333333348e+00 -2.476935381127053137e+00 1.352883285643954991e+01
1.449999999999999956e+00 -2.670971576706433037e+00 8.726165779410184342e+00
1.466666666666666563e+00 -2.767807573774059282e+00 2.491977656213730796e+00
1.483333333333333393e+00 -2.754037498580224064e+00 -3.716043430595803443e+00
1.500000000000000000e+00 -2.643939459420865834e+00 -8.441460596863992194e+00
1.516666666666666607e+00 -2.472655478684757657e+00 -1.086641936254108209e+01
1.533333333333333215e+00 -2.281725480669496431e+00 -1.107269509609070646e+01
1.550000000000000044e+00 -2.103565642148400805e+00 -9.639886570376583919e+00
1.566666666666666652e+00 -1.960395928323610315e+00 -7.436620395264162298e+00
1.583333333333333259e+00 -1.855678295639595410e+00 -5.501003024462853830e+00
1.600000000000000089e+00 -1.777029160841515187e+00 -4.505301104743475449e+00
1.616666666666666696e+00 -1.705501592148146228e+00 -4.436822613935960113e+00
1.633333333333333304e+00 -1.629135073710316517e+00 -4.864152487553282000e+00
1.649999999999999911e+00 -1.543363175896370176e+00 -5.577623071736484306e+00
1.666666666666666741e+00 -1.443214304652433722e+00 -6.715416397175646424e+00
1.683333333333333348e+00 -1.319515962657181962e+00 -8.257747498843492906e+00
1.699999999999999956e+00 -1.167956054690983958e+00 -9.728321135608480219e+00
1.716666666666666563e+00 -9.952385914702326364e-01 -1.057750776626111211e+01
1.733333333333333393e+00 -8.153724624822802358e-01 -1.057528671406784504e+01
1.750000000000000000e+00 -6.427290343346377943e-01 -9.798919705694499882e+00
1.766666666666666607e+00 -4.887418056257968879e-01 -8.408139969105580036e+00
1.783333333333333215e+00 -3.624577020311184894e-01 -6.546404655258949212e+00
1.800000000000000044e+00 -2.705283171171652401e-01 -4.491753891275207522e+00
1.816666666666666652e+00 -2.127325723219448961e-01 -2.745190585423390672e+00
1.833333333333333259e+00 -1.790219642697188918e-01 -1.736234739607562361e+00
1.849999999999999867e+00 -1.548580810016928211e-01 -1.435629351191408221e+00
1.866666666666666696e+00 -1.311676525633386214e-01 -1.464148853681795925e+00
1.883333333333333304e+00 -1.060531192122996236e-01 -1.522344317582210005e+00
1.899999999999999911e+00 -8.042284197726495831e-02 -1.555863580163431514e+00
1.916666666666666741e+00 -5.419099987351857356e-02 -1.530641949500681331e+00
1.933333333333333348e+00 -2.940144366057558314e-02 -1.574839327790249710e+00
1.949999999999999956e+00 -1.696355613843584338e-03 -9.025449415922480734e-01
1.966666666666666563e+00 6.833877258326864160e-04 -5.543831625759017973e-02
1.983333333333333393e+00 1.515882614094216151e-04 2.050163177498059291e-02
2.000000000000000000e+00 0.000000000000000000e+00 9.095295684565296579e-03
