0	7.54213e+08	4.38711e+08
0.0166667	7.46901e+08	8.51227e+08
0.0333333	7.25839e+08	1.60636e+09
0.05	6.93356e+08	2.1996e+09
0.0666667	6.52519e+08	2.61084e+09
0.0833333	6.06328e+08	2.86094e+09
0.1	5.57154e+08	2.99317e+09
0.116667	5.06555e+08	3.0528e+09
0.133333	4.55394e+08	3.07365e+09
0.15	4.04101e+08	3.07354e+09
0.166667	3.52943e+08	3.05542e+09
0.183333	3.02253e+08	3.01028e+09
0.2	2.526e+08	2.921e+09
0.216667	2.04887e+08	2.76781e+09
0.233333	1.6034e+08	2.53618e+09
0.25	1.20347e+08	2.22525e+09
0.266667	8.61648e+07	1.85273e+09
0.283333	5.85895e+07	1.45284e+09
0.3	3.77367e+07	1.06702e+09
0.316667	2.30222e+07	7.31561e+08
0.333333	1.33513e+07	4.68025e+08
0.35	7.42138e+06	2.80314e+08
0.366667	4.00755e+06	1.58447e+08
0.383333	2.13982e+06	8.57053e+07
0.4	1.15071e+06	4.52297e+07
0.416667	632164	2.38028e+07
0.433333	357282	1.27287e+07
0.45	207873	6.99239e+06
0.466667	124202	3.95676e+06
0.483333	75980.6	2.30218e+06
0.5	47462.9	1.37325e+06
0.516667	30205.6	837546
0.533333	19544.7	521111
0.55	12835.2	330127
0.566667	8540.46	212628
0.583333	5747.58	139179
0.6	3901.17	92759.9
0.616667	2655.58	63206.2
0.633333	1794.3	44084.2
0.65	1186.11	33707.1
0.666667	670.732	23640.9
0.683333	398.083	13332.9
0.7	226.303	8235.54
0.716667	123.565	4821.35
0.733333	65.5917	2690.51
0.75	33.8811	1463.23
0.766667	16.8173	784.997
0.783333	7.71451	421.609
0.8	2.76368	233.159
0.816667	-0.0574443	135.783
0.833333	-1.76243	83.8916
0.85	-2.85383	54.5074
0.866667	-3.57934	36.1336
0.883333	-4.05828	23.0889
0.9	-4.34897	12.8415
0.916667	-4.48633	4.51756
0.933333	-4.49955	-2.05846
0.95	-4.41772	-6.86725
0.966667	-4.27064	-9.91401
0.983333	-4.08725	-11.3555
1	-3.89213	-11.5635
1.01667	-3.7018	-11.0787
1.03333	-3.52284	-10.4577
1.05	-3.35321	-10.0844
1.06667	-3.18669	-10.0588
1.08333	-3.01792	-10.2531
1.1	-2.84492	-10.465
1.11667	-2.66908	-10.5453
1.13333	-2.49341	-10.4108
1.15	-2.32206	-10.0019
1.16667	-2.16001	-9.31686
1.18333	-2.01149	-8.45071
1.2	-1.87832	-7.53839
1.21667	-1.76022	-6.65312
1.23333	-1.65655	-5.80759
1.25	-1.56663	-5.03645
1.26667	-1.48867	-4.40384
1.28333	-1.41983	-3.92692
1.3	-1.35777	-3.54638
1.31667	-1.30162	-3.17084
1.33333	-1.25207	-2.70203
1.35	-1.21155	-2.05184
1.36667	-1.18368	-1.20433
1.38333	-1.17141	-0.274243
1.4	-1.17454	0.555275
1.41667	-1.18992	1.18658
1.43333	-1.21409	1.65233
1.45	-1.245	2.02315
1.46667	-1.28153	2.31701
1.48333	-1.32223	2.49021
1.5	-1.36454	2.47188
1.51667	-1.40463	2.19504
1.53333	-1.4377	1.63481
1.55	-1.45912	0.855958
1.56667	-1.46624	-0.00703229
1.58333	-1.45889	-0.846374
1.6	-1.43802	-1.64639
1.61667	-1.40401	-2.45963
1.63333	-1.35604	-3.32094
1.65	-1.29331	-4.18853
1.66667	-1.21642	-4.96441
1.68333	-1.12783	-5.56125
1.7	-1.03104	-5.94982
1.71667	-0.9295	-6.14767
1.73333	-0.826122	-6.17464
1.75	-0.723678	-6.03899
1.76667	-0.624822	-5.76373
1.78333	-0.531554	-5.3929
1.8	-0.445059	-4.96453
1.81667	-0.366069	-4.49218
1.83333	-0.295319	-3.98
1.85	-0.233403	-3.4472
1.86667	-0.180413	-2.92184
1.88333	-0.136008	-2.42118
1.9	-0.0997066	-1.95045
1.91667	-0.070993	-1.51584
1.93333	-0.0491786	-1.13044
1.95	-0.0333116	-0.805545
1.96667	-0.0223271	-0.541512
1.98333	-0.0152612	-0.327513
2	-0.01141	-0.231069
