0.00000000 60077.44653020 599700.89643154
0.01666667 50797.07882308 513943.22842308
0.03333333 42946.00558276 434779.25115353
0.05000000 36304.43711796 367789.52333347
0.06666667 30686.35480498 311103.38554859
0.08333333 25934.32426634 263137.49388717
0.10000000 21915.10500874 222551.70095804
0.11666667 18515.93423440 188211.71084223
0.13333333 15641.38131400 159157.46798657
0.15000000 13210.68530152 134576.39971095
0.16666667 11155.50132363 113780.76715227
0.18333333 9417.99306311 96188.49387130
0.20000000 7949.21819459 81306.93818805
0.21666667 6707.76179017 68719.15728410
0.23333333 5658.57961845 58072.28049815
0.25000000 4772.01910690 49067.66797665
0.26666667 4022.99068590 41452.58055934
0.28333333 3390.26642159 35013.12886492
0.30000000 2855.88639040 29568.30516632
0.31666667 2404.65624938 24964.93179983
0.33333333 2023.72199707 21073.38537811
0.35000000 1702.21007011 17783.97768357
0.36666667 1430.92274095 15003.89240823
0.38333333 1202.08032317 12654.59238760
0.40000000 1009.10299470 10669.62508101
0.41666667 846.42615380 8992.76514357
0.43333333 709.34415658 7576.44232451
0.45000000 593.87807632 6380.41087503
0.46666667 496.66379408 5370.62337639
0.48333333 414.85729710 4518.27759412
0.50000000 346.05454094 3799.00978450
0.51666667 288.22363762 3192.21196018
0.53333333 239.64747560 2680.45407548
0.55000000 198.87516844 2248.99501581
0.56666667 164.68097508 1885.36875010
0.58333333 136.02954344 1579.03410025
0.60000000 112.04650507 1893.46374887
0.61666667 72.91408514 2037.88280613
0.63333333 44.11707820 1083.54203482
0.65000000 36.79601731 653.35110065
0.66666667 22.33870818 498.89947815
0.68333333 20.16603471 130.36040818
0.70000000 17.99336124 122.15620911
0.71666667 16.09416107 121.51378064
0.73333333 13.94290188 125.78262514
0.75000000 11.90140690 115.80818550
0.76666667 10.08262903 102.99593878
0.78333333 8.46820894 92.36427086
0.80000000 7.00382000 84.50110202
0.81666667 5.65150554 78.01670082
0.83333333 4.40326331 71.90634678
0.85000000 3.25462731 66.14859606
0.86666667 2.19831011 60.74344916
0.88333333 1.22984567 55.56429383
0.90000000 0.34616698 50.52060299
0.91666667 -0.45417442 45.59391981
0.93333333 -1.17363035 40.86202912
0.95000000 -1.81624206 36.39675897
0.96666667 -2.38685565 32.23174714
0.98333333 -2.89063363 28.31426974
1.00000000 -3.33066464 24.53325655
1.01666667 -3.70840885 20.83696114
1.03333333 -4.02523001 17.32169614
1.05000000 -4.28579872 14.10950965
1.06666667 -4.49554700 11.12577002
1.08333333 -4.65665772 8.22248516
1.10000000 -4.76962984 5.49074326
1.11666667 -4.83968250 3.15387365
1.13333333 -4.87475896 1.25233222
1.15000000 -4.88142691 -0.41591333
1.16666667 -4.86089518 -2.12533527
1.18333333 -4.81058240 -4.04593318
1.20000000 -4.72603074 -6.09070794
1.21666667 -4.60755880 -7.86276969
1.23333333 -4.46393842 -8.96175404
1.25000000 -4.30883366 -9.30932716
1.26666667 -4.15362751 -9.18621487
1.28333333 -4.00262650 -9.00467279
1.30000000 -3.85347175 -9.04633329
1.31666667 -3.70108206 -9.40371113
1.33333333 -3.54001471 -9.96959786
1.35000000 -3.36876213 -10.49287264
1.36666667 -3.19025229 -10.81354942
1.38333333 -3.00831048 -10.88764504
1.40000000 -2.82733079 -10.73016604
1.41666667 -2.65063828 -10.41104619
1.43333333 -2.48029592 -10.03824351
1.45000000 -2.31603016 -9.68963027
1.46666667 -2.15730824 -9.38669585
1.48333333 -2.00314030 -9.12390968
1.50000000 -1.85317792 -8.83864843
1.51666667 -1.70851869 -8.44720398
1.53333333 -1.57160445 -7.97645468
1.55000000 -1.44263687 -7.55030784
1.56666667 -1.31992753 -7.23981422
1.58333333 -1.20130973 -7.02216882
1.60000000 -1.08585523 -6.80366442
1.61666667 -0.97452091 -6.49101669
1.63333333 -0.86948801 -6.03517556
1.65000000 -0.77334839 -5.44545356
1.66666667 -0.68797289 -4.77721154
1.68333333 -0.61410801 -4.10148627
1.70000000 -0.55125668 -3.49059827
1.71666667 -0.49775473 -3.00303053
1.73333333 -0.45115566 -2.66463220
1.75000000 -0.40893366 -2.45688715
1.76666667 -0.36925943 -2.33027394
1.78333333 -0.33125786 -2.22501723
1.80000000 -0.29509219 -2.09303516
1.81666667 -0.26149002 -1.91656125
1.83333333 -0.23120681 -1.71110712
1.85000000 -0.20445312 -1.50699330
1.86666667 -0.18097370 -1.33104918
1.88333333 -0.16008481 -1.20689713
1.90000000 -0.14074380 -1.15935764
1.91666667 -0.12143956 -1.20121856
1.93333333 -0.10070318 -3.15959795
1.95000000 -0.01611963 -2.97211345
1.96666667 -0.00163273 -0.47881317
1.98333333 -0.00015919 -0.04898187
2.00000000 0.00000000 0.02987942
