0.000000000000000000e+00 2.260670261324813737e+02 5.337545800328553014e+02
1.666666666666666644e-02 2.171711164652671187e+02 5.337545800328553014e+02
3.333333333333333287e-02 2.082752067980528636e+02 5.337545800328553014e+02
5.000000000000000278e-02 1.993792971308386086e+02 5.337545800328553014e+02
6.666666666666666574e-02 1.904833874636243536e+02 5.337545800328553014e+02
8.333333333333332871e-02 1.815874777964100986e+02 5.337545800328553014e+02
1.000000000000000056e-01 1.726915681291958435e+02 5.337545800328553014e+02
1.166666666666666685e-01 1.637956584619815885e+02 5.337545800328553014e+02
1.333333333333333315e-01 1.548997487947673335e+02 5.337545800328553014e+02
1.499999999999999944e-01 1.460038391275530785e+02 5.337545800328553014e+02
1.666666666666666574e-01 1.371079294603388234e+02 5.337545800328553014e+02
1.833333333333333204e-01 1.282120197931245684e+02 5.337545800328562109e+02
2.000000000000000111e-01 1.193161101259102850e+02 5.337545800328562109e+02
2.166666666666666741e-01 1.104202004586960300e+02 5.337545800328553014e+02
2.333333333333333370e-01 1.015242907914817749e+02 5.337545800328553014e+02
2.500000000000000000e-01 9.262838112426751991e+01 5.337545800328553014e+02
2.666666666666666630e-01 8.373247145705326488e+01 5.337545800328553014e+02
2.833333333333333259e-01 7.483656178983900986e+01 5.337545800328553014e+02
2.999999999999999889e-01 6.594065212262475484e+01 5.337545800328553014e+02
3.166666666666666519e-01 5.704474245541049982e+01 5.337545800328553014e+02
3.333333333333333148e-01 4.814883278819624479e+01 4.680430230640835134e+02
3.499999999999999778e-01 4.144330835327438223e+01 2.843012473397365625e+02
3.666666666666666408e-01 3.867212454353835938e+01 1.896536822191469582e+02
3.833333333333333037e-01 3.512151894596948409e+01 2.128093974928580394e+02
4.000000000000000222e-01 3.157847796044309163e+01 2.069107062670836967e+02
4.166666666666666852e-01 2.822449540373336063e+01 1.925212712179608161e+02
4.333333333333333481e-01 2.516110225317773086e+01 1.751408190152991438e+02
4.500000000000000111e-01 2.238646810322338965e+01 1.577811425154496305e+02
4.666666666666666741e-01 1.990173083599607651e+01 1.417892061999463635e+02
4.833333333333333370e-01 1.766016122989184467e+01 1.285298479433615455e+02
5.000000000000000000e-01 1.561740257121735809e+01 1.180106218570882390e+02
5.166666666666666075e-01 1.372647383465556992e+01 1.093210756885468840e+02
5.333333333333333259e-01 1.197336671493246207e+01 1.019223770274903842e+02
5.500000000000000444e-01 1.032906126707255723e+01 9.562917340847634762e+01
5.666666666666666519e-01 8.785727601316583701e+00 8.976150068025381756e+01
5.833333333333333703e-01 7.337011244397429799e+00 8.379102076947852140e+01
5.999999999999999778e-01 5.992693575667299655e+00 7.770459802195888699e+01
6.166666666666666963e-01 4.746857976998800410e+00 7.189361793488113506e+01
6.333333333333333037e-01 3.596239644504595212e+00 6.649003383274637713e+01
6.500000000000000222e-01 2.530523515907254328e+00 6.148401870239970890e+01
6.666666666666666297e-01 1.546772354424605034e+00 5.684259207792621993e+01
6.833333333333333481e-01 6.357704466430470491e-01 5.252995848984237881e+01
6.999999999999999556e-01 -2.042262619034741489e-01 4.837717519861995186e+01
7.166666666666666741e-01 -9.768020599776180424e-01 4.418997625667173423e+01
7.333333333333332815e-01 -1.677225470459198675e+00 3.977544163675759847e+01
7.500000000000000000e-01 -2.302650114536204828e+00 3.503235514162783204e+01
7.666666666666666075e-01 -2.844970641846793047e+00 3.007367577307762829e+01
7.833333333333333259e-01 -3.305105973638792438e+00 2.541867444839850165e+01
8.000000000000000444e-01 -3.692259790126743102e+00 2.147974795237697876e+01
8.166666666666666519e-01 -4.021097572051358426e+00 1.828100859904462894e+01
8.333333333333333703e-01 -4.301626743428230704e+00 1.560113547223147989e+01
8.499999999999999778e-01 -4.541135421125741090e+00 1.316818946674329638e+01
8.666666666666666963e-01 -4.740566392319673916e+00 1.060188670033540781e+01
8.833333333333333037e-01 -4.894531644470254683e+00 7.674258758607708231e+00
9.000000000000000222e-01 -4.996375017606597524e+00 4.650976775299611177e+00
9.166666666666666297e-01 -5.049564203646908389e+00 2.211204411046825413e+00
9.333333333333333481e-01 -5.070081831308158371e+00 5.852645126896671712e-01
9.499999999999999556e-01 -5.069073020736563961e+00 -4.923306632355917145e-01
9.666666666666666741e-01 -5.053670809200305314e+00 -1.461674487615018947e+00
9.833333333333332815e-01 -5.020350537816063330e+00 -2.717791751972491454e+00
1.000000000000000000e+00 -4.963077750801222265e+00 -4.341454266326483236e+00
1.016666666666666607e+00 -4.875635395605180555e+00 -5.804106045756709520e+00
1.033333333333333215e+00 -4.769607549275998615e+00 -6.467751241350940816e+00
1.050000000000000044e+00 -4.660043687560149195e+00 -6.327259875727033744e+00
1.066666666666666652e+00 -4.558698886751764157e+00 -5.880393525996900905e+00
1.083333333333333259e+00 -4.464030570026919165e+00 -5.698387451929125547e+00
1.100000000000000089e+00 -4.368752638354126638e+00 -6.197673644081254096e+00
1.116666666666666696e+00 -4.257441448557544028e+00 -7.563582509731716641e+00
1.133333333333333304e+00 -4.116633221363069417e+00 -9.436703743391895216e+00
1.149999999999999911e+00 -3.942884657111147551e+00 -1.116188524731131260e+01
1.166666666666666741e+00 -3.744570379786025693e+00 -1.221812732184687889e+01
1.183333333333333348e+00 -3.535613746382918254e+00 -1.241759841182964763e+01
1.199999999999999956e+00 -3.330650432725037469e+00 -1.184763683241870069e+01
1.216666666666666563e+00 -3.140692518635628261e+00 -1.099424235290513252e+01
1.233333333333333393e+00 -2.964175687628199718e+00 -1.033311689886321716e+01
1.250000000000000000e+00 -2.796255288673521022e+00 -1.000501663791585649e+01
1.266666666666666607e+00 -2.630675133031004531e+00 -9.912095556431369303e+00
1.283333333333333215e+00 -2.465852103459142075e+00 -9.933743728816711638e+00
1.300000000000000044e+00 -2.299550342070447506e+00 -1.006636395272021289e+01
1.316666666666666652e+00 -2.130306638368468342e+00 -1.033335634540723724e+01
1.333333333333333259e+00 -1.955105130556872961e+00 -1.062043013377047807e+01
1.350000000000000089e+00 -1.776292300576119088e+00 -1.068507034951523593e+01
1.366666666666666696e+00 -1.598936118906365111e+00 -1.031510757384560151e+01
1.383333333333333304e+00 -1.432455381447932385e+00 -9.353003559084070773e+00
1.399999999999999911e+00 -1.287169333603562782e+00 -7.959905842890480088e+00
1.416666666666666741e+00 -1.167125186684916383e+00 -6.627246434730891700e+00
1.433333333333333348e+00 -1.066261119112533073e+00 -5.784665663720836903e+00
1.449999999999999956e+00 -9.743029978942218117e-01 -5.486807088224381346e+00
1.466666666666666563e+00 -8.833675495050536952e-01 -5.529835761761654922e+00
1.483333333333333393e+00 -7.899751391688333291e-01 -5.580483948603809807e+00
1.500000000000000000e+00 -6.973514178849267164e-01 -5.402868778802782934e+00
1.516666666666666607e+00 -6.098795132087405646e-01 -4.974183390563340801e+00
1.533333333333333215e+00 -5.315453048661487045e-01 -4.331388016304119404e+00
1.550000000000000044e+00 -4.654999126652699104e-01 -3.520407272700773138e+00
1.566666666666666652e+00 -4.141983957761229407e-01 -2.651370262767342556e+00
1.583333333333333259e+00 -3.771209039063584956e-01 -1.875892484976334318e+00
1.600000000000000089e+00 -3.516686462769118005e-01 -1.304279235166520667e+00
1.616666666666666696e+00 -3.336449294008078104e-01 -9.599422362810577924e-01
1.633333333333333304e+00 -3.196705717342098740e-01 -8.130858707685312270e-01
1.649999999999999911e+00 -3.065420670418567695e-01 -8.147536800764770826e-01
1.666666666666666741e+00 -2.925121157316606380e-01 -8.568422600931724364e-01
1.683333333333333348e+00 -2.779806583720843549e-01 -8.233211487337371848e-01
1.699999999999999956e+00 -2.650680774405360651e-01 -6.713462589751101328e-01
1.716666666666666563e+00 -2.556024497395806838e-01 -4.305729003177782843e-01
1.733333333333333393e+00 -2.507156474299434556e-01 -1.654349879179256577e-01
1.750000000000000000e+00 -2.500879501423164952e-01 3.178137583884355077e-02
1.766666666666666607e+00 -2.517750266245715740e-01 1.059180553462824026e-01
1.783333333333333215e+00 -2.536185519871925753e-01 6.084540330445475931e-02
1.800000000000000044e+00 -2.538032067347200660e-01 -8.415197122122131113e-02
1.816666666666666652e+00 -2.508134862798185316e-01 -2.947291423901257645e-01
1.833333333333333259e+00 -2.439789019883825405e-01 -5.105632149976178091e-01
1.849999999999999867e+00 -2.337947124465646065e-01 -6.875189678309177044e-01
1.866666666666666696e+00 -2.210616030606852855e-01 -8.168319768986026519e-01
1.883333333333333304e+00 -2.065669798832778514e-01 -9.307833504491822563e-01
1.899999999999999911e+00 -1.900354913790458788e-01 -1.083354821443286653e+00
1.916666666666666741e+00 -1.704551525018349611e-01 -1.309031650544307812e+00
1.933333333333333348e+00 -1.464011030275689518e-01 -4.363192198197243243e+00
1.949999999999999956e+00 -2.501541256192684609e-02 -4.298656095911071340e+00
1.966666666666666563e+00 -3.112566497199912956e-03 -7.412782984186141455e-01
1.983333333333333393e+00 -3.061359479730434564e-04 -9.337699491599739388e-02
2.000000000000000000e+00 0.000000000000000000e+00 -1.836815687838260630e-02
