0	1.19877e+07	1.18309e+07
0.0166667	1.17905e+07	2.21786e+07
0.0333333	1.12484e+07	3.94394e+07
0.05	1.04759e+07	4.98621e+07
0.0666667	9.58634e+06	5.47121e+07
0.0833333	8.65214e+06	5.643e+07
0.1	7.70534e+06	5.68813e+07
0.116667	6.7561e+06	5.69448e+07
0.133333	5.80718e+06	5.68312e+07
0.15	4.86172e+06	5.63418e+07
0.166667	3.92912e+06	5.4892e+07
0.183333	3.03199e+06	5.15857e+07
0.2	2.2096e+06	4.56724e+07
0.216667	1.50958e+06	3.72636e+07
0.233333	967480	2.76285e+07
0.25	588624	1.85939e+07
0.266667	347682	1.15166e+07
0.283333	204736	6.74819e+06
0.3	122742	3.87206e+06
0.316667	75667.6	2.24172e+06
0.333333	48018.6	1.33149e+06
0.35	31284.6	815099
0.366667	20848.6	513495
0.383333	14168.1	332160
0.4	9776.62	220284
0.416667	6825.31	149379
0.433333	4797.31	103815
0.45	3364.82	72424.4
0.466667	2383.16	50084.3
0.483333	1695.34	35158.2
0.5	1211.22	24753.7
0.516667	870.22	17450.4
0.533333	629.544	12340.7
0.55	458.864	8787.8
0.566667	336.618	6327.74
0.583333	247.94	4606.29
0.6	183.075	3369.82
0.616667	135.612	2461.7
0.633333	101.018	1792.08
0.65	75.8764	1301.74
0.666667	57.6265	944.35
0.683333	44.3981	684.944
0.7	34.795	499.667
0.716667	27.7425	370.233
0.733333	22.4539	280.212
0.75	18.4021	216.333
0.766667	15.2428	169.934
0.783333	12.7376	136.04
0.8	10.7082	111.668
0.816667	9.01535	94.8944
0.833333	7.545	84.3406
0.85	6.204	78.1768
0.866667	4.93911	73.8204
0.883333	3.74332	69.2372
0.9	2.6312	63.7918
0.916667	1.61693	57.6749
0.933333	0.708704	51.3628
0.95	-0.0951656	45.5913
0.966667	-0.811007	40.9312
0.983333	-1.45954	37.0236
1	-2.04513	32.8916
1.01667	-2.55592	28.3059
1.03333	-2.98866	24.1273
1.05	-3.36017	21.0532
1.06667	-3.69043	18.6847
1.08333	-3.98299	16.1233
1.1	-4.22787	13.1647
1.11667	-4.42181	10.4075
1.13333	-4.57479	8.34266
1.15	-4.6999	6.98674
1.16667	-4.80768	6.03846
1.18333	-4.90118	4.94582
1.2	-4.97254	3.33688
1.21667	-5.01241	1.43138
1.23333	-5.02025	-0.316892
1.25	-5.00185	-1.70851
1.26667	-4.9633	-2.75071
1.28333	-4.91016	-3.49428
1.3	-4.84682	-4.0683
1.31667	-4.77455	-4.58595
1.33333	-4.69396	-4.98917
1.35	-4.60824	-5.29122
1.36667	-4.51759	-5.87027
1.38333	-4.41257	-7.04317
1.4	-4.28281	-8.44347
1.41667	-4.13112	-9.3778
1.43333	-3.97022	-9.64805
1.45	-3.80951	-9.59747
1.46667	-3.6503	-9.6059
1.48333	-3.48932	-9.83098
1.5	-3.3226	-10.2377
1.51667	-3.14806	-10.6755
1.53333	-2.96675	-10.9635
1.55	-2.78261	-10.977
1.56667	-2.60085	-10.747
1.58333	-2.42438	-10.4791
1.6	-2.25155	-10.3061
1.61667	-2.08084	-10.0599
1.63333	-1.91622	-9.4987
1.65	-1.76422	-8.68084
1.66667	-1.62686	-7.90621
1.68333	-1.50068	-7.37059
1.7	-1.38117	-7.02967
1.71667	-1.26636	-6.71204
1.73333	-1.15744	-6.26826
1.75	-1.05741	-5.68907
1.76667	-0.967804	-5.11632
1.78333	-0.886869	-4.68745
1.8	-0.811556	-4.40913
1.81667	-0.739898	-4.21869
1.83333	-0.670933	-4.07782
1.85	-0.603971	-3.96007
1.86667	-0.53893	-3.8434
1.88333	-0.475858	-3.76115
1.9	-0.413558	-3.77402
1.91667	-0.350057	-3.88102
1.93333	-0.284191	-4.02516
1.95	-0.215885	-4.16188
1.96667	-0.145462	-4.27746
1.98333	-0.073303	-4.36386
2	0	-4.39818
