0.000000000000000000e+00 2.522108418178762008e+02 3.500189509184525605e+02
1.666666666666666644e-02 2.463771926359019915e+02 3.500189509184517078e+02
3.333333333333333287e-02 2.405435434539278106e+02 3.500189509184517078e+02
5.000000000000000278e-02 2.347098942719536012e+02 3.500189509184517078e+02
6.666666666666666574e-02 2.288762450899794203e+02 3.500189509184517078e+02
8.333333333333332871e-02 2.230425959080052110e+02 3.500189509184508552e+02
1.000000000000000056e-01 2.172089467260310585e+02 3.500189509184508552e+02
1.166666666666666685e-01 2.113752975440568491e+02 3.500189509184517078e+02
1.333333333333333315e-01 2.055416483620826682e+02 3.500189509184517078e+02
1.499999999999999944e-01 1.997079991801084589e+02 3.500189509184517078e+02
1.666666666666666574e-01 1.938743499981342779e+02 3.500189509184517078e+02
1.833333333333333204e-01 1.880407008161600686e+02 3.500189509184517078e+02
2.000000000000000111e-01 1.822070516341858877e+02 3.500189509184508552e+02
2.166666666666666741e-01 1.763734024522117068e+02 3.500189509184517078e+02
2.333333333333333370e-01 1.705397532702374974e+02 3.500189509184517078e+02
2.500000000000000000e-01 1.647061040882633165e+02 3.500189509184508552e+02
2.666666666666666630e-01 1.588724549062891356e+02 3.500189509184517078e+02
2.833333333333333259e-01 1.530388057243149262e+02 3.500189509184517078e+02
2.999999999999999889e-01 1.472051565423407453e+02 3.500189509184508552e+02
3.166666666666666519e-01 1.413715073603665644e+02 3.500189509184517078e+02
3.333333333333333148e-01 1.355378581783923551e+02 3.500189509184517078e+02
3.499999999999999778e-01 1.297042089964181741e+02 3.500189509184513099e+02
3.666666666666666408e-01 1.238705598144439790e+02 3.500189509184517078e+02
3.833333333333333037e-01 1.180369106324697839e+02 3.500189509184521626e+02
4.000000000000000222e-01 1.122032614504955745e+02 3.500189509184521626e+02
4.166666666666666852e-01 1.063696122685213794e+02 3.500189509184513099e+02
4.333333333333333481e-01 1.005359630865471985e+02 3.500189509184513099e+02
4.500000000000000111e-01 9.470231390457300336e+01 3.500189509184517078e+02
4.666666666666666741e-01 8.886866472259880823e+01 3.500189509184513099e+02
4.833333333333333370e-01 8.303501554062462731e+01 3.500189509184513099e+02
5.000000000000000000e-01 7.720136635865043218e+01 3.500189509184508552e+02
5.166666666666666075e-01 7.136771717667626547e+01 3.500189509184513099e+02
5.333333333333333259e-01 6.553406799470205613e+01 3.500189509184525605e+02
5.500000000000000444e-01 5.970041881272784678e+01 3.500189509184513099e+02
5.666666666666666519e-01 5.386676963075368008e+01 3.500189509184513099e+02
5.833333333333333703e-01 4.803312044877947073e+01 3.500189509184514804e+02
5.999999999999999778e-01 4.219947126680529692e+01 3.500189509184514804e+02
6.166666666666666963e-01 3.636582208483108758e+01 3.500189509184513668e+02
6.333333333333333037e-01 3.053217290285691732e+01 3.500189509184513668e+02
6.500000000000000222e-01 2.469852372088270798e+01 3.500189509184513668e+02
6.666666666666666297e-01 1.886487453890853772e+01 2.969789640280239951e+02
6.833333333333333481e-01 1.479922491994857481e+01 2.169435252588386049e+02
6.999999999999999556e-01 1.163342369694725065e+01 1.720564358205138262e+02
7.166666666666666741e-01 9.064010392598113697e+00 1.404879514918454504e+02
7.333333333333332815e-01 6.950491980552402360e+00 1.156458212446632103e+02
7.500000000000000000e-01 5.209149684442673234e+00 9.496329862504185826e+01
7.666666666666666075e-01 3.785048693051006996e+00 7.748579382856449627e+01
7.833333333333333259e-01 2.626289890157190055e+00 6.293086370157787002e+01
8.000000000000000444e-01 1.687353236331744943e+00 5.084072506607536468e+01
8.166666666666666519e-01 9.315990546213445134e-01 4.068115819903449903e+01
8.333333333333333703e-01 3.313146296972617200e-01 3.219017053709635690e+01
8.499999999999999778e-01 -1.414066299485339795e-01 2.522739645442968381e+01
8.666666666666666963e-01 -5.095985854503943813e-01 1.952042620165963882e+01
8.833333333333333037e-01 -7.920875033371886920e-01 1.479151015508822375e+01
9.000000000000000222e-01 -1.002648923953335158e+00 1.087080525694466360e+01
9.166666666666666297e-01 -1.154447678568677471e+00 7.625151290407701232e+00
9.333333333333333481e-01 -1.256820633633591866e+00 4.897622944254100830e+00
9.499999999999999556e-01 -1.317701776710480832e+00 2.570548373063901160e+00
9.666666666666666741e-01 -1.342505579402388571e+00 5.687916095766065716e-01
9.833333333333332815e-01 -1.336661497029701051e+00 -1.133799526842560468e+00
1.000000000000000000e+00 -1.304712261840969889e+00 -2.507528460353500854e+00
1.016666666666666607e+00 -1.253077215017917689e+00 -3.499241317577621579e+00
1.033333333333333215e+00 -1.188070884588382503e+00 -4.133842794365354401e+00
1.050000000000000044e+00 -1.115282455205739209e+00 -4.466124942684972510e+00
1.066666666666666652e+00 -1.039200053165550086e+00 -4.516219702798146329e+00
1.083333333333333259e+00 -9.647417984458009910e-01 -4.346511677171257304e+00
1.100000000000000089e+00 -8.943163305931748353e-01 -4.115490816366812687e+00
1.116666666666666696e+00 -8.275587712335739088e-01 -3.934996515412011675e+00
1.133333333333333304e+00 -7.631497800794411202e-01 -3.777128195138161892e+00
1.149999999999999911e+00 -7.016544980623018457e-01 -3.590363069124852480e+00
1.166666666666666741e+00 -6.434710111086127116e-01 -3.387231574252630661e+00
1.183333333333333348e+00 -5.887467789205474977e-01 -3.161196704852481609e+00
1.199999999999999956e+00 -5.380977876135299987e-01 -2.902250142428412616e+00
1.216666666666666563e+00 -4.920051075062670809e-01 -2.613625261671640665e+00
1.233333333333333393e+00 -4.509769455578086506e-01 -2.337652224292039005e+00
1.250000000000000000e+00 -4.140833666965324511e-01 -2.118012607496891242e+00
1.266666666666666607e+00 -3.803765253079122721e-01 -1.961735299461877080e+00
1.283333333333333215e+00 -3.486921900478032188e-01 -1.846447540753894501e+00
1.300000000000000044e+00 -3.188282739494491258e-01 -1.740502878898452899e+00
1.316666666666666652e+00 -2.906754274178547925e-01 -1.641480773406048810e+00
1.333333333333333259e+00 -2.641122481692474988e-01 -1.545185371987000122e+00
1.350000000000000089e+00 -2.391692483516214551e-01 -1.417362554702997546e+00
1.366666666666666696e+00 -2.168668296791475825e-01 -1.253070852689562420e+00
1.383333333333333304e+00 -1.974002199286360448e-01 -1.089276728893645130e+00
1.399999999999999911e+00 -1.805576053826927485e-01 -9.799136956327442194e-01
1.416666666666666741e+00 -1.647364300742112375e-01 -9.186418012723438498e-01
1.433333333333333348e+00 -1.499362120069479554e-01 -8.521497944852302053e-01
1.449999999999999956e+00 -1.363314369247035640e-01 -7.743700815402405624e-01
1.466666666666666563e+00 -1.241238759556066024e-01 -7.051870614582435026e-01
1.483333333333333393e+00 -1.128252015427621130e-01 -6.466491504720134342e-01
1.500000000000000000e+00 -1.025689042732061546e-01 -5.813098469750965780e-01
1.516666666666666607e+00 -9.344820664359222706e-02 -5.188557093615465687e-01
1.533333333333333215e+00 -8.527371396115460134e-02 -4.810212128755830818e-01
1.550000000000000044e+00 -7.741416621440612433e-02 -4.644066888776778312e-01
1.566666666666666652e+00 -6.979349099856534122e-02 -4.519394920663782900e-01
1.583333333333333259e+00 -6.234951647886018133e-02 -4.336968386835063916e-01
1.600000000000000089e+00 -5.533692970911512771e-02 -4.108124880875793083e-01
1.616666666666666696e+00 -4.865576687594087152e-02 -3.860570085850852928e-01
1.633333333333333304e+00 -4.246836275627895174e-02 -3.485368489928711289e-01
1.649999999999999911e+00 -3.703787190951183389e-02 -2.992116464600543257e-01
1.666666666666666741e+00 -3.249464120761047514e-02 -2.562423443216082508e-01
1.683333333333333348e+00 -2.849646043212489266e-02 -2.390699061622083010e-01
1.699999999999999956e+00 -2.452564433553686488e-02 -2.391380499389682002e-01
1.716666666666666563e+00 -2.052519210082595288e-02 -2.336767417479935494e-01
1.733333333333333393e+00 -1.673641961060374703e-02 -2.201586664249357839e-01
1.750000000000000000e+00 -1.318656988666142699e-02 -2.060796516750718899e-01
1.766666666666666607e+00 -9.867097888101351161e-03 -1.889036099478119402e-01
1.783333333333333215e+00 -6.889782888401028635e-03 -1.661687010696044353e-01
1.800000000000000044e+00 -4.328141185781203548e-03 -1.420371401683558910e-01
1.816666666666666652e+00 -2.155211549455832154e-03 -1.213022119127263737e-01
1.833333333333333259e+00 -2.847341220236579169e-04 -1.022964604606412253e-01
1.849999999999999867e+00 1.254670465898875082e-03 -8.133522484489269511e-02
1.866666666666666696e+00 2.426440039472765094e-03 -5.723954146876137489e-02
1.883333333333333304e+00 3.162655181524254289e-03 -3.319607833391387958e-02
1.899999999999999911e+00 3.532975983936560965e-03 -1.284864428934297600e-02
1.916666666666666741e+00 3.590943324502353460e-03 6.328171885787172400e-03
1.933333333333333348e+00 3.322036921076988551e-03 4.966951808844279753e-02
1.949999999999999956e+00 1.935292721554260267e-03 8.936124146004589819e-02
1.966666666666666563e+00 3.433288724087919666e-04 5.705735415944129807e-02
1.983333333333333393e+00 3.338091623955031747e-05 1.029986617226375835e-02
2.000000000000000000e+00 0.000000000000000000e+00 2.002854974373018994e-03
