0	21180.7	2556.06
0.0166667	21138.1	5088.49
0.0333333	21011	10083.7
0.05	20801.9	14897.4
0.0666667	20514.5	19450.8
0.0833333	20153.6	23678.8
0.1	19725.2	27531.7
0.116667	19235.9	30977.1
0.133333	18692.6	33999.7
0.15	18102.5	36599.6
0.166667	17472.6	38790.5
0.183333	16809.5	40596.1
0.2	16119.4	42047.3
0.216667	15407.9	43178.4
0.233333	14680.1	44024.1
0.25	13940.5	44616.8
0.266667	13192.9	44984.4
0.283333	12441	45149.1
0.3	11687.9	45127
0.316667	10936.8	44927.5
0.333333	10190.3	44554.6
0.35	9451.6	44007.8
0.366667	8723.42	43283.7
0.383333	8008.81	42378.1
0.4	7310.82	41287.6
0.416667	6632.56	40011.8
0.433333	5977.1	38554.7
0.45	5347.4	36926.2
0.466667	4746.22	35143.1
0.483333	4175.96	33229.4
0.5	3638.58	31216
0.516667	3135.43	29139.8
0.533333	2667.25	27039.9
0.55	2234.1	24965.7
0.566667	1835.06	22964.9
0.583333	1468.6	21003.4
0.6	1134.95	18887.2
0.616667	839.026	16342.5
0.633333	590.196	13272.1
0.65	396.624	9948.12
0.666667	258.593	6884.34
0.683333	167.146	4489.01
0.7	108.959	2851.02
0.716667	72.1121	1812.86
0.733333	48.5302	1166.26
0.75	33.2366	764.914
0.766667	23.033	519.348
0.783333	15.925	369.393
0.8	10.7199	275.938
0.816667	6.72712	214.723
0.833333	3.56248	171.228
0.85	1.01951	137.309
0.866667	-1.01448	108.894
0.883333	-2.61031	84.3331
0.9	-3.82559	63.1857
0.916667	-4.7165	45.3911
0.933333	-5.33862	30.7938
0.95	-5.74296	19.0086
0.966667	-5.97224	9.52232
0.983333	-6.06037	1.86791
1	-6.03451	-4.28211
1.01667	-5.91763	-9.14518
1.03333	-5.72967	-12.9109
1.05	-5.48727	-15.78
1.06667	-5.20367	-17.9369
1.08333	-4.88937	-19.5064
1.1	-4.55345	-20.5508
1.11667	-4.20435	-21.1117
1.13333	-3.84973	-21.2595
1.15	-3.49569	-21.114
1.16667	-3.14593	-20.8233
1.18333	-2.80158	-20.5146
1.2	-2.46211	-20.2466
1.21667	-2.1267	-19.9973
1.23333	-1.79553	-19.6905
1.25	-1.47035	-19.2389
1.26667	-1.15424	-18.5773
1.28333	-0.851104	-17.6758
1.3	-0.565044	-16.5379
1.31667	-0.29984	-15.1874
1.33333	-0.058797	-13.6479
1.35	0.155091	-11.9325
1.36667	0.338954	-10.0582
1.38333	0.490366	-8.07753
1.4	0.608205	-6.08914
1.41667	0.693337	-4.20142
1.43333	0.748252	-2.47117
1.45	0.775709	-0.876379
1.46667	0.777465	0.644368
1.48333	0.75423	2.11859
1.5	0.706845	3.49947
1.51667	0.637581	4.69134
1.53333	0.550467	5.61099
1.55	0.450548	6.22876
1.56667	0.342842	6.56307
1.58333	0.231779	6.64814
1.6	0.121237	6.50946
1.61667	0.014797	6.16351
1.63333	-0.0842129	5.63354
1.65	-0.172988	4.96369
1.66667	-0.249669	4.21884
1.68333	-0.313616	3.46837
1.7	-0.365282	2.76249
1.71667	-0.405699	2.11639
1.73333	-0.435828	1.51458
1.75	-0.456185	0.933784
1.76667	-0.466954	0.368464
1.78333	-0.468467	-0.160142
1.8	-0.461616	-0.617793
1.81667	-0.447874	-0.981583
1.83333	-0.428897	-1.25456
1.85	-0.406055	-1.45951
1.86667	-0.380246	-1.6185
1.88333	-0.352105	-1.73557
1.9	-0.322394	-1.79464
1.91667	-0.292284	-1.77131
1.93333	-0.26335	-1.64751
1.95	-0.237367	-1.41883
1.96667	-0.216056	-1.09386
1.98333	-0.200905	-0.690891
2	-0.193026	-0.472711
