0.00000000 614.80635633 1230.42995595
0.01666667 594.29919039 1230.42995595
0.03333333 573.79202446 1230.42995595
0.05000000 553.28485853 1230.42995595
0.06666667 532.77769260 1230.42995595
0.08333333 512.27052666 1230.42995595
0.10000000 491.76336073 1230.42995595
0.11666667 471.25619480 1230.42995595
0.13333333 450.74902887 1230.42995595
0.15000000 430.24186293 1230.42995595
0.16666667 409.73469700 1230.42995595
0.18333333 389.22753107 1230.42995595
0.20000000 368.72036514 1230.42995595
0.21666667 348.21319920 1230.42995595
0.23333333 327.70603327 1230.42995595
0.25000000 307.19886734 1230.42995595
0.26666667 286.69170141 1230.42995595
0.28333333 266.18453547 1230.42995595
0.30000000 245.67736954 1230.42995595
0.31666667 225.17020361 1230.42995595
0.33333333 204.66303768 1230.42995595
0.35000000 184.15587174 1230.42995595
0.36666667 163.64870581 1230.42995595
0.38333333 143.14153988 1230.42995595
0.40000000 122.63437395 1230.42995595
0.41666667 102.12720801 1230.42995595
0.43333333 81.62004208 1230.42995595
0.45000000 61.11287615 1230.42995595
0.46666667 40.60571022 952.41888881
0.48333333 29.36557986 569.96415685
0.50000000 21.60690499 408.12572610
0.51666667 15.76138899 314.74449264
0.53333333 11.11542190 253.98365223
0.55000000 7.29526725 210.05962506
0.56666667 4.11343440 175.95259546
0.58333333 1.43018073 149.03888261
0.60000000 -0.85452835 127.04761033
0.61666667 -2.80473961 106.46983781
0.63333333 -4.40352295 84.56348011
0.65000000 -5.62352228 61.34546865
0.66666667 -6.44837190 38.58002365
0.68333333 -6.90952307 18.18939055
0.70000000 -7.05468492 0.99617945
0.71666667 -6.94272905 -12.73993280
0.73333333 -6.63002049 -22.74160877
0.75000000 -6.18467543 -28.50988876
0.76666667 -5.67969087 -29.34970781
0.78333333 -5.20635184 -24.95700379
0.80000000 -4.84779074 -15.78788645
0.81666667 -4.68008895 -4.28220490
0.83333333 -4.70505058 5.33521449
0.85000000 -4.85792944 9.88566787
0.86666667 -5.03457284 9.11029025
0.88333333 -5.16160578 5.68918051
0.90000000 -5.22421219 2.13560904
0.91666667 -5.23279275 -1.29329318
0.93333333 -5.18110242 -5.34251199
0.95000000 -5.05470901 -10.17717927
0.96666667 -4.84186311 -15.31850657
0.98333333 -4.54409213 -20.32834807
1.00000000 -4.16425151 -24.82130563
1.01666667 -3.71671527 -28.35868964
1.03333333 -3.21896185 -30.91619489
1.05000000 -2.68617544 -32.38868838
1.06666667 -2.13933891 -32.60903913
1.08333333 -1.59920747 -31.50820440
1.10000000 -1.08906543 -29.04224054
1.11666667 -0.63113279 -25.00947746
1.13333333 -0.25541618 -19.29308115
1.15000000 0.01196992 -12.64339085
1.16666667 0.16603018 -6.42794776
1.18333333 0.22623484 -1.64327260
1.20000000 0.22080594 1.43569060
1.21666667 0.17837849 3.24068180
1.23333333 0.11278321 4.37215377
1.25000000 0.03264003 4.84770619
1.26666667 -0.04880700 4.52176124
1.28333333 -0.11808534 3.69637169
1.30000000 -0.17201939 2.72925208
1.31666667 -0.20906041 1.57479542
1.33333333 -0.22451257 0.24936712
1.35000000 -0.21737265 -0.80564254
1.36666667 -0.19765782 -1.39033209
1.38333333 -0.17102825 -1.80742879
1.40000000 -0.13741019 -2.34571218
1.41666667 -0.09283784 -3.11318283
1.43333333 -0.03363743 -3.90505275
1.45000000 0.03733058 -4.47558488
1.46666667 0.11554873 -4.77899385
1.48333333 0.19663038 -4.71756441
1.50000000 0.27280088 -4.04548876
1.51666667 0.33148000 -2.71609134
1.53333333 0.36333726 -1.22488275
1.55000000 0.37230943 -0.00450460
1.56666667 0.36348741 0.87650756
1.58333333 0.34309251 1.41770212
1.60000000 0.31623067 1.55473363
1.61666667 0.29126805 1.38953851
1.63333333 0.26991272 1.16544804
1.65000000 0.25241979 1.02126134
1.66666667 0.23587068 0.92887602
1.68333333 0.22145725 0.88574400
1.70000000 0.20634588 0.89620914
1.71666667 0.19158361 0.93470846
1.73333333 0.17518893 0.96624187
1.75000000 0.15937555 0.93665398
1.76666667 0.14396713 0.83536538
1.78333333 0.13153004 0.74171626
1.80000000 0.11924326 0.72104685
1.81666667 0.10749514 0.71480836
1.83333333 0.09541631 0.67338258
1.85000000 0.08504906 0.59620426
1.86666667 0.07554284 0.53696724
1.88333333 0.06715015 0.52611268
1.90000000 0.05800575 0.58931509
1.91666667 0.04750631 0.67014091
1.93333333 0.03566772 1.07180966
1.95000000 0.01177933 1.02251790
1.96666667 0.00158379 0.34981782
1.98333333 0.00011873 0.04751357
2.00000000 0.00000000 0.00712391
