0.000000000000000000e+00 2.512629745075588232e+02 3.806630974881670681e+02
1.666666666666666644e-02 2.449185895494227054e+02 3.806630974881662155e+02
3.333333333333333287e-02 2.385742045912866161e+02 3.806630974881662155e+02
5.000000000000000278e-02 2.322298196331504982e+02 3.806630974881653628e+02
6.666666666666666574e-02 2.258854346750144373e+02 3.806630974881653628e+02
8.333333333333332871e-02 2.195410497168783195e+02 3.806630974881662155e+02
1.000000000000000056e-01 2.131966647587422301e+02 3.806630974881662155e+02
1.166666666666666685e-01 2.068522798006061123e+02 3.806630974881662155e+02
1.333333333333333315e-01 2.005078948424700229e+02 3.806630974881653628e+02
1.499999999999999944e-01 1.941635098843339335e+02 3.806630974881653628e+02
1.666666666666666574e-01 1.878191249261978442e+02 3.806630974881662155e+02
1.833333333333333204e-01 1.814747399680617264e+02 3.806630974881662155e+02
2.000000000000000111e-01 1.751303550099256370e+02 3.806630974881653628e+02
2.166666666666666741e-01 1.687859700517895476e+02 3.806630974881662155e+02
2.333333333333333370e-01 1.624415850936534298e+02 3.806630974881662155e+02
2.500000000000000000e-01 1.560972001355173404e+02 3.806630974881653628e+02
2.666666666666666630e-01 1.497528151773812510e+02 3.806630974881662155e+02
2.833333333333333259e-01 1.434084302192451332e+02 3.806630974881662155e+02
2.999999999999999889e-01 1.370640452611090438e+02 3.806630974881653628e+02
3.166666666666666519e-01 1.307196603029729545e+02 3.806630974881653628e+02
3.333333333333333148e-01 1.243752753448368651e+02 3.806630974881662155e+02
3.499999999999999778e-01 1.180308903867007473e+02 3.806630974881662155e+02
3.666666666666666408e-01 1.116865054285646579e+02 3.806630974881653628e+02
3.833333333333333037e-01 1.053421204704285685e+02 3.806630974881662155e+02
4.000000000000000222e-01 9.899773551229245072e+01 3.806630974881662155e+02
4.166666666666666852e-01 9.265335055415636134e+01 3.806630974881662155e+02
4.333333333333333481e-01 8.630896559602024354e+01 3.806630974881662155e+02
4.500000000000000111e-01 7.996458063788415416e+01 3.806630974881653628e+02
4.666666666666666741e-01 7.362019567974806478e+01 3.806630974881658176e+02
4.833333333333333370e-01 6.727581072161196118e+01 3.806630974881659881e+02
5.000000000000000000e-01 6.093142576347586470e+01 3.806630974881651355e+02
5.166666666666666075e-01 5.458704080533978953e+01 3.806630974881658176e+02
5.333333333333333259e-01 4.824265584720367173e+01 3.806630974881670681e+02
5.500000000000000444e-01 4.189827088906755392e+01 3.806630974881658176e+02
5.666666666666666519e-01 3.555388593093147875e+01 3.806630974881658176e+02
5.833333333333333703e-01 2.920950097279536095e+01 3.806630974881658176e+02
5.999999999999999778e-01 2.286511601465928578e+01 3.806630974881658176e+02
6.166666666666666963e-01 1.652073105652316798e+01 3.133956847007240185e+02
6.333333333333333037e-01 1.241859319130181838e+01 2.174697733463826523e+02
6.500000000000000222e-01 9.271738611643746353e+00 1.698962753707836839e+02
6.666666666666666297e-01 6.755384012275695405e+00 1.366764448592379324e+02
6.833333333333333481e-01 4.715857116335815391e+00 1.109341521539289488e+02
6.999999999999999556e-01 3.057578940478063778e+00 9.002510520744199596e+01
7.166666666666666741e-01 1.715020276087749096e+00 7.259302682067873036e+01
7.333333333333332815e-01 6.378113797887728920e-01 5.791211043835728844e+01
7.500000000000000000e-01 -2.153834051908271596e-01 4.554053725920000062e+01
7.666666666666666075e-01 -8.802065288512271879e-01 3.512576918539728155e+01
7.833333333333333259e-01 -1.386242378037403133e+00 2.635168944373432254e+01
8.000000000000000444e-01 -1.758596176975704584e+00 1.896604544308337381e+01
8.166666666666666519e-01 -2.018443892806848883e+00 1.276069892972997977e+01
8.333333333333333703e-01 -2.183952807966703880e+00 7.564359274780572129e+00
8.499999999999999778e-01 -2.270589201966201287e+00 3.238960802553307872e+00
8.666666666666666963e-01 -2.291918168051814142e+00 -3.247276261287401766e-01
8.833333333333333037e-01 -2.259764947761909948e+00 -3.206088385920882189e+00
9.000000000000000222e-01 -2.185048555187784736e+00 -5.446995116476740506e+00
9.166666666666666297e-01 -2.078198443879351931e+00 -7.043102171820021518e+00
9.333333333333333481e-01 -1.950278482793784018e+00 -7.993916433734225002e+00
9.499999999999999556e-01 -1.811734562754877764e+00 -8.348572396217237568e+00
9.666666666666666741e-01 -1.671992736253209433e+00 -8.175544249415867881e+00
9.833333333333332815e-01 -1.539216421107682198e+00 -7.573060159572462702e+00
1.000000000000000000e+00 -1.419557397600794024e+00 -6.703442113744769060e+00
1.016666666666666607e+00 -1.315768350649523244e+00 -5.764514313295316938e+00
1.033333333333333215e+00 -1.227406920490950126e+00 -4.912122464785005249e+00
1.050000000000000044e+00 -1.152030935156689750e+00 -4.224147313689162075e+00
1.066666666666666652e+00 -1.086602010034644739e+00 -3.705921563731990886e+00
1.083333333333333259e+00 -1.028500216365623388e+00 -3.328730934863688429e+00
1.100000000000000089e+00 -9.756443122058551243e-01 -3.080963789469406411e+00
1.116666666666666696e+00 -9.258014233833098405e-01 -2.976620769245363007e+00
1.133333333333333304e+00 -8.764236198976763648e-01 -3.006124061023626393e+00
1.149999999999999911e+00 -8.255972880158556348e-01 -3.122842251090377719e+00
1.166666666666666741e+00 -7.723288781946637815e-01 -3.260120121271220750e+00
1.183333333333333348e+00 -7.169266173068149506e-01 -3.347955053832929462e+00
1.199999999999999956e+00 -6.607303764002327995e-01 -3.328696322026349019e+00
1.216666666666666563e+00 -6.059700732392699907e-01 -3.170315571633212315e+00
1.233333333333333393e+00 -5.550531906791257297e-01 -2.881606860982998342e+00
1.250000000000000000e+00 -5.099165112065033867e-01 -2.505800635050376535e+00
1.266666666666666607e+00 -4.715265028441131823e-01 -2.110576228495534945e+00
1.283333333333333215e+00 -4.395639702566522256e-01 -1.766370411696480680e+00
1.300000000000000044e+00 -4.126474891208971596e-01 -1.520388248496373329e+00
1.316666666666666652e+00 -3.888843619734397850e-01 -1.379924731958813267e+00
1.333333333333333259e+00 -3.666499980556033877e-01 -1.316642124832521077e+00
1.350000000000000089e+00 -3.449962911456890824e-01 -1.282617312458997461e+00
1.366666666666666696e+00 -3.238960876403034761e-01 -1.235640273279132728e+00
1.383333333333333304e+00 -3.038082820363846581e-01 -1.157992594976637868e+00
1.399999999999999911e+00 -2.852963344744155472e-01 -1.064019116300760182e+00
1.416666666666666741e+00 -2.683409781596926558e-01 -9.842818101853290091e-01
1.433333333333333348e+00 -2.524869408015712469e-01 -9.398884612788521720e-01
1.449999999999999956e+00 -2.370113627837309167e-01 -9.334739125850272101e-01
1.466666666666666563e+00 -2.213711437154036732e-01 -9.524027581046090596e-01
1.483333333333333393e+00 -2.052646041802439481e-01 -9.764848215349101190e-01
1.500000000000000000e+00 -1.888216496642400044e-01 -9.827038482832443078e-01
1.516666666666666607e+00 -1.725078092374691396e-01 -9.525685771584594397e-01
1.533333333333333215e+00 -1.570693637589580249e-01 -8.821385596673118057e-01
1.550000000000000044e+00 -1.431031905818920813e-01 -7.910989997372008808e-01
1.566666666666666652e+00 -1.306993971010513289e-01 -7.110712187877326063e-01
1.583333333333333259e+00 -1.194008166223009954e-01 -6.636942926760668326e-01
1.600000000000000089e+00 -1.085762540118491021e-01 -6.488440955344555450e-01
1.616666666666666696e+00 -9.777268010448580959e-02 -6.486056819894181480e-01
1.633333333333333304e+00 -8.695606461220183048e-02 -6.399389769040618736e-01
1.649999999999999911e+00 -7.644138087435041473e-02 -6.068233181454655289e-01
1.666666666666666741e+00 -6.672862067401964803e-02 -5.466734775044165273e-01
1.683333333333333348e+00 -5.821893162420319762e-02 -4.702649138494338077e-01
1.699999999999999956e+00 -5.105312354570518824e-02 -3.936752211708785532e-01
1.716666666666666563e+00 -4.509642425184057918e-02 -3.289732046472521043e-01
1.733333333333333393e+00 -4.008735005746345142e-02 -2.797557750867742388e-01
1.750000000000000000e+00 -3.577123174894810548e-02 -2.424999354446347177e-01
1.766666666666666607e+00 -3.200401887597562750e-02 -2.121845693077687722e-01
1.783333333333333215e+00 -2.869841277202248020e-02 -1.869357054734181178e-01
1.800000000000000044e+00 -2.577282869352835737e-02 -1.671119514647305404e-01
1.816666666666666652e+00 -2.312801438986479552e-02 -1.520107559938471686e-01
1.833333333333333259e+00 -2.070580349373345175e-02 -1.408932927790960687e-01
1.849999999999999867e+00 -1.843157129722826013e-02 -1.334216316470472063e-01
1.866666666666666696e+00 -1.625841577216521200e-02 -1.280957618465042858e-01
1.883333333333333304e+00 -1.416171256901145072e-02 -1.228210182330726069e-01
1.899999999999999911e+00 -1.216438183106279165e-02 -1.170891587702563297e-01
1.916666666666666741e+00 -1.025874061000290639e-02 -1.133154775857865421e-01
1.933333333333333348e+00 -8.387199244869907033e-03 -2.807621065499752988e-01
1.949999999999999956e+00 -9.000037250037313348e-04 -2.499090984278786731e-01
1.966666666666666563e+00 -5.689596394061716307e-05 -2.679745854754220571e-02
1.983333333333333393e+00 -6.755106752324492241e-06 -1.706878918218514892e-03
2.000000000000000000e+00 0.000000000000000000e+00 -4.053064051394695243e-04
