0	2.35891e+06	965335
0.0166667	2.34282e+06	1.91146e+06
0.0333333	2.29519e+06	3.74739e+06
0.05	2.2179e+06	5.43738e+06
0.0666667	2.11395e+06	6.92069e+06
0.0833333	1.98721e+06	8.14977e+06
0.1	1.84229e+06	9.09247e+06
0.116667	1.68413e+06	9.73288e+06
0.133333	1.51786e+06	1.00709e+07
0.15	1.34844e+06	1.01208e+07
0.166667	1.1805e+06	9.9088e+06
0.183333	1.01814e+06	9.47088e+06
0.2	864802	8.84945e+06
0.216667	723161	8.09062e+06
0.233333	595115	7.24136e+06
0.25	481782	6.34685e+06
0.266667	383553	5.44816e+06
0.283333	300177	4.58042e+06
0.3	230873	3.77145e+06
0.316667	174462	3.04112e+06
0.333333	129502	2.40139e+06
0.35	94415.8	1.85686e+06
0.366667	67606.6	1.40608e+06
0.383333	47546.5	1.04318e+06
0.4	32834	758280
0.416667	22270.5	538821
0.433333	14873.3	374727
0.45	9779.56	256041
0.466667	6338.58	171748
0.483333	4054.62	113264
0.5	2563.12	73533.8
0.516667	1603.49	47066.9
0.533333	994.227	29746.7
0.55	611.934	18590.6
0.566667	374.54	11502.9
0.583333	228.505	7052.22
0.6	139.466	4285.46
0.616667	85.6562	2581.34
0.633333	53.4216	1541.84
0.65	34.2616	915.15
0.666667	22.9166	543.259
0.683333	16.153	327.43
0.7	12.0022	205.935
0.716667	9.28844	140.115
0.733333	7.33175	105.931
0.75	5.7574	88.8213
0.766667	4.37104	80.2793
0.783333	3.08142	75.4838
0.8	1.85491	71.8182
0.816667	0.687483	68.0955
0.833333	-0.414934	64.0858
0.85	-1.44871	60.0166
0.866667	-2.41549	56.0596
0.883333	-3.31736	52.074
0.9	-4.15129	47.7695
0.916667	-4.90968	43.0648
0.933333	-5.58678	38.2347
0.95	-6.18417	33.7098
0.966667	-6.71044	29.7676
0.983333	-7.17642	26.3951
1	-7.59028	23.3847
1.01667	-7.95591	20.5096
1.03333	-8.27393	17.6224
1.05	-8.54332	14.659
1.06667	-8.76257	11.6217
1.08333	-8.93071	8.56929
1.1	-9.04821	5.59008
1.11667	-9.11705	2.76493
1.13333	-9.14038	0.157685
1.15	-9.12231	-2.17438
1.16667	-9.0679	-4.19363
1.18333	-8.98252	-5.92244
1.2	-8.87048	-7.46419
1.21667	-8.73371	-8.96394
1.23333	-8.57168	-10.5226
1.25	-8.38296	-12.127
1.26667	-8.16745	-13.6525
1.28333	-7.92788	-14.949
1.3	-7.66915	-15.9564
1.31667	-7.396	-16.7511
1.33333	-7.11078	-17.4635
1.35	-6.81388	-18.1399
1.36667	-6.50612	-18.6978
1.38333	-6.19062	-19.0172
1.4	-5.87221	-19.0571
1.41667	-5.55538	-18.8774
1.43333	-5.24297	-18.5698
1.45	-4.93639	-18.189
1.46667	-4.63667	-17.7445
1.48333	-4.34491	-17.2356
1.5	-4.06215	-16.6787
1.51667	-3.78895	-16.1019
1.53333	-3.52541	-15.5204
1.55	-3.27161	-14.9215
1.56667	-3.02803	-14.2799
1.58333	-2.79561	-13.5842
1.6	-2.57523	-12.8451
1.61667	-2.36744	-12.0812
1.63333	-2.17252	-11.306
1.65	-1.99058	-10.5291
1.66667	-1.82155	-9.7611
1.68333	-1.66521	-9.01228
1.7	-1.52114	-8.29111
1.71667	-1.38883	-7.60493
1.73333	-1.26764	-6.95868
1.75	-1.15688	-6.35327
1.76667	-1.05587	-5.79002
1.78333	-0.963878	-5.27994
1.8	-0.87987	-4.84531
1.81667	-0.802368	-4.50758
1.83333	-0.729618	-4.27201
1.85	-0.659967	-4.12412
1.86667	-0.592147	-4.04067
1.88333	-0.525278	-4.00335
1.9	-0.458702	-4.00061
1.91667	-0.391925	-4.03451
1.93333	-0.324218	-4.11468
1.95	-0.254769	-4.15916
1.96667	-0.185579	-3.88559
1.98333	-0.125249	-5.56738
2	0	-7.51495
