0	5109.26	1740.73
0.0166667	5080.25	3377.52
0.0333333	4996.68	6373.76
0.05	4867.79	8727.63
0.0666667	4705.76	10359.4
0.0833333	4522.48	11351.8
0.1	4327.37	11876.9
0.116667	4126.58	12115.7
0.133333	3923.51	12207.4
0.15	3719.67	12236.5
0.166667	3515.63	12243.8
0.183333	3311.54	12245.2
0.2	3107.45	12245.4
0.216667	2903.37	12245.4
0.233333	2699.28	12245.3
0.25	2495.19	12245.1
0.266667	2291.11	12243.8
0.283333	2087.06	12238.2
0.3	1883.16	12219.8
0.316667	1679.74	12168.7
0.333333	1477.54	12046.9
0.35	1278.17	11792.6
0.366667	1084.46	11322.2
0.383333	900.766	10537.4
0.4	733.211	9353.8
0.416667	588.973	7781.57
0.433333	473.825	6007.62
0.45	388.719	3953.8
0.466667	342.032	2759.28
0.483333	296.743	2518.92
0.5	258.068	2218.48
0.516667	222.794	2057.41
0.533333	189.488	1895.92
0.55	159.596	1678.57
0.566667	133.535	1456.26
0.583333	111.054	1254.17
0.6	91.7296	1079.91
0.616667	75.0574	929.126
0.633333	60.7588	789.432
0.65	48.743	655.65
0.666667	38.9038	410.029
0.683333	35.0754	354.135
0.7	27.0993	436.114
0.716667	20.5383	369.76
0.733333	14.774	322.312
0.75	9.79451	272.866
0.766667	5.67841	225.35
0.783333	2.28285	185.264
0.8	-0.497042	150.506
0.816667	-2.73401	119.81
0.833333	-4.49071	94.1392
0.85	-5.87199	73.5005
0.866667	-6.94072	55.7854
0.883333	-7.7315	39.6457
0.9	-8.26225	24.6546
0.916667	-8.55332	10.8257
0.933333	-8.62311	-1.06682
0.95	-8.51776	-9.99223
0.966667	-8.29003	-15.9963
0.983333	-7.98455	-20.0289
1	-7.6224	-23.2581
1.01667	-7.20928	-26.9015
1.03333	-6.72568	-30.6644
1.05	-6.18713	-33.3641
1.06667	-5.61355	-34.8734
1.08333	-5.02469	-35.9789
1.1	-4.41425	-37.0117
1.11667	-3.79096	-37.2567
1.13333	-3.17236	-36.7018
1.15	-2.56757	-35.7086
1.16667	-1.98207	-33.9024
1.18333	-1.43749	-30.7294
1.2	-0.957757	-26.8424
1.21667	-0.542743	-23.1299
1.23333	-0.18676	-19.5484
1.25	0.108869	-15.9115
1.26667	0.343623	-11.845
1.28333	0.503704	-7.4074
1.3	0.590536	-3.47628
1.31667	0.61958	-0.391332
1.33333	0.603581	2.02667
1.35	0.552024	4.0574
1.36667	0.468334	5.57783
1.38333	0.366096	6.29683
1.4	0.25844	6.85012
1.41667	0.137759	7.74247
1.43333	0.000357825	8.54471
1.45	-0.147064	8.58376
1.46667	-0.285767	7.70189
1.48333	-0.403794	6.39538
1.5	-0.498947	5.09152
1.51667	-0.573511	3.98767
1.53333	-0.631869	2.98642
1.55	-0.673059	2.08001
1.56667	-0.701203	1.46276
1.58333	-0.721818	0.909118
1.6	-0.731507	0.0791995
1.61667	-0.724458	-0.795408
1.63333	-0.704993	-1.32968
1.65	-0.680135	-1.69003
1.66667	-0.648659	-2.1494
1.68333	-0.608488	-2.61132
1.7	-0.561615	-2.84446
1.71667	-0.513673	-2.7965
1.73333	-0.468398	-2.6826
1.75	-0.424253	-2.69819
1.76667	-0.378459	-2.74391
1.78333	-0.332789	-2.76753
1.8	-0.286208	-2.77694
1.81667	-0.240225	-2.64727
1.83333	-0.197965	-2.39848
1.85	-0.160275	-2.1571
1.86667	-0.126062	-1.91104
1.88333	-0.0965739	-1.59682
1.9	-0.0728345	-1.267
1.91667	-0.0543405	-1.01707
1.93333	-0.0389322	-0.845224
1.95	-0.0261664	-0.676825
1.96667	-0.0163714	-0.499255
1.98333	-0.00952455	-0.491142
2	0	-0.571473
