0	1742.52	391.195
0.0166667	1736	759.03
0.0333333	1717.21	1432.38
0.05	1688.25	1961.36
0.0666667	1651.84	2328.06
0.0833333	1610.65	2551.09
0.1	1566.8	2669.09
0.116667	1521.68	2722.75
0.133333	1476.04	2743.37
0.15	1430.23	2749.91
0.166667	1384.38	2751.55
0.183333	1338.51	2751.86
0.2	1292.65	2751.9
0.216667	1246.78	2751.9
0.233333	1200.92	2751.9
0.25	1155.05	2751.9
0.266667	1109.19	2751.9
0.283333	1063.32	2751.9
0.3	1017.46	2751.9
0.316667	971.594	2751.9
0.333333	925.729	2752.06
0.35	879.859	2753.77
0.366667	833.937	2767.1
0.383333	787.622	2841.73
0.4	739.212	3095.21
0.416667	684.449	3647.14
0.433333	617.641	6892.57
0.45	454.696	7863.89
0.466667	355.511	5048.3
0.483333	286.42	3832.85
0.5	227.75	3083.62
0.516667	183.632	2307.64
0.533333	150.828	1747.73
0.55	125.375	1379.21
0.566667	104.854	1072.94
0.583333	89.61	903.927
0.6	74.7235	794.805
0.616667	63.1165	641.568
0.633333	53.3379	550.261
0.65	44.7745	479.997
0.666667	37.338	414.018
0.683333	30.9739	353.69
0.7	25.5483	306.35
0.716667	20.7623	271.473
0.733333	16.4992	239.943
0.75	12.7641	207.392
0.766667	9.58613	175.864
0.783333	6.90201	147.914
0.8	4.65566	124.424
0.816667	2.75455	106.795
0.833333	1.09582	91.0991
0.85	-0.282087	76.2497
0.866667	-1.44584	65.1827
0.883333	-2.45484	56.6172
0.9	-3.33308	49.7148
0.916667	-4.112	43.9813
0.933333	-4.79912	36.915
0.95	-5.3425	25.2729
0.966667	-5.64155	13.3141
0.983333	-5.7863	8.23919
1	-5.91619	7.62195
1.01667	-6.04037	4.0771
1.03333	-6.05209	-3.06843
1.05	-5.93809	-10.7431
1.06667	-5.69399	-18.0443
1.08333	-5.33661	-24.8125
1.1	-4.86691	-29.1047
1.11667	-4.36645	-26.7921
1.13333	-3.97384	-19.222
1.15	-3.72572	-14.1951
1.16667	-3.50067	-14.1498
1.18333	-3.25406	-14.6909
1.2	-3.01097	-13.5241
1.21667	-2.80325	-10.7193
1.23333	-2.65366	-8.04114
1.25	-2.53522	-7.39586
1.26667	-2.40713	-6.59424
1.28333	-2.31541	-4.26666
1.3	-2.26491	-3.36613
1.31667	-2.2032	-4.10608
1.33333	-2.12804	-3.75162
1.35	-2.07815	-3.19093
1.36667	-2.02167	-3.62332
1.38333	-1.95737	-3.29192
1.4	-1.91194	-2.03766
1.41667	-1.88945	-1.26962
1.43333	-1.86962	-2.21058
1.45	-1.81576	-4.23563
1.46667	-1.72844	-5.04525
1.48333	-1.64759	-3.99235
1.5	-1.59536	-3.60489
1.51667	-1.52743	-4.84507
1.53333	-1.43386	-6.33401
1.55	-1.31629	-7.81732
1.56667	-1.17328	-8.43118
1.58333	-1.03525	-6.64782
1.6	-0.951684	-3.65569
1.61667	-0.913397	-2.70432
1.63333	-0.86154	-3.86037
1.65	-0.784718	-4.57961
1.66667	-0.708886	-4.1251
1.68333	-0.647214	-3.7208
1.7	-0.58486	-4.29971
1.71667	-0.503891	-4.90889
1.73333	-0.42123	-4.42168
1.75	-0.356502	-3.30964
1.76667	-0.310908	-2.62807
1.78333	-0.268899	-2.54525
1.8	-0.226067	-2.61282
1.81667	-0.181805	-2.37994
1.83333	-0.146735	-1.79478
1.85	-0.121979	-1.24336
1.86667	-0.10529	-0.758689
1.88333	-0.0966896	-0.472352
1.9	-0.0895447	-0.549202
1.91667	-0.0783829	-0.731037
1.93333	-0.0651768	-0.788341
1.95	-0.0521049	-0.785299
1.96667	-0.0390002	-0.767588
1.98333	-0.0265186	-1.17001
2	0	-1.59112
