0	971.773	192.156
0.0166667	968.57	372.839
0.0333333	959.345	703.588
0.05	945.117	963.428
0.0666667	927.231	1143.55
0.0833333	906.999	1253.1
0.1	885.461	1311.07
0.116667	863.297	1337.43
0.133333	840.88	1347.56
0.15	818.378	1350.77
0.166667	795.854	1351.57
0.183333	773.326	1351.72
0.2	750.797	1351.74
0.216667	728.268	1351.74
0.233333	705.739	1351.74
0.25	683.209	1351.74
0.266667	660.68	1351.74
0.283333	638.151	1351.74
0.3	615.622	1351.74
0.316667	593.093	1351.76
0.333333	570.564	1352.02
0.35	548.026	1354.01
0.366667	525.43	1363
0.383333	502.593	1386.77
0.4	479.204	1439.01
0.416667	454.626	1550.94
0.433333	427.506	1758.94
0.45	395.995	1654.4
0.466667	372.36	2510.52
0.483333	312.311	3221.9
0.5	264.963	2557.97
0.516667	227.045	2024.08
0.533333	197.494	1613.56
0.55	173.26	1348.74
0.566667	152.536	1153.95
0.583333	134.795	994.075
0.6	119.4	861.107
0.616667	106.091	736.689
0.633333	94.8436	624.921
0.65	85.2606	483.28
0.666667	78.7343	474.391
0.683333	69.4476	522.294
0.7	61.3245	459.906
0.716667	54.1174	407.371
0.733333	47.7455	357.748
0.75	42.1924	311.248
0.766667	37.3705	270.631
0.783333	33.1714	240.802
0.8	29.3438	211.347
0.816667	26.1265	175.121
0.833333	23.5064	144.243
0.85	21.3184	132.725
0.866667	19.0823	131.647
0.883333	16.9302	122.103
0.9	15.0122	115.878
0.916667	13.0676	121.252
0.933333	10.9704	119.681
0.95	9.07823	103.706
0.966667	7.51356	84.5945
0.983333	6.25842	68.1453
1	5.24205	57.905
1.01667	4.32825	52.0708
1.03333	3.50636	47.1229
1.05	2.75749	43.4671
1.06667	2.05746	37.8251
1.08333	1.49665	29.2085
1.1	1.08384	26.9913
1.11667	0.596944	33.7387
1.13333	-0.0407846	39.1229
1.15	-0.707151	37.198
1.16667	-1.28072	29.541
1.18333	-1.69185	18.7921
1.2	-1.90712	14.5487
1.21667	-2.17681	19.1762
1.23333	-2.54633	21.846
1.25	-2.90501	22.2048
1.26667	-3.28649	27.3937
1.28333	-3.81813	29.3481
1.3	-4.26475	22.4896
1.31667	-4.56778	13.2555
1.33333	-4.7066	5.106
1.35	-4.73798	1.2194
1.36667	-4.74725	-0.373537
1.38333	-4.72553	-3.1843
1.4	-4.64111	-6.47336
1.41667	-4.50975	-7.64343
1.43333	-4.38633	-7.58382
1.45	-4.25696	-11.1918
1.46667	-4.01327	-19.6984
1.48333	-3.60035	-24.7358
1.5	-3.18874	-22.1286
1.51667	-2.86273	-16.9211
1.53333	-2.6247	-13.7163
1.55	-2.40552	-14.0816
1.56667	-2.15532	-16.808
1.58333	-1.84525	-18.4859
1.6	-1.53912	-17.2281
1.61667	-1.27098	-15.0977
1.63333	-1.03587	-12.6536
1.65	-0.849196	-9.7308
1.66667	-0.711506	-6.93518
1.68333	-0.618023	-4.41039
1.7	-0.564493	-2.64775
1.71667	-0.529765	-2.23519
1.73333	-0.489986	-2.81131
1.75	-0.436054	-3.52549
1.76667	-0.37247	-3.63906
1.78333	-0.314752	-3.35181
1.8	-0.260743	-2.76173
1.81667	-0.222695	-1.85951
1.83333	-0.19876	-0.966552
1.85	-0.190476	-0.115283
1.86667	-0.194917	0.398248
1.88333	-0.203751	0.254005
1.9	-0.203384	-0.332075
1.91667	-0.192682	-1.01173
1.93333	-0.16966	-1.67625
1.95	-0.136807	-2.01
1.96667	-0.10266	-1.93428
1.98333	-0.0723309	-3.07979
2	0	-4.33985
