0	1.51269e+06	3.94132e+06
0.0166667	1.44701e+06	5.28137e+06
0.0333333	1.33665e+06	6.62141e+06
0.05	1.22629e+06	6.62141e+06
0.0666667	1.11594e+06	6.62141e+06
0.0833333	1.00558e+06	6.62141e+06
0.1	895222	6.62141e+06
0.116667	784865	6.62141e+06
0.133333	674508	6.62141e+06
0.15	564151	6.62141e+06
0.166667	453794	6.62141e+06
0.183333	343437	6.62141e+06
0.2	233080	6.28522e+06
0.216667	133930	4.80125e+06
0.233333	73038.7	2.77051e+06
0.25	41579.8	1.45425e+06
0.266667	24563.8	797785
0.283333	14986.9	454722
0.3	9406.4	268006
0.316667	6053.4	162695
0.333333	3983.24	101393
0.35	2673.64	64690.2
0.366667	1826.9	42154
0.383333	1268.51	27997.7
0.4	893.641	18919.9
0.416667	637.848	12988.3
0.433333	460.697	9045.44
0.45	336.333	6382.95
0.466667	247.932	4558.84
0.483333	184.372	3301.16
0.5	137.894	2160.1
0.516667	112.368	1113.57
0.533333	100.775	1025.97
0.55	78.1692	1174.34
0.566667	61.6302	880.608
0.583333	48.8156	695.323
0.6	38.4528	554.141
0.616667	30.3442	433.405
0.633333	24.0059	343.639
0.65	18.8896	279.092
0.666667	14.7029	228.249
0.683333	11.2813	187.724
0.7	8.44541	156.089
0.716667	6.07833	128.324
0.733333	4.16793	102.444
0.75	2.66353	82.0454
0.766667	1.43308	68.0146
0.783333	0.396379	56.3627
0.8	-0.445671	44.7175
0.816667	-1.0942	33.5806
0.833333	-1.56502	23.6685
0.85	-1.88315	16.9816
0.866667	-2.13108	13.3949
0.883333	-2.32965	8.99667
0.9	-2.43097	3.67541
0.916667	-2.45216	0.198268
0.933333	-2.43758	-1.50498
0.95	-2.402	-2.54836
0.966667	-2.35263	-2.84283
0.983333	-2.30724	-1.90058
1	-2.28928	-0.55461
1.01667	-2.28875	-0.00119061
1.03333	-2.28924	0.106088
1.05	-2.29229	0.150531
1.06667	-2.29426	0.166616
1.08333	-2.29784	0.135385
1.1	-2.29877	-0.243688
1.11667	-2.28972	-1.09081
1.13333	-2.26241	-2.33854
1.15	-2.21177	-3.42226
1.16667	-2.14833	-4.01773
1.18333	-2.07784	-4.70857
1.2	-1.99138	-5.61753
1.21667	-1.89059	-5.89124
1.23333	-1.79501	-5.24924
1.25	-1.71562	-4.25287
1.26667	-1.65324	-3.26477
1.28333	-1.60679	-2.6614
1.3	-1.56453	-2.53335
1.31667	-1.52235	-2.33111
1.33333	-1.48683	-1.76567
1.35	-1.46349	-1.36981
1.36667	-1.44117	-1.73775
1.38333	-1.40557	-2.34719
1.4	-1.36293	-2.36998
1.41667	-1.32657	-1.93673
1.43333	-1.29837	-1.81145
1.45	-1.26618	-2.21205
1.46667	-1.22463	-2.81778
1.48333	-1.17226	-3.45373
1.5	-1.10951	-3.72244
1.51667	-1.04818	-3.39797
1.53333	-0.996243	-2.98035
1.55	-0.948832	-2.98214
1.56667	-0.896839	-3.27395
1.58333	-0.8397	-3.32585
1.6	-0.785977	-2.99257
1.61667	-0.739948	-2.7688
1.63333	-0.693684	-2.93876
1.65	-0.64199	-3.09861
1.66667	-0.590397	-2.98424
1.68333	-0.542515	-2.67115
1.7	-0.501359	-2.21424
1.71667	-0.468707	-1.95721
1.73333	-0.436118	-2.12327
1.75	-0.397931	-2.28076
1.76667	-0.360093	-2.05001
1.78333	-0.329598	-1.68175
1.8	-0.304034	-1.56573
1.81667	-0.277407	-1.65841
1.83333	-0.248754	-1.67433
1.85	-0.221596	-1.57879
1.86667	-0.196128	-1.54873
1.88333	-0.169971	-1.57429
1.9	-0.143652	-1.55117
1.91667	-0.118266	-1.48196
1.93333	-0.094253	-1.4219
1.95	-0.0708692	-1.40677
1.96667	-0.0473607	-1.41477
1.98333	-0.0237103	-1.42082
2	0	-1.42262
