0	1.09915e+07	119.048
0.0166667	1.09915e+07	220.146
0.0333333	1.09915e+07	381.934
0.05	1.09915e+07	466.524
0.0666667	1.09915e+07	495.213
0.0833333	1.09914e+07	500
0.1	1.09914e+07	500
0.116667	1.09914e+07	500
0.133333	1.09914e+07	500
0.15	1.09914e+07	500
0.166667	1.09914e+07	500
0.183333	1.09914e+07	1.70364e+06
0.2	1.09346e+07	1.09593e+07
0.216667	1.06261e+07	3.49525e+07
0.233333	9.76953e+06	7.31129e+07
0.25	8.18899e+06	1.11008e+08
0.266667	6.06925e+06	1.28244e+08
0.283333	3.91419e+06	1.1569e+08
0.3	2.2129e+06	8.31262e+07
0.316667	1.14332e+06	4.89481e+07
0.333333	581299	2.50898e+07
0.35	306988	1.24103e+07
0.366667	167623	6.38164e+06
0.383333	94266.2	3.39619e+06
0.4	54417.2	1.86342e+06
0.416667	32152.1	1.05072e+06
0.433333	19393.2	607161
0.45	11913.4	358672
0.466667	7437.43	216133
0.483333	4708.92	132601
0.5	3017.38	82702.1
0.516667	1952.18	52382.2
0.533333	1271.31	33909.2
0.55	821.874	24397.9
0.566667	458.047	16019.4
0.583333	287.893	8161.91
0.6	185.984	5024.27
0.616667	120.418	3224.37
0.633333	78.505	2063.37
0.65	51.6387	1324.84
0.666667	34.3437	855.58
0.683333	23.1194	560.172
0.7	15.6713	376.632
0.716667	10.5649	261.787
0.733333	6.94511	187.459
0.75	4.31631	136.735
0.766667	2.38729	100.003
0.783333	0.982862	72.0705
0.8	-0.0150596	50.6355
0.816667	-0.704987	34.8554
0.833333	-1.17691	23.9318
0.85	-1.50271	16.4501
0.866667	-1.72524	10.8739
0.883333	-1.86518	6.57999
0.9	-1.94457	3.89965
0.916667	-1.99517	2.91833
0.933333	-2.04185	2.94129
0.95	-2.09321	3.14673
0.966667	-2.14674	3.1944
0.983333	-2.19969	3.02662
1	-2.24763	2.18211
1.01667	-2.27242	0.0569292
1.03333	-2.24953	-2.88688
1.05	-2.1762	-5.01717
1.06667	-2.08229	-5.12886
1.08333	-2.00523	-3.85557
1.1	-1.95377	-2.98416
1.11667	-1.90576	-3.39164
1.13333	-1.84072	-4.28401
1.15	-1.76296	-4.50852
1.16667	-1.69043	-3.9676
1.18333	-1.63071	-3.3274
1.2	-1.57952	-2.82974
1.21667	-1.53638	-2.04787
1.23333	-1.51126	-0.664562
1.25	-1.51423	1.05058
1.26667	-1.54628	2.59611
1.28333	-1.60077	3.60916
1.3	-1.66658	3.85003
1.31667	-1.7291	3.2916
1.33333	-1.7763	2.31424
1.35	-1.80624	1.4778
1.36667	-1.82556	0.957994
1.38333	-1.83818	0.371547
1.4	-1.83795	-0.713979
1.41667	-1.81438	-2.19782
1.43333	-1.76468	-3.48771
1.45	-1.69812	-4.11498
1.46667	-1.62752	-4.19459
1.48333	-1.5583	-4.28078
1.5	-1.48483	-4.77129
1.51667	-1.39926	-5.49168
1.53333	-1.30177	-5.96712
1.55	-1.20035	-5.99659
1.56667	-1.10188	-5.83908
1.58333	-1.00572	-5.80994
1.6	-0.908219	-5.87649
1.61667	-0.809835	-5.78478
1.63333	-0.715393	-5.45351
1.65	-0.628051	-5.07825
1.66667	-0.546118	-4.84665
1.68333	-0.466496	-4.68674
1.7	-0.389894	-4.33721
1.71667	-0.321922	-3.63425
1.73333	-0.268752	-2.70495
1.75	-0.231757	-1.88103
1.76667	-0.206051	-1.4251
1.78333	-0.184254	-1.33776
1.8	-0.161459	-1.4031
1.81667	-0.137484	-1.39264
1.83333	-0.115038	-1.23461
1.85	-0.0963302	-1.00582
1.86667	-0.0815101	-0.807009
1.88333	-0.0694299	-0.67697
1.9	-0.0589445	-0.600566
1.91667	-0.049411	-0.56276
1.93333	-0.0401858	-0.566376
1.95	-0.0305318	-0.590175
1.96667	-0.0205133	-0.576745
1.98333	-0.011307	-0.615399
2	0	-0.678419
