0	9.26957e+06	119.048
0.0166667	9.26957e+06	220.146
0.0333333	9.26956e+06	381.934
0.05	9.26955e+06	466.524
0.0666667	9.26954e+06	495.213
0.0833333	9.26954e+06	500
0.1	9.26953e+06	500
0.116667	9.26952e+06	500
0.133333	9.26951e+06	500
0.15	9.2695e+06	500
0.166667	9.26949e+06	500
0.183333	9.26949e+06	1.43693e+06
0.2	9.2216e+06	9.24308e+06
0.216667	8.96138e+06	2.94787e+07
0.233333	8.23897e+06	6.16626e+07
0.25	6.90596e+06	9.36226e+07
0.266667	5.11822e+06	1.08158e+08
0.283333	3.30071e+06	9.75688e+07
0.3	1.86593e+06	7.01036e+07
0.316667	963923	4.1278e+07
0.333333	489995	2.11566e+07
0.35	258702	1.04635e+07
0.366667	141211	5.37973e+06
0.383333	79377.7	2.86241e+06
0.4	45796.9	1.57014e+06
0.416667	27039.7	885059
0.433333	16294.9	511223
0.45	9998.9	301843
0.466667	6233.51	181777
0.483333	3939.66	111453
0.5	2518.43	69477
0.516667	1623.75	43987.6
0.533333	1052.17	30178.6
0.55	617.801	20787
0.566667	359.272	11636.4
0.583333	229.92	6338.24
0.6	147.997	4012.2
0.616667	96.1805	2543.1
0.633333	63.2275	1621.47
0.65	42.1316	1040.27
0.666667	28.5517	673.025
0.683333	19.6974	442.921
0.7	13.7877	298.618
0.716667	9.74351	206.251
0.733333	6.91266	146.228
0.75	4.86925	107.551
0.766667	3.32764	82.3633
0.783333	2.12381	64.3179
0.8	1.18371	49.7306
0.816667	0.466118	37.8527
0.833333	-0.0780481	29.0564
0.85	-0.502428	23.0233
0.866667	-0.845492	18.8379
0.883333	-1.13036	15.84
0.9	-1.37349	13.4598
0.916667	-1.57902	10.8519
0.933333	-1.73522	7.53034
0.95	-1.83003	3.95326
0.966667	-1.867	0.964383
0.983333	-1.86218	-1.08056
1	-1.83098	-2.35652
1.01667	-1.78363	-3.03579
1.03333	-1.72978	-3.14545
1.05	-1.67878	-2.90298
1.06667	-1.63302	-2.72218
1.08333	-1.58804	-2.75259
1.1	-1.54127	-2.65948
1.11667	-1.49939	-2.12282
1.13333	-1.47051	-1.49201
1.15	-1.44965	-1.51755
1.16667	-1.41992	-2.43524
1.18333	-1.36848	-3.61312
1.2	-1.29948	-4.17615
1.21667	-1.22928	-3.79961
1.23333	-1.17283	-2.74815
1.25	-1.13767	-1.42028
1.26667	-1.12549	-0.158456
1.28333	-1.13239	0.69442
1.3	-1.14863	0.990511
1.31667	-1.16541	1.02586
1.33333	-1.18283	1.27421
1.35	-1.20788	1.80168
1.36667	-1.24289	2.11043
1.38333	-1.27823	1.69879
1.4	-1.29951	0.673607
1.41667	-1.30068	-0.354031
1.43333	-1.28771	-0.938563
1.45	-1.26939	-1.19366
1.46667	-1.24792	-1.50251
1.48333	-1.21931	-2.02123
1.5	-1.18055	-2.57168
1.51667	-1.13359	-2.94365
1.53333	-1.08243	-3.15262
1.55	-1.0285	-3.37658
1.56667	-0.969873	-3.74002
1.58333	-0.903834	-4.20295
1.6	-0.829775	-4.56881
1.61667	-0.751541	-4.60487
1.63333	-0.676279	-4.27792
1.65	-0.608943	-3.84768
1.66667	-0.548023	-3.6195
1.68333	-0.488293	-3.60508
1.7	-0.427854	-3.53825
1.71667	-0.370352	-3.21719
1.73333	-0.320614	-2.71598
1.75	-0.279819	-2.24337
1.76667	-0.245835	-1.9005
1.78333	-0.216469	-1.6523
1.8	-0.190759	-1.44356
1.81667	-0.16835	-1.25732
1.83333	-0.148848	-1.10933
1.85	-0.131373	-1.03037
1.86667	-0.114503	-1.02823
1.88333	-0.0970984	-1.0569
1.9	-0.0792724	-1.04237
1.91667	-0.0623526	-0.955714
1.93333	-0.0474153	-0.839347
1.95	-0.0343744	-0.738754
1.96667	-0.0227902	-0.648519
1.98333	-0.0127571	-0.683705
2	0	-0.765426
