0	4806.16	1442.51
0.0166667	4782.12	2844.89
0.0333333	4711.33	5535.52
0.05	4597.6	7941.36
0.0666667	4446.61	9974.58
0.0833333	4265.11	11600.6
0.1	4059.93	12841.3
0.116667	3837.06	13772.4
0.133333	3600.85	14524
0.15	3352.94	15280
0.166667	3091.51	16252
0.183333	2811.21	17662.9
0.2	2502.75	19676.1
0.216667	2155.33	22076.6
0.233333	1766.87	23945.1
0.25	1357.16	23943.4
0.266667	968.742	21288.6
0.283333	647.55	16543.1
0.3	417.31	11267.4
0.316667	271.964	6848.51
0.333333	189.029	3785.93
0.35	145.767	1910.75
0.366667	125.336	893.97
0.383333	115.968	456.914
0.4	110.105	339.975
0.416667	104.636	326.395
0.433333	99.2257	320.835
0.45	93.9413	312.871
0.466667	88.7965	302.918
0.483333	83.8441	290.196
0.5	79.1234	277.019
0.516667	74.61	266.891
0.533333	70.2271	259.792
0.55	65.9504	252.742
0.566667	61.8022	245.252
0.583333	57.7754	238.135
0.6	53.8645	230.716
0.616667	50.0847	222.458
0.633333	46.4493	214.273
0.65	42.9423	207.056
0.666667	39.5473	200.122
0.683333	36.2717	192.45
0.7	33.1323	184.236
0.716667	30.1303	176.4
0.733333	27.2524	169.093
0.75	24.494	161.738
0.766667	21.861	154.058
0.783333	19.3587	146.448
0.8	16.9795	139.168
0.816667	14.7197	131.812
0.833333	12.5858	124.181
0.85	10.5804	116.762
0.866667	8.69363	109.976
0.883333	6.91455	103.385
0.9	5.24749	96.3507
0.916667	3.70279	89.0848
0.933333	2.27803	82.3478
0.95	0.957895	76.2975
0.966667	-0.265274	70.3306
0.983333	-1.38643	64.1639
1	-2.40405	58.2475
1.01667	-3.32823	52.9439
1.03333	-4.16867	47.8022
1.05	-4.92148	42.331
1.06667	-5.57998	36.9142
1.08333	-6.15182	32.278
1.1	-6.65581	28.6102
1.11667	-7.10569	25.4833
1.13333	-7.50517	22.4772
1.15	-7.85485	19.4237
1.16667	-8.15275	16.0947
1.18333	-8.39129	12.3708
1.2	-8.56507	8.79431
1.21667	-8.68449	6.15203
1.23333	-8.77012	4.43322
1.25	-8.83225	2.78416
1.26667	-8.86294	0.572084
1.28333	-8.85132	-1.93757
1.3	-8.79837	-4.10005
1.31667	-8.71462	-5.67584
1.33333	-8.60919	-6.92573
1.35	-8.48379	-8.21902
1.36667	-8.33517	-9.68929
1.38333	-8.16084	-11.152
1.4	-7.96347	-12.3383
1.41667	-7.74948	-13.1719
1.43333	-7.52445	-13.8312
1.45	-7.28849	-14.5799
1.46667	-7.03836	-15.4463
1.48333	-6.77367	-16.1704
1.5	-6.4994	-16.5149
1.51667	-6.22306	-16.5066
1.53333	-5.94923	-16.3693
1.55	-5.67747	-16.2994
1.56667	-5.40581	-16.2915
1.58333	-5.13448	-16.2557
1.6	-4.86401	-16.2335
1.61667	-4.59325	-16.2816
1.63333	-4.32134	-16.271
1.65	-4.05094	-15.9922
1.66667	-3.78816	-15.3947
1.68333	-3.53784	-14.6209
1.7	-3.30085	-13.8626
1.71667	-3.07566	-13.2341
1.73333	-2.85975	-12.7617
1.75	-2.65031	-12.4315
1.76667	-2.44529	-12.1633
1.78333	-2.24491	-11.813
1.8	-2.05156	-11.3116
1.81667	-1.86778	-10.7094
1.83333	-1.69461	-10.0707
1.85	-1.53212	-9.43403
1.86667	-1.38008	-8.84087
1.88333	-1.23746	-8.36387
1.9	-1.10132	-8.12334
1.91667	-0.966624	-8.26587
1.93333	-0.825814	-8.8718
1.95	-0.670927	-9.64515
1.96667	-0.504245	-9.60143
1.98333	-0.350911	-15.1289
2	0	-21.0505
