0.000000 54708000.000000 50097500.000000
0.016667 53873500.000000 92642000.000000
0.033333 51620000.000000 160725500.000000
0.050000 48515750.000000 196322500.000000
0.066667 45076100.000000 208395000.000000
0.083333 41569250.000000 210409500.000000
0.100000 38062400.000000 210409500.000000
0.116667 34555600.000000 210409500.000000
0.133333 31048750.000000 210409500.000000
0.150000 27541950.000000 210409500.000000
0.166667 24035100.000000 210409500.000000
0.183333 20528300.000000 210409500.000000
0.200000 17021450.000000 209847500.000000
0.216667 13533350.000000 206239000.000000
0.233333 10146800.000000 194767000.000000
0.250000 7041150.000000 170859000.000000
0.266667 4451520.000000 134732500.000000
0.283333 2550060.000000 93267000.000000
0.300000 1342615.000000 56209500.000000
0.316667 676405.000000 29959400.000000
0.333333 343968.000000 14841350.000000
0.350000 181694.000000 7341850.000000
0.366667 99240.000000 3775870.000000
0.383333 55831.500000 2009815.000000
0.400000 32246.200000 1103005.000000
0.416667 19064.650000 622130.000000
0.433333 11508.450000 359633.500000
0.450000 7076.850000 212557.500000
0.466667 4423.220000 128194.500000
0.483333 2803.705000 79815.500000
0.500000 1762.700000 55188.000000
0.516667 964.110000 38861.750000
0.533333 467.309000 22011.800000
0.550000 230.380500 11131.350000
0.566667 96.263500 6084.750000
0.583333 27.555750 2586.365000
0.600000 10.051150 682.130000
0.616667 4.818130 207.349500
0.633333 3.139515 94.501500
0.650000 1.668085 85.812000
0.666667 0.279112 77.279500
0.683333 -0.907895 63.625500
0.700000 -1.841730 50.539000
0.716667 -2.592520 40.648300
0.733333 -3.196675 30.428650
0.750000 -3.606810 18.281900
0.766667 -3.806070 7.894200
0.783333 -3.869950 2.527795
0.800000 -3.890330 0.089915
0.816667 -3.872945 -3.748885
0.833333 -3.765370 -8.998600
0.850000 -3.572990 -11.942250
0.866667 -3.367295 -11.516050
0.883333 -3.189125 -10.357150
0.900000 -3.022055 -10.340200
0.916667 -2.844450 -10.915900
0.933333 -2.658190 -11.358550
0.950000 -2.465835 -11.606700
0.966667 -2.271300 -11.414250
0.983333 -2.085360 -10.673950
1.000000 -1.915505 -9.754450
1.016670 -1.760210 -9.336200
1.033330 -1.604300 -9.694600
1.050000 -1.437055 -9.989050
1.066670 -1.271330 -9.188050
1.083330 -1.130785 -7.406250
1.100000 -1.024455 -5.831300
1.116670 -0.936410 -5.780650
1.133330 -0.831765 -6.825800
1.150000 -0.708885 -6.867900
1.166670 -0.602835 -5.103800
1.183330 -0.538755 -2.969035
1.200000 -0.503865 -1.952115
1.216670 -0.473687 -1.759735
1.233330 -0.445209 -1.271325
1.250000 -0.431309 -0.287002
1.266670 -0.435642 0.788470
1.283330 -0.457591 1.981380
1.300000 -0.501690 3.245705
1.316670 -0.565780 3.701035
1.333330 -0.625055 2.289935
1.350000 -0.642115 -0.153312
1.366670 -0.619945 -1.208915
1.383330 -0.601815 0.061204
1.400000 -0.621985 1.945815
1.416670 -0.666675 2.077015
1.433330 -0.691220 0.088382
1.450000 -0.669620 -2.139065
1.466670 -0.619915 -2.812990
1.483330 -0.575855 -1.923360
1.500000 -0.555805 -0.713380
1.516670 -0.552075 -0.397419
1.533330 -0.542560 -1.046650
1.550000 -0.517190 -1.720445
1.566670 -0.485210 -1.751150
1.583330 -0.458817 -1.400480
1.600000 -0.438527 -1.205275
1.616670 -0.418641 -1.254420
1.633330 -0.396713 -1.146090
1.650000 -0.380437 -0.711935
1.666670 -0.372982 -0.472396
1.683330 -0.364691 -0.880240
1.700000 -0.343641 -1.567780
1.716670 -0.312432 -1.747710
1.733330 -0.285384 -1.280070
1.750000 -0.269763 -0.876740
1.766670 -0.256159 -1.106255
1.783330 -0.232887 -1.542915
1.800000 -0.204729 -1.492810
1.816670 -0.183127 -1.016145
1.833330 -0.170857 -0.690745
1.850000 -0.160103 -0.761765
1.866670 -0.145465 -0.840590
1.883330 -0.132083 -0.533965
1.900000 -0.127666 -0.018379
1.916670 -0.131470 0.126571
1.933330 -0.131885 -0.429563
1.950000 -0.117152 -1.373165
1.966670 -0.086113 -2.121240
1.983330 -0.046443 -2.583385
2.000000 0.000000 -2.786605
