0.000000000000000000e+00 4.716200841319328561e+02 7.798519622518369943e+02
1.666666666666666644e-02 4.586225514277355728e+02 7.798519622518335837e+02
3.333333333333333287e-02 4.456250187235384033e+02 7.798519622518335837e+02
5.000000000000000278e-02 4.326274860193411200e+02 7.798519622518335837e+02
6.666666666666666574e-02 4.196299533151439505e+02 7.798519622518335837e+02
8.333333333333332871e-02 4.066324206109466672e+02 7.798519622518352890e+02
1.000000000000000056e-01 3.936348879067494408e+02 7.798519622518352890e+02
1.166666666666666685e-01 3.806373552025521576e+02 7.798519622518335837e+02
1.333333333333333315e-01 3.676398224983549881e+02 7.798519622518335837e+02
1.499999999999999944e-01 3.546422897941577048e+02 7.798519622518335837e+02
1.666666666666666574e-01 3.416447570899605353e+02 7.798519622518335837e+02
1.833333333333333204e-01 3.286472243857632520e+02 7.798519622518352890e+02
2.000000000000000111e-01 3.156496916815660256e+02 7.798519622518335837e+02
2.166666666666666741e-01 3.026521589773687992e+02 7.798519622518352890e+02
2.333333333333333370e-01 2.896546262731715160e+02 7.798519622518352890e+02
2.500000000000000000e-01 2.766570935689742896e+02 7.798519622518335837e+02
2.666666666666666630e-01 2.636595608647770632e+02 7.798519622518344931e+02
2.833333333333333259e-01 2.506620281605798084e+02 7.798519622518344931e+02
2.999999999999999889e-01 2.376644954563825820e+02 7.798519622518344931e+02
3.166666666666666519e-01 2.246669627521853272e+02 7.798519622518344931e+02
3.333333333333333148e-01 2.116694300479881008e+02 7.798519622518335837e+02
3.499999999999999778e-01 1.986718973437908744e+02 7.798519622518344931e+02
3.666666666666666408e-01 1.856743646395936196e+02 7.798519622518344931e+02
3.833333333333333037e-01 1.726768319353963932e+02 7.798519622518352890e+02
4.000000000000000222e-01 1.596792992311991100e+02 7.798519622518352890e+02
4.166666666666666852e-01 1.466817665270018836e+02 7.798519622518335837e+02
4.333333333333333481e-01 1.336842338228046572e+02 7.798519622518335837e+02
4.500000000000000111e-01 1.206867011186074308e+02 7.798519622518344931e+02
4.666666666666666741e-01 1.076891684144101760e+02 7.798519622518344931e+02
4.833333333333333370e-01 9.469163571021294956e+01 7.798519622518335837e+02
5.000000000000000000e-01 8.169410300601572317e+01 7.798519622518327878e+02
5.166666666666666075e-01 6.869657030181852519e+01 7.798519622518344931e+02
5.333333333333333259e-01 5.569903759762124196e+01 7.798519622518367669e+02
5.500000000000000444e-01 4.270150489342396583e+01 7.798519622518340384e+02
5.666666666666666519e-01 2.970397218922677496e+01 5.713481083273595686e+02
5.833333333333333703e-01 2.365656794917864758e+01 3.159078478721216925e+02
5.999999999999999778e-01 1.917371059348938545e+01 2.426566929252516616e+02
6.166666666666666963e-01 1.556801151833692565e+01 1.961306773274176578e+02
6.333333333333333037e-01 1.263602134924212983e+01 1.613980505635539942e+02
6.500000000000000222e-01 1.018807649955179251e+01 1.354287771694206981e+02
6.666666666666666297e-01 8.121728776928106797e+00 1.147335006560812616e+02
6.833333333333333481e-01 6.363626477682417182e+00 9.725856578081879888e+01
6.999999999999999556e-01 4.879776584234146952e+00 8.207171029758262648e+01
7.166666666666666741e-01 3.627902801096329899e+00 6.903272783264000623e+01
7.333333333333332815e-01 2.578685656479480226e+00 5.763820651182906829e+01
7.500000000000000000e-01 1.706629250702027756e+00 4.750222968345203611e+01
7.666666666666666075e-01 9.952780003644124962e-01 3.867262505993016930e+01
7.833333333333333259e-01 4.175417487043556197e-01 3.136943869723704736e+01
8.000000000000000444e-01 -5.036995621015580293e-02 2.540516745591026293e+01
8.166666666666666519e-01 -4.292971664926530928e-01 2.047645144662178396e+01
8.333333333333333703e-01 -7.329183377642153330e-01 1.627892189938741652e+01
8.499999999999999778e-01 -9.719278964722335434e-01 1.260685301981998663e+01
8.666666666666666963e-01 -1.153146771758214895e+00 9.384462550178691131e+00
8.833333333333333037e-01 -1.284743314811523263e+00 6.651594047930740494e+00
9.000000000000000222e-01 -1.374866573355906230e+00 4.359874271857829164e+00
9.166666666666666297e-01 -1.430072457206784220e+00 2.398765617451905641e+00
9.333333333333333481e-01 -1.454825427270969751e+00 7.696177585962526990e-01
9.499999999999999556e-01 -1.455726382493325977e+00 -4.967209645193704226e-01
9.666666666666666741e-01 -1.438268061786990737e+00 -1.549122088773486894e+00
9.833333333333332815e-01 -1.404088979534209747e+00 -2.546913774965646748e+00
1.000000000000000000e+00 -1.353370935954802512e+00 -3.426989848757642232e+00
1.016666666666666607e+00 -1.289855984575621672e+00 -4.049971121860274081e+00
1.033333333333333215e+00 -1.218371898559460043e+00 -4.454826491123882626e+00
1.050000000000000044e+00 -1.141361768204825600e+00 -4.746812682928869265e+00
1.066666666666666652e+00 -1.060144809128497734e+00 -4.915758712060259938e+00
1.083333333333333259e+00 -9.775031444694836091e-01 -4.938240240879262721e+00
1.100000000000000089e+00 -8.955368010991889838e-01 -4.925962684875946351e+00
1.116666666666666696e+00 -8.133043883069520641e-01 -5.004216258298703757e+00
1.133333333333333304e+00 -7.287295924892321919e-01 -5.108417711183013132e+00
1.149999999999999911e+00 -6.430237979341849597e-01 -5.014355893901013772e+00
1.166666666666666741e+00 -5.615843960258650736e-01 -4.557731846121983565e+00
1.183333333333333348e+00 -4.910994030634521779e-01 -3.825879755263107640e+00
1.199999999999999956e+00 -4.340550708504281596e-01 -3.084071278533393912e+00
1.216666666666666563e+00 -3.882970271123390438e-01 -2.496887292777834499e+00
1.233333333333333393e+00 -3.508254944245003393e-01 -2.051873402386179990e+00
1.250000000000000000e+00 -3.199012470327997071e-01 -1.713797024398804325e+00
1.266666666666666607e+00 -2.936989269445401951e-01 -1.480956542862796432e+00
1.283333333333333215e+00 -2.705360289373731630e-01 -1.282134977323099001e+00
1.300000000000000044e+00 -2.509610943671035654e-01 -9.918741654942928587e-01
1.316666666666666652e+00 -2.374735567542300696e-01 -6.416406536267782457e-01
1.333333333333333259e+00 -2.295730725795442906e-01 -3.792220044897823272e-01
1.350000000000000089e+00 -2.248328232712373254e-01 -2.668587497405308651e-01
1.366666666666666696e+00 -2.206777809215265951e-01 -2.272264715435101667e-01
1.383333333333333304e+00 -2.172586075531203198e-01 -2.033726318448139669e-01
1.399999999999999911e+00 -2.138986931933661295e-01 -2.171312935805244648e-01
1.416666666666666741e+00 -2.100208977671028376e-01 -2.553895696536503945e-01
1.433333333333333348e+00 -2.053857075382444497e-01 -2.804032681515702952e-01
1.449999999999999956e+00 -2.006741221620504945e-01 -3.104013334995925355e-01
1.466666666666666563e+00 -1.950389964215913652e-01 -3.791276245814478862e-01
1.483333333333333393e+00 -1.880365346760022316e-01 -5.044563696662435204e-01
1.500000000000000000e+00 -1.782237840993832478e-01 -6.572801524816090923e-01
1.516666666666666607e+00 -1.661271962599485952e-01 -7.865997276688546647e-01
1.533333333333333215e+00 -1.520037931770880923e-01 -8.659953527137596030e-01
1.550000000000000044e+00 -1.372606845028232769e-01 -8.944910145469830987e-01
1.566666666666666652e+00 -1.221874260255219891e-01 -8.803750108266459318e-01
1.583333333333333259e+00 -1.079148508086017477e-01 -8.122201468980316807e-01
1.600000000000000089e+00 -9.511342112892093303e-02 -7.093140787000362657e-01
1.616666666666666696e+00 -8.427104818526720553e-02 -6.071707312938827705e-01
1.633333333333333304e+00 -7.487439675245817494e-02 -5.138850370357442854e-01
1.649999999999999911e+00 -6.714154695074239787e-02 -4.240788811382824597e-01
1.666666666666666741e+00 -6.073843404784876054e-02 -3.511683910260668395e-01
1.683333333333333348e+00 -5.543593391654016989e-02 -3.068741895011429244e-01
1.699999999999999956e+00 -5.050929439781066260e-02 -2.854680405504927410e-01
1.716666666666666563e+00 -4.592033256485707898e-02 -2.749533422397501536e-01
1.733333333333333393e+00 -4.134418298981899081e-02 -2.784944105377221146e-01
1.750000000000000000e+00 -3.663718554693300850e-02 -2.881259922588429445e-01
1.766666666666666607e+00 -3.173998324785756026e-02 -2.866236325981282307e-01
1.783333333333333215e+00 -2.708306446032873391e-02 -2.686797045711472043e-01
1.800000000000000044e+00 -2.278399309548598609e-02 -2.415127056640152259e-01
1.816666666666666652e+00 -1.903264093819489328e-02 -2.085298050551223359e-01
1.833333333333333259e+00 -1.583299959364857512e-02 -1.781371791205856314e-01
1.849999999999999867e+00 -1.309473496750870533e-02 -1.593490070704194905e-01
1.866666666666666696e+00 -1.052136602463459199e-02 -1.497040507892386796e-01
1.883333333333333304e+00 -8.104599941200749808e-03 -1.364998616044272306e-01
1.899999999999999911e+00 -5.971370637820351372e-03 -1.144933194935259524e-01
1.916666666666666741e+00 -4.288155958083217888e-03 -8.924187379087593353e-02
1.933333333333333348e+00 -2.996641511457820515e-03 -1.245796039138185179e-01
1.949999999999999956e+00 -1.355024942892678189e-04 -9.107774539414301151e-02
1.966666666666666563e+00 3.928333501361281509e-05 -4.195217471644169249e-03
1.983333333333333393e+00 4.338088098871157973e-06 1.178500050408384575e-03
2.000000000000000000e+00 0.000000000000000000e+00 2.602852859322694716e-04
