0.000000000000000000e+00 2.007941852760066297e+02 3.618161424315144359e+02
1.666666666666666644e-02 1.947639162354813891e+02 3.618161424315144359e+02
3.333333333333333287e-02 1.887336471949561485e+02 3.618161424315152885e+02
5.000000000000000278e-02 1.827033781544308795e+02 3.618161424315152885e+02
6.666666666666666574e-02 1.766731091139056389e+02 3.618161424315144359e+02
8.333333333333332871e-02 1.706428400733803983e+02 3.618161424315144359e+02
1.000000000000000056e-01 1.646125710328551577e+02 3.618161424315152885e+02
1.166666666666666685e-01 1.585823019923298887e+02 3.618161424315152885e+02
1.333333333333333315e-01 1.525520329518046481e+02 3.618161424315144359e+02
1.499999999999999944e-01 1.465217639112794075e+02 3.618161424315144359e+02
1.666666666666666574e-01 1.404914948707541669e+02 3.618161424315152885e+02
1.833333333333333204e-01 1.344612258302288978e+02 3.618161424315152885e+02
2.000000000000000111e-01 1.284309567897036573e+02 3.618161424315144359e+02
2.166666666666666741e-01 1.224006877491784167e+02 3.618161424315148906e+02
2.333333333333333370e-01 1.163704187086531618e+02 3.618161424315148906e+02
2.500000000000000000e-01 1.103401496681279212e+02 3.618161424315144359e+02
2.666666666666666630e-01 1.043098806276026806e+02 3.618161424315148906e+02
2.833333333333333259e-01 9.827961158707742584e+01 3.618161424315148906e+02
2.999999999999999889e-01 9.224934254655218524e+01 3.618161424315148906e+02
3.166666666666666519e-01 8.621907350602693043e+01 3.618161424315148906e+02
3.333333333333333148e-01 8.018880446550168983e+01 3.618161424315148906e+02
3.499999999999999778e-01 7.415853542497643502e+01 3.618161424315148906e+02
3.666666666666666408e-01 6.812826638445119443e+01 3.618161424315148906e+02
3.833333333333333037e-01 6.209799734392593962e+01 3.618161424315157433e+02
4.000000000000000222e-01 5.606772830340067060e+01 3.618161424315152885e+02
4.166666666666666852e-01 5.003745926287543000e+01 3.618161424315146633e+02
4.333333333333333481e-01 4.400719022235018230e+01 3.618161424315148906e+02
4.500000000000000111e-01 3.797692118182493459e+01 3.618161424315148906e+02
4.666666666666666741e-01 3.194665214129968689e+01 3.618161424315147769e+02
4.833333333333333370e-01 2.591638310077444274e+01 3.618161424315147769e+02
5.000000000000000000e-01 1.988611406024919503e+01 3.618161424315142085e+02
5.166666666666666075e-01 1.385584501972396865e+01 2.897379382564849948e+02
5.333333333333333259e-01 1.022818278503302913e+01 1.890788393348389889e+02
5.500000000000000444e-01 7.553217041896002293e+00 1.434258164209260542e+02
5.666666666666666519e-01 5.447322237668827505e+00 1.140690476507255227e+02
5.833333333333333703e-01 3.750915453538484989e+00 9.195633359879468571e+01
5.999999999999999778e-01 2.382111117709004855e+00 7.399186310230460606e+01
6.166666666666666963e-01 1.284520016794998165e+00 5.919363271642129121e+01
6.333333333333333037e-01 4.089900271616284111e-01 4.695786196708956339e+01
6.500000000000000222e-01 -2.807420487746538629e-01 3.659908474902593412e+01
6.666666666666666297e-01 -8.109794644725695223e-01 2.763453888171999395e+01
6.833333333333333481e-01 -1.201893344831987065e+00 1.988793938419667384e+01
6.999999999999999556e-01 -1.473910777279125339e+00 1.325319447285133556e+01
7.166666666666666741e-01 -1.643666493927031569e+00 7.620759312971972399e+00
7.333333333333332815e-01 -1.727936087711524404e+00 2.958280865761382383e+00
7.500000000000000000e-01 -1.742275856119077648e+00 -7.271459333183494245e-01
7.666666666666666075e-01 -1.703697889934246090e+00 -3.470348140825751937e+00
7.833333333333333259e-01 -1.626597584758219250e+00 -5.318494379311696107e+00
8.000000000000000444e-01 -1.526414743957189568e+00 -6.351169353431864728e+00
8.166666666666666519e-01 -1.414891939643823759e+00 -6.701157729292009257e+00
8.333333333333333703e-01 -1.303042819647455941e+00 -6.507956603611613211e+00
8.499999999999999778e-01 -1.197960052856769986e+00 -5.880726067269133495e+00
8.666666666666666963e-01 -1.107018617405151506e+00 -4.968763442243488981e+00
8.833333333333333037e-01 -1.032334604781987020e+00 -4.013719911776769678e+00
9.000000000000000222e-01 -9.732279536792591834e-01 -3.159131832522930061e+00
9.166666666666666297e-01 -9.270302103645560177e-01 -2.458985360959036193e+00
9.333333333333333481e-01 -8.912617749806246437e-01 -1.999435131812647981e+00
9.499999999999999556e-01 -8.603823726374677516e-01 -1.866443466405298679e+00
9.666666666666666741e-01 -8.290469927671146877e-01 -2.013437463239757808e+00
9.833333333333332815e-01 -7.932677905294758247e-01 -2.356068017246965240e+00
1.000000000000000000e+00 -7.505113921922158537e-01 -2.820592347283252810e+00
1.016666666666666607e+00 -6.992480456200340644e-01 -3.264643924530330477e+00
1.033333333333333215e+00 -6.416899280412048379e-01 -3.488721512203642128e+00
1.050000000000000044e+00 -5.829573285465793342e-01 -3.447980163594958292e+00
1.066666666666666652e+00 -5.267572559213729022e-01 -3.204135791882177120e+00
1.083333333333333259e+00 -4.761528021505067598e-01 -2.827478066335107343e+00
1.100000000000000089e+00 -4.325079870435359908e-01 -2.395414717100680324e+00
1.116666666666666696e+00 -3.963056449138174231e-01 -1.999398653105193269e+00
1.133333333333333304e+00 -3.658613652733628818e-01 -1.695487508910795249e+00
1.149999999999999911e+00 -3.397893946167909185e-01 -1.450198478600082108e+00
1.166666666666666741e+00 -3.175214159866934782e-01 -1.220250152788683984e+00
1.183333333333333348e+00 -2.991143895238347894e-01 -1.005786067717814980e+00
1.199999999999999956e+00 -2.839952137294329826e-01 -8.096580343049614159e-01
1.216666666666666563e+00 -2.721257883803360755e-01 -6.530098761912461747e-01
1.233333333333333393e+00 -2.622282178563914434e-01 -5.565952265478157912e-01
1.250000000000000000e+00 -2.535726141620755492e-01 -5.379557439645976658e-01
1.266666666666666607e+00 -2.442963597242381879e-01 -6.105063396533833009e-01
1.283333333333333215e+00 -2.332224028402961058e-01 -7.585427986629909025e-01
1.300000000000000044e+00 -2.190115997688051597e-01 -9.360531856487411817e-01
1.316666666666666652e+00 -2.020206299853380683e-01 -1.058848565793524488e+00
1.333333333333333259e+00 -1.837166475756876749e-01 -1.088341247663076272e+00
1.350000000000000089e+00 -1.657425883965688573e-01 -1.041919080296348277e+00
1.366666666666666696e+00 -1.489860115658094009e-01 -9.509010170110691051e-01
1.383333333333333304e+00 -1.340458878295332223e-01 -8.562363459504575003e-01
1.399999999999999911e+00 -1.204448000341274833e-01 -7.735276016588520376e-01
1.416666666666666741e+00 -1.082616344409048220e-01 -7.110021046047912963e-01
1.433333333333333348e+00 -9.674472988063444190e-02 -6.776883009497947086e-01
1.449999999999999956e+00 -8.567202440924499840e-02 -6.676774454257199398e-01
1.466666666666666563e+00 -7.448881503311044483e-02 -6.648150514892332552e-01
1.483333333333333393e+00 -6.351152269293722230e-02 -6.401977978248830636e-01
1.500000000000000000e+00 -5.314888843894767512e-02 -5.934016597755927824e-01
1.516666666666666607e+00 -4.373146736708413002e-02 -5.347276085178661598e-01
1.533333333333333215e+00 -3.532463482168547025e-02 -4.736467716444840992e-01
1.550000000000000044e+00 -2.794324164560132648e-02 -4.230413158302839260e-01
1.566666666666666652e+00 -2.122325762734267318e-02 -3.879632691570037983e-01
1.583333333333333259e+00 -1.501113267370120068e-02 -3.559771168449553103e-01
1.600000000000000089e+00 -9.357353732510830316e-03 -3.146051580682788784e-01
1.616666666666666696e+00 -4.524294071425238872e-03 -2.610124330586604535e-01
1.633333333333333304e+00 -6.569392972221477656e-04 -2.020820620157114944e-01
1.649999999999999911e+00 2.211774662431810912e-03 -1.498724232714569449e-01
1.666666666666666741e+00 4.338808145159750093e-03 -1.198112561078392979e-01
1.683333333333333348e+00 6.205483199359787712e-03 -1.065025820508052334e-01
1.699999999999999956e+00 7.888894213519924425e-03 -8.676676807869747321e-02
1.716666666666666563e+00 9.097708801983036761e-03 -5.402191998387664840e-02
1.733333333333333393e+00 9.689624879649146039e-03 -2.324659478006557700e-02
1.750000000000000000e+00 9.872595294651889328e-03 -4.659746381088982620e-03
1.766666666666666607e+00 9.844949759018778793e-03 6.064211645220255603e-03
1.783333333333333215e+00 9.670454906477880808e-03 1.331329675460108872e-02
1.800000000000000044e+00 9.401173200532075835e-03 1.797662664243667233e-02
1.816666666666666652e+00 9.071234018396658397e-03 2.069483013333735591e-02
1.833333333333333259e+00 8.711345529420830638e-03 2.434346993405063497e-02
1.849999999999999867e+00 8.259785020594970564e-03 3.039828830466288420e-02
1.866666666666666696e+00 7.698069252598734556e-03 3.872968594613709903e-02
1.883333333333333304e+00 6.968795489057067263e-03 4.484013190022832079e-02
1.899999999999999911e+00 6.203398189257790588e-03 4.600639443993589234e-02
1.916666666666666741e+00 5.435249007725870794e-03 4.656651964866735660e-02
1.933333333333333348e+00 4.651180867635545425e-03 1.106422845230624202e-01
1.949999999999999956e+00 1.747172856957123280e-03 1.305603307177761740e-01
1.966666666666666563e+00 2.991698437096727186e-04 5.152395529802233920e-02
1.983333333333333393e+00 2.970768035637849294e-05 8.975095311290181774e-03
2.000000000000000000e+00 0.000000000000000000e+00 1.782460821382709495e-03
