0	1.09915e+07	86.3379
0.0166667	1.09915e+07	165.282
0.0333333	1.09915e+07	304.396
0.05	1.09915e+07	402.425
0.0666667	1.09915e+07	459.596
0.0833333	1.09914e+07	486.646
0.1	1.09914e+07	496.688
0.116667	1.09914e+07	16806.2
0.133333	1.09909e+07	186839
0.15	1.09852e+07	1.06573e+06
0.166667	1.09554e+07	4.04583e+06
0.183333	1.08503e+07	1.1422e+07
0.2	1.05746e+07	2.54299e+07
0.216667	1.00027e+07	4.62401e+07
0.233333	9.03328e+06	7.02246e+07
0.25	7.66186e+06	9.04116e+07
0.266667	6.01956e+06	9.9692e+07
0.283333	4.33879e+06	9.48468e+07
0.3	2.858e+06	7.83536e+07
0.316667	1.727e+06	5.66147e+07
0.333333	970840	3.61829e+07
0.35	520905	2.08522e+07
0.366667	275768	1.11788e+07
0.383333	148280	5.81008e+06
0.4	82098.7	3.04379e+06
0.416667	46820	1.64096e+06
0.433333	27400.2	912529
0.45	16402.4	521547
0.466667	10015.3	305444
0.483333	6220.96	182890
0.5	3918.92	111879
0.516667	2491.66	70003.4
0.533333	1585.47	45077.8
0.55	989.062	31432.7
0.566667	537.715	20219.7
0.583333	315.074	10749.2
0.6	179.408	6389.93
0.616667	102.076	3602.2
0.633333	59.3346	2006.23
0.65	35.2016	1151.18
0.666667	20.962	686.323
0.683333	12.3242	419.345
0.7	6.98381	262.013
0.716667	3.5904	169.503
0.733333	1.33371	116.121
0.75	-0.280288	85.9388
0.766667	-1.53092	67.6079
0.783333	-2.53389	53.0412
0.8	-3.29896	38.2325
0.816667	-3.8083	23.4603
0.833333	-4.08097	11.3689
0.85	-4.18726	3.90743
0.866667	-4.21122	0.539784
0.883333	-4.20526	-1.05565
0.9	-4.17603	-2.93383
0.916667	-4.10746	-5.65635
0.933333	-3.98748	-8.71703
0.95	-3.81689	-11.3524
0.966667	-3.60907	-12.9767
0.983333	-3.38434	-13.3095
1	-3.16542	-12.4299
1.01667	-2.97001	-10.9818
1.03333	-2.79936	-9.93622
1.05	-2.6388	-9.73073
1.06667	-2.475	-9.90709
1.08333	-2.30857	-9.78454
1.1	-2.14885	-9.20289
1.11667	-2.0018	-8.51689
1.13333	-1.86495	-7.98941
1.15	-1.73549	-7.52191
1.16667	-1.61422	-7.03897
1.18333	-1.50086	-6.59518
1.2	-1.39438	-6.16894
1.21667	-1.29523	-5.66459
1.23333	-1.20556	-4.99688
1.25	-1.12866	-4.14565
1.26667	-1.06738	-3.09862
1.28333	-1.02538	-1.84077
1.3	-1.00602	-0.485323
1.31667	-1.0092	0.755753
1.33333	-1.03121	1.65275
1.35	-1.06429	1.95958
1.36667	-1.09653	1.56241
1.38333	-1.11637	0.688344
1.4	-1.11947	-0.118797
1.41667	-1.11241	-0.378038
1.43333	-1.10687	-0.151045
1.45	-1.10738	-0.0415351
1.46667	-1.10549	-0.615313
1.48333	-1.08686	-1.83353
1.5	-1.04437	-3.126
1.51667	-0.982665	-3.96358
1.53333	-0.912251	-4.24181
1.55	-0.841271	-4.21017
1.56667	-0.771912	-4.16802
1.58333	-0.702337	-4.2404
1.6	-0.630565	-4.36782
1.61667	-0.556743	-4.43405
1.63333	-0.482763	-4.39437
1.65	-0.410264	-4.27841
1.66667	-0.34015	-4.05529
1.68333	-0.275088	-3.60982
1.7	-0.219822	-2.9282
1.71667	-0.177481	-2.20127
1.73333	-0.146447	-1.66899
1.75	-0.121848	-1.39322
1.76667	-0.100006	-1.24364
1.78333	-0.0803937	-1.07377
1.8	-0.0642138	-0.84022
1.81667	-0.0523864	-0.592483
1.83333	-0.0444644	-0.405527
1.85	-0.0388688	-0.317758
1.86667	-0.0338724	-0.307345
1.88333	-0.028624	-0.315812
1.9	-0.0233453	-0.297594
1.91667	-0.0187042	-0.246012
1.93333	-0.015145	-0.182362
1.95	-0.0126255	-0.132469
1.96667	-0.0107293	-0.108588
1.98333	-0.00900584	-0.101947
2	-0.00733109	-0.100485
