0.000000000000000000e+00 2.904354346647231068e+04 2.696679510229924344e+05
1.666666666666666644e-02 2.454907761608910369e+04 2.488827084388723888e+05
3.333333333333333287e-02 2.074745318517656415e+04 2.105099951097319426e+05
5.000000000000000278e-02 1.753207777909803917e+04 1.780413607664309966e+05
6.666666666666666574e-02 1.481274115962886390e+04 1.505693686737834068e+05
8.333333333333332871e-02 1.251309882330525943e+04 1.273259743892572296e+05
1.000000000000000056e-01 1.056854201332028970e+04 1.076611197687587846e+05
1.166666666666666685e-01 8.924394831013300063e+03 9.102461372181680053e+04
1.333333333333333315e-01 7.534388222593062892e+03 7.695079509704060911e+04
1.499999999999999944e-01 6.359368327778613093e+03 6.504555055044139590e+04
1.666666666666666574e-01 5.366203204245016423e+03 5.497532582727835688e+04
1.833333333333333204e-01 4.526857466869334530e+03 4.645782439851805248e+04
2.000000000000000111e-01 3.817609057627747916e+03 3.925413438131905423e+04
2.166666666666666741e-01 3.218386320825366056e+03 3.316206444746898342e+04
2.333333333333333370e-01 2.712206909378781802e+03 2.801050309193713838e+04
2.500000000000000000e-01 2.284702884427461413e+03 2.365464413305773996e+04
2.666666666666666630e-01 1.923718771610190515e+03 1.997194543986389181e+04
2.833333333333333259e-01 1.618971369765331701e+03 1.685870830248478887e+04
2.999999999999999889e-01 1.361761828194030841e+03 1.422718214685572275e+04
3.166666666666666519e-01 1.144731964870140928e+03 1.200311392658447221e+04
3.333333333333333148e-01 9.616580306412150776e+02 1.012367391007658443e+04
3.499999999999999778e-01 8.072761678675881285e+02 8.535700064807002491e+03
3.666666666666666408e-01 6.771346951476483582e+02 7.194212114856341941e+03
3.833333333333333037e-01 5.674690973723767229e+02 6.061153859610433756e+03
4.000000000000000222e-01 4.750962331606339148e+02 5.104328700022109842e+03
4.166666666666666852e-01 3.973248073716397357e+02 4.296498701109971989e+03
4.333333333333333481e-01 3.318796097903015152e+02 3.614622075293144007e+03
4.500000000000000111e-01 2.768374048618682650e+02 3.039207827601449480e+03
4.666666666666666741e-01 2.305726822035865382e+02 2.553769568146072743e+03
4.833333333333333370e-01 1.917117525903325088e+02 2.144363260387824539e+03
5.000000000000000000e-01 1.590939068573257202e+02 1.799196012645207020e+03
5.166666666666666075e-01 1.317385521688256063e+02 1.508295000078211615e+03
5.333333333333333259e-01 1.088174068547186693e+02 1.263227280198352901e+03
5.500000000000000444e-01 8.963097616221384101e+01 1.056862683461467213e+03
5.666666666666666519e-01 7.358865073933642975e+01 1.119555063108341301e+03
5.833333333333333703e-01 5.231247405860246147e+01 1.176101134307061784e+03
5.999999999999999778e-01 3.438527959576770598e+01 8.075700210314831793e+02
6.166666666666666963e-01 2.539347335755302382e+01 3.888759107369369303e+02
6.333333333333333037e-01 2.142274923786980878e+01 2.370315484518237099e+02
6.500000000000000222e-01 1.749242174249223325e+01 2.216140465387412348e+02
6.666666666666666297e-01 1.403561435324510143e+01 1.926883459704961297e+02
6.833333333333333481e-01 1.106947687680902881e+01 1.648934162218342578e+02
6.999999999999999556e-01 8.539167145850626639e+00 1.406830018906771613e+02
7.166666666666666741e-01 6.380043480453123195e+00 1.198991475746926341e+02
7.333333333333332815e-01 4.542528893360872289e+00 1.015316693750789625e+02
7.500000000000000000e-01 2.995654501283824711e+00 8.481827190591882015e+01
7.666666666666666075e-01 1.715253163163578121e+00 6.955804228687759405e+01
7.833333333333333259e-01 6.770530917212378430e-01 5.586003873422200172e+01
8.000000000000000444e-01 -1.467481279771551961e-01 4.385988592558746291e+01
8.166666666666666519e-01 -7.849431057983443649e-01 3.360097717563110820e+01
8.333333333333333703e-01 -1.266780700498192136e+00 2.500155665500091473e+01
8.499999999999999778e-01 -1.618328327631708197e+00 1.786941197060809117e+01
8.666666666666666963e-01 -1.862427766185128508e+00 1.195377633100721582e+01
8.833333333333333037e-01 -2.016787538665282042e+00 7.031332171719988366e+00
9.000000000000000222e-01 -2.096805505242461454e+00 2.962752617314570180e+00
9.166666666666666297e-01 -2.115545959242434382e+00 -3.020461524077688864e-01
9.333333333333333481e-01 -2.086737300162202491e+00 -2.765826789925038831e+00
9.499999999999999556e-01 -2.023351732911599754e+00 -4.434909371062656369e+00
9.666666666666666741e-01 -1.938906987793447279e+00 -5.362328990987115240e+00
9.833333333333332815e-01 -1.844607433212029246e+00 -5.656532315936866340e+00
1.000000000000000000e+00 -1.750355910595551734e+00 -5.468674742938020472e+00
1.016666666666666607e+00 -1.662318275114095245e+00 -5.053919286859385629e+00
1.033333333333333215e+00 -1.581891934366905561e+00 -4.672406633851755586e+00
1.050000000000000044e+00 -1.506571387319036726e+00 -4.444357141570701053e+00
1.066666666666666652e+00 -1.433746696314548874e+00 -4.373300225183252010e+00
1.083333333333333259e+00 -1.360794713146261659e+00 -4.445504436478938004e+00
1.100000000000000089e+00 -1.285563215098584289e+00 -4.642231620519006619e+00
1.116666666666666696e+00 -1.206053659128961453e+00 -4.927349919472321815e+00
1.133333333333333304e+00 -1.121318217782840243e+00 -5.192155863988377362e+00
1.149999999999999911e+00 -1.032981796996015555e+00 -5.305985589072027331e+00
1.166666666666666741e+00 -9.444520314804393246e-01 -5.227571466000185296e+00
1.183333333333333348e+00 -8.587294147960093937e-01 -5.013846866909182687e+00
1.199999999999999956e+00 -7.773238025834665610e-01 -4.709366685738957337e+00
1.216666666666666563e+00 -7.017505252713774899e-01 -4.324906020110959481e+00
1.233333333333333393e+00 -6.331602685797679264e-01 -3.881998894099820685e+00
1.250000000000000000e+00 -5.723505621347168004e-01 -3.397630646177608682e+00
1.266666666666666607e+00 -5.199059137071809777e-01 -2.898693233238750722e+00
1.283333333333333215e+00 -4.757274543600917838e-01 -2.458613085415242594e+00
1.300000000000000044e+00 -4.379521441933395542e-01 -2.186181614998321088e+00
1.316666666666666652e+00 -4.028547338601477512e-01 -2.158497116188262677e+00
1.333333333333333259e+00 -3.660022403203974650e-01 -2.357606204342836964e+00
1.350000000000000089e+00 -3.242678603820531857e-01 -2.653691279600974173e+00
1.366666666666666696e+00 -2.775458643336983222e-01 -2.869208317652351070e+00
1.383333333333333304e+00 -2.286275831269748149e-01 -2.868314306439742722e+00
1.399999999999999911e+00 -1.819353874523735592e-01 -2.619247405661448092e+00
1.416666666666666741e+00 -1.413193362715932100e-01 -2.172987114666842245e+00
1.433333333333333348e+00 -1.095024836301454890e-01 -1.611152273279471414e+00
1.449999999999999956e+00 -8.761426049561082952e-02 -1.035817857378583673e+00
1.466666666666666563e+00 -7.497522171752603326e-02 -5.466777592205225300e-01
1.483333333333333393e+00 -6.939166852159341092e-02 -1.987463417648283048e-01
1.500000000000000000e+00 -6.835034365869842310e-02 9.260759870494822410e-03
1.516666666666666607e+00 -6.970036051727657167e-02 1.066228750612274734e-01
1.533333333333333215e+00 -7.190443949407267221e-02 1.274732986239740518e-01
1.550000000000000044e+00 -7.394947047140904006e-02 9.320930710138730646e-02
1.566666666666666652e+00 -7.501141639745224909e-02 5.275728629219045285e-03
1.583333333333333259e+00 -7.412532809238300824e-02 -1.374138124653864756e-01
1.600000000000000089e+00 -7.043095598193936657e-02 -3.080386823626024562e-01
1.616666666666666696e+00 -6.385737201362959303e-02 -4.624347785937480415e-01
1.633333333333333304e+00 -5.501646336214776473e-02 -5.672078574841840082e-01
1.649999999999999911e+00 -4.495044343082345989e-02 -6.076435573007487045e-01
1.666666666666666741e+00 -3.476167811878947550e-02 -5.831623049710874529e-01
1.683333333333333348e+00 -2.551169993178721215e-02 -5.079638336034606461e-01
1.699999999999999956e+00 -1.782955033200745582e-02 -4.082610640814765546e-01
1.716666666666666563e+00 -1.190299779573799309e-02 -3.013218126406461139e-01
1.733333333333333393e+00 -7.785489910652585929e-03 -1.933154220068038498e-01
1.750000000000000000e+00 -5.459150395511197865e-03 -8.754362031569445923e-02
1.766666666666666607e+00 -4.867369233462770679e-03 8.244257875210520004e-03
1.783333333333333215e+00 -5.733958991351548531e-03 7.930427862010329398e-02
1.800000000000000044e+00 -7.510845187466213928e-03 1.129142012807821810e-01
1.816666666666666652e+00 -9.497765700710954564e-03 1.141438313183192887e-01
1.833333333333333259e+00 -1.131563956474352338e-02 9.967251358235132419e-02
1.849999999999999867e+00 -1.282018282012266537e-02 8.194498365658149652e-02
1.866666666666666696e+00 -1.404713901996290648e-02 6.489485612934224601e-02
1.883333333333333304e+00 -1.498334469110074001e-02 4.682527090552299209e-02
1.899999999999999911e+00 -1.560798138348033944e-02 2.156817475383336971e-02
1.916666666666666741e+00 -1.570228384956185233e-02 -2.053624655751032022e-02
1.933333333333333348e+00 -1.492343983156332876e-02 -5.204068540834312362e-01
1.949999999999999956e+00 1.644611286552520460e-03 -4.576130026074017865e-01
1.966666666666666563e+00 3.303269220167303071e-04 4.851640043133453178e-02
1.983333333333333393e+00 2.739793884136935089e-05 9.909807660501909754e-03
2.000000000000000000e+00 0.000000000000000000e+00 1.643876330482161013e-03
