0.000000000000000000e+00 3.229011107388080291e+02 5.286558860926902526e+02
1.666666666666666644e-02 3.140901793039298582e+02 5.286558860926868419e+02
3.333333333333333287e-02 3.052792478690518010e+02 5.286558860926868419e+02
5.000000000000000278e-02 2.964683164341736301e+02 5.286558860926885473e+02
6.666666666666666574e-02 2.876573849992955161e+02 5.286558860926868419e+02
8.333333333333332871e-02 2.788464535644174020e+02 5.286558860926868419e+02
1.000000000000000056e-01 2.700355221295392880e+02 5.286558860926868419e+02
1.166666666666666685e-01 2.612245906946611740e+02 5.286558860926868419e+02
1.333333333333333315e-01 2.524136592597830600e+02 5.286558860926877514e+02
1.499999999999999944e-01 2.436027278249049175e+02 5.286558860926868419e+02
1.666666666666666574e-01 2.347917963900268319e+02 5.286558860926877514e+02
1.833333333333333204e-01 2.259808649551486610e+02 5.286558860926885473e+02
2.000000000000000111e-01 2.171699335202705470e+02 5.286558860926868419e+02
2.166666666666666741e-01 2.083590020853924329e+02 5.286558860926868419e+02
2.333333333333333370e-01 1.995480706505143189e+02 5.286558860926868419e+02
2.500000000000000000e-01 1.907371392156362049e+02 5.286558860926868419e+02
2.666666666666666630e-01 1.819262077807580908e+02 5.286558860926868419e+02
2.833333333333333259e-01 1.731152763458799768e+02 5.286558860926868419e+02
2.999999999999999889e-01 1.643043449110018628e+02 5.286558860926868419e+02
3.166666666666666519e-01 1.554934134761237488e+02 5.286558860926868419e+02
3.333333333333333148e-01 1.466824820412456347e+02 5.286558860926868419e+02
3.499999999999999778e-01 1.378715506063675207e+02 5.286558860926868419e+02
3.666666666666666408e-01 1.290606191714894067e+02 5.286558860926868419e+02
3.833333333333333037e-01 1.202496877366112926e+02 5.286558860926877514e+02
4.000000000000000222e-01 1.114387563017331502e+02 5.286558860926877514e+02
4.166666666666666852e-01 1.026278248668550361e+02 5.286558860926868419e+02
4.333333333333333481e-01 9.381689343197692210e+01 5.286558860926868419e+02
4.500000000000000111e-01 8.500596199709880807e+01 5.286558860926872967e+02
4.666666666666666741e-01 7.619503056222067983e+01 5.286558860926872967e+02
4.833333333333333370e-01 6.738409912734256579e+01 5.286558860926868419e+02
5.000000000000000000e-01 5.857316769246445176e+01 5.286558860926860461e+02
5.166666666666666075e-01 4.976223625758636615e+01 5.286558860926868419e+02
5.333333333333333259e-01 4.095130482270822370e+01 5.286558860926887746e+02
5.500000000000000444e-01 3.214037338783007414e+01 5.286558860926870693e+02
5.666666666666666519e-01 2.332944195295198853e+01 4.227577252163414414e+02
5.833333333333333703e-01 1.804844921395202562e+01 2.772386531904944604e+02
5.999999999999999778e-01 1.408815351326884091e+01 2.137070601597641826e+02
6.166666666666666963e-01 1.092488054195988667e+01 1.728741190340147398e+02
6.333333333333333037e-01 8.325682878801682563e+00 1.434233385450240519e+02
6.500000000000000222e-01 6.144102590459085356e+00 1.212763786657473446e+02
6.666666666666666297e-01 4.283136923276771313e+00 1.043186403722104671e+02
6.833333333333333481e-01 2.666814578052069784e+00 9.111008314653791729e+01
6.999999999999999556e-01 1.246134151725507122e+00 7.985025537838141929e+01
7.166666666666666741e-01 5.139398772689145189e-03 6.897464236264474380e+01
7.333333333333332815e-01 -1.053020593695984219e+00 5.789725251633896619e+01
7.500000000000000000e-01 -1.924769018438609702e+00 4.665877778913143459e+01
7.666666666666666075e-01 -2.608313186667031935e+00 3.545839624554173497e+01
7.833333333333333259e-01 -3.106715559956667594e+00 2.476678592300162762e+01
8.000000000000000444e-01 -3.433872717433752886e+00 1.526941356626062785e+01
8.166666666666666519e-01 -3.615696012165355189e+00 7.780135987198124603e+00
8.333333333333333703e-01 -3.693210583673690373e+00 2.743143632953555233e+00
8.499999999999999778e-01 -3.707134133263807030e+00 2.584707950518350117e-02
8.666666666666666963e-01 -3.694072152990529823e+00 -1.017212186862441747e+00
8.833333333333333037e-01 -3.673227060368392305e+00 -1.160930259594135094e+00
9.000000000000000222e-01 -3.655374477670725319e+00 -1.023390305614975127e+00
9.166666666666666297e-01 -3.639114050181226467e+00 -1.178026843199146967e+00
9.333333333333333481e-01 -3.616106916230753754e+00 -2.029358496005437829e+00
9.499999999999999556e-01 -3.571468766981045206e+00 -3.294415283861762411e+00
9.666666666666666741e-01 -3.506293073435361674e+00 -4.149547292989930192e+00
9.833333333333332815e-01 -3.433150523881380867e+00 -4.030147709103544251e+00
1.000000000000000000e+00 -3.371954816465243532e+00 -3.134980999766394660e+00
1.016666666666666607e+00 -3.328651157222501045e+00 -1.734555066373366650e+00
1.033333333333333215e+00 -3.314136314252797977e+00 2.833881387623193859e-02
1.050000000000000044e+00 -3.329595784351708776e+00 1.874579658428117135e+00
1.066666666666666652e+00 -3.376622302867068548e+00 3.173378788761240799e+00
1.083333333333333259e+00 -3.435375077310416803e+00 3.136826589051899816e+00
1.100000000000000089e+00 -3.481183189168798542e+00 1.500768811671719938e+00
1.116666666666666696e+00 -3.485400704366140801e+00 -1.335580121240944607e+00
1.133333333333333304e+00 -3.436663851794100388e+00 -4.822717418398116962e+00
1.149999999999999911e+00 -3.324643457086203568e+00 -8.560231132406578070e+00
1.166666666666666741e+00 -3.151322814047214482e+00 -1.199460646052469137e+01
1.183333333333333348e+00 -2.924823241735380552e+00 -1.431341385691094459e+01
1.199999999999999956e+00 -2.674209018816849692e+00 -1.525773841462959446e+01
1.216666666666666563e+00 -2.416231961247727433e+00 -1.519304603867448478e+01
1.233333333333333393e+00 -2.167774150861033533e+00 -1.452024116319143587e+01
1.250000000000000000e+00 -1.932223922474679556e+00 -1.345167166514807811e+01
1.266666666666666607e+00 -1.719385095356097626e+00 -1.210846926789175093e+01
1.283333333333333215e+00 -1.528608280211621206e+00 -1.066043848434641816e+01
1.300000000000000044e+00 -1.364037145877883717e+00 -9.050687408483078400e+00
1.316666666666666652e+00 -1.226918699928851941e+00 -7.313471221541054668e+00
1.333333333333333259e+00 -1.120254771826515228e+00 -5.728905829923645499e+00
1.350000000000000089e+00 -1.035955172264730439e+00 -4.627942362439465995e+00
1.366666666666666696e+00 -9.659900264118663760e-01 -4.082367202568788933e+00
1.383333333333333304e+00 -8.998762655124374898e-01 -3.957044100347787641e+00
1.399999999999999911e+00 -8.340885564002734620e-01 -3.944217575224279404e+00
1.416666666666666741e+00 -7.684023463382948504e-01 -3.770692103983065646e+00
1.433333333333333348e+00 -7.083988196008379479e-01 -3.387082731980469941e+00
1.449999999999999956e+00 -6.554995886056125265e-01 -2.966344481048406312e+00
1.466666666666666563e+00 -6.095206702325577375e-01 -2.678887609842843798e+00
1.483333333333333393e+00 -5.662033349441843999e-01 -2.672958457239607011e+00
1.500000000000000000e+00 -5.204220549912375038e-01 -2.914436313938341350e+00
1.516666666666666607e+00 -4.690554578129063623e-01 -3.254097481453638974e+00
1.533333333333333215e+00 -4.119521389427828750e-01 -3.602179125253139880e+00
1.550000000000000044e+00 -3.489828203044683663e-01 -3.966045318787412288e+00
1.566666666666666652e+00 -2.797506283165357988e-01 -4.344294410311341892e+00
1.583333333333333259e+00 -2.041730066274236310e-01 -4.568208584672249550e+00
1.600000000000000089e+00 -1.274770088274608248e-01 -4.499700462585337846e+00
1.616666666666666696e+00 -5.418299120791237461e-02 -4.187903375399961270e+00
1.633333333333333304e+00 1.211977035253789491e-02 -3.786804879684623426e+00
1.649999999999999911e+00 7.204383811490840117e-02 -3.368810404058359520e+00
1.666666666666666741e+00 1.244134504878165320e-01 -2.933654752790950671e+00
1.683333333333333348e+00 1.698323298746067522e-01 -2.508544340283102692e+00
1.699999999999999956e+00 2.080315951639199468e-01 -2.102730720558210198e+00
1.716666666666666563e+00 2.399233538932137588e-01 -1.656759480920502847e+00
1.733333333333333393e+00 2.632569111946033713e-01 -1.083371423617358831e+00
1.750000000000000000e+00 2.760357346804590550e-01 -3.921897526141449042e-01
1.766666666666666607e+00 2.763299029484082014e-01 2.790394322235056901e-01
1.783333333333333215e+00 2.667344202730088654e-01 8.343163600093855825e-01
1.800000000000000044e+00 2.485193576147620154e-01 1.272278563983272548e+00
1.816666666666666652e+00 2.243251348068997786e-01 1.580627270324090450e+00
1.833333333333333259e+00 1.958317819372923374e-01 1.741234216478593222e+00
1.849999999999999867e+00 1.662839942576133379e-01 1.745038634911560083e+00
1.866666666666666696e+00 1.376638274402403328e-01 1.642538404086222981e+00
1.883333333333333304e+00 1.115327141214059042e-01 1.473029063342100153e+00
1.899999999999999911e+00 8.856285866217032676e-02 1.270658955341473551e+00
1.916666666666666741e+00 6.917741561002345441e-02 1.086967967082501874e+00
1.933333333333333348e+00 5.233059309275359811e-02 1.728584438263914169e+00
1.949999999999999956e+00 1.155793433455964796e-02 1.527511965755067758e+00
1.966666666666666563e+00 1.413527567584670162e-03 3.431315508760720556e-01
1.983333333333333393e+00 1.202159720239121796e-04 4.240582702754010225e-02
2.000000000000000000e+00 0.000000000000000000e+00 7.212958321434730612e-03
