0.000000000000000000e+00 nan nan
1.666666666666666644e-02 2.020775745106859213e+19 nan
3.333333333333333287e-02 4.933534436171251000e+15 6.062315827984962683e+20
5.000000000000000278e-02 3.802445205194885156e+13 1.479698988455512320e+17
6.666666666666666574e-02 1.204474652877097656e+12 1.138250444528151000e+15
8.333333333333332871e-02 8.277056767715202332e+10 3.585574420554668750e+13
1.000000000000000056e-01 9.283179358874757767e+09 2.439319782489923340e+12
1.166666666666666685e-01 1.459908260821248770e+09 2.696742610994157715e+11
1.333333333333333315e-01 2.940373222275663614e+08 4.165111475696529388e+10
1.499999999999999944e-01 7.153776892240579426e+07 8.215077662634117126e+09
1.666666666666666574e-01 2.020140013976248354e+07 1.953076295364402294e+09
1.833333333333333204e-01 6.435225743592381477e+06 5.381128414214040041e+08
2.000000000000000111e-01 2.264305425715684891e+06 1.670755744979214370e+08
2.166666666666666741e-01 8.660399269949995214e+05 5.726140900472089648e+07
2.333333333333333370e-01 3.555917922249882831e+05 2.132549556461033598e+07
2.500000000000000000e-01 1.551900748413216497e+05 8.525350186474191025e+06
2.666666666666666630e-01 7.141345267584861722e+04 3.623079020276482683e+06
2.833333333333333259e-01 3.442077416543888830e+04 1.623965016436449951e+06
2.999999999999999889e-01 1.728128546130028553e+04 7.627744616961649153e+05
3.166666666666666519e-01 8.994958775566721670e+03 3.734124576219200972e+05
3.333333333333333148e-01 4.834203540569615143e+03 1.896571176109311054e+05
3.499999999999999778e-01 2.673054855202352428e+03 9.954888684405951062e+04
3.666666666666666408e-01 1.515907312434298092e+03 5.381652893235097872e+04
3.833333333333333037e-01 8.791705574573196600e+02 2.987528752087961038e+04
4.000000000000000222e-01 5.200643950716444124e+02 1.698534302376084815e+04
4.166666666666666852e-01 3.129924566652912858e+02 9.866539364444566672e+03
4.333333333333333481e-01 1.911797495901588491e+02 6.205107787904133147e+03
4.500000000000000111e-01 1.061555304018201866e+02 3.689750016421549390e+03
4.666666666666666741e-01 6.818808237610720369e+01 1.637325533854788318e+03
4.833333333333333370e-01 5.157801260666057885e+01 8.528068945930077689e+02
5.000000000000000000e-01 3.976118588967361234e+01 6.275871743135525094e+02
5.166666666666666075e-01 3.065844012954216069e+01 4.823593253266632814e+02
5.333333333333333259e-01 2.368254171211816939e+01 3.840569921116859859e+02
5.500000000000000444e-01 1.785654039248596092e+01 3.172422465962112028e+02
5.666666666666666519e-01 1.310780015891112882e+01 2.654381518735733039e+02
5.833333333333333703e-01 9.008601996700184245e+00 2.257093787478383433e+02
5.999999999999999778e-01 5.584154200649850353e+00 1.923458172930095884e+02
6.166666666666666963e-01 2.597074753599863950e+00 1.601914440188257061e+02
6.333333333333333037e-01 2.444394000223273355e-01 1.312020655656413908e+02
6.500000000000000222e-01 -1.776327431921515210e+00 1.084971343335306670e+02
6.666666666666666297e-01 -3.372131744428694677e+00 8.889347562181428941e+01
6.833333333333333481e-01 -4.739443285981991494e+00 7.209915650958988920e+01
6.999999999999999556e-01 -5.775436961415024051e+00 5.673553422636690868e+01
7.166666666666666741e-01 -6.630627760194221842e+00 4.483002770965087080e+01
7.333333333333332815e-01 -7.269771218403386470e+00 3.340416723704549185e+01
7.500000000000000000e-01 -7.744100001429071511e+00 2.270336317011496519e+01
7.666666666666666075e-01 -8.026549990740551976e+00 1.365387448381085278e+01
7.833333333333333259e-01 -8.199229150889433271e+00 7.797029555641454834e+00
8.000000000000000444e-01 -8.286450975928600471e+00 -2.640253171664141973e-01
8.166666666666666519e-01 -8.190428306983886131e+00 -6.823251800850158588e+00
8.333333333333333703e-01 -8.059009249233595185e+00 -1.095999945909587048e+01
8.499999999999999778e-01 -7.825094991680690448e+00 -1.351524270470507716e+01
8.666666666666666963e-01 -7.608501159076759279e+00 -1.727270308591569048e+01
8.833333333333333037e-01 -7.249338222150167432e+00 -2.281808239748867706e+01
9.000000000000000222e-01 -6.847898412493803377e+00 -2.456928700898582463e+01
9.166666666666666297e-01 -6.430361988517306671e+00 -2.496330803074063809e+01
9.333333333333333481e-01 -6.015788144802448834e+00 -2.586276700610152801e+01
9.499999999999999556e-01 -5.568269754980589070e+00 -2.884296309486421350e+01
9.666666666666666741e-01 -5.054356041640308383e+00 -3.033622813159139397e+01
9.833333333333332815e-01 -4.557062150594209271e+00 -2.893963483841051243e+01
1.000000000000000000e+00 -4.089701547026624695e+00 -2.641021998085178524e+01
1.016666666666666607e+00 -3.676721484565816489e+00 -2.493951167708598504e+01
1.033333333333333215e+00 -3.258384491123758497e+00 -2.430084560177117936e+01
1.050000000000000044e+00 -2.866693297840110510e+00 -2.225380692263768978e+01
1.066666666666666652e+00 -2.516590927035835534e+00 -1.980774009508200351e+01
1.083333333333333259e+00 -2.206435294670710423e+00 -1.781241651241310464e+01
1.100000000000000089e+00 -1.922843709955398772e+00 -1.598101653941597533e+01
1.116666666666666696e+00 -1.673734743356844579e+00 -1.394476819578164317e+01
1.133333333333333304e+00 -1.458018103429344015e+00 -1.202096076402004421e+01
1.149999999999999911e+00 -1.273036051222843135e+00 -1.027392147250897203e+01
1.166666666666666741e+00 -1.115554054345711643e+00 -8.580164463615494341e+00
1.183333333333333348e+00 -9.870305691023266714e-01 -6.841397161393219406e+00
1.199999999999999956e+00 -8.875074822992710111e-01 -5.749671769205751737e+00
1.216666666666666563e+00 -7.953748434621349395e-01 -4.830816464699040580e+00
1.233333333333333393e+00 -7.264802668093029991e-01 -3.041542477236762743e+00
1.250000000000000000e+00 -6.939900942209095147e-01 -1.865945948060596660e+00
1.266666666666666607e+00 -6.642820685406164438e-01 -6.953052476366505807e-01
1.283333333333333215e+00 -6.708132526330211620e-01 -3.962716379752628804e-01
1.300000000000000044e+00 -6.510730139414410145e-01 -1.939424664407018994e-01
1.316666666666666652e+00 -6.643485037516644320e-01 1.843252795405325717e-01
1.333333333333333259e+00 -6.572171899261254335e-01 3.408134996539491368e-01
1.350000000000000089e+00 -6.757089537401294033e-01 6.474258576833891166e-01
1.366666666666666696e+00 -6.787980518489050707e-01 5.891487791378746675e-01
1.383333333333333304e+00 -6.953472463780585588e-01 1.096425083082562812e+00
1.399999999999999911e+00 -7.153455546183238312e-01 1.267594760179779900e+00
1.416666666666666741e+00 -7.376004050507178889e-01 1.144512311724207310e+00
1.433333333333333348e+00 -7.534959650091307415e-01 9.815687153453289682e-01
1.449999999999999956e+00 -7.703193622288955211e-01 1.041048917269153939e+00
1.466666666666666563e+00 -7.881975955847692061e-01 9.132854615075014504e-01
1.483333333333333393e+00 -8.007622109458122361e-01 2.672666603677342767e-01
1.500000000000000000e+00 -7.971064842636936820e-01 -6.368483867617757976e-01
1.516666666666666607e+00 -7.795339313870863762e-01 -1.217767797939939278e+00
1.533333333333333215e+00 -7.565142243323623727e-01 -1.597639990804479160e+00
1.550000000000000044e+00 -7.262792650269370709e-01 -1.892306259722237316e+00
1.566666666666666652e+00 -6.934373490082877955e-01 -2.221369907984778180e+00
1.583333333333333259e+00 -6.522336014274444649e-01 -2.326788341327411747e+00
1.600000000000000089e+00 -6.158777376307074114e-01 -2.236076434324343332e+00
1.616666666666666696e+00 -5.776977202832996872e-01 -2.472574658942409354e+00
1.633333333333333304e+00 -5.334585823326271070e-01 -2.686768535236291555e+00
1.649999999999999911e+00 -4.881387691087566427e-01 -2.811065024164446591e+00
1.666666666666666741e+00 -4.397564148604788947e-01 -2.721831757276142572e+00
1.683333333333333348e+00 -3.974110438662185607e-01 -2.502345224710326388e+00
1.699999999999999956e+00 -3.563449073701346892e-01 -2.486613644380698762e+00
1.716666666666666563e+00 -3.145239223868619427e-01 -2.537105063614112588e+00
1.733333333333333393e+00 -2.717747385829976103e-01 -2.579164094817439246e+00
1.750000000000000000e+00 -2.285517858929473067e-01 -2.485705105328981812e+00
1.766666666666666607e+00 -1.889179017386982129e-01 -2.199363370909771742e+00
1.783333333333333215e+00 -1.552396735292882468e-01 -1.916591999652251799e+00
1.800000000000000044e+00 -1.250315017502898196e-01 -1.728398132290772882e+00
1.816666666666666652e+00 -9.762640245292915353e-02 -1.607593471062792601e+00
1.833333333333333259e+00 -7.144505271486339959e-02 -1.467261820622673518e+00
1.849999999999999867e+00 -4.871767509884003533e-02 -1.236242351041778154e+00
1.866666666666666696e+00 -3.023697434680412688e-02 -9.761070809178132857e-01
1.883333333333333304e+00 -1.618077240157959201e-02 -7.283541235122574786e-01
1.899999999999999911e+00 -5.958503563062210982e-03 -5.077821944819843614e-01
1.916666666666666741e+00 7.453007478198880008e-04 -3.261089505084749374e-01
1.933333333333333348e+00 4.911794787220286930e-03 -2.448205651421436757e-02
1.949999999999999956e+00 1.561369298293700239e-03 1.406853316872302695e-01
1.966666666666666563e+00 2.222837309792782324e-04 4.631682030155498397e-02
1.983333333333333393e+00 1.747528824186759744e-05 6.668511929378347081e-03
2.000000000000000000e+00 0.000000000000000000e+00 1.048517294512055914e-03
