0.000000000000000000e+00 3.265338787461756738e+02 5.114763968918646242e+02
1.666666666666666644e-02 3.180092721313112634e+02 5.114763968918612136e+02
3.333333333333333287e-02 3.094846655164469666e+02 5.114763968918578030e+02
5.000000000000000278e-02 3.009600589015826699e+02 5.114763968918578030e+02
6.666666666666666574e-02 2.924354522867183732e+02 5.114763968918578030e+02
8.333333333333332871e-02 2.839108456718540765e+02 5.114763968918595083e+02
1.000000000000000056e-01 2.753862390569897229e+02 5.114763968918612136e+02
1.166666666666666685e-01 2.668616324421253694e+02 5.114763968918595083e+02
1.333333333333333315e-01 2.583370258272610727e+02 5.114763968918586556e+02
1.499999999999999944e-01 2.498124192123967475e+02 5.114763968918586556e+02
1.666666666666666574e-01 2.412878125975324508e+02 5.114763968918595083e+02
1.833333333333333204e-01 2.327632059826680972e+02 5.114763968918603609e+02
2.000000000000000111e-01 2.242385993678037721e+02 5.114763968918586556e+02
2.166666666666666741e-01 2.157139927529394754e+02 5.114763968918586556e+02
2.333333333333333370e-01 2.071893861380751503e+02 5.114763968918595083e+02
2.500000000000000000e-01 1.986647795232108251e+02 5.114763968918595083e+02
2.666666666666666630e-01 1.901401729083465000e+02 5.114763968918586556e+02
2.833333333333333259e-01 1.816155662934822033e+02 5.114763968918586556e+02
2.999999999999999889e-01 1.730909596786178781e+02 5.114763968918586556e+02
3.166666666666666519e-01 1.645663530637535814e+02 5.114763968918595083e+02
3.333333333333333148e-01 1.560417464488892278e+02 5.114763968918595083e+02
3.499999999999999778e-01 1.475171398340249311e+02 5.114763968918586556e+02
3.666666666666666408e-01 1.389925332191606060e+02 5.114763968918595083e+02
3.833333333333333037e-01 1.304679266042962809e+02 5.114763968918599630e+02
4.000000000000000222e-01 1.219433199894319415e+02 5.114763968918595083e+02
4.166666666666666852e-01 1.134187133745676306e+02 5.114763968918591104e+02
4.333333333333333481e-01 1.048941067597033054e+02 5.114763968918591104e+02
4.500000000000000111e-01 9.636950014483899452e+01 5.114763968918586556e+02
4.666666666666666741e-01 8.784489352997468359e+01 5.114763968918591104e+02
4.833333333333333370e-01 7.932028691511035845e+01 5.114763968918595083e+02
5.000000000000000000e-01 7.079568030024603331e+01 5.114763968918582577e+02
5.166666666666666075e-01 6.227107368538175081e+01 5.114763968918588830e+02
5.333333333333333259e-01 5.374646707051740435e+01 5.114763968918608157e+02
5.500000000000000444e-01 4.522186045565305790e+01 5.114763968918591104e+02
5.666666666666666519e-01 3.669725384078876829e+01 5.150194270430081360e+02
5.833333333333333703e-01 2.805454622088612027e+01 4.808652283675397712e+02
5.999999999999999778e-01 2.066841289520410996e+01 3.839995483192954566e+02
6.166666666666666963e-01 1.525456127690960528e+01 2.991561982414178260e+02
6.333333333333333037e-01 1.069653962049018325e+01 2.441164309884625254e+02
6.500000000000000222e-01 7.117346910627522227e+00 1.929188681256938480e+02
6.666666666666666297e-01 4.265910682967055223e+00 1.530833412365725223e+02
6.833333333333333481e-01 2.014568869408438267e+00 1.237728889610447851e+02
6.999999999999999556e-01 1.401477175988960489e-01 1.018047653434381488e+02
7.166666666666666741e-01 -1.378923308706166528e+00 8.582866969236958710e+01
7.333333333333332815e-01 -2.720807938813423199e+00 7.775984965065038068e+01
7.500000000000000000e-01 -3.970918297061179381e+00 7.188408609719112974e+01
7.666666666666666075e-01 -5.116944142053127642e+00 6.400981951851952090e+01
7.833333333333333259e-01 -6.104578947678496625e+00 5.265490065982298518e+01
8.000000000000000444e-01 -6.872107497380560481e+00 4.474359435667786755e+01
8.166666666666666519e-01 -7.596032092901092270e+00 3.679760428439098519e+01
8.333333333333333703e-01 -8.098694306860259928e+00 2.854913407124136882e+01
8.499999999999999778e-01 -8.547669895275804564e+00 2.498355232798701309e+01
8.666666666666666963e-01 -8.931479384459827031e+00 2.034156860750689688e+01
8.833333333333333037e-01 -9.225722182192701126e+00 1.173330276227023461e+01
9.000000000000000222e-01 -9.322589476535501518e+00 1.475231193442674282e+00
9.166666666666666297e-01 -9.274896555307456936e+00 -7.928827227339567685e+00
9.333333333333333481e-01 -9.058295235624182595e+00 -1.262223722210125132e+01
9.499999999999999556e-01 -8.854155314570748558e+00 -1.740001932652512906e+01
9.666666666666666741e-01 -8.478294591406678293e+00 -2.295546727553796629e+01
9.833333333333332815e-01 -8.088973072052816349e+00 -2.663227840656446688e+01
1.000000000000000000e+00 -7.590551977854529397e+00 -2.833971237647284269e+01
1.016666666666666607e+00 -7.144315992837054985e+00 -2.734555923196479554e+01
1.033333333333333215e+00 -6.679033336789036213e+00 -2.491788380162645211e+01
1.050000000000000044e+00 -6.313719866116173307e+00 -2.099073106864092608e+01
1.066666666666666652e+00 -5.979342301167672069e+00 -2.059953454226673486e+01
1.083333333333333259e+00 -5.627068714707282204e+00 -2.228677452236311041e+01
1.100000000000000089e+00 -5.236449817088901781e+00 -2.225350223569426689e+01
1.116666666666666696e+00 -4.885285306850806641e+00 -2.000460027284940878e+01
1.133333333333333304e+00 -4.569629807993921489e+00 -1.948061350939247660e+01
1.149999999999999911e+00 -4.235931523204390814e+00 -1.762457133695880174e+01
1.166666666666666741e+00 -3.982144096761961460e+00 -1.583591278331711294e+01
1.183333333333333348e+00 -3.708067763760487079e+00 -1.576560075212106504e+01
1.199999999999999956e+00 -3.456624071691259292e+00 -1.514131972075065313e+01
1.216666666666666563e+00 -3.203357106402132004e+00 -1.374271703474799544e+01
1.233333333333333393e+00 -2.998533503866326111e+00 -1.097597743769883039e+01
1.250000000000000000e+00 -2.837491191812171021e+00 -9.462477493952668794e+00
1.266666666666666607e+00 -2.683117587401237181e+00 -9.697504449903133761e+00
1.283333333333333215e+00 -2.514241043482066562e+00 -9.964262276082488157e+00
1.300000000000000044e+00 -2.350975511531820938e+00 -1.026969146711133796e+01
1.316666666666666652e+00 -2.171917994578355326e+00 -1.102140999806717581e+01
1.333333333333333259e+00 -1.983595178262915093e+00 -1.123230422521254468e+01
1.350000000000000089e+00 -1.797507853737937200e+00 -1.035237163778307412e+01
1.366666666666666696e+00 -1.638516123670145985e+00 -8.090966621667156744e+00
1.383333333333333304e+00 -1.527808966349031961e+00 -6.784935091260821949e+00
1.399999999999999911e+00 -1.412351620628118587e+00 -7.861136472550587229e+00
1.416666666666666741e+00 -1.265771083930679053e+00 -1.033486694232147940e+01
1.433333333333333348e+00 -1.067856055884069288e+00 -1.095838398269841996e+01
1.449999999999999956e+00 -9.004916178407317284e-01 -9.560389918344291971e+00
1.466666666666666563e+00 -7.491763919392595561e-01 -8.387493758793553411e+00
1.483333333333333393e+00 -6.209084925476132666e-01 -8.097642338659225558e+00
1.500000000000000000e+00 -4.792549806506187227e-01 -7.653861039746931993e+00
1.516666666666666607e+00 -3.657797912227155335e-01 -5.560890332166509076e+00
1.533333333333333215e+00 -2.938919695784017461e-01 -3.691835456754324341e+00
1.550000000000000044e+00 -2.427186093309047221e-01 -2.426783887654147875e+00
1.566666666666666652e+00 -2.129991733232634854e-01 -1.970635113378577330e+00
1.583333333333333259e+00 -1.770307722182854759e-01 -1.184630543811605818e+00
1.600000000000000089e+00 -1.735114885295432896e-01 -9.037044280042858535e-01
1.616666666666666696e+00 -1.469072912848092827e-01 -1.453181136536432438e+00
1.633333333333333304e+00 -1.250721173116622065e-01 -3.511901036449047164e-01
1.649999999999999911e+00 -1.352009544966457921e-01 8.565628141618267799e-01
1.666666666666666741e+00 -1.536242111170564306e-01 1.157088341562376943e+00
1.683333333333333348e+00 -1.737705658820583587e-01 8.621520688864214854e-01
1.699999999999999956e+00 -1.823626134132704801e-01 4.959827357941562487e-01
1.716666666666666563e+00 -1.903033237418635670e-01 2.351562738237814032e-01
1.733333333333333393e+00 -1.902011558740631936e-01 7.500595264694959186e-02
1.750000000000000000e+00 -1.928035221634285534e-01 2.122989438289263342e-01
1.766666666666666607e+00 -1.972777873350274047e-01 7.351438432536431256e-01
1.783333333333333215e+00 -2.173083169385499891e-01 5.987761150936982135e-01
1.800000000000000044e+00 -2.172369911714840118e-01 -2.302003416423337168e-01
1.816666666666666652e+00 -2.096349722171388652e-01 -8.752467578688825078e-01
1.833333333333333259e+00 -1.880620992425212634e-01 -1.226899626420521860e+00
1.849999999999999867e+00 -1.687383180031214736e-01 -1.112091965976386820e+00
1.866666666666666696e+00 -1.509923670433083731e-01 -8.805458981757688930e-01
1.883333333333333304e+00 -1.393867880639291790e-01 -7.781290156502274069e-01
1.899999999999999911e+00 -1.250547331883007929e-01 -9.411251281382749800e-01
1.916666666666666741e+00 -1.080159504593200120e-01 -1.084326665628442488e+00
1.933333333333333348e+00 -8.891051100068604607e-02 -2.478559201382868782e+00
1.949999999999999956e+00 -2.539731041322438460e-02 -2.613660426073771248e+00
1.966666666666666563e+00 -1.788496798227007592e-03 -7.569092150520676521e-01
1.983333333333333393e+00 -1.670032448221308436e-04 -5.365490394681023123e-02
2.000000000000000000e+00 0.000000000000000000e+00 -1.002019468932785137e-02
