0.00000000 818.00605640 1656.36842421
0.01666667 790.39991600 1656.36842421
0.03333333 762.79377560 1656.36842421
0.05000000 735.18763519 1656.36842421
0.06666667 707.58149479 1656.36842421
0.08333333 679.97535439 1656.36842421
0.10000000 652.36921398 1656.36842421
0.11666667 624.76307358 1656.36842421
0.13333333 597.15693318 1656.36842421
0.15000000 569.55079277 1656.36842421
0.16666667 541.94465237 1656.36842421
0.18333333 514.33851196 1656.36842421
0.20000000 486.73237156 1656.36842421
0.21666667 459.12623116 1656.36842421
0.23333333 431.52009075 1656.36842421
0.25000000 403.91395035 1656.36842421
0.26666667 376.30780995 1656.36842421
0.28333333 348.70166954 1656.36842421
0.30000000 321.09552914 1656.36842421
0.31666667 293.48938874 1656.36842421
0.33333333 265.88324833 1656.36842421
0.35000000 238.27710793 1656.36842421
0.36666667 210.67096753 1656.36842421
0.38333333 183.06482712 1656.36842421
0.40000000 155.45868672 1656.36842421
0.41666667 127.85254632 1656.36842421
0.43333333 100.24640591 1656.36842421
0.45000000 72.64026551 1656.36842421
0.46666667 45.03412511 1234.90892746
0.48333333 31.47663459 671.96948890
0.50000000 22.63514214 461.33964511
0.51666667 16.09864642 352.93062442
0.53333333 10.87078800 287.79315309
0.55000000 6.50554132 240.67065876
0.56666667 2.84843270 202.07076141
0.58333333 -0.23015073 170.93159587
0.60000000 -2.84928716 145.87678764
0.61666667 -5.09271031 122.17461424
0.63333333 -6.92177430 95.65823904
0.65000000 -8.28131828 66.33967608
0.66666667 -9.13309684 37.39258252
0.68333333 -9.52773770 13.00517635
0.70000000 -9.56660272 -4.42552433
0.71666667 -9.38022022 -15.24150146
0.73333333 -9.05855267 -21.64857093
0.75000000 -8.65860119 -25.26469827
0.76666667 -8.21639606 -26.01606555
0.78333333 -7.79139901 -22.82731240
0.80000000 -7.45548564 -14.45838642
0.81666667 -7.30945279 -2.46862210
0.83333333 -7.37319824 8.08255979
0.85000000 -7.57887145 12.58987425
0.86666667 -7.79286072 10.49873249
0.88333333 -7.92882920 5.66002129
0.90000000 -7.98152809 1.36051156
0.91666667 -7.97417959 -2.70437794
0.93333333 -7.89138216 -7.98319207
0.95000000 -7.70807319 -14.51900231
0.96666667 -7.40741542 -21.19785976
0.98333333 -7.00147786 -27.48336147
1.00000000 -6.49130337 -33.27748963
1.01666667 -5.89222821 -38.20173285
1.03333333 -5.21791227 -42.13362642
1.05000000 -4.48777399 -44.41316578
1.06666667 -3.73747341 -44.48842968
1.08333333 -3.00482634 -42.42412787
1.10000000 -2.32333582 -38.47638632
1.11666667 -1.72228013 -32.81175368
1.13333333 -1.22961070 -25.69691112
1.15000000 -0.86571642 -18.16415149
1.16666667 -0.62413898 -11.56677587
1.18333333 -0.48015723 -6.58265108
1.20000000 -0.40471728 -3.34959529
1.21666667 -0.36850405 -1.22757475
1.23333333 -0.36379812 0.61228982
1.25000000 -0.38891371 1.94439711
1.26666667 -0.42861136 2.21503748
1.28333333 -0.46274829 1.82535619
1.30000000 -0.48945656 1.40656278
1.31666667 -0.50963372 0.75353553
1.33333333 -0.51457441 -0.33611759
1.35000000 -0.49842980 -1.24685901
1.36666667 -0.47301245 -1.67045635
1.38333333 -0.44274792 -2.01666830
1.40000000 -0.40579017 -2.66024902
1.41666667 -0.35407295 -3.72598609
1.43333333 -0.28159063 -4.79942288
1.45000000 -0.19409219 -5.59241237
1.46666667 -0.09517689 -6.29967482
1.48333333 0.01589697 -6.86639653
1.50000000 0.13370300 -6.76577324
1.51666667 0.24142274 -5.61949250
1.53333333 0.32101941 -3.89817059
1.55000000 0.37136176 -2.17038146
1.56666667 0.39336546 -0.62283326
1.58333333 0.39212287 0.55013016
1.60000000 0.37502779 1.05395357
1.61666667 0.35699109 0.98125600
1.63333333 0.34231926 0.73107999
1.65000000 0.33262175 0.52197385
1.66666667 0.32492013 0.29389724
1.68333333 0.32282518 0.08716582
1.70000000 0.32201460 0.03515088
1.71666667 0.32165348 0.19889658
1.73333333 0.31538472 0.48636621
1.75000000 0.30544128 0.71554617
1.76666667 0.29153318 0.80754900
1.78333333 0.27852298 0.85947721
1.80000000 0.26288394 0.95666954
1.81666667 0.24663399 1.04649753
1.83333333 0.22800069 1.11037854
1.85000000 0.20962137 1.16425610
1.86666667 0.18919215 1.24401095
1.88333333 0.16815434 1.32236849
1.90000000 0.14511320 1.44139658
1.91666667 0.12010779 1.56751330
1.93333333 0.09286276 2.99847848
1.95000000 0.02015851 2.71511181
1.96666667 0.00235903 0.59911540
1.98333333 0.00018799 0.07077086
2.00000000 0.00000000 0.01127958
