0.000000000000000000e+00 4.784891946596579260e+02 8.997945044703624262e+02
1.666666666666666644e-02 4.634926195851518855e+02 8.997945044703641315e+02
3.333333333333333287e-02 4.484960445106457883e+02 8.997945044703641315e+02
5.000000000000000278e-02 4.334994694361397478e+02 8.997945044703641315e+02
6.666666666666666574e-02 4.185028943616336505e+02 8.997945044703641315e+02
8.333333333333332871e-02 4.035063192871276101e+02 8.997945044703658368e+02
1.000000000000000056e-01 3.885097442126214560e+02 8.997945044703658368e+02
1.166666666666666685e-01 3.735131691381154155e+02 8.997945044703641315e+02
1.333333333333333315e-01 3.585165940636093183e+02 8.997945044703641315e+02
1.499999999999999944e-01 3.435200189891032778e+02 8.997945044703641315e+02
1.666666666666666574e-01 3.285234439145971805e+02 8.997945044703641315e+02
1.833333333333333204e-01 3.135268688400911401e+02 8.997945044703658368e+02
2.000000000000000111e-01 2.985302937655849860e+02 8.997945044703658368e+02
2.166666666666666741e-01 2.835337186910789455e+02 8.997945044703641315e+02
2.333333333333333370e-01 2.685371436165728483e+02 8.997945044703641315e+02
2.500000000000000000e-01 2.535405685420668078e+02 8.997945044703633357e+02
2.666666666666666630e-01 2.385439934675607390e+02 8.997945044703641315e+02
2.833333333333333259e-01 2.235474183930546701e+02 8.997945044703650410e+02
2.999999999999999889e-01 2.085508433185485728e+02 8.997945044703650410e+02
3.166666666666666519e-01 1.935542682440425040e+02 8.997945044703641315e+02
3.333333333333333148e-01 1.785576931695364351e+02 8.997945044703641315e+02
3.499999999999999778e-01 1.635611180950303662e+02 8.997945044703641315e+02
3.666666666666666408e-01 1.485645430205242974e+02 8.997945044703650410e+02
3.833333333333333037e-01 1.335679679460182001e+02 8.997945044703667463e+02
4.000000000000000222e-01 1.185713928715120744e+02 8.997945044703658368e+02
4.166666666666666852e-01 1.035748177970060055e+02 8.997945044703641315e+02
4.333333333333333481e-01 8.857824272249993669e+01 8.997945044703641315e+02
4.500000000000000111e-01 7.358166764799386783e+01 8.997945044703641315e+02
4.666666666666666741e-01 5.858509257348779897e+01 8.997945044703643589e+02
4.833333333333333370e-01 4.358851749898172301e+01 8.997945044703644726e+02
5.000000000000000000e-01 2.859194242447565060e+01 6.602571499518700193e+02
5.166666666666666075e-01 2.157994583391938903e+01 3.562387120132734140e+02
5.333333333333333259e-01 1.671731869069986942e+01 2.590491514291135218e+02
5.500000000000000444e-01 1.294497411961560474e+01 2.035413727599012645e+02
5.666666666666666519e-01 9.932606265369827270e+00 1.634621563102587629e+02
5.833333333333333703e-01 7.496235575940312756e+00 1.335278129647024059e+02
5.999999999999999778e-01 5.481679166546413740e+00 1.110866446632932849e+02
6.166666666666666963e-01 3.793347420497203526e+00 9.304611512502528115e+01
6.333333333333333037e-01 2.380141995712237613e+00 7.765714545078535025e+01
6.500000000000000222e-01 1.204775905471025199e+00 6.386138417092652020e+01
6.666666666666666297e-01 2.514291900146872205e-01 5.120204394095035383e+01
6.833333333333333481e-01 -5.019588925606532914e-01 3.945793372320345327e+01
6.999999999999999556e-01 -1.063835267425427888e+00 2.799064241186785651e+01
7.166666666666666741e-01 -1.434980306289581842e+00 1.670340725238217061e+01
7.333333333333332815e-01 -1.620615509171500213e+00 6.520797722377755790e+00
7.500000000000000000e-01 -1.652340230368840368e+00 -1.484073823904972222e+00
7.666666666666666075e-01 -1.571146381708001138e+00 -7.218494041410179918e+00
7.833333333333333259e-01 -1.411723762321834386e+00 -1.080618271331234936e+01
8.000000000000000444e-01 -1.210940291264256174e+00 -1.202365691099531553e+01
8.166666666666666519e-01 -1.010935198621990549e+00 -1.131063382903496795e+01
8.333333333333333703e-01 -8.339191636297572652e-01 -9.855355252722779014e+00
8.499999999999999778e-01 -6.824233568645645676e-01 -8.654798014442667053e+00
8.666666666666666963e-01 -5.454258964816683930e-01 -8.184010015036372820e+00
8.833333333333333037e-01 -4.096230230300187958e-01 -8.549555743100695437e+00
9.000000000000000222e-01 -2.604407050449785710e-01 -9.434493077559881868e+00
9.166666666666666297e-01 -9.513992044468938536e-02 -1.004135918854460918e+01
9.333333333333333481e-01 7.427126790650839805e-02 -9.545660461342373893e+00
9.499999999999999556e-01 2.230487616000564333e-01 -7.695619434714213725e+00
9.666666666666666741e-01 3.307919157303155222e-01 -4.760355840941698169e+00
9.833333333333332815e-01 3.817272896314463648e-01 -1.458667965540060951e+00
1.000000000000000000e+00 3.794141812483175502e-01 1.355973374647636120e+00
1.016666666666666607e+00 3.365281771431918312e-01 3.217746587205141839e+00
1.033333333333333215e+00 2.721559616748128185e-01 4.087887573338088387e+00
1.050000000000000044e+00 2.002652580319222164e-01 4.246353748171328490e+00
1.066666666666666652e+00 1.306108367357685374e-01 4.114161187869918024e+00
1.083333333333333259e+00 6.312655176959161563e-02 4.088488879043917557e+00
1.100000000000000089e+00 -5.672125899028719609e-03 4.185265630763624678e+00
1.116666666666666696e+00 -7.638230258919587179e-02 4.154143381926247436e+00
1.133333333333333304e+00 -1.441435719632369605e-01 3.978616159046151513e+00
1.149999999999999911e+00 -2.090028412240675926e-01 3.787262297320834303e+00
1.166666666666666741e+00 -2.703856485405981003e-01 3.520001137463090846e+00
1.183333333333333348e+00 -3.263362124728372837e-01 3.045217078461345928e+00
1.199999999999999956e+00 -3.718928844893096275e-01 2.384220888292154505e+00
1.216666666666666563e+00 -4.058102420825757672e-01 1.721183210682896814e+00
1.233333333333333393e+00 -4.292656581787395176e-01 1.016484053957892986e+00
1.250000000000000000e+00 -4.396930438811721964e-01 1.420386354490993375e-01
1.266666666666666607e+00 -4.340002793603761622e-01 -7.987828319476941719e-01
1.283333333333333215e+00 -4.130669494829157240e-01 -1.530706780006084289e+00
1.300000000000000044e+00 -3.829767200268400229e-01 -1.958116894363901128e+00
1.316666666666666652e+00 -3.477963863374523568e-01 -2.148178997579108795e+00
1.333333333333333259e+00 -3.113707534408697297e-01 -2.184080581793212517e+00
1.350000000000000089e+00 -2.749937002776786099e-01 -2.169945388737314573e+00
1.366666666666666696e+00 -2.390392404829592421e-01 -2.185214492488106064e+00
1.383333333333333304e+00 -2.021532171947417467e-01 -2.255418082158248794e+00
1.399999999999999911e+00 -1.638586377443509434e-01 -2.380932072057372118e+00
1.416666666666666741e+00 -1.227888147928293400e-01 -2.476349170374603670e+00
1.433333333333333348e+00 -8.131366539853082664e-02 -2.363072655652593834e+00
1.449999999999999956e+00 -4.401972627107621910e-02 -2.003345340981232070e+00
1.466666666666666563e+00 -1.453548736582309028e-02 -1.535064560379717502e+00
1.483333333333333393e+00 7.149092408247694451e-03 -1.099533700345178611e+00
1.500000000000000000e+00 2.211563597901620298e-02 -7.353107279166172239e-01
1.516666666666666607e+00 3.165945000546827037e-02 -4.650132222859784115e-01
1.533333333333333215e+00 3.761607672188214957e-02 -3.327091212650273300e-01
1.550000000000000044e+00 4.274975404763584758e-02 -2.950577667101719759e-01
1.566666666666666652e+00 4.745133561222121543e-02 -2.617820018854244424e-01
1.583333333333333259e+00 5.147582077714999566e-02 -2.162099032528875531e-01
1.600000000000000089e+00 5.465833238731746674e-02 -1.712006775213135989e-01
1.616666666666666696e+00 5.718251002786044895e-02 -1.427804333572891549e-01
1.633333333333333304e+00 5.941768016589377144e-02 -1.284755448291818314e-01
1.649999999999999911e+00 6.146502818883317620e-02 -1.202557107703229600e-01
1.666666666666666741e+00 6.342620385823787010e-02 -1.062607628426295858e-01
1.683333333333333348e+00 6.500705361692082906e-02 -8.026147625453033951e-02
1.699999999999999956e+00 6.610158640005554809e-02 -5.399337984520510836e-02
1.716666666666666563e+00 6.680683294509433268e-02 -4.671515351017951900e-04
1.733333333333333393e+00 6.611715811789227459e-02 9.206088472509602050e-02
1.750000000000000000e+00 6.373813678759113199e-02 1.988836355875085726e-01
1.766666666666666607e+00 5.948770359830865551e-02 2.748258682065762293e-01
1.783333333333333215e+00 5.457727451403859148e-02 2.865689121201239198e-01
1.800000000000000044e+00 4.993540652763785864e-02 2.506441342848312326e-01
1.816666666666666652e+00 4.622247003787754993e-02 1.875476656775780515e-01
1.833333333333333259e+00 4.368381767171859026e-02 1.253041525122393363e-01
1.849999999999999867e+00 4.204566495413623872e-02 1.014765382327198484e-01
1.866666666666666696e+00 4.030126639729459531e-02 1.309507150150553134e-01
1.883333333333333304e+00 3.768064112030106161e-02 1.957069339449040712e-01
1.899999999999999911e+00 3.377770193246446007e-02 2.697021864034981897e-01
1.916666666666666741e+00 2.869056824018445528e-02 3.321220655828134305e-01
1.933333333333333348e+00 2.270696641303734595e-02 6.935531106852715899e-01
1.949999999999999956e+00 5.572131217342068954e-03 6.595517126161694055e-01
1.966666666666666563e+00 7.219093258316986068e-04 1.652340110512594551e-01
1.983333333333333393e+00 6.433084896675369743e-05 2.165727977495095907e-02
2.000000000000000000e+00 0.000000000000000000e+00 3.859850938005221846e-03
