0.00000000 1958.73116860 4422.09257827
0.01666667 1885.02962563 4422.09257827
0.03333333 1811.32808266 4422.09257827
0.05000000 1737.62653969 4422.09257827
0.06666667 1663.92499671 4422.09257827
0.08333333 1590.22345374 4422.09257827
0.10000000 1516.52191077 4422.09257827
0.11666667 1442.82036780 4422.09257827
0.13333333 1369.11882483 4422.09257827
0.15000000 1295.41728186 4422.09257827
0.16666667 1221.71573889 4422.09257827
0.18333333 1148.01419592 4422.09257827
0.20000000 1074.31265295 4422.09257827
0.21666667 1000.61110997 4422.09257827
0.23333333 926.90956700 4422.09257827
0.25000000 853.20802403 4422.09257827
0.26666667 779.50648106 4422.09257827
0.28333333 705.80493809 4422.09257827
0.30000000 632.10339512 4422.09257827
0.31666667 558.40185215 4422.09257827
0.33333333 484.70030918 4422.09257827
0.35000000 410.99876621 4422.09257827
0.36666667 337.29722323 4422.09257827
0.38333333 263.59568026 4422.09257827
0.40000000 189.89413729 4422.09257827
0.41666667 116.19259432 4422.09257827
0.43333333 42.49105135 2738.69461253
0.45000000 24.90277390 825.49836015
0.46666667 14.97443935 494.60819625
0.48333333 8.41583403 332.27745165
0.50000000 3.89852429 232.83758426
0.51666667 0.65458122 170.51894651
0.53333333 -1.78544059 132.91962726
0.55000000 -3.77607302 112.92182748
0.56666667 -5.54950151 104.54004677
0.58333333 -7.26074125 100.01266353
0.60000000 -8.88325696 89.86145278
0.61666667 -10.25612301 68.14478766
0.63333333 -11.15474988 35.21598236
0.65000000 -11.42998909 -2.44068729
0.66666667 -11.07339364 -35.92965330
0.68333333 -10.23233398 -58.51804186
0.70000000 -9.12279224 -66.16820418
0.71666667 -8.02672717 -57.33198261
0.73333333 -7.21172616 -35.47543472
0.75000000 -6.84421268 -11.36130228
0.76666667 -6.83301608 3.89010543
0.78333333 -6.97388286 8.53527878
0.80000000 -7.11752537 7.99040852
0.81666667 -7.24022981 6.55228809
0.83333333 -7.33593498 4.53905382
0.85000000 -7.39153160 1.53066233
0.86666667 -7.38695705 -2.57837430
0.88333333 -7.30558579 -7.42753137
0.90000000 -7.13937268 -12.63256381
0.91666667 -6.88450033 -18.14940931
0.93333333 -6.53439237 -24.13628890
0.95000000 -6.07995737 -30.01272331
0.96666667 -5.53396825 -34.72389981
0.98333333 -4.92249404 -37.58608445
1.00000000 -4.28109877 -38.16901775
1.01666667 -3.65019345 -36.10032219
1.03333333 -3.07775470 -32.19036200
1.05000000 -2.57718139 -27.54027032
1.06666667 -2.15974569 -23.19013251
1.08333333 -1.80417697 -19.61103379
1.10000000 -1.50604456 -16.94869539
1.11666667 -1.23922046 -15.11863703
1.13333333 -1.00209000 -13.41935889
1.15000000 -0.79190849 -11.72541018
1.16666667 -0.61124299 -10.14286253
1.18333333 -0.45381307 -8.53456267
1.20000000 -0.32675757 -6.63933380
1.21666667 -0.23250195 -4.37378997
1.23333333 -0.18096457 -2.04043881
1.25000000 -0.16448732 0.19014227
1.26666667 -0.18730264 2.15932952
1.28333333 -0.23646497 3.53956202
1.30000000 -0.30528804 4.17948221
1.31666667 -0.37578105 3.84355884
1.33333333 -0.43340667 2.89954696
1.35000000 -0.47243261 1.93292500
1.36666667 -0.49783751 1.01462253
1.38333333 -0.50625336 0.00398557
1.40000000 -0.49797036 -0.93401565
1.41666667 -0.47511951 -1.41153455
1.43333333 -0.45091921 -1.39795194
1.45000000 -0.42852111 -1.13727426
1.46666667 -0.41301006 -0.76245566
1.48333333 -0.40310592 -0.31419293
1.50000000 -0.40253697 0.13916356
1.51666667 -0.40774471 0.57204081
1.53333333 -0.42160499 0.90897700
1.55000000 -0.43804394 1.04816667
1.56666667 -0.45654388 0.96430642
1.58333333 -0.47018749 0.64268439
1.60000000 -0.47796670 -0.03835465
1.61666667 -0.46890900 -1.18154960
1.63333333 -0.43858171 -2.35130337
1.65000000 -0.39053222 -2.96515049
1.66666667 -0.33974336 -2.91374150
1.68333333 -0.29340750 -2.55596659
1.70000000 -0.25454447 -2.16607326
1.71666667 -0.22120506 -1.89059069
1.73333333 -0.19152478 -1.90771888
1.75000000 -0.15761443 -2.30363353
1.76666667 -0.11473700 -2.79741988
1.78333333 -0.06436710 -3.07953228
1.80000000 -0.01208592 -2.99675357
1.81666667 0.03552468 -2.62714087
1.83333333 0.07548544 -2.12195409
1.85000000 0.10625649 -1.56452074
1.86666667 0.12763613 -0.96597555
1.88333333 0.13845567 -0.37463193
1.90000000 0.14012386 0.13947208
1.91666667 0.13380660 0.60818352
1.93333333 0.11985108 3.26637750
1.95000000 0.02492735 3.50023910
1.96666667 0.00317644 0.73883556
1.98333333 0.00029950 0.09529322
2.00000000 0.00000000 0.01797005
