0.000000000000000000e+00 5.774226197265062410e+02 1.195125248652107075e+03
1.666666666666666644e-02 5.575038655823044564e+02 1.195125248652107075e+03
3.333333333333333287e-02 5.375851114381026719e+02 1.195125248652107075e+03
5.000000000000000278e-02 5.176663572939008873e+02 1.195125248652105483e+03
6.666666666666666574e-02 4.977476031496991595e+02 1.195125248652105483e+03
8.333333333333332871e-02 4.778288490054973749e+02 1.195125248652108894e+03
1.000000000000000056e-01 4.579100948612955335e+02 1.195125248652107075e+03
1.166666666666666685e-01 4.379913407170938058e+02 1.195125248652107075e+03
1.333333333333333315e-01 4.180725865728919644e+02 1.195125248652107075e+03
1.499999999999999944e-01 3.981538324286902366e+02 1.195125248652107075e+03
1.666666666666666574e-01 3.782350782844883952e+02 1.195125248652107075e+03
1.833333333333333204e-01 3.583163241402866674e+02 1.195125248652107075e+03
2.000000000000000111e-01 3.383975699960848260e+02 1.195125248652108894e+03
2.166666666666666741e-01 3.184788158518830414e+02 1.195125248652107075e+03
2.333333333333333370e-01 2.985600617076812568e+02 1.195125248652107075e+03
2.500000000000000000e-01 2.786413075634794723e+02 1.195125248652107075e+03
2.666666666666666630e-01 2.587225534192776877e+02 1.195125248652106166e+03
2.833333333333333259e-01 2.388037992750759315e+02 1.195125248652106166e+03
2.999999999999999889e-01 2.188850451308741469e+02 1.195125248652107075e+03
3.166666666666666519e-01 1.989662909866723624e+02 1.195125248652107075e+03
3.333333333333333148e-01 1.790475368424705778e+02 1.195125248652106166e+03
3.499999999999999778e-01 1.591287826982688216e+02 1.195125248652106166e+03
3.666666666666666408e-01 1.392100285540670370e+02 1.195125248652107530e+03
3.833333333333333037e-01 1.192912744098652382e+02 1.195125248652109121e+03
4.000000000000000222e-01 9.937252026566339680e+01 1.195125248652108439e+03
4.166666666666666852e-01 7.945376612146162643e+01 1.195125248652106620e+03
4.333333333333333481e-01 5.953501197725984184e+01 1.195125248652107075e+03
4.500000000000000111e-01 3.961625783305805726e+01 1.195125248652107075e+03
4.666666666666666741e-01 1.969750368885627623e+01 8.182574578930652933e+02
4.833333333333333370e-01 1.234100923662254878e+01 3.596051547723859585e+02
5.000000000000000000e-01 7.710665196443411418e+00 2.385717729853605533e+02
5.166666666666666075e-01 4.388616803777196651e+00 1.729986571368710599e+02
5.333333333333333259e-01 1.944043291881042856e+00 1.261794160616512954e+02
5.500000000000000444e-01 1.826362683888196892e-01 8.845932397296701311e+01
5.666666666666666519e-01 -1.004600840551191032e+00 5.696157156092013452e+01
5.833333333333333703e-01 -1.716082783641851517e+00 3.131633695623131075e+01
5.999999999999999778e-01 -2.048478739092234768e+00 1.158216625060415339e+01
6.166666666666666963e-01 -2.102154991995323297e+00 -2.612659416206557506e+00
6.333333333333333037e-01 -1.961390091885349518e+00 -1.166130831828833436e+01
6.500000000000000222e-01 -1.713444714719045470e+00 -1.580015387678078298e+01
6.666666666666666297e-01 -1.434718295992656767e+00 -1.575358601229236832e+01
6.833333333333333481e-01 -1.188325180975966511e+00 -1.331892397467679778e+01
6.999999999999999556e-01 -9.907541635034301519e-01 -1.045248825301082007e+01
7.166666666666666741e-01 -8.399089058756058490e-01 -8.102477094447289474e+00
7.333333333333332815e-01 -7.206715936885205176e-01 -6.671759354324271918e+00
7.500000000000000000e-01 -6.175169273981301332e-01 -6.145211314175587525e+00
7.666666666666666075e-01 -5.158312165493342816e-01 -6.017348941566552867e+00
7.833333333333333259e-01 -4.169386293459116932e-01 -5.904107953472637504e+00
8.000000000000000444e-01 -3.190276181002463796e-01 -5.453240488940942043e+00
8.166666666666666519e-01 -2.351639463812136288e-01 -4.432901743405855299e+00
8.333333333333333703e-01 -1.712642266533845326e-01 -2.921730350445979063e+00
8.499999999999999778e-01 -1.377729346996809934e-01 -1.329752493677934355e+00
8.666666666666666963e-01 -1.269391435307867244e-01 -1.166549701874172729e-01
8.833333333333333037e-01 -1.338844356934337509e-01 8.185875993355568037e-01
9.000000000000000222e-01 -1.542253968419719512e-01 1.650658706901984241e+00
9.166666666666666297e-01 -1.889063925901665608e-01 2.424924875332398422e+00
9.333333333333333481e-01 -2.350562260197185671e-01 3.145784441045577307e+00
9.499999999999999556e-01 -2.937658739583524636e-01 3.879183886101352563e+00
9.666666666666666741e-01 -3.643623555564303174e-01 4.613365650083294689e+00
9.833333333333332815e-01 -4.475447289611289570e-01 5.141710408673072941e+00
1.000000000000000000e+00 -5.357527025121994191e-01 5.257078335350187537e+00
1.016666666666666607e+00 -6.227806734728018601e-01 4.861442761101793408e+00
1.033333333333333215e+00 -6.978007945489258512e-01 4.012613764818969919e+00
1.050000000000000044e+00 -7.565344656334341833e-01 3.080443802640557838e+00
1.066666666666666652e+00 -8.004822546369444458e-01 2.275259961939330999e+00
1.083333333333333259e+00 -8.323764643647452166e-01 1.466658192499741276e+00
1.100000000000000089e+00 -8.493708610536024883e-01 5.436476725056771375e-01
1.116666666666666696e+00 -8.504980534482677879e-01 -3.445274960659694408e-01
1.133333333333333304e+00 -8.378866111847368403e-01 -1.088309686352618710e+00
1.149999999999999911e+00 -8.142210639031804975e-01 -1.727409092114809974e+00
1.166666666666666741e+00 -7.803063081142431745e-01 -2.302066270338323228e+00
1.183333333333333348e+00 -7.374855215585697232e-01 -2.747008917988005283e+00
1.199999999999999956e+00 -6.887393441813096651e-01 -2.995933846012788226e+00
1.216666666666666563e+00 -6.376210600248101157e-01 -3.082792510585520507e+00
1.233333333333333393e+00 -5.859795938284589889e-01 -3.125379257890295026e+00
1.250000000000000000e+00 -5.334417514284669481e-01 -3.219877305781423615e+00
1.266666666666666607e+00 -4.786503503024115425e-01 -3.304302582709747416e+00
1.283333333333333215e+00 -4.232983320048087084e-01 -3.191243234032413945e+00
1.300000000000000044e+00 -3.722755758346644184e-01 -2.859148240770159166e+00
1.316666666666666652e+00 -3.279933906458034065e-01 -2.469957731129787337e+00
1.333333333333333259e+00 -2.899436514636715145e-01 -2.158954461501538358e+00
1.350000000000000089e+00 -2.560282419290854650e-01 -1.900704163970584393e+00
1.366666666666666696e+00 -2.265868459979853700e-01 -1.689500328079429181e+00
1.383333333333333304e+00 -1.997115643264378293e-01 -1.551576805665573211e+00
1.399999999999999911e+00 -1.748676191424662629e-01 -1.419069975665978589e+00
1.416666666666666741e+00 -1.524092318042385430e-01 -1.239868433495561417e+00
1.433333333333333348e+00 -1.335386713592808805e-01 -1.064803224944084414e+00
1.449999999999999956e+00 -1.169157909727690653e-01 -9.820200462613593029e-01
1.466666666666666563e+00 -1.008046698172355704e-01 -1.018458641868944081e+00
1.483333333333333393e+00 -8.296716957713759499e-02 -1.125580463989088065e+00
1.500000000000000000e+00 -6.328532101759930251e-02 -1.246410456615307805e+00
1.516666666666666607e+00 -4.142015435662733253e-02 -1.284777812075938996e+00
1.533333333333333215e+00 -2.045939394840133596e-02 -1.184601992182513053e+00
1.550000000000000044e+00 -1.933421283876896220e-03 -9.850755348669580913e-01
1.566666666666666652e+00 1.237645721383059776e-02 -7.520012080496299989e-01
1.583333333333333259e+00 2.313328565111076943e-02 -5.539189306861771467e-01
1.600000000000000089e+00 3.084042157003650045e-02 -4.294630290634272596e-01
1.616666666666666696e+00 3.744871995322501118e-02 -3.941072122751542173e-01
1.633333333333333304e+00 4.397732864587497459e-02 -3.973495926882233964e-01
1.649999999999999911e+00 5.069370637616579106e-02 -3.806769647929221789e-01
1.666666666666666741e+00 5.666656080563904629e-02 -3.453109852628737375e-01
1.683333333333333348e+00 6.220407255159491472e-02 -2.813933304078647391e-01
1.699999999999999956e+00 6.604633848590120426e-02 -1.507328768211754211e-01
1.716666666666666563e+00 6.722850177896742829e-02 4.431687657126301416e-02
1.733333333333333393e+00 6.456910926685910379e-02 2.351746190990297025e-01
1.750000000000000000e+00 5.938934780899977200e-02 3.532092155540262346e-01
1.766666666666666607e+00 5.279546874839156217e-02 3.978112849398237061e-01
1.783333333333333215e+00 4.612897164433898273e-02 3.669999246060314246e-01
1.800000000000000044e+00 4.056213792819051561e-02 2.673892399068496517e-01
1.816666666666666652e+00 3.721599698077732860e-02 1.504830562755205825e-01
1.833333333333333259e+00 3.554603605233982999e-02 7.910028441448432868e-02
1.849999999999999867e+00 3.457932083362785097e-02 8.244980757246375691e-02
1.866666666666666696e+00 3.279770913325770476e-02 1.416621492808151084e-01
1.883333333333333304e+00 2.985724919093401403e-02 2.093981611062149528e-01
1.899999999999999911e+00 2.581777042971720657e-02 2.474196903392418823e-01
1.916666666666666741e+00 2.160992617962595105e-02 2.460853017374931007e-01
1.933333333333333348e+00 1.761492703846743654e-02 5.210293504017665667e-01
1.949999999999999956e+00 4.242281166233731297e-03 5.116310067092175728e-01
1.966666666666666563e+00 5.605601481601831101e-04 1.256398550141419601e-01
1.983333333333333393e+00 5.428599909566542462e-05 1.681680444480549222e-02
2.000000000000000000e+00 0.000000000000000000e+00 3.257159945739925531e-03
