0.00000000 918.41248754 2013.59909475
0.01666667 884.85250263 2013.59909475
0.03333333 851.29251772 2013.59909475
0.05000000 817.73253281 2013.59909475
0.06666667 784.17254789 2013.59909475
0.08333333 750.61256298 2013.59909475
0.10000000 717.05257807 2013.59909475
0.11666667 683.49259316 2013.59909475
0.13333333 649.93260824 2013.59909475
0.15000000 616.37262333 2013.59909475
0.16666667 582.81263842 2013.59909475
0.18333333 549.25265351 2013.59909475
0.20000000 515.69266859 2013.59909475
0.21666667 482.13268368 2013.59909475
0.23333333 448.57269877 2013.59909475
0.25000000 415.01271386 2013.59909475
0.26666667 381.45272894 2013.59909475
0.28333333 347.89274403 2013.59909475
0.30000000 314.33275912 2013.59909475
0.31666667 280.77277421 2013.59909475
0.33333333 247.21278929 2013.59909475
0.35000000 213.65280438 2013.59909475
0.36666667 180.09281947 2013.59909475
0.38333333 146.53283456 2013.59909475
0.40000000 112.97284964 2013.59909475
0.41666667 79.41286473 2013.59909475
0.43333333 45.85287982 1466.15085031
0.45000000 30.54116972 747.19347135
0.46666667 20.94643077 484.26591944
0.48333333 14.39897240 334.47891773
0.50000000 9.79713351 235.35120753
0.51666667 6.55393215 166.71426529
0.53333333 4.23999134 121.14520582
0.55000000 2.51575863 95.71536978
0.56666667 1.04947901 87.33952160
0.58333333 -0.39555876 88.17849558
0.60000000 -1.88980417 85.55555308
0.61666667 -3.24741053 69.61475126
0.63333333 -4.21029588 41.24395856
0.65000000 -4.62220915 9.96152703
0.66666667 -4.54234678 -15.38437168
0.68333333 -4.10939676 -30.27678811
0.70000000 -3.53312051 -31.64375431
0.71666667 -3.05460495 -19.65396375
0.73333333 -2.87798839 -1.17737477
0.75000000 -3.01535912 14.78130907
0.76666667 -3.37069869 23.79554993
0.78333333 -3.80854412 26.43516325
0.80000000 -4.25187080 25.02974866
0.81666667 -4.64286908 20.91291646
0.83333333 -4.94896801 14.06274973
0.85000000 -5.11162740 4.70761447
0.86666667 -5.10588850 -5.20410945
0.88333333 -4.93815709 -14.25718197
0.90000000 -4.63064910 -23.03329833
0.91666667 -4.17038047 -31.14419248
0.93333333 -3.59250935 -36.24302792
0.95000000 -2.96227954 -37.27299933
0.96666667 -2.35007604 -36.04332267
0.98333333 -1.76083545 -33.83082997
1.00000000 -1.22238170 -30.61104070
1.01666667 -0.74046743 -26.95307765
1.03333333 -0.32394578 -23.16771892
1.05000000 0.03178987 -18.89427561
1.06666667 0.30586340 -14.40546456
1.08333333 0.51197202 -9.78292926
1.10000000 0.63196105 -4.66297412
1.11666667 0.66740449 0.30416107
1.13333333 0.62182234 4.11054667
1.15000000 0.53038627 6.97233123
1.16666667 0.38941130 9.56305012
1.18333333 0.21161793 11.52054809
1.20000000 0.00539303 12.35985803
1.21666667 -0.20037734 12.20066650
1.23333333 -0.40129585 11.45622270
1.25000000 -0.58225143 10.02557785
1.26666667 -0.73548178 7.86555340
1.28333333 -0.84443654 5.13595675
1.30000000 -0.90668034 2.39817450
1.31666667 -0.92437569 0.18203589
1.33333333 -0.91274820 -1.50352962
1.35000000 -0.87425804 -2.98919859
1.36666667 -0.81310825 -4.33539262
1.38333333 -0.72974495 -5.36192664
1.40000000 -0.63437736 -6.02503395
1.41666667 -0.52891049 -6.39853869
1.43333333 -0.42109274 -6.29350170
1.45000000 -0.31912710 -5.72105100
1.46666667 -0.23039104 -4.84618126
1.48333333 -0.15758772 -3.79104087
1.50000000 -0.10402301 -2.74563645
1.51666667 -0.06606651 -1.92789277
1.53333333 -0.03975991 -1.35871674
1.55000000 -0.02077595 -0.94084336
1.56666667 -0.00839847 -0.62382677
1.58333333 0.00001828 -0.34145361
1.60000000 0.00298332 -0.04518630
1.61666667 0.00152449 0.06745975
1.63333333 0.00073466 -0.06365631
1.65000000 0.00364637 -0.35357385
1.66666667 0.01252045 -0.83971228
1.68333333 0.03163677 -1.53483080
1.70000000 0.06368148 -2.18626236
1.71666667 0.10451219 -2.49571106
1.73333333 0.14687185 -2.38938518
1.75000000 0.18415836 -1.97602862
1.76666667 0.21273947 -1.39948046
1.78333333 0.23080771 -0.83277612
1.80000000 0.24049867 -0.36303830
1.81666667 0.24290898 0.02581808
1.83333333 0.23963807 0.33115437
1.85000000 0.23187051 0.58720659
1.86666667 0.22006452 0.83013908
1.88333333 0.20419920 1.07797969
1.90000000 0.18413186 1.30572378
1.91666667 0.16067508 1.51239309
1.93333333 0.13371876 4.00560933
1.95000000 0.02715477 3.90682597
1.96666667 0.00349123 0.80487740
1.98333333 0.00032552 0.10473681
2.00000000 0.00000000 0.01953117
