0.000000000000000000e+00 3.572919151528339512e+02 5.269798382797603153e+02
1.666666666666666644e-02 3.485089178481712793e+02 5.269798382797586100e+02
3.333333333333333287e-02 3.397259205435086642e+02 5.269798382797569047e+02
5.000000000000000278e-02 3.309429232388460491e+02 5.269798382797569047e+02
6.666666666666666574e-02 3.221599259341834340e+02 5.269798382797586100e+02
8.333333333333332871e-02 3.133769286295207621e+02 5.269798382797586100e+02
1.000000000000000056e-01 3.045939313248581470e+02 5.269798382797586100e+02
1.166666666666666685e-01 2.958109340201954751e+02 5.269798382797586100e+02
1.333333333333333315e-01 2.870279367155328600e+02 5.269798382797586100e+02
1.499999999999999944e-01 2.782449394108701881e+02 5.269798382797586100e+02
1.666666666666666574e-01 2.694619421062075730e+02 5.269798382797586100e+02
1.833333333333333204e-01 2.606789448015449011e+02 5.269798382797586100e+02
2.000000000000000111e-01 2.518959474968822860e+02 5.269798382797578142e+02
2.166666666666666741e-01 2.431129501922196425e+02 5.269798382797586100e+02
2.333333333333333370e-01 2.343299528875569990e+02 5.269798382797586100e+02
2.500000000000000000e-01 2.255469555828943555e+02 5.269798382797578142e+02
2.666666666666666630e-01 2.167639582782317405e+02 5.269798382797578142e+02
2.833333333333333259e-01 2.079809609735690970e+02 5.269798382797586100e+02
2.999999999999999889e-01 1.991979636689064534e+02 5.269798382797586100e+02
3.166666666666666519e-01 1.904149663642438099e+02 5.269798382797578142e+02
3.333333333333333148e-01 1.816319690595811949e+02 5.269798382797578142e+02
3.499999999999999778e-01 1.728489717549185514e+02 5.269798382797578142e+02
3.666666666666666408e-01 1.640659744502559363e+02 5.269798382797578142e+02
3.833333333333333037e-01 1.552829771455932928e+02 5.269798382797595195e+02
4.000000000000000222e-01 1.464999798409306209e+02 5.269798382797595195e+02
4.166666666666666852e-01 1.377169825362679774e+02 5.269798382797578142e+02
4.333333333333333481e-01 1.289339852316053623e+02 5.269798382797578142e+02
4.500000000000000111e-01 1.201509879269427188e+02 5.269798382797586100e+02
4.666666666666666741e-01 1.113679906222800753e+02 5.269798382797586100e+02
4.833333333333333370e-01 1.025849933176174318e+02 5.269798382797578142e+02
5.000000000000000000e-01 9.380199601295481671e+01 5.269798382797569047e+02
5.166666666666666075e-01 8.501899870829220163e+01 5.269798382797586100e+02
5.333333333333333259e-01 7.623600140362952970e+01 5.269798382797598606e+02
5.500000000000000444e-01 6.745300409896687199e+01 5.269798382797579279e+02
5.666666666666666519e-01 5.867000679430426402e+01 5.269798382797581553e+02
5.833333333333333703e-01 4.988700948964159920e+01 5.269798382797581553e+02
5.999999999999999778e-01 4.110401218497899123e+01 5.269798382797581553e+02
6.166666666666666963e-01 3.232101488031632641e+01 4.518810624355426739e+02
6.333333333333333037e-01 2.604131010379423472e+01 3.413763101608287798e+02
6.500000000000000222e-01 2.094180454162203375e+01 2.803039017940187705e+02
6.666666666666666297e-01 1.669784671066027570e+01 2.340949090828977717e+02
6.833333333333333481e-01 1.313864090552544184e+01 1.962486686761634758e+02
6.999999999999999556e-01 1.015622442145482651e+01 1.640092061126951535e+02
7.166666666666666741e-01 7.671667368435603152e+00 1.361829041528388586e+02
7.333333333333332815e-01 5.616794283026864676e+00 1.122427232872080509e+02
7.500000000000000000e-01 3.930243258862001543e+00 9.181636454900240096e+01
7.666666666666666075e-01 2.556248798060118066e+00 7.462708979308098378e+01
7.833333333333333259e-01 1.442673599092635817e+00 6.050751843712240685e+01
8.000000000000000444e-01 5.393315168227044154e-01 4.926485841904355567e+01
8.166666666666666519e-01 -1.994883482088160298e-01 4.053023756928248389e+01
8.333333333333333703e-01 -8.116764021533785511e-01 3.377714998403291702e+01
8.499999999999999778e-01 -1.325393347676580014e+00 2.840992241736013924e+01
8.666666666666666963e-01 -1.758673816065383200e+00 2.388565076610978721e+01
8.833333333333333037e-01 -2.121581706546906254e+00 1.980141044715659504e+01
9.000000000000000222e-01 -2.418720830970602975e+00 1.594033243931561294e+01
9.166666666666666297e-01 -2.652926121190759989e+00 1.226109244922606401e+01
9.333333333333333481e-01 -2.827423912611471746e+00 8.792900227376835076e+00
9.499999999999999556e-01 -2.946022795436654462e+00 5.546753986422925387e+00
9.666666666666666741e-01 -3.012315712158902592e+00 2.494014721402209034e+00
9.833333333333332815e-01 -3.029156619483394763e+00 -3.993411872720242783e-01
1.000000000000000000e+00 -2.999004339249835116e+00 -3.121732109186963200e+00
1.016666666666666607e+00 -2.925098882510495990e+00 -5.580812494800317936e+00
1.033333333333333215e+00 -2.812977256089824518e+00 -7.675674425493146380e+00
1.050000000000000044e+00 -2.669243068327391111e+00 -9.314526088349564859e+00
1.066666666666666652e+00 -2.502493053144839052e+00 -1.041102350724096048e+01
1.083333333333333259e+00 -2.322208951419359124e+00 -1.089964006908597938e+01
1.100000000000000089e+00 -2.139171717508639770e+00 -1.084575075272637790e+01
1.116666666666666696e+00 -1.960683926328479876e+00 -1.037595709985736470e+01
1.133333333333333304e+00 -1.793306480846727613e+00 -9.609396657079063431e+00
1.149999999999999911e+00 -1.640370704425844428e+00 -8.678026767981894096e+00
1.166666666666666741e+00 -1.504038921913997795e+00 -7.834226355524747554e+00
1.183333333333333348e+00 -1.379229825908352858e+00 -7.369254664618114958e+00
1.199999999999999956e+00 -1.258397099760060645e+00 -7.402402443978053803e+00
1.216666666666666563e+00 -1.132483077775751079e+00 -7.760966414231544874e+00
1.233333333333333393e+00 -9.996982192856758154e-01 -8.126406072531231928e+00
1.250000000000000000e+00 -8.616028753580433630e-01 -8.233368953741205587e+00
1.266666666666666607e+00 -7.252525874943023254e-01 -7.916159148484282149e+00
1.283333333333333215e+00 -5.977309037419006321e-01 -7.097635470809476210e+00
1.300000000000000044e+00 -4.886647384673197814e-01 -5.800657977921235720e+00
1.316666666666666652e+00 -4.043756378111927896e-01 -4.213955175538147024e+00
1.333333333333333259e+00 -3.481995659493815620e-01 -2.658594657811889306e+00
1.350000000000000089e+00 -3.157558158841298201e-01 -1.425533483092423337e+00
1.366666666666666696e+00 -3.006817831796341212e-01 -6.076680203126644253e-01
1.383333333333333304e+00 -2.955002152070410060e-01 -1.541098520669459404e-01
1.399999999999999911e+00 -2.955447881107359231e-01 6.396228251849989110e-02
1.416666666666666741e+00 -2.976322912909910023e-01 1.687221293880947215e-01
1.433333333333333348e+00 -3.011688590903390805e-01 2.296307241426021051e-01
1.449999999999999956e+00 -3.052866487624110725e-01 2.230283212715666874e-01
1.466666666666666563e+00 -3.086031364660579701e-01 8.413435225887222479e-02
1.483333333333333393e+00 -3.080911271710401467e-01 -2.211079906355545299e-01
1.500000000000000000e+00 -3.012328701115394858e-01 -6.289599781994520411e-01
1.516666666666666607e+00 -2.871257945643917453e-01 -1.014106799788507818e+00
1.533333333333333215e+00 -2.674293101185892252e-01 -1.259114042100734965e+00
1.550000000000000044e+00 -2.451553264943672483e-01 -1.335978863780354908e+00
1.566666666666666652e+00 -2.228966813259107282e-01 -1.278479462275757816e+00
1.583333333333333259e+00 -2.025393444185086544e-01 -1.140792457066470922e+00
1.600000000000000089e+00 -1.848702660903616957e-01 -9.849658040192027508e-01
1.616666666666666696e+00 -1.697071509512018961e-01 -8.656614805246723998e-01
1.633333333333333304e+00 -1.560148834062059509e-01 -7.946073684698190531e-01
1.649999999999999911e+00 -1.432202386688745943e-01 -7.559201244918406504e-01
1.666666666666666741e+00 -1.308175459231445958e-01 -7.307507769640654294e-01
1.683333333333333348e+00 -1.188618794367390791e-01 -6.995186445709133949e-01
1.699999999999999956e+00 -1.075002577707808160e-01 -6.506502168662288144e-01
1.716666666666666563e+00 -9.717353887453145100e-02 -5.899212062612725349e-01
1.733333333333333393e+00 -8.783621756207173059e-02 -5.268530001959143005e-01
1.750000000000000000e+00 -7.961177220133430765e-02 -4.677326310059229386e-01
1.766666666666666607e+00 -7.224512986187429930e-02 -4.239564041891052959e-01
1.783333333333333215e+00 -6.547989206169746446e-02 -3.989706959668299358e-01
1.800000000000000044e+00 -5.894610666297996765e-02 -3.859191189737056216e-01
1.816666666666666652e+00 -5.261592142924061133e-02 -3.768090449052600155e-01
1.833333333333333259e+00 -4.638580516613796667e-02 -3.705906155036860494e-01
1.849999999999999867e+00 -4.026290091245107727e-02 -3.651506795764508650e-01
1.866666666666666696e+00 -3.421411584692293784e-02 -3.536532785728209727e-01
1.883333333333333304e+00 -2.847445829335704462e-02 -3.310585349007077460e-01
1.899999999999999911e+00 -2.317883135023268010e-02 -2.991286249510446971e-01
1.916666666666666741e+00 -1.850350412832222138e-02 -2.602387566545944497e-01
1.933333333333333348e+00 -1.450420612841286580e-02 -5.495429865883029175e-01
1.949999999999999956e+00 -1.854045753787894970e-04 -4.355991498724220423e-01
1.966666666666666563e+00 1.576553400120154648e-05 -5.510899606419167145e-03
1.983333333333333393e+00 -1.707921831483925257e-06 4.729660200360464011e-04
2.000000000000000000e+00 0.000000000000000000e+00 -1.024753098890355179e-04
