0.000000 82062000.000000 75146250.000000
0.016667 80810250.000000 138963000.000000
0.033333 77430000.000000 241088250.000000
0.050000 72773625.000000 294483750.000000
0.066667 67614150.000000 312592500.000000
0.083333 62353875.000000 315614250.000000
0.100000 57093600.000000 315614250.000000
0.116667 51833400.000000 315614250.000000
0.133333 46573125.000000 315614250.000000
0.150000 41312925.000000 315614250.000000
0.166667 36052650.000000 315614250.000000
0.183333 30792450.000000 315614250.000000
0.200000 25532175.000000 314771250.000000
0.216667 20300025.000000 309358500.000000
0.233333 15220200.000000 292150500.000000
0.250000 10561725.000000 256288500.000000
0.266667 6677280.000000 202098750.000000
0.283333 3825090.000000 139900500.000000
0.300000 2013922.500000 84314250.000000
0.316667 1014607.500000 44939100.000000
0.333333 515952.000000 22262025.000000
0.350000 272541.000000 11012775.000000
0.366667 148860.000000 5663805.000000
0.383333 83747.250000 3014722.500000
0.400000 48369.300000 1654507.500000
0.416667 28596.975000 933195.000000
0.433333 17262.675000 539450.250000
0.450000 10615.275000 318820.500000
0.466667 6635.355000 192232.500000
0.483333 4207.537500 118287.000000
0.500000 2692.440000 77735.250000
0.516667 1616.362500 55109.325000
0.533333 855.465000 35977.500000
0.550000 417.113250 20739.075000
0.566667 164.163000 10517.175000
0.583333 66.541800 3768.097500
0.600000 38.560200 1176.727500
0.616667 27.317625 528.387000
0.633333 20.947350 338.356500
0.650000 16.039125 268.382250
0.666667 12.001200 220.455750
0.683333 8.690625 180.457500
0.700000 5.985975 148.930500
0.716667 3.726240 124.377000
0.733333 1.840080 100.128750
0.750000 0.388612 73.314975
0.766667 -0.603749 49.098600
0.783333 -1.248007 33.905700
0.800000 -1.733940 26.541525
0.816667 -2.132722 18.188325
0.833333 -2.340217 4.197412
0.850000 -2.272642 -8.740650
0.866667 -2.048865 -10.474575
0.883333 -1.923487 -1.694242
0.900000 -1.992390 5.573100
0.916667 -2.109255 2.949533
0.933333 -2.090707 -4.628565
0.950000 -1.954973 -6.602828
0.966667 -1.870613 -1.041765
0.983333 -1.920247 4.527300
1.000000 -2.021520 4.583512
1.016670 -2.073030 2.266507
1.033330 -2.097075 2.357865
1.050000 -2.151623 4.055722
1.066670 -2.232263 4.417987
1.083330 -2.298893 3.318293
1.100000 -2.342872 2.160427
1.116670 -2.370907 0.088010
1.133330 -2.345805 -4.457228
1.150000 -2.222332 -8.901150
1.166670 -2.049105 -8.195400
1.183330 -1.949152 -2.169458
1.200000 -1.976783 3.452310
1.216670 -2.064225 4.470300
1.233330 -2.125800 2.780543
1.250000 -2.156910 2.028510
1.266670 -2.193412 2.163218
1.283330 -2.229015 1.164322
1.300000 -2.232225 -0.387212
1.316670 -2.216115 -0.592914
1.333330 -2.212462 -0.345235
1.350000 -2.204603 -2.280255
1.366670 -2.136450 -6.360090
1.383330 -1.992600 -9.329700
1.400000 -1.825462 -9.417000
1.416670 -1.678702 -8.569650
1.433330 -1.539810 -8.582850
1.450000 -1.392607 -8.353650
1.466670 -1.261350 -6.549645
1.483330 -1.174282 -4.534950
1.500000 -1.110188 -4.765028
1.516670 -1.015448 -6.766095
1.533330 -0.884655 -7.072178
1.550000 -0.779707 -4.105808
1.566670 -0.747791 -0.600616
1.583330 -0.759690 -0.143195
1.600000 -0.743018 -2.969400
1.616670 -0.660709 -5.959582
1.633330 -0.544366 -6.217072
1.650000 -0.453473 -3.630510
1.666670 -0.423349 -0.236762
1.683330 -0.445580 1.559257
1.700000 -0.475324 0.674167
1.716670 -0.468052 -1.623555
1.733330 -0.421205 -3.073793
1.750000 -0.365593 -2.796113
1.766670 -0.328001 -1.684462
1.783330 -0.309444 -0.932407
1.800000 -0.296921 -0.804802
1.816670 -0.282617 -0.999758
1.833330 -0.263596 -1.279012
1.850000 -0.239983 -1.309245
1.866670 -0.219955 -0.788580
1.883330 -0.213698 -0.063335
1.900000 -0.217843 0.101220
1.916670 -0.217072 -0.539223
1.933330 -0.199869 -1.501605
1.950000 -0.167018 -2.280075
1.966670 -0.123867 -2.873175
1.983330 -0.071246 -3.716003
2.000000 0.000000 -4.274760
