0.000000000000000000e+00 1.173322295667342132e+03 2.557274583741409515e+03
1.666666666666666644e-02 1.130701052604985307e+03 2.557274583741416336e+03
3.333333333333333287e-02 1.088079809542628254e+03 2.557274583741423157e+03
5.000000000000000278e-02 1.045458566480271202e+03 2.557274583741416336e+03
6.666666666666666574e-02 1.002837323417914376e+03 2.557274583741413153e+03
8.333333333333332871e-02 9.602160803555574375e+02 2.557274583741419974e+03
1.000000000000000056e-01 9.175948372932003849e+02 2.557274583741423157e+03
1.166666666666666685e-01 8.749735942308433323e+02 2.557274583741419974e+03
1.333333333333333315e-01 8.323523511684863934e+02 2.557274583741419974e+03
1.499999999999999944e-01 7.897311081061293407e+02 2.557274583741416336e+03
1.666666666666666574e-01 7.471098650437725155e+02 2.557274583741419974e+03
1.833333333333333204e-01 7.044886219814153492e+02 2.557274583741423157e+03
2.000000000000000111e-01 6.618673789190584102e+02 2.557274583741419974e+03
2.166666666666666741e-01 6.192461358567013576e+02 2.557274583741419974e+03
2.333333333333333370e-01 5.766248927943444187e+02 2.557274583741419974e+03
2.500000000000000000e-01 5.340036497319873661e+02 2.557274583741419974e+03
2.666666666666666630e-01 4.913824066696304271e+02 2.557274583741418155e+03
2.833333333333333259e-01 4.487611636072734314e+02 2.557274583741418155e+03
2.999999999999999889e-01 4.061399205449164924e+02 2.557274583741418155e+03
3.166666666666666519e-01 3.635186774825594966e+02 2.557274583741419974e+03
3.333333333333333148e-01 3.208974344202025009e+02 2.557274583741419974e+03
3.499999999999999778e-01 2.782761913578455051e+02 2.557274583741419974e+03
3.666666666666666408e-01 2.356549482954885093e+02 2.557274583741419065e+03
3.833333333333333037e-01 1.930337052331315419e+02 2.557274583741423157e+03
4.000000000000000222e-01 1.504124621707744041e+02 2.557274583741423157e+03
4.166666666666666852e-01 1.077912191084174367e+02 2.557274583741418610e+03
4.333333333333333481e-01 6.516997604606045513e+01 2.557274583741419065e+03
4.500000000000000111e-01 2.254873298370347712e+01 1.636435151991635394e+03
4.666666666666666741e-01 1.062213764633927404e+01 4.855567115817813146e+02
4.833333333333333370e-01 6.363509264310767577e+00 2.300008385112171254e+02
5.000000000000000000e-01 2.955443029298703284e+00 1.697390080267985581e+02
5.166666666666666075e-01 7.055423300841484613e-01 1.117311529428737060e+02
5.333333333333333259e-01 -7.689287354637537319e-01 7.685799836685046671e+01
5.500000000000000444e-01 -1.856390948810866970e+00 6.160672682301498071e+01
5.666666666666666519e-01 -2.822486296230919844e+00 5.679909970676756359e+01
5.833333333333333703e-01 -3.749694272369785697e+00 5.056972437152150235e+01
5.999999999999999778e-01 -4.508143775281636678e+00 3.686492812336480540e+01
6.166666666666666963e-01 -4.978525209815279240e+00 1.780253639638029739e+01
6.333333333333333037e-01 -5.101561655160979925e+00 -3.835169141581991070e+00
6.500000000000000222e-01 -4.850686238429212871e+00 -2.496823967883986484e+01
6.666666666666666297e-01 -4.269286999199651156e+00 -4.026571061758119896e+01
6.833333333333333481e-01 -3.508495884509839513e+00 -4.565194324975431783e+01
6.999999999999999556e-01 -2.747555557541173865e+00 -3.978757606285923742e+01
7.166666666666666741e-01 -2.182243349081198325e+00 -2.782406985729651439e+01
7.333333333333332815e-01 -1.820086562297956734e+00 -1.731220933697276010e+01
7.500000000000000000e-01 -1.605169704515439610e+00 -9.756112677856902948e+00
7.666666666666666075e-01 -1.494882806369393302e+00 -4.650904666175240010e+00
7.833333333333333259e-01 -1.450139548976264958e+00 -5.515637833219733110e-02
8.000000000000000444e-01 -1.493044260424986724e+00 4.418036197352801508e+00
8.166666666666666519e-01 -1.597407422221358342e+00 7.284178192134065810e+00
8.333333333333333703e-01 -1.735850200162788903e+00 8.163754007681959024e+00
8.499999999999999778e-01 -1.869532555810756946e+00 6.495696988684231954e+00
8.666666666666666963e-01 -1.952373433118929968e+00 2.855545754537733849e+00
8.833333333333333037e-01 -1.964717414295348075e+00 -1.181563229643414203e+00
9.000000000000000222e-01 -1.912987992130816162e+00 -4.987002596531120879e+00
9.166666666666666297e-01 -1.798483994410977393e+00 -8.107069782668869351e+00
9.333333333333333481e-01 -1.642752332708520502e+00 -1.049222444527186582e+01
9.499999999999999556e-01 -1.448743179568581896e+00 -1.208981083596923511e+01
9.666666666666666741e-01 -1.239758638176212679e+00 -1.252921063732721230e+01
9.833333333333332815e-01 -1.031102824991008138e+00 -1.174433846905805368e+01
1.000000000000000000e+00 -8.482806892076109051e-01 -1.041681287095926933e+01
1.016666666666666607e+00 -6.838757292923658415e-01 -9.332948240669486140e+00
1.033333333333333215e+00 -5.371824145186280264e-01 -8.416523131698278704e+00
1.050000000000000044e+00 -4.033249582357565366e-01 -7.611687951720232270e+00
1.066666666666666652e+00 -2.834594827946202988e-01 -6.850529984876813749e+00
1.083333333333333259e+00 -1.749739587398627394e-01 -6.191483114429221501e+00
1.100000000000000089e+00 -7.707671231364623954e-02 -5.627571126357002740e+00
1.116666666666666696e+00 1.261174547203736812e-02 -4.534020271358737197e+00
1.133333333333333304e+00 7.405729673164498927e-02 -3.141611303868695693e+00
1.149999999999999911e+00 1.173321222676605435e-01 -1.725084375917986579e+00
1.166666666666666741e+00 1.315601092622445401e-01 -3.701819583462911956e-01
1.183333333333333348e+00 1.296715208792035834e-01 6.649084068519777180e-01
1.199999999999999956e+00 1.093964957005119504e-01 1.663601565156269002e+00
1.216666666666666563e+00 7.421813537399461758e-02 2.374800643542602341e+00
1.233333333333333393e+00 3.023647424909186796e-02 2.609355014330299483e+00
1.250000000000000000e+00 -1.276036510368203439e-02 2.631175558008935322e+00
1.266666666666666607e+00 -5.746937768453930229e-02 2.548482522926340810e+00
1.283333333333333215e+00 -9.770978253456005791e-02 2.669115857344101173e+00
1.300000000000000044e+00 -1.464399062626760006e-01 2.581184115929647138e+00
1.316666666666666652e+00 -1.837492530655482903e-01 2.430699519196097391e+00
1.333333333333333259e+00 -2.274632235692125859e-01 2.568166942054816992e+00
1.350000000000000089e+00 -2.693548178007088567e-01 2.392967424347343552e+00
1.366666666666666696e+00 -3.072288043807906988e-01 1.966562984071236864e+00
1.383333333333333304e+00 -3.349069172697500818e-01 1.369209430652857495e+00
1.399999999999999911e+00 -3.528691187358859449e-01 6.693763898512461452e-01
1.416666666666666741e+00 -3.572194635981249533e-01 -4.635884910330401176e-02
1.433333333333333348e+00 -3.513238237657758112e-01 -7.832285745655104270e-01
1.449999999999999956e+00 -3.311118444459412724e-01 -1.311856856226992329e+00
1.466666666666666563e+00 -3.075952618915427372e-01 -1.569256687768183056e+00
1.483333333333333393e+00 -2.788032881870018409e-01 -1.668549607951486102e+00
1.500000000000000000e+00 -2.519769416264932005e-01 -1.590659128995227878e+00
1.516666666666666607e+00 -2.257813172204942431e-01 -1.356766645973370933e+00
1.533333333333333215e+00 -2.067513867607141675e-01 -1.027143429097589822e+00
1.550000000000000044e+00 -1.915432029172412509e-01 -9.605335483782304618e-01
1.566666666666666652e+00 -1.747336018147731540e-01 -9.374618331106568947e-01
1.583333333333333259e+00 -1.602944751468860229e-01 -9.468181303524112469e-01
1.600000000000000089e+00 -1.431729974696927810e-01 -8.284343805671162686e-01
1.616666666666666696e+00 -1.326799957946488140e-01 -4.527091415696710142e-01
1.633333333333333304e+00 -1.280826927507037472e-01 -2.891973042920684134e-01
1.649999999999999911e+00 -1.230400856515798669e-01 -2.606233464371787711e-01
1.666666666666666741e+00 -1.193952478694644548e-01 -2.796890352960311743e-01
1.683333333333333348e+00 -1.137171178083788287e-01 -4.910034667260887442e-01
1.699999999999999956e+00 -1.030284656452614966e-01 -7.618666521996225738e-01
1.716666666666666563e+00 -8.832156273505807620e-02 -1.071164875007609485e+00
1.733333333333333393e+00 -6.732296981167451566e-02 -1.211219482545601966e+00
1.750000000000000000e+00 -4.794757998353801204e-02 -1.103296723940440094e+00
1.766666666666666607e+00 -3.054641234699318267e-02 -1.022184214918345990e+00
1.783333333333333215e+00 -1.387477281959314385e-02 -8.912986223455129364e-01
1.800000000000000044e+00 -8.364582688094165594e-04 -6.470740310236685611e-01
1.816666666666666652e+00 7.694361547862474393e-03 -3.850001877970495312e-01
1.833333333333333259e+00 1.199688132442556891e-02 -2.001521124263013207e-01
1.849999999999999867e+00 1.436609862873918474e-02 -9.415303151182630170e-02
1.866666666666666696e+00 1.513531570815311242e-02 -1.349743533812002017e-02
1.883333333333333304e+00 1.481601314000985208e-02 5.274373482847360267e-02
1.899999999999999911e+00 1.337719121387065911e-02 8.234357509951864551e-02
1.916666666666666741e+00 1.207122730335923044e-02 1.111241331290024614e-01
1.933333333333333348e+00 9.673053442903910629e-03 2.584455378563017547e-01
1.949999999999999956e+00 3.456376041482505084e-03 2.762457293370850775e-01
1.966666666666666563e+00 4.648624650010732052e-04 1.024976286623599658e-01
1.983333333333333393e+00 3.978841940383951071e-05 1.394587395003219626e-02
2.000000000000000000e+00 0.000000000000000000e+00 2.387305164230370778e-03
