0.000000000000000000e+00 2.942210713727645270e+02 4.879310835375304123e+02
1.666666666666666644e-02 2.860888866471390202e+02 4.879310835375270017e+02
3.333333333333333287e-02 2.779567019215136270e+02 4.879310835375252964e+02
5.000000000000000278e-02 2.698245171958881770e+02 4.879310835375270017e+02
6.666666666666666574e-02 2.616923324702627269e+02 4.879310835375261490e+02
8.333333333333332871e-02 2.535601477446373053e+02 4.879310835375261490e+02
1.000000000000000056e-01 2.454279630190118553e+02 4.879310835375278543e+02
1.166666666666666685e-01 2.372957782933863768e+02 4.879310835375270017e+02
1.333333333333333315e-01 2.291635935677609552e+02 4.879310835375261490e+02
1.499999999999999944e-01 2.210314088421355052e+02 4.879310835375261490e+02
1.666666666666666574e-01 2.128992241165100836e+02 4.879310835375270017e+02
1.833333333333333204e-01 2.047670393908846052e+02 4.879310835375270017e+02
2.000000000000000111e-01 1.966348546652591835e+02 4.879310835375261490e+02
2.166666666666666741e-01 1.885026699396337335e+02 4.879310835375270017e+02
2.333333333333333370e-01 1.803704852140082835e+02 4.879310835375261490e+02
2.500000000000000000e-01 1.722383004883828619e+02 4.879310835375261490e+02
2.666666666666666630e-01 1.641061157627574119e+02 4.879310835375270017e+02
2.833333333333333259e-01 1.559739310371319618e+02 4.879310835375261490e+02
2.999999999999999889e-01 1.478417463115065402e+02 4.879310835375261490e+02
3.166666666666666519e-01 1.397095615858810902e+02 4.879310835375270017e+02
3.333333333333333148e-01 1.315773768602556402e+02 4.879310835375261490e+02
3.499999999999999778e-01 1.234451921346302186e+02 4.879310835375261490e+02
3.666666666666666408e-01 1.153130074090047685e+02 4.879310835375270017e+02
3.833333333333333037e-01 1.071808226833793185e+02 4.879310835375270017e+02
4.000000000000000222e-01 9.904863795775386848e+01 4.879310835375270017e+02
4.166666666666666852e-01 9.091645323212841845e+01 4.879310835375270017e+02
4.333333333333333481e-01 8.278426850650296842e+01 4.879310835375266038e+02
4.500000000000000111e-01 7.465208378087753260e+01 4.879310835375261490e+02
4.666666666666666741e-01 6.651989905525209679e+01 4.879310835375266038e+02
4.833333333333333370e-01 5.838771432962664676e+01 4.879310835375267743e+02
5.000000000000000000e-01 5.025552960400120384e+01 4.879310835375257511e+02
5.166666666666666075e-01 4.212334487837578934e+01 4.879310835375263764e+02
5.333333333333333259e-01 3.399116015275032510e+01 4.879310835375280817e+02
5.500000000000000444e-01 2.585897542712485375e+01 4.879310835375266038e+02
5.666666666666666519e-01 1.772679070149943925e+01 4.497930644495114052e+02
5.833333333333333703e-01 1.086587327880780762e+01 3.588017510842431079e+02
5.999999999999999778e-01 5.766732332024668395e+00 2.662344104794205464e+02
6.166666666666666963e-01 1.991392929493789987e+00 1.963215147702394461e+02
6.333333333333333037e-01 -7.773181603166466891e-01 1.424689862648226040e+02
6.500000000000000222e-01 -2.757573279333629834e+00 1.007232354577289470e+02
6.666666666666666297e-01 -4.134759342240944768e+00 6.795615148821011076e+01
6.833333333333333481e-01 -5.022778328940633585e+00 4.209880755273336206e+01
6.999999999999999556e-01 -5.538052927332056896e+00 2.326070131109303674e+01
7.166666666666666741e-01 -5.798135039310401417e+00 1.061946615541874195e+01
7.333333333333332815e-01 -5.892035132512681628e+00 2.409961891554095459e+00
7.500000000000000000e-01 -5.878467102362204599e+00 -3.167386845824911035e+00
7.666666666666666075e-01 -5.786455570985184593e+00 -8.174650337122839616e+00
7.833333333333333259e-01 -5.605978757791443279e+00 -1.254923913310700634e+01
8.000000000000000444e-01 -5.368147599881617715e+00 -1.625029541769000119e+01
8.166666666666666519e-01 -5.064302243868443298e+00 -1.941557123815122310e+01
8.333333333333333703e-01 -4.720961891943243671e+00 -2.042716945030758069e+01
8.499999999999999778e-01 -4.383396595524857275e+00 -2.027000486639472143e+01
8.666666666666666963e-01 -4.045295063063419683e+00 -1.944330882316886289e+01
8.833333333333333037e-01 -3.735286301419228572e+00 -1.705437385820264851e+01
9.000000000000000222e-01 -3.476815934456664703e+00 -1.381847158184585034e+01
9.166666666666666297e-01 -3.274670582024366894e+00 -1.097022034460751172e+01
9.333333333333333481e-01 -3.111141922969747675e+00 -9.688130852350207434e+00
9.499999999999999556e-01 -2.951732886946026646e+00 -9.322623268359029325e+00
9.666666666666666741e-01 -2.800387814024446698e+00 -8.994095464810651919e+00
9.833333333333332815e-01 -2.651929704785671582e+00 -1.029959083995407454e+01
1.000000000000000000e+00 -2.457068119359310909e+00 -1.221092416884786402e+01
1.016666666666666607e+00 -2.244898899157409478e+00 -1.234791851470639301e+01
1.033333333333333215e+00 -2.045470835535764476e+00 -1.130815561014631498e+01
1.050000000000000044e+00 -1.867960378819198963e+00 -1.017971672622624091e+01
1.066666666666666652e+00 -1.706146944661556475e+00 -9.576879403166584481e+00
1.083333333333333259e+00 -1.548731065380312799e+00 -8.531516141740354442e+00
1.100000000000000089e+00 -1.421763073270211342e+00 -7.047253520579420005e+00
1.116666666666666696e+00 -1.313822614694332147e+00 -6.355415478323318546e+00
1.133333333333333304e+00 -1.209915890659434057e+00 -5.522149526895070437e+00
1.149999999999999911e+00 -1.129750963797829799e+00 -4.085045223436165607e+00
1.166666666666666741e+00 -1.073747716544895203e+00 -3.284905649367317881e+00
1.183333333333333348e+00 -1.020254108818919203e+00 -2.788274313693612783e+00
1.199999999999999956e+00 -9.808052394217747771e-01 -2.697499982805333651e+00
1.216666666666666563e+00 -9.303374427254080814e-01 -2.995408691694383396e+00
1.233333333333333393e+00 -8.809582830319619973e-01 -2.824674376234137529e+00
1.250000000000000000e+00 -8.361816301842701638e-01 -3.006022870772101729e+00
1.266666666666666607e+00 -7.807575206728919470e-01 -3.252034639246223158e+00
1.283333333333333215e+00 -7.277804755427293992e-01 -3.170394511089830392e+00
1.300000000000000044e+00 -6.750777036365642747e-01 -2.906620780417587202e+00
1.316666666666666652e+00 -6.308931161954764999e-01 -1.926213829138599953e+00
1.333333333333333259e+00 -6.108705759986109429e-01 -7.613126040302942155e-01
1.350000000000000089e+00 -6.055160293944666927e-01 2.490257698293696365e-02
1.366666666666666696e+00 -6.117006618980421750e-01 7.648571982656049428e-01
1.383333333333333304e+00 -6.310112693366535241e-01 1.026805993894722713e+00
1.399999999999999911e+00 -6.459275283611995988e-01 9.147858462826963244e-01
1.416666666666666741e+00 -6.615041308794100683e-01 5.282059770782654429e-01
1.433333333333333348e+00 -6.635343942638084469e-01 -1.387156007208911745e-01
1.449999999999999956e+00 -6.568802775220470291e-01 -6.691861557868283850e-01
1.466666666666666563e+00 -6.412281890709141674e-01 -1.341444317933581099e+00
1.483333333333333393e+00 -6.121654669242609925e-01 -2.213802436828950171e+00
1.500000000000000000e+00 -5.674347745099491691e-01 -2.957824706606150489e+00
1.516666666666666607e+00 -5.135713100373893170e-01 -3.655936975809072731e+00
1.533333333333333215e+00 -4.455702086496467484e-01 -4.152382469020102107e+00
1.550000000000000044e+00 -3.751585610700525764e-01 -4.402421620932065238e+00
1.566666666666666652e+00 -2.988228212852445664e-01 -4.549377618643275945e+00
1.583333333333333259e+00 -2.235126404486100504e-01 -4.217184550058960646e+00
1.600000000000000089e+00 -1.582500029499458727e-01 -3.493066776744218505e+00
1.616666666666666696e+00 -1.070770812238027725e-01 -2.604979753837411760e+00
1.633333333333333304e+00 -7.141734448869881124e-02 -1.729513666970515118e+00
1.649999999999999911e+00 -4.942662565811893616e-02 -9.210758885896493942e-01
1.666666666666666741e+00 -4.071481486904383190e-02 -1.414238589094785059e-01
1.683333333333333348e+00 -4.471249702780298596e-02 4.964133618098769407e-01
1.699999999999999956e+00 -5.726192692937306233e-02 7.948861234907271811e-01
1.716666666666666563e+00 -7.120870114416055774e-02 8.116991222736138489e-01
1.733333333333333393e+00 -8.431856433849352350e-02 7.192522706023806167e-01
1.750000000000000000e+00 -9.518377683090657737e-02 4.435650386069632800e-01
1.766666666666666607e+00 -9.910406562539229858e-02 2.852370988949901043e-02
1.783333333333333215e+00 -9.613456716055654439e-02 -2.588068536200179293e-01
1.800000000000000044e+00 -9.047717050472503519e-02 -4.415006989239280144e-01
1.816666666666666652e+00 -8.141787719642561150e-02 -6.007719900960433179e-01
1.833333333333333259e+00 -7.045143750152359219e-02 -7.077746979908917657e-01
1.849999999999999867e+00 -5.782538726339588736e-02 -7.730059527694078669e-01
1.866666666666666696e+00 -4.468457240920999801e-02 -7.199075741760155855e-01
1.883333333333333304e+00 -3.382846812419536969e-02 -5.709729123710255427e-01
1.899999999999999911e+00 -2.565214199684247992e-02 -4.152063958594715554e-01
1.916666666666666741e+00 -1.998825492887965072e-02 -2.819175186016823487e-01
1.933333333333333348e+00 -1.625489137678640117e-02 -5.006289773213455918e-01
1.949999999999999956e+00 -3.300622351501461636e-03 -4.735319785981733642e-01
1.966666666666666563e+00 -4.704920901806241792e-04 -9.739716054260609546e-02
1.983333333333333393e+00 -5.405033341459196861e-05 -1.411476270541872635e-02
2.000000000000000000e+00 0.000000000000000000e+00 -3.243020004875518062e-03
