0.000000000000000000e+00 7.488054477971982124e+02 1.260449291590659868e+03
1.666666666666666644e-02 7.277979596040205479e+02 1.260449291590653047e+03
3.333333333333333287e-02 7.067904714108431108e+02 1.260449291590649636e+03
5.000000000000000278e-02 6.857829832176655600e+02 1.260449291590653047e+03
6.666666666666666574e-02 6.647754950244880092e+02 1.260449291590649636e+03
8.333333333333332871e-02 6.437680068313105721e+02 1.260449291590649636e+03
1.000000000000000056e-01 6.227605186381330213e+02 1.260449291590653047e+03
1.166666666666666685e-01 6.017530304449554706e+02 1.260449291590653047e+03
1.333333333333333315e-01 5.807455422517779198e+02 1.260449291590653047e+03
1.499999999999999944e-01 5.597380540586003690e+02 1.260449291590649636e+03
1.666666666666666574e-01 5.387305658654229319e+02 1.260449291590653047e+03
1.833333333333333204e-01 5.177230776722452674e+02 1.260449291590653047e+03
2.000000000000000111e-01 4.967155894790678303e+02 1.260449291590649636e+03
2.166666666666666741e-01 4.757081012858902795e+02 1.260449291590653047e+03
2.333333333333333370e-01 4.547006130927127288e+02 1.260449291590653047e+03
2.500000000000000000e-01 4.336931248995351780e+02 1.260449291590649636e+03
2.666666666666666630e-01 4.126856367063577409e+02 1.260449291590649636e+03
2.833333333333333259e-01 3.916781485131801901e+02 1.260449291590653047e+03
2.999999999999999889e-01 3.706706603200026393e+02 1.260449291590653047e+03
3.166666666666666519e-01 3.496631721268250885e+02 1.260449291590651455e+03
3.333333333333333148e-01 3.286556839336475946e+02 1.260449291590649636e+03
3.499999999999999778e-01 3.076481957404701006e+02 1.260449291590651455e+03
3.666666666666666408e-01 2.866407075472925499e+02 1.260449291590653047e+03
3.833333333333333037e-01 2.656332193541149991e+02 1.260449291590653957e+03
4.000000000000000222e-01 2.446257311609374199e+02 1.260449291590653047e+03
4.166666666666666852e-01 2.236182429677598975e+02 1.260449291590651455e+03
4.333333333333333481e-01 2.026107547745823751e+02 1.260449291590651455e+03
4.500000000000000111e-01 1.816032665814048528e+02 1.260449291590651455e+03
4.666666666666666741e-01 1.605957783882273304e+02 1.260449291590651455e+03
4.833333333333333370e-01 1.395882901950498081e+02 1.260449291590651455e+03
5.000000000000000000e-01 1.185808020018722857e+02 1.260449291590649182e+03
5.166666666666666075e-01 9.757331380869483439e+01 1.260449291590651455e+03
5.333333333333333259e-01 7.656582561551724098e+01 6.776106447781625093e+02
5.500000000000000444e-01 7.498629231608941836e+01 1.274977311270606606e+02
5.666666666666666519e-01 7.231590124461521896e+01 3.816630624533548257e+02
5.833333333333333703e-01 6.226419023431092370e+01 6.785513474456411132e+02
5.999999999999999778e-01 4.969752299642718185e+01 6.884668282255072427e+02
6.166666666666666963e-01 3.931529596012735084e+01 5.789123213353757365e+02
6.333333333333333037e-01 3.040044561858132610e+01 4.919554488970276793e+02
6.500000000000000222e-01 2.291678099689309533e+01 4.051315928533280157e+02
6.666666666666666297e-01 1.689605919013705915e+01 3.261031839653298334e+02
6.833333333333333481e-01 1.204667486471543469e+01 2.632201745122679313e+02
6.999999999999999556e-01 8.122053373061461912e+00 2.146996815090200244e+02
7.166666666666666741e-01 4.890018814414767157e+00 1.777942435416691183e+02
7.333333333333332815e-01 2.195578588339158088e+00 1.480169835612158806e+02
7.500000000000000000e-01 -4.388063762576127624e-02 1.186131461882751239e+02
7.666666666666666075e-01 -1.758192951270012738e+00 9.208041652516480724e+01
7.833333333333333259e-01 -3.113227855131254884e+00 7.085009478992687093e+01
8.000000000000000444e-01 -4.119862777600908466e+00 5.162811228386222240e+01
8.166666666666666519e-01 -4.834164931259995690e+00 3.453881003827671492e+01
8.333333333333333703e-01 -5.271156445543465630e+00 2.365090565137689893e+01
8.499999999999999778e-01 -5.622528452972558988e+00 1.569709506128978305e+01
8.666666666666666963e-01 -5.794392947586458398e+00 6.853749455169468874e+00
8.833333333333333037e-01 -5.850986768144874617e+00 2.736901602820207557e-01
9.000000000000000222e-01 -5.803515952929192423e+00 -3.832003691495646791e+00
9.166666666666666297e-01 -5.723253311761686390e+00 -6.463231750968230216e+00
9.333333333333333481e-01 -5.588074894563584749e+00 -8.252602917138318617e+00
9.499999999999999556e-01 -5.448166547857075770e+00 -9.165382817474636568e+00
9.666666666666666741e-01 -5.282562133981096864e+00 -1.160301631817592494e+01
9.833333333333332815e-01 -5.061399337251211605e+00 -1.391123193610313002e+01
1.000000000000000000e+00 -4.818854402777659196e+00 -1.453249896918314299e+01
1.016666666666666607e+00 -4.576982704945106839e+00 -1.426366069600872422e+01
1.033333333333333215e+00 -4.343399046244035056e+00 -1.493154945095785280e+01
1.050000000000000044e+00 -4.079264389913178412e+00 -1.634579587881688312e+01
1.066666666666666652e+00 -3.798539183616805648e+00 -1.682096847500524461e+01
1.083333333333333259e+00 -3.518565440746336925e+00 -1.723665920004041396e+01
1.100000000000000089e+00 -3.223983876948791849e+00 -1.763708197527212818e+01
1.116666666666666696e+00 -2.930662708237266045e+00 -1.771518970715332131e+01
1.133333333333333304e+00 -2.633477553377014502e+00 -1.693772284334902523e+01
1.149999999999999911e+00 -2.366071946792298597e+00 -1.638745207555483319e+01
1.166666666666666741e+00 -2.087229150858520121e+00 -1.636218161399368043e+01
1.183333333333333348e+00 -1.820665892992509249e+00 -1.560793765924957199e+01
1.199999999999999956e+00 -1.566964562216867751e+00 -1.423309108427696579e+01
1.216666666666666563e+00 -1.346229523516610405e+00 -1.296304723369837042e+01
1.233333333333333393e+00 -1.134862987760255404e+00 -1.220722479034885311e+01
1.250000000000000000e+00 -9.393220305049819752e-01 -1.061551478455355557e+01
1.266666666666666607e+00 -7.810124949418035811e-01 -8.703094176537183202e+00
1.283333333333333215e+00 -6.492188912870758832e-01 -7.486092871578899022e+00
1.300000000000000044e+00 -5.314760658891736211e-01 -6.445676179026903263e+00
1.316666666666666652e+00 -4.343630186528457671e-01 -5.732800325131435670e+00
1.333333333333333259e+00 -3.403827217181257803e-01 -4.595642089049256640e+00
1.350000000000000089e+00 -2.811749490178705457e-01 -2.415877034482940111e+00
1.366666666666666696e+00 -2.598534872353611136e-01 -1.142186987901312012e+00
1.383333333333333304e+00 -2.431020494211601490e-01 -1.304382796945262379e+00
1.399999999999999911e+00 -2.163740606705190361e-01 -7.046118587481148277e-01
1.416666666666666741e+00 -2.196149874628896548e-01 1.011778480217478737e+00
1.433333333333333348e+00 -2.501000100111016589e-01 1.737464914386282588e+00
1.449999999999999956e+00 -2.775304846090990707e-01 1.279146948625711877e+00
1.466666666666666563e+00 -2.927382416319587177e-01 1.137781510789712236e+00
1.483333333333333393e+00 -3.154565349687561415e-01 1.534695260178901677e+00
1.500000000000000000e+00 -3.438947503045887699e-01 1.609219156227241765e+00
1.516666666666666607e+00 -3.690971735096642004e-01 1.550076878307652395e+00
1.533333333333333215e+00 -3.955639795815105164e-01 1.300487172483720810e+00
1.550000000000000044e+00 -4.124467459257882274e-01 6.853890574796306367e-01
1.566666666666666652e+00 -4.184102814974982043e-01 1.414623337379516954e-01
1.583333333333333259e+00 -4.171621570503866172e-01 -1.959492721601113763e-01
1.600000000000000089e+00 -4.118786390921611584e-01 -6.506995125075165642e-01
1.616666666666666696e+00 -3.954721733001360651e-01 -9.950457686608665808e-01
1.633333333333333304e+00 -3.787104468034656057e-01 -1.021588744024546358e+00
1.649999999999999911e+00 -3.614192151659845198e-01 -1.224215183581943256e+00
1.666666666666666741e+00 -3.379032740174008342e-01 -1.591863720246099456e+00
1.683333333333333348e+00 -3.083570911577812046e-01 -1.629910119679157665e+00
1.699999999999999956e+00 -2.835729366947622454e-01 -1.434718095671762672e+00
1.716666666666666563e+00 -2.605331546353891192e-01 -1.431766431317145871e+00
1.733333333333333393e+00 -2.358473889841907201e-01 -1.234841626943263382e+00
1.750000000000000000e+00 -2.193717670706136769e-01 -7.900768335992883751e-01
1.766666666666666607e+00 -2.095114945308811094e-01 -6.237935180658313872e-01
1.783333333333333215e+00 -1.985786498017526325e-01 -7.672068785386337852e-01
1.800000000000000044e+00 -1.839379319129266499e-01 -7.536419555250676305e-01
1.816666666666666652e+00 -1.734572512842503800e-01 -7.623769377273729164e-01
1.833333333333333259e+00 -1.585253673220142212e-01 -1.019184041109423289e+00
1.849999999999999867e+00 -1.394844499139362703e-01 -1.047348411566347393e+00
1.866666666666666696e+00 -1.236137536031359785e-01 -8.800309113608144607e-01
1.883333333333333304e+00 -1.101500862019091226e-01 -9.117316996773788818e-01
1.899999999999999911e+00 -9.322269694722334910e-02 -1.070334480745269712e+00
1.916666666666666741e+00 -7.447227017706679886e-02 -1.092184050823379549e+00
1.933333333333333348e+00 -5.681656191977736692e-02 -1.842456015991025486e+00
1.949999999999999956e+00 -1.305706964403261817e-02 -1.663518357025949079e+00
1.966666666666666563e+00 -1.365950018912396062e-03 -3.883543048884215421e-01
1.983333333333333393e+00 -1.119261477519017359e-04 -4.097850056737187968e-02
2.000000000000000000e+00 0.000000000000000000e+00 -6.715568865114104370e-03
