0.000000000000000000e+00 4.069647764763636815e+02 6.659316466443908666e+02
1.666666666666666644e-02 3.958659156989571670e+02 6.659316466443874560e+02
3.333333333333333287e-02 3.847670549215507663e+02 6.659316466443857507e+02
5.000000000000000278e-02 3.736681941441443087e+02 6.659316466443857507e+02
6.666666666666666574e-02 3.625693333667379079e+02 6.659316466443857507e+02
8.333333333333332871e-02 3.514704725893314503e+02 6.659316466443874560e+02
1.000000000000000056e-01 3.403716118119249927e+02 6.659316466443874560e+02
1.166666666666666685e-01 3.292727510345185351e+02 6.659316466443857507e+02
1.333333333333333315e-01 3.181738902571121343e+02 6.659316466443857507e+02
1.499999999999999944e-01 3.070750294797056767e+02 6.659316466443874560e+02
1.666666666666666574e-01 2.959761687022992191e+02 6.659316466443874560e+02
1.833333333333333204e-01 2.848773079248927615e+02 6.659316466443874560e+02
2.000000000000000111e-01 2.737784471474863039e+02 6.659316466443857507e+02
2.166666666666666741e-01 2.626795863700799032e+02 6.659316466443857507e+02
2.333333333333333370e-01 2.515807255926734456e+02 6.659316466443874560e+02
2.500000000000000000e-01 2.404818648152669880e+02 6.659316466443874560e+02
2.666666666666666630e-01 2.293830040378605304e+02 6.659316466443857507e+02
2.833333333333333259e-01 2.182841432604541296e+02 6.659316466443857507e+02
2.999999999999999889e-01 2.071852824830476720e+02 6.659316466443874560e+02
3.166666666666666519e-01 1.960864217056412144e+02 6.659316466443874560e+02
3.333333333333333148e-01 1.849875609282347568e+02 6.659316466443857507e+02
3.499999999999999778e-01 1.738887001508283561e+02 6.659316466443857507e+02
3.666666666666666408e-01 1.627898393734218985e+02 6.659316466443874560e+02
3.833333333333333037e-01 1.516909785960154409e+02 6.659316466443874560e+02
4.000000000000000222e-01 1.405921178186089833e+02 6.659316466443874560e+02
4.166666666666666852e-01 1.294932570412025257e+02 6.659316466443866602e+02
4.333333333333333481e-01 1.183943962637960965e+02 6.659316466443862055e+02
4.500000000000000111e-01 1.072955354863896531e+02 6.659316466443866602e+02
4.666666666666666741e-01 9.619667470898320971e+01 6.659316466443866602e+02
4.833333333333333370e-01 8.509781393157676632e+01 6.659316466443866602e+02
5.000000000000000000e-01 7.399895315417032293e+01 6.659316466443852960e+02
5.166666666666666075e-01 6.290009237676392218e+01 6.659316466443864329e+02
5.333333333333333259e-01 5.180123159935744326e+01 6.659316466443887066e+02
5.500000000000000444e-01 4.070237082195096434e+01 6.659316466443865465e+02
5.666666666666666519e-01 2.960351004454456003e+01 5.357051207627913527e+02
5.833333333333333703e-01 2.284553346319125211e+01 3.529022973849597520e+02
5.999999999999999778e-01 1.784010013171256759e+01 2.690335079187215115e+02
6.166666666666666963e-01 1.387774986590053494e+01 2.138084822494058130e+02
6.333333333333333037e-01 1.071315072339904084e+01 1.719012658814847612e+02
6.500000000000000222e-01 8.147707669851042667e+00 1.397975457355840092e+02
6.666666666666666297e-01 6.053232532212907024e+00 1.139149566731121297e+02
6.833333333333333481e-01 4.350542447413971558e+00 9.183081508257910741e+01
6.999999999999999556e-01 2.992205362793603385e+00 7.326254319327968290e+01
7.166666666666666741e-01 1.908457674304649077e+00 5.837157497768237135e+01
7.333333333333332815e-01 1.046486196870857643e+00 4.622108702658007928e+01
7.500000000000000000e-01 3.677547734186463746e-01 3.576097844377756729e+01
7.666666666666666075e-01 -1.455464179217277332e-01 2.679945876911508051e+01
7.833333333333333259e-01 -5.255605188851896203e-01 1.960378167686557660e+01
8.000000000000000444e-01 -7.990058071505802273e-01 1.383871379996824480e+01
8.166666666666666519e-01 -9.868509788841310915e-01 9.008347430988095539e+00
8.333333333333333703e-01 -1.099284054850183434e+00 4.925951011901066323e+00
8.499999999999999778e-01 -1.151049345947499969e+00 1.658703740634157597e+00
8.666666666666666963e-01 -1.154574179537988687e+00 -9.426924955158533237e-01
8.833333333333333037e-01 -1.119626262763638191e+00 -3.206876587522955457e+00
9.000000000000000222e-01 -1.047678293287223505e+00 -5.170101886213572584e+00
9.166666666666666297e-01 -9.472895332231857646e-01 -6.574960710059068347e+00
9.333333333333333481e-01 -8.285129362852545754e-01 -7.259100775404427885e+00
9.499999999999999556e-01 -7.053195073763715017e-01 -7.318393739479994053e+00
9.666666666666666741e-01 -5.845664783025881217e-01 -7.143236267867501432e+00
9.833333333333332815e-01 -4.672116317807881170e-01 -6.801794690407871435e+00
1.000000000000000000e+00 -3.578399886223257442e-01 -6.097955074324919345e+00
1.016666666666666607e+00 -2.639464626366241351e-01 -4.969866527874551743e+00
1.033333333333333215e+00 -1.921777710265073491e-01 -3.565553086667669458e+00
1.050000000000000044e+00 -1.450946930810351476e-01 -1.998540983578309227e+00
1.066666666666666652e+00 -1.255597382405637119e-01 -3.234770096189595878e-01
1.083333333333333259e+00 -1.343121260937364947e-01 1.175977654066747480e+00
1.100000000000000089e+00 -1.647589933761219594e-01 2.230641059772289658e+00
1.116666666666666696e+00 -2.086668280861461444e-01 2.959710467637497899e+00
1.133333333333333304e+00 -2.634160089640385505e-01 3.555331530014325558e+00
1.149999999999999911e+00 -3.271778790866236575e-01 3.997663413484601858e+00
1.166666666666666741e+00 -3.966714560801919420e-01 4.156898324979322545e+00
1.183333333333333348e+00 -4.657411565859344016e-01 4.167640105051440891e+00
1.199999999999999956e+00 -5.355927929152399791e-01 4.242368878173732760e+00
1.216666666666666563e+00 -6.071534525250588121e-01 4.239469345040981274e+00
1.233333333333333393e+00 -6.769084377499393623e-01 3.929318777737650592e+00
1.250000000000000000e+00 -7.381307451163138245e-01 3.258402405177887040e+00
1.266666666666666607e+00 -7.855218512558689303e-01 2.359376237478229221e+00
1.283333333333333215e+00 -8.167766196989214578e-01 1.332523147752794346e+00
1.300000000000000044e+00 -8.299392895142954085e-01 2.290868814076663096e-01
1.316666666666666652e+00 -8.244128490791770014e-01 -7.719068149892704955e-01
1.333333333333333259e+00 -8.042090623479863920e-01 -1.469885518548106340e+00
1.350000000000000089e+00 -7.754166651275734568e-01 -1.867728372340515808e+00
1.366666666666666696e+00 -7.419514499366358651e-01 -2.166182424643032789e+00
1.383333333333333304e+00 -7.032105843061390305e-01 -2.509362730698564636e+00
1.399999999999999911e+00 -6.583060255800170513e-01 -2.865038507115170940e+00
1.416666666666666741e+00 -6.077093007356333398e-01 -3.206289058131304159e+00
1.433333333333333348e+00 -5.514297236423069126e-01 -3.586310768410107208e+00
1.449999999999999956e+00 -4.881656084552964403e-01 -3.970550285418971370e+00
1.466666666666666563e+00 -4.190780474616745410e-01 -4.192305026749594710e+00
1.483333333333333393e+00 -3.484221075636432796e-01 -4.133139414871896733e+00
1.500000000000000000e+00 -2.813067336326113277e-01 -3.867094983793067264e+00
1.516666666666666607e+00 -2.195189414372077097e-01 -3.552320301589491525e+00
1.533333333333333215e+00 -1.628960569129616065e-01 -3.277195450951510214e+00
1.550000000000000044e+00 -1.102790930721573720e-01 -3.015482824289183128e+00
1.566666666666666652e+00 -6.237996276998883372e-02 -2.735314914818398613e+00
1.583333333333333259e+00 -1.910192924487741362e-02 -2.449862587657130497e+00
1.600000000000000089e+00 1.928212348524886016e-02 -2.138570262017938095e+00
1.616666666666666696e+00 5.218374615572052982e-02 -1.731711067495178558e+00
1.633333333333333304e+00 7.700582573508814310e-02 -1.255356067607464432e+00
1.649999999999999911e+00 9.402894840930267617e-02 -8.243050318351942130e-01
1.666666666666666741e+00 1.044826601295946178e-01 -4.959127752167774572e-01
1.683333333333333348e+00 1.105593742498619247e-01 -2.544734133949448918e-01
1.699999999999999956e+00 1.129651072427594466e-01 -9.364856840741037081e-02
1.716666666666666563e+00 1.136809931967756038e-01 -1.234011648810623418e-02
1.733333333333333393e+00 1.133764444590296544e-01 3.377018730148007020e-02
1.750000000000000000e+00 1.125553202867262681e-01 9.822687767249732582e-02
1.766666666666666607e+00 1.101022152032797435e-01 1.942254090592773763e-01
1.783333333333333215e+00 1.060811399847503556e-01 3.097262474959868173e-01
1.800000000000000044e+00 9.977800695341351722e-02 4.311674969266060531e-01
1.816666666666666652e+00 9.170889008719682045e-02 5.169158557471668081e-01
1.833333333333333259e+00 8.254747842850795880e-02 5.419724321167473935e-01
1.849999999999999867e+00 7.364314234997190733e-02 5.266338528091077942e-01
1.866666666666666696e+00 6.499301666820436751e-02 5.066420878949055018e-01
1.883333333333333304e+00 5.675507275347505681e-02 4.956473573684374023e-01
1.899999999999999911e+00 4.847143808925645503e-02 5.003616060374574959e-01
1.916666666666666741e+00 4.007635255222647547e-02 5.178173436486663839e-01
1.933333333333333348e+00 3.121085996763424408e-02 9.949498290465315087e-01
1.949999999999999956e+00 6.911358250675422518e-03 9.113534457695402491e-01
1.966666666666666563e+00 8.324117753162362573e-04 2.051561189602668367e-01
1.983333333333333393e+00 7.282095199986088493e-05 2.497235325948708728e-02
2.000000000000000000e+00 0.000000000000000000e+00 4.369257119991653421e-03
