0.00000000 1796.19198598 3753.67769225
0.01666667 1733.63069111 3753.67769225
0.03333333 1671.06939624 3753.67769225
0.05000000 1608.50810137 3753.67769225
0.06666667 1545.94680649 3753.67769225
0.08333333 1483.38551162 3753.67769225
0.10000000 1420.82421675 3753.67769225
0.11666667 1358.26292188 3753.67769225
0.13333333 1295.70162701 3753.67769225
0.15000000 1233.14033214 3753.67769225
0.16666667 1170.57903727 3753.67769225
0.18333333 1108.01774240 3753.67769225
0.20000000 1045.45644753 3753.67769225
0.21666667 982.89515266 3753.67769225
0.23333333 920.33385779 3753.67769225
0.25000000 857.77256292 3753.67769225
0.26666667 795.21126805 3753.67769225
0.28333333 732.64997318 3753.67769225
0.30000000 670.08867830 3753.67769225
0.31666667 607.52738343 3753.67769225
0.33333333 544.96608856 3753.67769225
0.35000000 482.40479369 3753.67769225
0.36666667 419.84349882 3753.67769225
0.38333333 357.28220395 3753.67769225
0.40000000 294.72090908 3753.67769225
0.41666667 232.15961421 3753.67769225
0.43333333 169.59831934 3753.67769225
0.45000000 107.03702447 3753.67769225
0.46666667 44.47572960 2437.04079506
0.48333333 25.80233130 890.49317040
0.50000000 14.79262392 563.33488987
0.51666667 7.02450164 409.45761783
0.53333333 1.14403666 313.93343415
0.55000000 -3.43994617 242.16580088
0.56666667 -6.92815671 182.46458345
0.58333333 -9.52209895 133.11428766
0.60000000 -11.36529963 92.23265760
0.61666667 -12.59652087 56.97517019
0.63333333 -13.26447197 25.35672578
0.65000000 -13.44174506 -2.87153934
0.66666667 -13.16875399 -28.23614959
0.68333333 -12.50054008 -49.89597271
0.70000000 -11.50555490 -65.24177160
0.71666667 -10.32581436 -72.23742475
0.73333333 -9.09764074 -70.60772966
0.75000000 -7.97222337 -63.01669820
0.76666667 -6.99708413 -54.90863559
0.78333333 -6.14193551 -49.78263677
0.80000000 -5.33766291 -45.90267793
0.81666667 -4.61184625 -39.02951193
0.83333333 -4.03667918 -31.30590142
0.85000000 -3.56831620 -26.57410969
0.86666667 -3.15087552 -26.44808605
0.88333333 -2.68671333 -29.89545422
0.90000000 -2.15436038 -34.54343958
0.91666667 -1.53526535 -37.77727071
0.93333333 -0.89511802 -37.65949099
0.95000000 -0.27994898 -33.71343289
0.96666667 0.22866307 -27.62302200
0.98333333 0.64081842 -22.73920379
1.00000000 0.98663653 -21.20597565
1.01666667 1.34768427 -19.44960912
1.03333333 1.63495684 -15.53397437
1.05000000 1.86548342 -13.01001464
1.06666667 2.06862399 -11.94814127
1.08333333 2.26375479 -10.09087842
1.10000000 2.40498660 -5.90971221
1.11666667 2.46074520 -1.30413942
1.13333333 2.44845792 2.81711848
1.15000000 2.36684125 6.46238236
1.16666667 2.23304517 9.92589126
1.18333333 2.03597821 14.71270449
1.20000000 1.74262169 20.18925901
1.21666667 1.36300291 24.16701090
1.23333333 0.93705466 25.92236080
1.25000000 0.49892422 26.17825970
1.26666667 0.06444600 25.69765648
1.28333333 -0.35766433 23.85071097
1.30000000 -0.73057770 20.80489089
1.31666667 -1.05116070 17.67333274
1.33333333 -1.31968879 14.41968972
1.35000000 -1.53181702 10.73927921
1.36666667 -1.67766476 6.80154447
1.38333333 -1.75853517 3.69015041
1.40000000 -1.80066977 1.70661429
1.41666667 -1.81542231 0.47577347
1.43333333 -1.81652889 -0.07244977
1.45000000 -1.81300732 -0.14865001
1.46666667 -1.81157389 -0.52796188
1.48333333 -1.79540859 -1.88535517
1.50000000 -1.74872872 -4.00088865
1.51666667 -1.66204564 -6.12718669
1.53333333 -1.54448916 -7.75665897
1.55000000 -1.40349034 -8.43390502
1.56666667 -1.26335899 -7.82774411
1.58333333 -1.14256553 -6.11548187
1.60000000 -1.05950960 -3.98626077
1.61666667 -1.00969017 -2.35851665
1.63333333 -0.98089238 -2.21747562
1.65000000 -0.93577432 -3.49350497
1.66666667 -0.86444221 -4.81525926
1.68333333 -0.77526568 -5.24265965
1.70000000 -0.68968689 -4.76265217
1.71666667 -0.61651061 -3.85607092
1.73333333 -0.56115119 -2.81210172
1.75000000 -0.52277388 -2.12044809
1.76666667 -0.49046959 -2.16164588
1.78333333 -0.45071902 -2.77620404
1.80000000 -0.39792945 -3.44969795
1.81666667 -0.33572909 -3.41082789
1.83333333 -0.28423519 -2.40146220
1.85000000 -0.25568035 -1.12294872
1.86666667 -0.24680357 -0.37536263
1.88333333 -0.24316826 -0.32338446
1.90000000 -0.23602408 -0.74494340
1.91666667 -0.21833681 -1.50640948
1.93333333 -0.18581044 -5.29903897
1.95000000 -0.04170218 -5.40896685
1.96666667 -0.00551154 -1.23544710
1.98333333 -0.00052061 -0.16534621
2.00000000 0.00000000 -0.03123665
