0.000000000000000000e+00 8.771943471106682409e+03 8.182503517620141793e+04
1.666666666666666644e-02 7.408192884836658777e+03 7.550320225476328051e+04
3.333333333333333287e-02 6.255170062614572998e+03 6.383333257917834999e+04
5.000000000000000278e-02 5.280415132197380444e+03 5.396129753337959119e+04
6.666666666666666574e-02 4.456460144835253232e+03 4.561059321640609414e+04
8.333333333333332871e-02 3.760062024983843912e+03 3.854720438124718930e+04
1.000000000000000056e-01 3.171553332127013618e+03 3.257307843160216362e+04
1.166666666666666685e-01 2.674292743930438519e+03 2.752060153672953675e+04
1.333333333333333315e-01 2.254199947569362394e+03 2.324792300036726010e+04
1.499999999999999944e-01 1.899361977251529879e+03 1.963499764229444190e+04
1.666666666666666574e-01 1.599700026159547633e+03 1.658023594705566939e+04
1.833333333333333204e-01 1.346687445683007581e+03 1.399766866045792267e+04
2.000000000000000111e-01 1.133111070810950196e+03 1.181454684196225753e+04
2.166666666666666741e-01 9.528692176175990198e+02 9.969310508970374940e+03
2.333333333333333370e-01 8.008007205119376977e+02 8.409869274933034831e+03
2.500000000000000000e-01 6.725402417864978588e+02 7.092147073046658988e+03
2.666666666666666630e-01 5.643958180770490571e+02 5.978850413010709417e+03
2.833333333333333259e-01 4.732452280194742116e+02 5.038425844716683969e+03
2.999999999999999889e-01 3.964482899198262658e+02 4.244177573205343833e+03
3.166666666666666519e-01 3.317726422459627429e+02 3.573520630518967209e+03
3.333333333333333148e-01 2.773309355691940254e+02 3.007348786419080170e+03
3.499999999999999778e-01 2.315276826986600724e+02 2.529499576492881715e+03
3.666666666666666408e-01 1.930142830194313035e+02 2.126301531947279273e+03
3.833333333333333037e-01 1.606509649670840929e+02 1.786190985734715468e+03
4.000000000000000222e-01 1.334745834949407879e+02 1.499387768348778536e+03
4.166666666666666852e-01 1.106713726887914788e+02 1.257620747659301742e+03
4.333333333333333481e-01 9.155389190629739460e+01 1.323196882645976757e+03
4.500000000000000111e-01 6.656480993392558787e+01 1.898870494267248432e+03
4.666666666666666741e-01 2.825820876405578375e+01 1.379773658180396751e+03
4.833333333333333370e-01 2.057235466124569712e+01 4.032148369980404823e+02
5.000000000000000000e-01 1.481771419745443374e+01 1.692580731866641202e+02
5.166666666666666075e-01 1.493041888835689335e+01 1.301680650513373223e+02
5.333333333333333259e-01 1.047877869574318943e+01 1.165403673474324506e+02
5.500000000000000444e-01 1.104573997677581154e+01 -5.010590943822297305e+00
5.666666666666666519e-01 1.064579839387059934e+01 3.320634299895750985e+01
5.833333333333333703e-01 9.938861876810561213e+00 4.372288204121611699e+01
5.999999999999999778e-01 9.188368992496728893e+00 4.373466433276439602e+01
6.166666666666666963e-01 8.481039732385081464e+00 4.151755374001351129e+01
6.333333333333333037e-01 7.804450534496278458e+00 4.044541656861480305e+01
6.500000000000000222e-01 7.132859180097921303e+00 4.041512636615779996e+01
6.666666666666666297e-01 6.457279655624351911e+00 4.014913858977174499e+01
6.833333333333333481e-01 5.794554560438863078e+00 3.878179398047339532e+01
6.999999999999999556e-01 5.164553189608572126e+00 3.648383144738651396e+01
7.166666666666666741e-01 4.578426845525979338e+00 3.381783418212642545e+01
7.333333333333332815e-01 4.037292050204357885e+00 3.122958418267570480e+01
7.500000000000000000e-01 3.537440706103455845e+00 2.890114309988540242e+01
7.666666666666666075e-01 3.073920613541511138e+00 2.685259654578940669e+01
7.833333333333333259e-01 2.642354154577142289e+00 2.507831866885749861e+01
8.000000000000000444e-01 2.237976657912927880e+00 2.356089246933920833e+01
8.166666666666666519e-01 1.856991072265835374e+00 2.206209340524376117e+01
8.333333333333333703e-01 1.502573544404802508e+00 2.030316099835773613e+01
8.499999999999999778e-01 1.180219038987244229e+00 1.828705380741278574e+01
8.666666666666666963e-01 8.930050841577096277e-01 1.620799205773937501e+01
8.833333333333333037e-01 6.399526370625984173e-01 1.416681487062111877e+01
9.000000000000000222e-01 4.207779218036723501e-01 1.223943014579957378e+01
9.166666666666666297e-01 2.319716322026126043e-01 1.045489382281169632e+01
9.333333333333333481e-01 7.228146104328245225e-02 8.791884483785295856e+00
9.499999999999999556e-01 -6.109118392356393396e-02 7.287025131912856502e+00
9.666666666666666741e-01 -1.706193766871461071e-01 6.069584693118680541e+00
9.833333333333332815e-01 -2.634106736941866367e-01 5.217417969872467864e+00
1.000000000000000000e+00 -3.445333090162283618e-01 4.709886768898357445e+00
1.016666666666666607e+00 -4.204068993241318886e-01 4.499782489702500499e+00
1.033333333333333215e+00 -4.945260586729783858e-01 4.434246735207666212e+00
1.050000000000000044e+00 -5.682151238310541030e-01 4.256789046509065422e+00
1.066666666666666652e+00 -6.364190268899472258e-01 3.897098391084507174e+00
1.083333333333333259e+00 -6.981184035338710014e-01 3.524720638333724843e+00
1.100000000000000089e+00 -7.539097148344047206e-01 3.265217301712494358e+00
1.116666666666666696e+00 -8.069589802576208060e-01 3.155780167169000006e+00
1.133333333333333304e+00 -8.591023870733713874e-01 3.198337262904131784e+00
1.149999999999999911e+00 -9.135702223544251988e-01 3.394288661493830794e+00
1.166666666666666741e+00 -9.722453424564990732e-01 3.650524667639242438e+00
1.183333333333333348e+00 -1.035254377942399939e+00 3.862730125699231021e+00
1.199999999999999956e+00 -1.101003013313140100e+00 3.955505001447956470e+00
1.216666666666666563e+00 -1.167104544657331822e+00 3.924879499788964665e+00
1.233333333333333393e+00 -1.231832329972772255e+00 3.758080171644815337e+00
1.250000000000000000e+00 -1.292373883712159000e+00 3.407665618876034586e+00
1.266666666666666607e+00 -1.345421183935306741e+00 2.844657696492041143e+00
1.283333333333333215e+00 -1.387195806928560371e+00 2.151613355881261125e+00
1.300000000000000044e+00 -1.417141629131348779e+00 1.454371034113766115e+00
1.316666666666666652e+00 -1.435674841399019241e+00 8.102849903291997613e-01
1.333333333333333259e+00 -1.444151128808988771e+00 1.781561254387642457e-01
1.350000000000000089e+00 -1.441613378913644716e+00 -4.804886285612997021e-01
1.366666666666666696e+00 -1.428134841190278781e+00 -1.162045275362477703e+00
1.383333333333333304e+00 -1.402878536401562126e+00 -1.839568633103147999e+00
1.399999999999999911e+00 -1.366815886753507181e+00 -2.475552417764745883e+00
1.416666666666666741e+00 -1.320360122476070597e+00 -3.044272898418214357e+00
1.433333333333333348e+00 -1.265340123472900036e+00 -3.510303064981290522e+00
1.449999999999999956e+00 -1.203350020310027579e+00 -3.855551994763599666e+00
1.466666666666666563e+00 -1.136821723647446714e+00 -4.098498439332489696e+00
1.483333333333333393e+00 -1.066733405665611256e+00 -4.264532738757112362e+00
1.500000000000000000e+00 -9.946706323555429829e-01 -4.336893742102124527e+00
1.516666666666666607e+00 -9.221702809288737646e-01 -4.293818101937008080e+00
1.533333333333333215e+00 -8.515433622909760469e-01 -4.153092823445219572e+00
1.550000000000000044e+00 -7.837338534806997936e-01 -3.979222480553898045e+00
1.566666666666666652e+00 -7.189026129391794528e-01 -3.800000949825969254e+00
1.583333333333333259e+00 -6.570671551531674925e-01 -3.600273768976638422e+00
1.600000000000000089e+00 -5.988934873066248388e-01 -3.362289810148978653e+00
1.616666666666666696e+00 -5.449908281482015449e-01 -3.094375656759353443e+00
1.633333333333333304e+00 -4.957476320813130610e-01 -2.810052713204122199e+00
1.649999999999999911e+00 -4.513224043747308123e-01 -2.516062446001149588e+00
1.666666666666666741e+00 -4.118788838812747488e-01 -2.218596673744633208e+00
1.683333333333333348e+00 -3.773691819165763683e-01 -1.934793443181522354e+00
1.699999999999999956e+00 -3.473857691085573407e-01 -1.685585237746147325e+00
1.716666666666666563e+00 -3.211830073250381279e-01 -1.486721261456066534e+00
1.733333333333333393e+00 -2.978283937266884562e-01 -1.350954447627297217e+00
1.750000000000000000e+00 -2.761511924041282207e-01 -1.277277506458082135e+00
1.766666666666666607e+00 -2.552524768447523851e-01 -1.239105303840249528e+00
1.783333333333333215e+00 -2.348476822761199068e-01 -1.203082292865848224e+00
1.800000000000000044e+00 -2.151497337492241091e-01 -1.155584512107023620e+00
1.816666666666666652e+00 -1.963281985392191231e-01 -1.097480790855626331e+00
1.833333333333333259e+00 -1.785670407207032295e-01 -1.042483683559225716e+00
1.849999999999999867e+00 -1.615787424205782641e-01 -1.002580132743312147e+00
1.866666666666666696e+00 -1.451477029625928283e-01 -9.752997306277741973e-01
1.883333333333333304e+00 -1.290687513996524594e-01 -9.566328428925962024e-01
1.899999999999999911e+00 -1.132599415328396225e-01 -9.550674801518436174e-01
1.916666666666666741e+00 -9.723316872792434062e-02 -9.862631729589104168e-01
1.933333333333333348e+00 -8.038450243420927621e-02 -2.544896189835497147e+00
1.949999999999999956e+00 -1.240329573340777716e-02 -2.374170894358151873e+00
1.966666666666666563e+00 -1.245472622270885283e-03 -3.685552808494480526e-01
1.983333333333333393e+00 -1.181197050928414115e-04 -3.736417866812655891e-02
2.000000000000000000e+00 0.000000000000000000e+00 -7.087182305570484744e-03
