0.000000000000000000e+00 nan nan
1.666666666666666644e-02 4.002982255931967188e+13 nan
3.333333333333333287e-02 1.563651474883815308e+11 1.200711649876918500e+15
5.000000000000000278e-02 6.100896755726761818e+09 4.672632909334498047e+12
6.666666666666666574e-02 6.107171772315847874e+08 1.799537138979920044e+11
8.333333333333332871e-02 1.024396257936956584e+08 1.760706532105298615e+10
1.000000000000000056e-01 2.381499986315196380e+07 2.865160839343656540e+09
1.166666666666666685e-01 6.934264482240437530e+06 6.430394113799035549e+08
1.333333333333333315e-01 2.380352817155177705e+06 1.802355501815369725e+08
1.499999999999999944e-01 9.264128095225382131e+05 5.947058801750681549e+07
1.666666666666666574e-01 3.979998832382840337e+05 2.223721640026278421e+07
1.833333333333333204e-01 1.851722628471121716e+05 9.180350787856390700e+06
2.000000000000000111e-01 9.198819030973766348e+04 4.107138250411317684e+06
2.166666666666666741e-01 4.826765450006823812e+04 1.963862344231077237e+06
2.333333333333333370e-01 2.652611216870176213e+04 9.930774916770551354e+05
2.500000000000000000e-01 1.516507144416640404e+04 5.266973580341709312e+05
2.666666666666666630e-01 8.969533567562732060e+03 2.910528233430516557e+05
2.833333333333333259e-01 5.463310666064681755e+03 1.666773130819499784e+05
2.999999999999999889e-01 3.413623131497733084e+03 9.847833595386367233e+04
3.166666666666666519e-01 2.180699467602559253e+03 5.980545001013605361e+04
3.333333333333333148e-01 1.420108131159864570e+03 3.721304014233298221e+04
3.499999999999999778e-01 9.402647961914599364e+02 2.365990438209068088e+04
3.666666666666666408e-01 6.314446517568418358e+02 1.533396513875246274e+04
3.833333333333333037e-01 4.291326248997111747e+02 1.010880567177334706e+04
4.000000000000000222e-01 2.944844626977302937e+02 6.765881051918419871e+03
4.166666666666666852e-01 2.036032565024305256e+02 5.489202178543388982e+03
4.333333333333333481e-01 1.115110567462839981e+02 4.366403879065605906e+03
4.500000000000000111e-01 5.805646053357699543e+01 2.079964829211960478e+03
4.666666666666666741e-01 4.217889577255197509e+01 6.990405696348328775e+02
4.833333333333333370e-01 3.475510821241589809e+01 4.514430978491765813e+02
5.000000000000000000e-01 2.713079251091275523e+01 4.046627085797597374e+02
5.166666666666666075e-01 2.126635125975723994e+01 3.159081713131633364e+02
5.333333333333333259e-01 1.660052013380731140e+01 2.643232105741366240e+02
5.500000000000000444e-01 1.245557757395268617e+01 2.236422527824909992e+02
5.666666666666666519e-01 9.145778374390944876e+00 1.817905819096635014e+02
5.833333333333333703e-01 6.395891510297236238e+00 1.511461498661045937e+02
5.999999999999999778e-01 4.107573378854125323e+00 1.247924484796740927e+02
6.166666666666666963e-01 2.236143227641432585e+00 1.071412482441577794e+02
6.333333333333333037e-01 5.361984373821995220e-01 8.487283127297477847e+01
6.500000000000000222e-01 -5.929511481243935345e-01 5.980395762725921571e+01
6.666666666666666297e-01 -1.457266816859774217e+00 4.299169495921774597e+01
6.833333333333333481e-01 -2.026007646764985015e+00 3.282829096584273287e+01
6.999999999999999556e-01 -2.551543182387865372e+00 2.672393250552163479e+01
7.166666666666666741e-01 -2.916805396949039508e+00 1.984417390549934623e+01
7.333333333333332815e-01 -3.213015645904510276e+00 1.278314911237353968e+01
7.500000000000000000e-01 -3.342910367361490831e+00 8.907613260542905920e+00
7.666666666666666075e-01 -3.509936087922607140e+00 5.804594359642170076e+00
7.833333333333333259e-01 -3.536396846016229834e+00 1.157505126722675470e+00
8.000000000000000444e-01 -3.548519592146696322e+00 9.192451090958986271e-01
8.166666666666666519e-01 -3.567038349652759788e+00 2.077793519478090545e+00
8.333333333333333703e-01 -3.617779376129299340e+00 2.217241117514197057e+00
8.499999999999999778e-01 -3.640946386903233023e+00 -5.740758345488705672e-01
8.666666666666666963e-01 -3.598643514977670321e+00 -1.539708247005839858e+00
8.833333333333333037e-01 -3.589622778669705028e+00 -2.134907360748687921e+00
9.000000000000000222e-01 -3.527479936286047391e+00 -1.166871691593565075e+00
9.166666666666666297e-01 -3.550727055616586192e+00 -1.293587286321358221e+00
9.333333333333333481e-01 -3.484360360075335450e+00 -3.797025841129904045e+00
9.499999999999999556e-01 -3.424159527578922724e+00 -6.373249051562104306e+00
9.666666666666666741e-01 -3.271918725023265306e+00 -6.192826108460662837e+00
9.833333333333332815e-01 -3.217731990630233962e+00 -3.327778368184786117e+00
1.000000000000000000e+00 -3.160992779417105769e+00 -3.841176678237290254e+00
1.016666666666666607e+00 -3.089692768022324287e+00 -5.184410387310376400e+00
1.033333333333333215e+00 -2.988179099840093222e+00 -5.302096604073089914e+00
1.050000000000000044e+00 -2.912956214553221290e+00 -4.358438614063202543e+00
1.066666666666666652e+00 -2.842897812704653138e+00 -2.854777331746523039e+00
1.083333333333333259e+00 -2.817796970161670522e+00 -5.128070218699010141e-01
1.100000000000000089e+00 -2.825804245308989771e+00 1.415727909030954912e+00
1.116666666666666696e+00 -2.864987900462702353e+00 -1.792391661319792107e-01
1.133333333333333304e+00 -2.819829606437923797e+00 -3.617458687088332958e+00
1.149999999999999911e+00 -2.744405944226424587e+00 -4.951196393959769182e+00
1.166666666666666741e+00 -2.654789726639264824e+00 -5.065371827127043147e+00
1.183333333333333348e+00 -2.575560216655523149e+00 -3.103043218680725523e+00
1.199999999999999956e+00 -2.551354952683240640e+00 -1.071875774008095306e+00
1.216666666666666563e+00 -2.539831024188586639e+00 -7.742114307772007820e-01
1.233333333333333393e+00 -2.525547904990667281e+00 1.926256048315577729e-01
1.250000000000000000e+00 -2.546251877682971898e+00 1.889593016768476019e-01
1.266666666666666607e+00 -2.531846548379895534e+00 -7.367300482866490086e-01
1.283333333333333215e+00 -2.521694209406750264e+00 -2.247521566012498084e+00
1.300000000000000044e+00 -2.456929162846145598e+00 -3.835286896136285151e+00
1.316666666666666652e+00 -2.393851312868874093e+00 -3.731971635207367299e+00
1.333333333333333259e+00 -2.332530108339233355e+00 -4.391321094155133942e+00
1.350000000000000089e+00 -2.247473943063702961e+00 -5.070221315486151958e+00
1.366666666666666696e+00 -2.163522731156361623e+00 -5.038407617990552367e+00
1.383333333333333304e+00 -2.079527022464017882e+00 -5.164713523407955975e+00
1.399999999999999911e+00 -1.991365613709429772e+00 -5.027373860136242101e+00
1.416666666666666741e+00 -1.911947893792809827e+00 -4.728603607660879504e+00
1.433333333333333348e+00 -1.833745493454067121e+00 -4.195563569255127412e+00
1.449999999999999956e+00 -1.772095774817638913e+00 -3.787713028617885058e+00
1.466666666666666563e+00 -1.707488392500137619e+00 -4.405446842476807845e+00
1.483333333333333393e+00 -1.625247546735078652e+00 -4.262310064959677902e+00
1.500000000000000000e+00 -1.565411390334815023e+00 -3.265293163653852915e+00
1.516666666666666607e+00 -1.516404441279950221e+00 -3.389652599705708091e+00
1.533333333333333215e+00 -1.452422970344624753e+00 -4.373427896130666070e+00
1.550000000000000044e+00 -1.370623511408928019e+00 -4.617829929264636313e+00
1.566666666666666652e+00 -1.298495306035803543e+00 -3.877015215909391799e+00
1.583333333333333259e+00 -1.241389670878614959e+00 -3.239624046771540922e+00
1.600000000000000089e+00 -1.190507837810085512e+00 -2.863288764088831595e+00
1.616666666666666696e+00 -1.145946712075653906e+00 -3.305657911029158402e+00
1.633333333333333304e+00 -1.080319240775780232e+00 -3.004940901426420563e+00
1.649999999999999911e+00 -1.045782015361439887e+00 -2.092867193198966191e+00
1.666666666666666741e+00 -1.010557001002481359e+00 -1.128951453108861802e+00
1.683333333333333348e+00 -1.008150300257811161e+00 -1.646096750336391024e+00
1.699999999999999956e+00 -9.556871093246016580e-01 -3.597808450170838501e+00
1.716666666666666563e+00 -8.882233519187832105e-01 -4.341035399319011390e+00
1.733333333333333393e+00 -8.109859293473012931e-01 -3.883714443216865764e+00
1.750000000000000000e+00 -7.587662038115543517e-01 -3.189143708744666128e+00
1.766666666666666607e+00 -7.046811390558124222e-01 -3.136057895311536114e+00
1.783333333333333215e+00 -6.542309406345031553e-01 -3.068757225564540114e+00
1.800000000000000044e+00 -6.023892315369944184e-01 -2.723329954113664630e+00
1.816666666666666652e+00 -5.634532754973810009e-01 -2.104648289909866410e+00
1.833333333333333259e+00 -5.322342885399988788e-01 -1.855015097964710646e+00
1.849999999999999867e+00 -5.016194388985573127e-01 -1.650924096944397235e+00
1.866666666666666696e+00 -4.772034853085189710e-01 -1.785017141251894479e+00
1.883333333333333304e+00 -4.421188675234941634e-01 -1.998217723602923046e+00
1.899999999999999911e+00 -4.105962278550882028e-01 -2.152988182294946373e+00
1.916666666666666741e+00 -3.703525947803292806e-01 -2.463274728627031340e+00
1.933333333333333348e+00 -3.284870702341871618e-01 -1.062493931326994101e+01
1.949999999999999956e+00 -1.618795100466457332e-02 -9.789719885365222751e+00
1.966666666666666563e+00 -2.163074055346383365e-03 -4.795616440693219462e-01
1.983333333333333393e+00 -2.025628690205099204e-04 -6.489222166039150530e-02
2.000000000000000000e+00 0.000000000000000000e+00 -1.215377214123059511e-02
