0	3.80491e+06	119.048
0.0166667	3.80491e+06	220.146
0.0333333	3.80491e+06	381.934
0.05	3.8049e+06	466.524
0.0666667	3.80489e+06	495.213
0.0833333	3.80488e+06	500
0.1	3.80488e+06	500
0.116667	3.80487e+06	500
0.133333	3.80486e+06	500
0.15	3.80485e+06	500
0.166667	3.80484e+06	500
0.183333	3.80483e+06	590381
0.2	3.78516e+06	3.79597e+06
0.216667	3.6783e+06	1.21054e+07
0.233333	3.38165e+06	2.53205e+07
0.25	2.83428e+06	3.84423e+07
0.266667	2.10024e+06	4.44074e+07
0.283333	1.35404e+06	4.00556e+07
0.3	765052	2.87751e+07
0.316667	394868	1.69379e+07
0.333333	200455	8.67668e+06
0.35	105645	4.28772e+06
0.366667	57530.7	2.20211e+06
0.383333	32241.4	1.16995e+06
0.4	18532.4	640539
0.416667	10890.1	360280
0.433333	6523.07	207590
0.45	3970.42	122353
0.466667	2444.63	73366.5
0.483333	1524.87	47768.1
0.5	852.36	34791.8
0.516667	365.145	20205.2
0.533333	178.853	8081.56
0.55	95.7599	3914.94
0.566667	48.355	2214.7
0.583333	21.9365	1227.78
0.6	7.42895	671.296
0.616667	-0.440025	365.633
0.633333	-4.75881	204.875
0.65	-7.26919	122.869
0.666667	-8.85445	79.5604
0.683333	-9.9212	54.0496
0.7	-10.6561	36.7642
0.716667	-11.1467	22.8335
0.733333	-11.4172	9.29442
0.75	-11.4565	-4.85983
0.766667	-11.2552	-18.749
0.783333	-10.8315	-30.7846
0.8	-10.2291	-39.7228
0.816667	-9.50743	-44.8666
0.833333	-8.73352	-46.2376
0.85	-7.96618	-45.0373
0.866667	-7.23227	-43.4421
0.883333	-6.51811	-43.1647
0.9	-5.79345	-44.1738
0.916667	-5.04565	-44.9938
0.933333	-4.29366	-44.312
0.95	-3.56858	-42.1966
0.966667	-2.8871	-39.652
0.983333	-2.24685	-37.1853
1	-1.64759	-34.2404
1.01667	-1.1055	-29.9773
1.03333	-0.648352	-24.3889
1.05	-0.292539	-18.5416
1.06667	-0.0303	-13.5921
1.08333	0.16053	-9.84748
1.1	0.297949	-6.85846
1.11667	0.389146	-4.26902
1.13333	0.44025	-2.20565
1.15	0.462667	-0.806518
1.16667	0.467134	0.192415
1.18333	0.456254	1.16313
1.2	0.428363	2.124
1.21667	0.385454	2.76636
1.23333	0.336151	2.87602
1.25	0.289586	2.61349
1.26667	0.249035	2.33556
1.28333	0.211734	2.4333
1.3	0.167924	3.29328
1.31667	0.101958	4.98003
1.33333	0.00192342	6.90529
1.35	-0.128218	8.0489
1.36667	-0.266373	7.71165
1.38333	-0.385273	6.1728
1.4	-0.472133	4.57713
1.41667	-0.537844	3.93371
1.43333	-0.603257	4.18949
1.45	-0.677494	4.36958
1.46667	-0.748909	3.55553
1.48333	-0.796011	1.72565
1.5	-0.806431	-0.355024
1.51667	-0.784177	-1.91269
1.53333	-0.742675	-2.70643
1.55	-0.693963	-3.03206
1.56667	-0.641606	-3.3582
1.58333	-0.582023	-3.87753
1.6	-0.512355	-4.35549
1.61667	-0.43684	-4.40446
1.63333	-0.36554	-3.89189
1.65	-0.30711	-3.07229
1.66667	-0.26313	-2.33852
1.68333	-0.22916	-1.89618
1.7	-0.199924	-1.69684
1.71667	-0.172598	-1.58528
1.73333	-0.147082	-1.44998
1.75	-0.124266	-1.29136
1.76667	-0.104036	-1.18127
1.78333	-0.08489	-1.16301
1.8	-0.0652692	-1.2124
1.81667	-0.0444766	-1.27151
1.83333	-0.0228854	-1.28223
1.85	-0.0017356	-1.194
1.86667	0.0169145	-0.963618
1.88333	0.030385	-0.596961
1.9	0.0368132	-0.182557
1.91667	0.0364702	0.154038
1.93333	0.0316786	0.34195
1.95	0.0250719	0.421195
1.96667	0.0176387	0.495519
1.98333	0.0085546	0.529162
2	0	0.513276
