0	161395	119.048
0.0166667	161393	220.146
0.0333333	161387	381.934
0.05	161380	466.524
0.0666667	161372	495.213
0.0833333	161363	500
0.1	161355	500
0.116667	161347	500
0.133333	161338	500
0.15	161330	500
0.166667	161322	500
0.183333	161313	25629.4
0.2	160467	162151
0.216667	155908	515900
0.233333	143271	1.07816e+06
0.25	119970	1.6358e+06
0.266667	88744	1.88792e+06
0.283333	57039.1	1.70099e+06
0.3	32044.3	1.21991e+06
0.316667	16375.3	716153
0.333333	8172.53	364829
0.35	4214.34	182304
0.366667	2095.73	99190.8
0.383333	907.982	50107.3
0.4	425.489	21229.7
0.416667	200.324	10129.6
0.433333	87.8372	4989.15
0.45	34.0192	2331.4
0.466667	10.1238	996.493
0.483333	0.802762	365.668
0.5	-2.06512	101.1
0.516667	-2.56724	13.192
0.533333	-2.50486	-3.5005
0.55	-2.45056	-1.77417
0.566667	-2.44572	-0.884427
0.583333	-2.42108	-2.90388
0.6	-2.34892	-4.98898
0.616667	-2.25478	-4.65779
0.633333	-2.19366	-1.12105
0.65	-2.21741	4.39621
0.666667	-2.3402	9.7195
0.683333	-2.54139	13.2193
0.7	-2.78085	14.0578
0.716667	-3.00998	11.9441
0.733333	-3.17898	7.32294
0.75	-3.25408	1.63754
0.766667	-3.23357	-3.41362
0.783333	-3.1403	-7.03973
0.8	-2.99891	-9.49584
0.816667	-2.82377	-11.3527
0.833333	-2.62049	-13.0771
0.85	-2.38786	-15.0661
0.866667	-2.11828	-17.4288
0.883333	-1.8069	-19.3695
0.9	-1.47263	-19.5133
0.916667	-1.15646	-17.4627
0.933333	-0.890543	-14.5073
0.95	-0.672885	-12.4824
0.966667	-0.474462	-12.0805
0.983333	-0.270203	-12.4735
1	-0.058678	-12.6022
1.01667	0.149872	-12.2098
1.03333	0.348315	-11.5529
1.05	0.534967	-10.6693
1.06667	0.703959	-9.19963
1.08333	0.841621	-6.97947
1.1	0.936608	-4.40931
1.11667	0.988598	-2.06551
1.13333	1.00546	-0.215423
1.15	0.995779	1.08054
1.16667	0.96944	1.74295
1.18333	0.937681	1.88076
1.2	0.906748	2.02349
1.21667	0.870231	2.76116
1.23333	0.814709	4.0979
1.25	0.733634	5.43093
1.26667	0.633678	6.26017
1.28333	0.524962	6.667
1.3	0.411445	6.89036
1.31667	0.295284	6.76386
1.33333	0.185983	5.91099
1.35	0.0982504	4.43039
1.36667	0.0383033	3.08918
1.38333	-0.00472222	2.65717
1.4	-0.050269	3.13226
1.41667	-0.109131	3.67962
1.43333	-0.172923	3.39251
1.45	-0.222215	2.14969
1.46667	-0.244579	0.682018
1.48333	-0.244949	-0.158368
1.5	-0.2393	-0.120481
1.51667	-0.240933	0.402115
1.53333	-0.252704	0.877925
1.55	-0.270197	1.06317
1.56667	-0.288143	1.06055
1.58333	-0.305548	1.08647
1.6	-0.324359	1.1691
1.61667	-0.344518	1.09481
1.63333	-0.360853	0.653883
1.65	-0.366315	-0.0863924
1.66667	-0.357973	-0.815341
1.68333	-0.339137	-1.28223
1.7	-0.315232	-1.47254
1.71667	-0.290052	-1.46009
1.73333	-0.266562	-1.26846
1.75	-0.24777	-0.956597
1.76667	-0.234676	-0.673874
1.78333	-0.225307	-0.549002
1.8	-0.216375	-0.585985
1.81667	-0.205774	-0.718686
1.83333	-0.192419	-0.911059
1.85	-0.175406	-1.12692
1.86667	-0.154855	-1.28858
1.88333	-0.132453	-1.33521
1.9	-0.110348	-1.28594
1.91667	-0.0895886	-1.20817
1.93333	-0.0700759	-1.14451
1.95	-0.0514384	-1.09128
1.96667	-0.0337	-1.01673
1.98333	-0.0175473	-1.011
2	0	-1.05284
