0	161395	119.048
0.0166667	161393	220.146
0.0333333	161387	381.934
0.05	161380	466.524
0.0666667	161372	495.213
0.0833333	161363	500
0.1	161355	500
0.116667	161347	500
0.133333	161338	500
0.15	161330	500
0.166667	161322	500
0.183333	161313	25629.4
0.2	160467	162151
0.216667	155908	515900
0.233333	143271	1.07816e+06
0.25	119970	1.6358e+06
0.266667	88744.1	1.88785e+06
0.283333	57041.5	1.70087e+06
0.3	32048.5	1.21994e+06
0.316667	16376.7	716256
0.333333	8173.33	365639
0.35	4188.77	181870
0.366667	2111	98480.3
0.383333	906.091	50358.5
0.4	432.379	20995.9
0.416667	206.229	10164.6
0.433333	93.56	4998.9
0.45	39.599	2340.64
0.466667	15.5388	1006.56
0.483333	6.04691	376.132
0.5	3.00103	111.984
0.516667	2.31409	23.8004
0.533333	2.20768	5.08934
0.55	2.14445	3.59436
0.566667	2.08787	2.41206
0.583333	2.06405	1.05632
0.6	2.05266	1.07543
0.616667	2.0282	2.60979
0.633333	1.96566	6.37474
0.65	1.81571	13.2287
0.666667	1.52471	22.2175
0.683333	1.07513	30.7592
0.7	0.499399	36.0779
0.716667	-0.127469	36.1217
0.733333	-0.704658	30.2521
0.75	-1.13587	19.9059
0.766667	-1.36819	8.29268
0.783333	-1.41229	-1.47186
0.8	-1.31912	-8.07803
0.816667	-1.14303	-11.7899
0.833333	-0.926129	-13.1257
0.85	-0.705504	-12.5121
0.866667	-0.509059	-10.9804
0.883333	-0.339491	-10.0534
0.9	-0.173946	-10.447
0.916667	0.00874071	-11.4115
0.933333	0.206438	-11.8143
0.95	0.40255	-11.4129
0.966667	0.586867	-10.6609
0.983333	0.757914	-9.7166
1	0.910754	-8.26284
1.01667	1.03334	-6.10916
1.03333	1.11439	-3.62303
1.05	1.15411	-1.46957
1.06667	1.16338	-0.0299199
1.08333	1.15511	0.792002
1.1	1.13698	1.35093
1.11667	1.11008	2.12835
1.13333	1.06603	3.53664
1.15	0.992188	5.531
1.16667	0.881667	7.47797
1.18333	0.742923	8.53086
1.2	0.597305	8.37162
1.21667	0.463869	7.47663
1.23333	0.348084	6.55088
1.25	0.245506	5.91798
1.26667	0.150818	5.46221
1.28333	0.0634326	4.88308
1.3	-0.0119513	3.9985
1.31667	-0.0698508	2.94255
1.33333	-0.110036	2.11927
1.35	-0.140493	1.88729
1.36667	-0.172946	2.14577
1.38333	-0.212019	2.30334
1.4	-0.249724	1.84409
1.41667	-0.273488	0.883629
1.43333	-0.279178	0.0279378
1.45	-0.274419	-0.267804
1.46667	-0.270251	-0.0881229
1.48333	-0.271482	0.196897
1.5	-0.276815	0.408225
1.51667	-0.28509	0.649128
1.53333	-0.298452	1.024
1.55	-0.319223	1.45595
1.56667	-0.346984	1.72279
1.58333	-0.376649	1.6045
1.6	-0.400467	1.05476
1.61667	-0.411808	0.284796
1.63333	-0.409961	-0.392584
1.65	-0.398722	-0.832631
1.66667	-0.382206	-1.10614
1.68333	-0.36185	-1.29115
1.7	-0.339168	-1.29741
1.71667	-0.318603	-1.00873
1.73333	-0.305544	-0.496978
1.75	-0.302037	-0.0234517
1.76667	-0.304762	0.139817
1.78333	-0.306698	-0.122426
1.8	-0.300681	-0.720104
1.81667	-0.282694	-1.41792
1.83333	-0.253417	-1.96331
1.85	-0.217251	-2.21238
1.86667	-0.179671	-2.16404
1.88333	-0.145116	-1.90744
1.9	-0.11609	-1.56953
1.91667	-0.0927983	-1.28236
1.93333	-0.0733446	-1.12702
1.95	-0.0552308	-1.08156
1.96667	-0.0372926	-1.04874
1.98333	-0.0202728	-1.11878
2	0	-1.21637
