0	3.01091e+07	1.75162e+07
0.0166667	2.98172e+07	3.39866e+07
0.0333333	2.89763e+07	6.41364e+07
0.05	2.76793e+07	8.78224e+07
0.0666667	2.60488e+07	1.04242e+08
0.0833333	2.42046e+07	1.14228e+08
0.1	2.22413e+07	1.19507e+08
0.116667	2.0221e+07	1.21888e+08
0.133333	1.81783e+07	1.2272e+08
0.15	1.61304e+07	1.22716e+08
0.166667	1.40878e+07	1.21992e+08
0.183333	1.2064e+07	1.20189e+08
0.2	1.00815e+07	1.16623e+08
0.216667	8.17654e+06	1.10504e+08
0.233333	6.39805e+06	1.01252e+08
0.25	4.80147e+06	8.88334e+07
0.266667	3.43694e+06	7.39559e+07
0.283333	2.33627e+06	5.79863e+07
0.3	1.50406e+06	4.25794e+07
0.316667	916960	2.91852e+07
0.333333	531223	1.86643e+07
0.35	294816	1.11721e+07
0.366667	158821	6.30939e+06
0.383333	84502.9	3.40824e+06
0.4	45213.2	1.79511e+06
0.416667	24665.8	942191
0.433333	13806.8	502363
0.45	7920.31	275520
0.466667	4622.84	156263
0.483333	2711.53	92448.5
0.5	1541.23	57245.4
0.516667	803.351	33402.1
0.533333	427.823	17583.6
0.55	217.232	9676.66
0.566667	105.268	5077.55
0.583333	47.9798	2575.01
0.6	19.4344	1268.55
0.616667	5.69477	602.896
0.633333	-0.662125	276.748
0.65	-3.53016	125.1
0.666667	-4.83211	57.7799
0.683333	-5.45616	28.3008
0.7	-5.77547	14.3045
0.716667	-5.93298	6.27218
0.733333	-5.98454	0.68607
0.75	-5.95585	-3.72216
0.766667	-5.86047	-7.44119
0.783333	-5.70781	-10.4927
0.8	-5.51071	-12.6028
0.816667	-5.28771	-13.5514
0.833333	-5.059	-13.4453
0.85	-4.83954	-12.7601
0.866667	-4.63367	-12.0386
0.883333	-4.43825	-11.504
0.9	-4.2502	-11.0768
0.916667	-4.06902	-10.704
0.933333	-3.8934	-10.4885
0.95	-3.71941	-10.4899
0.966667	-3.54374	-10.5936
0.983333	-3.36629	-10.6996
1	-3.18709	-10.8841
1.01667	-3.00348	-11.2407
1.03333	-2.8124	-11.7019
1.05	-2.61342	-12.1395
1.06667	-2.40775	-12.5551
1.08333	-2.19492	-13.0377
1.1	-1.97316	-13.5438
1.11667	-1.74346	-13.8788
1.13333	-1.51053	-13.9045
1.15	-1.27997	-13.645
1.16667	-1.0557	-13.1709
1.18333	-0.840943	-12.4552
1.2	-0.640526	-11.4167
1.21667	-0.460388	-10.0647
1.23333	-0.305036	-8.52044
1.25	-0.176373	-6.89853
1.26667	-0.075085	-5.25068
1.28333	-0.00134998	-3.63573
1.3	0.0461061	-2.17405
1.31667	0.0711184	-0.995897
1.33333	0.0793027	-0.138958
1.35	0.0757503	0.475679
1.36667	0.0634468	0.957544
1.38333	0.0438322	1.35877
1.4	0.0181544	1.67376
1.41667	-0.0119599	1.88413
1.43333	-0.0446499	1.9789
1.45	-0.0779234	1.93674
1.46667	-0.109208	1.72629
1.48333	-0.135466	1.35763
1.5	-0.154462	0.910869
1.51667	-0.165828	0.491903
1.53333	-0.170859	0.163332
1.55	-0.171273	-0.0823983
1.56667	-0.168112	-0.295435
1.58333	-0.161425	-0.521106
1.6	-0.150742	-0.760303
1.61667	-0.136082	-0.958823
1.63333	-0.118781	-1.0418
1.65	-0.101355	-0.976539
1.66667	-0.0862299	-0.801743
1.68333	-0.0746301	-0.593238
1.7	-0.0664553	-0.409192
1.71667	-0.0609904	-0.26636
1.73333	-0.0575767	-0.153962
1.75	-0.0558583	-0.0596715
1.76667	-0.0555876	0.0162088
1.78333	-0.0563986	0.0662312
1.8	-0.0577953	0.0877359
1.81667	-0.0593231	0.0878974
1.83333	-0.0607252	0.0741389
1.85	-0.0617944	0.0421712
1.86667	-0.0621309	-0.0201143
1.88333	-0.061124	-0.11662
1.9	-0.0582436	-0.233785
1.91667	-0.0533311	-0.349613
1.93333	-0.0465898	-0.447903
1.95	-0.038401	-0.516056
1.96667	-0.029388	-0.532085
1.98333	-0.0206649	-0.468653
2	-0.0137662	-0.41392
