0	13519.9	1633.02
0.0166667	13492.7	3250.93
0.0333333	13411.6	6442.27
0.05	13278	9517.63
0.0666667	13094.3	12426.8
0.0833333	12863.8	15127.9
0.1	12590.1	17589.4
0.116667	12277.4	19790.6
0.133333	11930.4	21721.7
0.15	11553.4	23382.7
0.166667	11150.9	24782.5
0.183333	10727.3	25936.1
0.2	10286.4	26863.3
0.216667	9831.85	27586.2
0.233333	9366.86	28126.9
0.25	8894.29	28506.2
0.266667	8416.66	28742.2
0.283333	7936.22	28849.3
0.3	7455.01	28837.9
0.316667	6974.95	28714.6
0.333333	6497.86	28482.3
0.35	6025.54	28141.2
0.366667	5559.82	27689.9
0.383333	5102.54	27126.2
0.4	4655.61	26448.5
0.416667	4220.93	25657.1
0.433333	3800.37	24754.7
0.45	3395.77	23747.6
0.466667	3008.79	22646.2
0.483333	2640.9	21466.1
0.5	2293.25	20227.6
0.516667	1966.64	18954.8
0.533333	1661.42	17682.6
0.55	1377.22	16441.3
0.566667	1113.38	15191.4
0.583333	870.844	13775.9
0.6	654.184	12000.1
0.616667	470.839	9826.37
0.633333	326.639	7484.43
0.65	221.358	5342.36
0.666667	148.56	3658.2
0.683333	99.4181	2465.56
0.7	66.3747	1654.74
0.716667	44.2602	1104
0.733333	29.5745	734.437
0.75	19.779	493.144
0.766667	13.1364	338.378
0.783333	8.49975	239.972
0.8	5.13728	177.055
0.816667	2.59791	135.739
0.833333	0.612636	107.162
0.85	-0.97417	85.8944
0.866667	-2.25051	68.7742
0.883333	-3.26664	54.1081
0.9	-4.05412	41.1131
0.916667	-4.63708	29.5146
0.933333	-5.03794	19.2721
0.95	-5.27948	10.4187
0.966667	-5.38523	2.9837
0.983333	-5.37894	-3.04835
1	-5.28362	-7.76366
1.01667	-5.12015	-11.3242
1.03333	-4.90614	-13.9382
1.05	-4.65554	-15.8104
1.06667	-4.37913	-17.1054
1.08333	-4.08536	-17.9444
1.1	-3.78098	-18.4252
1.11667	-3.47119	-18.6397
1.13333	-3.15966	-18.6739
1.15	-2.84872	-18.5948
1.16667	-2.53983	-18.4351
1.18333	-2.23422	-18.1879
1.2	-1.93357	-17.8182
1.21667	-1.64028	-17.2911
1.23333	-1.3572	-16.6018
1.25	-1.08689	-15.7832
1.26667	-0.83109	-14.8827
1.28333	-0.590798	-13.924
1.3	-0.366957	-12.8872
1.31667	-0.161225	-11.7244
1.33333	0.0238575	-10.3998
1.35	0.185435	-8.9222
1.36667	0.321264	-7.34783
1.38333	0.430363	-5.75361
1.4	0.513051	-4.20344
1.41667	0.570478	-2.72877
1.43333	0.60401	-1.33155
1.45	0.614862	-0.00407923
1.46667	0.604146	1.24722
1.48333	0.573288	2.38885
1.5	0.524518	3.36909
1.51667	0.460986	4.14623
1.53333	0.38631	4.71581
1.55	0.303792	5.11236
1.56667	0.215898	5.3817
1.58333	0.124402	5.54672
1.6	0.0310075	5.59553
1.61667	-0.0621155	5.49885
1.63333	-0.152287	5.23779
1.65	-0.236709	4.81968
1.66667	-0.312943	4.2761
1.68333	-0.379245	3.65228
1.7	-0.434686	2.99644
1.71667	-0.479127	2.35053
1.73333	-0.513037	1.74142
1.75	-0.537174	1.17604
1.76667	-0.552239	0.646076
1.78333	-0.55871	0.140941
1.8	-0.556937	-0.339756
1.81667	-0.547385	-0.783658
1.83333	-0.530815	-1.17343
1.85	-0.50827	-1.49662
1.86667	-0.480927	-1.74901
1.88333	-0.44997	-1.92985
1.9	-0.416599	-2.03444
1.91667	-0.382155	-2.05036
1.93333	-0.348254	-1.95928
1.95	-0.316846	-1.74215
1.96667	-0.290182	-1.38683
1.98333	-0.270618	-0.898894
2	-0.260219	-0.623966
