0	2.12286e+07	86.3379
0.0166667	2.12286e+07	165.282
0.0333333	2.12286e+07	304.396
0.05	2.12286e+07	402.425
0.0666667	2.12286e+07	459.596
0.0833333	2.12286e+07	486.646
0.1	2.12286e+07	496.688
0.116667	2.12285e+07	31987.1
0.133333	2.12275e+07	360316
0.15	2.12165e+07	2.05744e+06
0.166667	2.11589e+07	7.81203e+06
0.183333	2.09561e+07	2.20557e+07
0.2	2.04237e+07	4.91055e+07
0.216667	1.93193e+07	8.92917e+07
0.233333	1.74473e+07	1.35609e+08
0.25	1.4799e+07	1.74596e+08
0.266667	1.16275e+07	1.92522e+08
0.283333	8.38157e+06	1.83172e+08
0.3	5.52174e+06	1.51327e+08
0.316667	3.33733e+06	1.09351e+08
0.333333	1.87672e+06	6.98954e+07
0.35	1.00748e+06	4.02884e+07
0.366667	533773	2.1605e+07
0.383333	287315	1.12341e+07
0.4	159303	5.88905e+06
0.416667	91013.3	3.1775e+06
0.433333	53386.1	1.76885e+06
0.45	32051.6	1.0123e+06
0.466667	19642.7	593785
0.483333	12258.7	356068
0.5	7773.79	217812
0.516667	4998.35	135727
0.533333	3249.55	86184.4
0.55	2125.54	56046.5
0.566667	1381.33	38128
0.583333	854.605	26701.2
0.6	491.289	16776
0.616667	295.406	9473.23
0.633333	175.515	5692.27
0.65	105.663	3314.28
0.666667	65.0385	1957.1
0.683333	40.4269	1201.62
0.7	24.9845	756.856
0.716667	15.1983	482.467
0.733333	8.90221	313.022
0.75	4.76425	207.807
0.766667	1.97533	141.605
0.783333	0.0440718	99.1104
0.8	-1.32835	70.9642
0.816667	-2.3214	51.2476
0.833333	-3.0366	36.3094
0.85	-3.53172	24.4729
0.866667	-3.85237	15.4408
0.883333	-4.04641	9.06505
0.9	-4.15454	4.47152
0.916667	-4.19546	0.503645
0.933333	-4.17132	-3.19898
0.95	-4.08883	-6.01309
0.966667	-3.97089	-7.30805
0.983333	-3.84523	-7.2698
1	-3.72856	-6.63024
1.01667	-3.62422	-6.03682
1.03333	-3.52733	-5.93175
1.05	-3.42649	-6.64046
1.06667	-3.30599	-8.15641
1.08333	-3.15461	-10.0218
1.1	-2.97193	-11.7157
1.11667	-2.76409	-13.0559
1.13333	-2.53673	-14.0322
1.15	-2.29635	-14.4534
1.16667	-2.05495	-14.0506
1.18333	-1.82799	-12.8351
1.2	-1.62711	-11.1586
1.21667	-1.45604	-9.4256
1.23333	-1.31292	-7.8423
1.25	-1.19463	-6.39383
1.26667	-1.0998	-4.97689
1.28333	-1.02874	-3.57398
1.3	-0.980663	-2.30042
1.31667	-0.952056	-1.25716
1.33333	-0.938758	-0.457401
1.35	-0.936809	0.0905382
1.36667	-0.941776	0.367715
1.38333	-0.949066	0.432609
1.4	-0.956196	0.434689
1.41667	-0.963556	0.437656
1.43333	-0.970785	0.289875
1.45	-0.973218	-0.216881
1.46667	-0.963555	-1.08577
1.48333	-0.937026	-2.07144
1.5	-0.894508	-2.86628
1.51667	-0.841483	-3.31808
1.53333	-0.783905	-3.49669
1.55	-0.724927	-3.56893
1.56667	-0.664941	-3.639
1.58333	-0.603627	-3.70925
1.6	-0.541299	-3.75194
1.61667	-0.478562	-3.77508
1.63333	-0.415463	-3.79652
1.65	-0.352012	-3.7748
1.66667	-0.289636	-3.61308
1.68333	-0.231575	-3.25247
1.7	-0.18122	-2.7473
1.71667	-0.139999	-2.22067
1.73333	-0.107198	-1.7509
1.75	-0.0816355	-1.33407
1.76667	-0.0627292	-0.95327
1.78333	-0.0498598	-0.637563
1.8	-0.0414771	-0.431603
1.81667	-0.0354731	-0.334117
1.83333	-0.0303398	-0.291087
1.85	-0.0257702	-0.239617
1.86667	-0.0223526	-0.152605
1.88333	-0.0206833	-0.0557291
1.9	-0.020495	-0.00340386
1.91667	-0.0205699	-0.0257153
1.93333	-0.0196378	-0.0955094
1.95	-0.0173862	-0.153203
1.96667	-0.014531	-0.160776
1.98333	-0.012027	-0.12069
2	-0.010508	-0.0911394
