0	21271.5	2572
0.0166667	21228.7	5120.21
0.0333333	21100.9	10146.5
0.05	20890.4	14990.2
0.0666667	20601.2	19572.1
0.0833333	20238	23826.3
0.1	19807	27703.2
0.116667	19314.6	31170
0.133333	18768	34211.3
0.15	18174.2	36827.3
0.166667	17540.4	39031.5
0.183333	16873.2	40847.8
0.2	16178.8	42307.3
0.216667	15462.9	43444.3
0.233333	14730.6	44293.6
0.25	13986.5	44887.5
0.266667	13234.4	45253.9
0.283333	12478	45415
0.3	11720.6	45386.2
0.316667	10965.1	45176.8
0.333333	10214.7	44790.2
0.35	9472.13	44225.4
0.366667	8740.49	43478.5
0.383333	8022.84	42544.5
0.4	7322.34	41419.7
0.416667	6642.19	40103.2
0.433333	5985.57	38599.1
0.45	5355.55	36917.9
0.466667	4754.97	35077
0.483333	4186.32	33101.2
0.5	3651.6	31022.3
0.516667	3152.24	28877.7
0.533333	2689.01	26707.3
0.55	2262	24558.7
0.566667	1870.39	22490.1
0.583333	1512.33	20522.3
0.6	1186.31	18549.1
0.616667	894.026	16332.2
0.633333	641.903	13677.2
0.65	438.121	10666.1
0.666667	286.367	7682.14
0.683333	182.05	5158.71
0.7	114.41	3308.67
0.716667	71.7608	2079.73
0.733333	45.0856	1299.05
0.75	28.4591	812.658
0.766667	17.997	518.819
0.783333	11.1652	346.63
0.8	6.44265	245.624
0.816667	2.97772	183.725
0.833333	0.318498	142.473
0.85	-1.77137	112.181
0.866667	-3.42088	87.975
0.883333	-4.70387	67.2218
0.9	-5.66161	48.3926
0.916667	-6.31696	30.8311
0.933333	-6.68932	14.7447
0.95	-6.80845	0.952766
0.966667	-6.72108	-9.65399
0.983333	-6.48665	-16.6798
1	-6.16508	-20.4956
1.01667	-5.80347	-22.0839
1.03333	-5.42895	-22.5934
1.05	-5.05035	-22.8974
1.06667	-4.66571	-23.3898
1.08333	-4.27069	-24.0489
1.1	-3.86408	-24.6359
1.11667	-3.44949	-24.8893
1.13333	-3.03443	-24.657
1.15	-2.62759	-23.9594
1.16667	-2.23579	-22.9637
1.18333	-1.86214	-21.8709
1.2	-1.50676	-20.783
1.21667	-1.16937	-19.6539
1.23333	-0.851631	-18.3578
1.25	-0.557442	-16.8148
1.26667	-0.291138	-15.0679
1.28333	-0.0551771	-13.262
1.3	0.15093	-11.5448
1.31667	0.329649	-9.96501
1.33333	0.483096	-8.44041
1.35	0.610996	-6.81689
1.36667	0.710326	-4.97017
1.38333	0.776669	-2.87626
1.4	0.806202	-0.619708
1.41667	0.797326	1.6374
1.43333	0.751621	3.69616
1.45	0.67412	5.36808
1.46667	0.572686	6.53008
1.48333	0.456451	7.16508
1.5	0.33385	7.35951
1.51667	0.211134	7.25827
1.53333	0.0919072	7.0072
1.55	-0.0224397	6.71198
1.56667	-0.131825	6.42188
1.58333	-0.236502	6.1344
1.6	-0.336305	5.81328
1.61667	-0.430278	5.41019
1.63333	-0.516645	4.8812
1.65	-0.592985	4.2
1.66667	-0.656645	3.37566
1.68333	-0.705507	2.46789
1.7	-0.738908	1.57702
1.71667	-0.758075	0.80013
1.73333	-0.765579	0.182021
1.75	-0.764142	-0.297847
1.76667	-0.755651	-0.695444
1.78333	-0.74096	-1.06245
1.8	-0.720236	-1.42831
1.81667	-0.69335	-1.80182
1.83333	-0.660175	-2.1725
1.85	-0.620933	-2.50811
1.86667	-0.576572	-2.76166
1.88333	-0.528878	-2.89224
1.9	-0.480164	-2.88301
1.91667	-0.432777	-2.73989
1.93333	-0.388834	-2.47484
1.95	-0.350283	-2.09373
1.96667	-0.319043	-1.59991
1.98333	-0.296952	-1.00652
2	-0.285493	-0.687579
