0.000000000000000000e+00 2.359780175815477605e+02 4.410721150366060783e+02
1.666666666666666644e-02 2.286268156642709926e+02 4.410721150366069310e+02
3.333333333333333287e-02 2.212756137469941962e+02 4.410721150366069310e+02
5.000000000000000278e-02 2.139244118297174282e+02 4.410721150366069310e+02
6.666666666666666574e-02 2.065732099124406318e+02 4.410721150366069310e+02
8.333333333333332871e-02 1.992220079951638638e+02 4.410721150366069310e+02
1.000000000000000056e-01 1.918708060778870674e+02 4.410721150366069310e+02
1.166666666666666685e-01 1.845196041606102995e+02 4.410721150366069310e+02
1.333333333333333315e-01 1.771684022433335031e+02 4.410721150366069310e+02
1.499999999999999944e-01 1.698172003260567351e+02 4.410721150366069310e+02
1.666666666666666574e-01 1.624659984087799387e+02 4.410721150366069310e+02
1.833333333333333204e-01 1.551147964915031707e+02 4.410721150366069310e+02
2.000000000000000111e-01 1.477635945742263743e+02 4.410721150366077836e+02
2.166666666666666741e-01 1.404123926569495779e+02 4.410721150366077836e+02
2.333333333333333370e-01 1.330611907396727815e+02 4.410721150366069310e+02
2.500000000000000000e-01 1.257099888223960136e+02 4.410721150366065331e+02
2.666666666666666630e-01 1.183587869051192314e+02 4.410721150366069310e+02
2.833333333333333259e-01 1.110075849878424492e+02 4.410721150366069310e+02
2.999999999999999889e-01 1.036563830705656670e+02 4.410721150366069310e+02
3.166666666666666519e-01 9.630518115328888484e+01 4.410721150366069310e+02
3.333333333333333148e-01 8.895397923601210266e+01 4.410721150366069310e+02
3.499999999999999778e-01 8.160277731873532048e+01 4.410721150366069310e+02
3.666666666666666408e-01 7.425157540145853829e+01 4.410721150366069310e+02
3.833333333333333037e-01 6.690037348418175611e+01 4.410721150366077836e+02
4.000000000000000222e-01 5.954917156690494551e+01 4.410721150366077836e+02
4.166666666666666852e-01 5.219796964962816332e+01 4.410721150366069310e+02
4.333333333333333481e-01 4.484676773235138114e+01 4.410721150366069310e+02
4.500000000000000111e-01 3.749556581507459896e+01 4.410721150366069310e+02
4.666666666666666741e-01 3.014436389779781678e+01 4.410721150366069310e+02
4.833333333333333370e-01 2.279316198052103459e+01 4.410721150366069310e+02
5.000000000000000000e-01 1.544196006324425241e+01 3.397187584538268652e+02
5.166666666666666075e-01 1.146920336539347218e+01 2.052344088670455164e+02
5.333333333333333259e-01 8.600813101009402217e+00 1.530606032583926606e+02
5.500000000000000444e-01 6.367183256780383438e+00 1.201922006904502354e+02
5.666666666666666519e-01 4.594406411327727646e+00 9.567280077447820474e+01
5.833333333333333703e-01 3.178089897631109828e+00 7.691980938151252190e+01
5.999999999999999778e-01 2.030412765277310072e+00 6.259303472065815299e+01
6.166666666666666963e-01 1.091655406942505069e+00 5.116641516619312569e+01
6.333333333333333037e-01 3.248655930708725936e-01 4.159181944918891105e+01
6.500000000000000222e-01 -2.947385746971253884e-01 3.317413041611045799e+01
6.666666666666666297e-01 -7.809387541328092208e-01 2.557046476724521256e+01
6.833333333333333481e-01 -1.147087400271965762e+00 1.860980384880405580e+01
6.999999999999999556e-01 -1.401265549092944429e+00 1.207199340975040336e+01
7.166666666666666741e-01 -1.549487180596979208e+00 5.990309325526292916e+00
7.333333333333332815e-01 -1.600942526610487526e+00 7.350651962128673667e-01
7.500000000000000000e-01 -1.573989353804074787e+00 -3.315217173548965501e+00
7.666666666666666075e-01 -1.490435287492188676e+00 -6.169303704248716436e+00
7.833333333333333259e-01 -1.368345896995784239e+00 -7.965854376901069678e+00
8.000000000000000444e-01 -1.224906808262153035e+00 -8.693885023397795564e+00
8.166666666666666519e-01 -1.078549729549191039e+00 -8.526061403006336192e+00
8.333333333333333703e-01 -9.407047614952751546e-01 -7.928323519066578839e+00
8.499999999999999778e-01 -8.142722789136384032e-01 -7.353057906660982468e+00
8.666666666666666963e-01 -6.956028312732424057e-01 -7.023829606750032539e+00
8.833333333333333037e-01 -5.801446253553039778e-01 -6.953118715037126307e+00
9.000000000000000222e-01 -4.638322074386715399e-01 -6.989492397162988091e+00
9.166666666666666297e-01 -3.471615454498710451e-01 -6.818191733603101490e+00
9.333333333333333481e-01 -2.365591496519015013e-01 -6.137026515183975128e+00
9.499999999999999556e-01 -1.425939949437385335e-01 -4.884241237683672132e+00
9.666666666666666741e-01 -7.375110839577909971e-02 -3.226695387065848575e+00
9.833333333333332815e-01 -3.503748204154357587e-02 -1.495616213544026740e+00
1.000000000000000000e+00 -2.389723461097820884e-02 -3.567797736901086314e-02
1.016666666666666607e+00 -3.384821612924321377e-02 9.765485496833578027e-01
1.033333333333333215e+00 -5.644885293375680180e-02 1.518733751766574658e+00
1.050000000000000044e+00 -8.447267452146237088e-02 1.703949592386319045e+00
1.066666666666666652e+00 -1.132471726799674366e-01 1.707963023196892305e+00
1.083333333333333259e+00 -1.414047752946921144e-01 1.697030006775805067e+00
1.100000000000000089e+00 -1.698148395724942694e-01 1.700361257794599013e+00
1.116666666666666696e+00 -1.980834838878454129e-01 1.634434424565969435e+00
1.133333333333333304e+00 -2.242959870580265858e-01 1.484401976256227718e+00
1.149999999999999911e+00 -2.475635497630530035e-01 1.302315200776038795e+00
1.166666666666666741e+00 -2.677064937505612141e-01 1.090021581546191776e+00
1.183333333333333348e+00 -2.838976024812593923e-01 8.118693663978615582e-01
1.199999999999999956e+00 -2.947688059638232660e-01 4.752287154438333827e-01
1.216666666666666563e+00 -2.997385596627205051e-01 1.381712926942768593e-01
1.233333333333333393e+00 -2.993745157202991614e-01 -2.139743347313094457e-01
1.250000000000000000e+00 -2.926060818383435236e-01 -6.253057580562199069e-01
1.266666666666666607e+00 -2.785309904517584978e-01 -1.048797085441421917e+00
1.283333333333333215e+00 -2.576461789902961264e-01 -1.361580253100042048e+00
1.300000000000000044e+00 -2.331449820150904295e-01 -1.501340559238689920e+00
1.316666666666666652e+00 -2.076014936823397938e-01 -1.502078513281150940e+00
1.333333333333333259e+00 -1.830756982390520649e-01 -1.429790475991417731e+00
1.350000000000000089e+00 -1.599418111492925398e-01 -1.350717813245028154e+00
1.366666666666666696e+00 -1.380517711308844597e-01 -1.297416586656278126e+00
1.383333333333333304e+00 -1.166945915940832690e-01 -1.263483154199276370e+00
1.399999999999999911e+00 -9.593566599090858071e-02 -1.236248813937751656e+00
1.416666666666666741e+00 -7.548629779615821656e-02 -1.194018688383455151e+00
1.433333333333333348e+00 -5.613504304479340762e-02 -1.086737852532630111e+00
1.449999999999999956e+00 -3.926170271173721332e-02 -9.051992692186983103e-01
1.466666666666666563e+00 -2.596173407083679843e-02 -6.954062872634895198e-01
1.483333333333333393e+00 -1.608149313628756336e-02 -5.025216831321619448e-01
1.500000000000000000e+00 -9.211011299764735455e-03 -3.363278707587774585e-01
1.516666666666666607e+00 -4.870564110994981405e-03 -2.026074578411004579e-01
1.533333333333333215e+00 -2.457429371728053411e-03 -1.193449321756884368e-01
1.550000000000000044e+00 -8.923997051387003512e-04 -8.097455107844782340e-02
1.566666666666666652e+00 2.417223308868743110e-04 -6.118830651757244110e-02
1.583333333333333259e+00 1.147210512113714569e-03 -4.988237963901728800e-02
1.600000000000000089e+00 1.904468318854117244e-03 -4.651683179627604664e-02
1.616666666666666696e+00 2.697771571989582718e-03 -5.240026697892494201e-02
1.633333333333333304e+00 3.651143884818281934e-03 -6.027063956279964801e-02
1.649999999999999911e+00 4.706792890749570898e-03 -6.497188935887956984e-02
1.666666666666666741e+00 5.816873530114267769e-03 -6.424961804568112000e-02
1.683333333333333348e+00 6.848446825605608405e-03 -5.741175058932733444e-02
1.699999999999999956e+00 7.730598549758512135e-03 -4.958524716749022898e-02
1.716666666666666563e+00 8.501288397855282647e-03 -3.363561108320857473e-02
1.733333333333333393e+00 8.851785585865464684e-03 -6.164695267308287902e-03
1.750000000000000000e+00 8.706778240098892244e-03 2.700112741229497224e-02
1.766666666666666607e+00 7.951748005455632276e-03 5.217455645427553079e-02
1.783333333333333215e+00 6.967626358289708000e-03 5.462071618695796965e-02
1.800000000000000044e+00 6.131057465890366737e-03 3.720805107938030681e-02
1.816666666666666652e+00 5.727357988977031106e-03 7.701259796756877718e-03
1.833333333333333259e+00 5.874348805998470813e-03 -2.094370705226952442e-02
1.849999999999999867e+00 6.425481557386015195e-03 -3.220437869663678176e-02
1.866666666666666696e+00 6.947828095886363596e-03 -1.938369468925505920e-02
1.883333333333333304e+00 7.071604713694517111e-03 9.129186499207755934e-03
1.899999999999999911e+00 6.643521879246105065e-03 4.032458711923694872e-02
1.916666666666666741e+00 5.727451809719952269e-03 6.495472269274053800e-02
1.933333333333333348e+00 4.478364456154754029e-03 1.223797375616500621e-01
1.949999999999999956e+00 1.648127224331617183e-03 1.262872756649074946e-01
1.966666666666666563e+00 2.687886006578378150e-04 4.866946893829693366e-02
1.983333333333333393e+00 2.581159305505267214e-05 8.063658019735134991e-03
2.000000000000000000e+00 0.000000000000000000e+00 1.548695583303160437e-03
