0.00000000 846.95456121 1378.62732763
0.01666667 823.97743908 1378.62732763
0.03333333 801.00031696 1378.62732763
0.05000000 778.02319483 1378.62732763
0.06666667 755.04607270 1378.62732763
0.08333333 732.06895058 1378.62732763
0.10000000 709.09182845 1378.62732763
0.11666667 686.11470632 1378.62732763
0.13333333 663.13758419 1378.62732763
0.15000000 640.16046207 1378.62732763
0.16666667 617.18333994 1378.62732763
0.18333333 594.20621781 1378.62732763
0.20000000 571.22909569 1378.62732763
0.21666667 548.25197356 1378.62732763
0.23333333 525.27485143 1378.62732763
0.25000000 502.29772930 1378.62732763
0.26666667 479.32060718 1378.62732763
0.28333333 456.34348505 1378.62732763
0.30000000 433.36636292 1378.62732763
0.31666667 410.38924080 1378.62732763
0.33333333 387.41211867 1378.62732763
0.35000000 364.43499654 1378.62732763
0.36666667 341.45787441 1378.62732763
0.38333333 318.48075229 1378.62732763
0.40000000 295.50363016 1378.62732763
0.41666667 272.52650803 1378.62732763
0.43333333 249.54938591 1378.62732763
0.45000000 226.57226378 1378.62732763
0.46666667 203.59514165 1378.62732763
0.48333333 180.61801952 1378.62732763
0.50000000 157.64089740 1378.62732763
0.51666667 134.66377527 1378.62732763
0.53333333 111.68665314 1378.62732763
0.55000000 88.70953102 1378.62732763
0.56666667 65.73240889 1126.42321558
0.58333333 51.16209050 772.49747736
0.60000000 39.98249298 605.23523972
0.61666667 30.98758251 490.85699831
0.63333333 23.62059303 404.88213025
0.65000000 17.49151150 338.35615173
0.66666667 12.34205464 285.68032071
0.68333333 7.96883414 243.19143353
0.70000000 4.23567352 207.17960087
0.71666667 1.06284745 174.58382031
0.73333333 -1.58378715 143.73720061
0.75000000 -3.72839257 114.19233459
0.76666667 -5.39019831 86.00385193
0.78333333 -6.59518764 59.88308020
0.80000000 -7.38630098 37.13314060
0.81666667 -7.83295899 19.32883149
0.83333333 -8.03059536 7.38607052
0.85000000 -8.07916134 1.06370196
0.86666667 -8.06605209 -1.05941931
0.88333333 -8.04384737 -0.98391281
0.90000000 -8.03325500 -0.59243845
0.91666667 -8.02409942 -1.15182837
0.93333333 -7.99486072 -3.12148320
0.95000000 -7.92004998 -5.82643476
0.96666667 -7.80064623 -7.82886355
0.98333333 -7.65908786 -8.08555782
1.00000000 -7.53112764 -6.63531420
1.01666667 -7.43791072 -3.77831761
1.03333333 -7.40518371 0.15195075
1.05000000 -7.44297574 4.28309552
1.06666667 -7.54795357 6.97619364
1.08333333 -7.67551553 6.60675721
1.10000000 -7.76817881 2.70753464
1.11666667 -7.76576669 -3.82739475
1.13333333 -7.64059898 -11.69116487
1.15000000 -7.37606119 -19.76594559
1.16666667 -6.98173413 -26.85811263
1.18333333 -6.48079077 -31.79606568
1.20000000 -5.92186527 -34.27676217
1.21666667 -5.33823203 -34.86537269
1.23333333 -4.75968618 -34.22145835
1.25000000 -4.19751675 -32.54347141
1.26666667 -3.67490380 -29.88278023
1.28333333 -3.20142408 -26.62148647
1.30000000 -2.78752092 -23.01694549
1.31666667 -2.43419256 -19.34175499
1.33333333 -2.14279575 -16.02506470
1.35000000 -1.90002374 -13.54780381
1.36666667 -1.69120229 -11.97424056
1.38333333 -1.50088239 -10.96610200
1.40000000 -1.32566556 -9.99888851
1.41666667 -1.16758610 -8.73734769
1.43333333 -1.03442064 -7.25579402
1.45000000 -0.92572630 -5.89005121
1.46666667 -0.83808560 -4.90653183
1.48333333 -0.76217524 -4.50562630
1.50000000 -0.68789805 -4.58940950
1.51666667 -0.60919493 -4.96728289
1.53333333 -0.52232196 -5.50455935
1.55000000 -0.42570961 -6.06152154
1.56666667 -0.32027124 -6.52219853
1.58333333 -0.20830300 -6.64382110
1.60000000 -0.09881054 -6.30485609
1.61666667 0.00185887 -5.66547581
1.63333333 0.09003866 -4.98687197
1.65000000 0.16808794 -4.36328276
1.66666667 0.23548142 -3.75622414
1.68333333 0.29329541 -3.18756629
1.70000000 0.34173363 -2.64370468
1.71666667 0.38141890 -1.99429829
1.73333333 0.40821024 -1.10352987
1.75000000 0.41820323 -0.00533660
1.76666667 0.40838812 1.05856188
1.78333333 0.38291783 1.91850342
1.80000000 0.34443801 2.55646871
1.81666667 0.29770221 2.91847423
1.83333333 0.24715554 2.96547164
1.85000000 0.19885315 2.72466518
1.86666667 0.15633336 2.33708270
1.88333333 0.12095040 1.91194446
1.90000000 0.09260188 1.50872157
1.91666667 0.07065968 1.18855293
1.93333333 0.05298345 1.54843721
1.95000000 0.01904511 1.50677277
1.96666667 0.00275769 0.56404147
1.98333333 0.00024372 0.08273071
2.00000000 0.00000000 0.01462336
