0.000000000000000000e+00 2.327039477035320374e+02 4.166507972340838251e+02
1.666666666666666644e-02 2.257597677496306403e+02 4.166507972340829724e+02
3.333333333333333287e-02 2.188155877957292716e+02 4.166507972340829724e+02
5.000000000000000278e-02 2.118714078418278746e+02 4.166507972340838251e+02
6.666666666666666574e-02 2.049272278879264775e+02 4.166507972340829724e+02
8.333333333333332871e-02 1.979830479340251088e+02 4.166507972340829724e+02
1.000000000000000056e-01 1.910388679801237117e+02 4.166507972340846777e+02
1.166666666666666685e-01 1.840946880262222862e+02 4.166507972340829724e+02
1.333333333333333315e-01 1.771505080723209460e+02 4.166507972340829724e+02
1.499999999999999944e-01 1.702063281184195205e+02 4.166507972340838251e+02
1.666666666666666574e-01 1.632621481645181518e+02 4.166507972340829724e+02
1.833333333333333204e-01 1.563179682106167547e+02 4.166507972340838251e+02
2.000000000000000111e-01 1.493737882567153576e+02 4.166507972340829724e+02
2.166666666666666741e-01 1.424296083028139890e+02 4.166507972340829724e+02
2.333333333333333370e-01 1.354854283489125919e+02 4.166507972340838251e+02
2.500000000000000000e-01 1.285412483950111948e+02 4.166507972340834272e+02
2.666666666666666630e-01 1.215970684411098119e+02 4.166507972340834272e+02
2.833333333333333259e-01 1.146528884872084149e+02 4.166507972340834272e+02
2.999999999999999889e-01 1.077087085333070320e+02 4.166507972340829724e+02
3.166666666666666519e-01 1.007645285794056491e+02 4.166507972340834272e+02
3.333333333333333148e-01 9.382034862550425203e+01 4.166507972340834272e+02
3.499999999999999778e-01 8.687616867160286915e+01 4.166507972340829724e+02
3.666666666666666408e-01 7.993198871770148628e+01 4.166507972340834272e+02
3.833333333333333037e-01 7.298780876380008920e+01 4.166507972340842798e+02
4.000000000000000222e-01 6.604362880989867790e+01 4.166507972340838251e+02
4.166666666666666852e-01 5.909944885599729503e+01 4.166507972340829724e+02
4.333333333333333481e-01 5.215526890209591215e+01 4.166507972340834272e+02
4.500000000000000111e-01 4.521108894819451507e+01 4.166507972340834272e+02
4.666666666666666741e-01 3.826690899429313220e+01 4.166507972340831998e+02
4.833333333333333370e-01 3.132272904039174222e+01 4.166507972340833135e+02
5.000000000000000000e-01 2.437854908649035579e+01 4.166507972340825745e+02
5.166666666666666075e-01 1.743436913258899068e+01 3.399114424256167695e+02
5.333333333333333259e-01 1.304816767230312990e+01 2.294245399069587563e+02
5.500000000000000444e-01 9.786884469023698685e+00 1.742945657542913125e+02
5.666666666666666519e-01 7.238348813826752881e+00 1.379983425114351974e+02
5.833333333333333703e-01 5.186939718642525676e+00 1.116485293355861330e+02
5.999999999999999778e-01 3.516731169307214966e+00 9.087848740852186324e+01
6.166666666666666963e-01 2.157656805025130353e+00 7.376817499272293333e+01
6.333333333333333037e-01 1.057792002883117144e+00 5.987427453575720193e+01
6.500000000000000222e-01 1.618476538332235537e-01 4.910432007253658071e+01
6.666666666666666297e-01 -5.790186662014356056e-01 4.071321478098482061e+01
6.833333333333333481e-01 -1.195259505532937139e+00 3.350286438859482274e+01
6.999999999999999556e-01 -1.695780812487929667e+00 2.700335108479162116e+01
7.166666666666666741e-01 -2.095371208359324555e+00 2.118514601367137828e+01
7.333333333333332815e-01 -2.401952346276975625e+00 1.579248118871615958e+01
7.500000000000000000e-01 -2.621787247983196512e+00 1.055493368489314499e+01
7.666666666666666075e-01 -2.753783469106747095e+00 5.460147186766799443e+00
7.833333333333333259e-01 -2.803792154208756493e+00 8.260529055685150723e-01
8.000000000000000444e-01 -2.781318565959030931e+00 -3.103705687919151579e+00
8.166666666666666519e-01 -2.700335297944784774e+00 -6.269507310335908912e+00
8.333333333333333703e-01 -2.572334988947833967e+00 -8.628567835951814757e+00
8.499999999999999778e-01 -2.412716370079724282e+00 -9.979778457302179717e+00
8.666666666666666963e-01 -2.239675707037761310e+00 -1.011981029659589915e+01
8.833333333333333037e-01 -2.075389360193194310e+00 -9.369257331405870914e+00
9.000000000000000222e-01 -1.927367129324232264e+00 -8.397555472595900738e+00
9.166666666666666297e-01 -1.795470844439997604e+00 -7.703735811661345245e+00
9.333333333333333481e-01 -1.670575935602187423e+00 -7.439697230702074116e+00
9.499999999999999556e-01 -1.547480936749928482e+00 -7.598450036727600221e+00
9.666666666666666741e-01 -1.417294267711267430e+00 -8.122837935795482522e+00
9.833333333333332815e-01 -1.276719672223412427e+00 -8.595605893762680694e+00
1.000000000000000000e+00 -1.130774071252511392e+00 -8.585120568520784090e+00
1.016666666666666607e+00 -9.905489866060529502e-01 -8.018962910304827219e+00
1.033333333333333215e+00 -8.634753075756838037e-01 -7.035624217426502902e+00
1.050000000000000044e+00 -7.560281793585028609e-01 -5.827729798688599416e+00
1.066666666666666652e+00 -6.692176476193971713e-01 -4.682021183183887381e+00
1.083333333333333259e+00 -5.999608065857066075e-01 -3.868210472862998461e+00
1.100000000000000089e+00 -5.402772985239638892e-01 -3.454046235132678611e+00
1.116666666666666696e+00 -4.848259320812839945e-01 -3.306222504098290216e+00
1.133333333333333304e+00 -4.300698817206875524e-01 -3.171419988525596256e+00
1.149999999999999911e+00 -3.791119324637641230e-01 -2.828774229976969590e+00
1.166666666666666741e+00 -3.357774073881218957e-01 -2.409832764530355220e+00
1.183333333333333348e+00 -2.987841736460856157e-01 -2.098286386045025598e+00
1.199999999999999956e+00 -2.658345278532877054e-01 -1.827169928544629895e+00
1.216666666666666563e+00 -2.378785093612646173e-01 -1.505460976565206277e+00
1.233333333333333393e+00 -2.156524953011141610e-01 -1.254056820248650395e+00
1.250000000000000000e+00 -1.960766153529762690e-01 -1.140337372937903160e+00
1.266666666666666607e+00 -1.776412495365173871e-01 -1.010098751775240888e+00
1.283333333333333215e+00 -1.624066569604682431e-01 -7.837677976292772852e-01
1.300000000000000044e+00 -1.515156562822081443e-01 -5.570794558409195574e-01
1.316666666666666652e+00 -1.438373417657709263e-01 -3.760664694362178539e-01
1.333333333333333259e+00 -1.389801073010008825e-01 -1.981690144606451653e-01
1.350000000000000089e+00 -1.372317079504160875e-01 -3.967630708713948406e-02
1.366666666666666696e+00 -1.376575637314295664e-01 3.725690975641710034e-02
1.383333333333333304e+00 -1.384736049422966575e-01 4.896519521249337314e-02
1.399999999999999911e+00 -1.392897369051793455e-01 3.713324678045526461e-02
1.416666666666666741e+00 -1.397113798349784997e-01 2.701950256075835721e-02
1.433333333333333348e+00 -1.401903869905379574e-01 7.425086103860306652e-02
1.449999999999999956e+00 -1.421864085362652685e-01 1.568400971902494945e-01
1.466666666666666563e+00 -1.454183902302129405e-01 1.863450745685490961e-01
1.483333333333333393e+00 -1.483979110218835717e-01 1.373178639933306244e-01
1.500000000000000000e+00 -1.499956523633239613e-01 4.817427737513757524e-02
1.516666666666666607e+00 -1.500037202677214909e-01 -6.657416883149497311e-02
1.533333333333333215e+00 -1.477765134022741289e-01 -1.977472822328019131e-01
1.550000000000000044e+00 -1.434121441932947605e-01 -3.027049753837646184e-01
1.566666666666666652e+00 -1.376863475561486416e-01 -3.641776213215916491e-01
1.583333333333333259e+00 -1.312728901492417055e-01 -3.908926968534462421e-01
1.600000000000000089e+00 -1.246565909943671002e-01 -3.814069203306832967e-01
1.616666666666666696e+00 -1.185593261382189290e-01 -3.572034542537421142e-01
1.633333333333333304e+00 -1.127498091859090307e-01 -3.737579274936774221e-01
1.649999999999999911e+00 -1.061007285550963491e-01 -4.381666923508913403e-01
1.666666666666666741e+00 -9.814425277421265359e-02 -5.011837845752814546e-01
1.683333333333333348e+00 -8.939460240258696733e-02 -5.390387823497534425e-01
1.699999999999999956e+00 -8.017629336255420458e-02 -5.605527584132530272e-01
1.716666666666666563e+00 -7.070951045547853309e-02 -5.628990719119482122e-01
1.733333333333333393e+00 -6.141299096548926556e-02 -5.428479690552215908e-01
1.750000000000000000e+00 -5.261457815363781293e-02 -5.133065409509058874e-01
1.766666666666666607e+00 -4.430277293379240172e-02 -4.838520814524729374e-01
1.783333333333333215e+00 -3.648617543855538214e-02 -4.500566571953832917e-01
1.800000000000000044e+00 -2.930088436061295890e-02 -4.099302130243165365e-01
1.816666666666666652e+00 -2.282183500441149759e-02 -3.607816636285240408e-01
1.833333333333333259e+00 -1.727482890632882351e-02 -3.037857623015484121e-01
1.849999999999999867e+00 -1.269564292769321742e-02 -2.485299423987814560e-01
1.866666666666666696e+00 -8.990497493036108539e-03 -1.978700378690180506e-01
1.883333333333333304e+00 -6.099974998725949359e-03 -1.488877623457974531e-01
1.899999999999999911e+00 -4.027572081509526655e-03 -1.036800784674907910e-01
1.916666666666666741e+00 -2.643972383142922846e-03 -7.032756147774164857e-02
1.933333333333333348e+00 -1.683320032251471544e-03 -8.509252034723266411e-02
1.949999999999999956e+00 1.924449617648326804e-04 -5.310241906735450185e-02
1.966666666666666563e+00 8.676060332701186078e-05 5.487730324571890757e-03
1.983333333333333393e+00 9.520617612436325195e-06 2.602818099810355959e-03
2.000000000000000000e+00 0.000000000000000000e+00 5.712370567461795253e-04
