0.000000000000000000e+00 3.354707609580706276e+02 5.171318703452675436e+02
1.666666666666666644e-02 3.268518964523161685e+02 5.171318703452658383e+02
3.333333333333333287e-02 3.182330319465617663e+02 5.171318703452658383e+02
5.000000000000000278e-02 3.096141674408073072e+02 5.171318703452658383e+02
6.666666666666666574e-02 3.009953029350529050e+02 5.171318703452658383e+02
8.333333333333332871e-02 2.923764384292984460e+02 5.171318703452658383e+02
1.000000000000000056e-01 2.837575739235440437e+02 5.171318703452658383e+02
1.166666666666666685e-01 2.751387094177895847e+02 5.171318703452658383e+02
1.333333333333333315e-01 2.665198449120351825e+02 5.171318703452658383e+02
1.499999999999999944e-01 2.579009804062807234e+02 5.171318703452658383e+02
1.666666666666666574e-01 2.492821159005263212e+02 5.171318703452658383e+02
1.833333333333333204e-01 2.406632513947718621e+02 5.171318703452675436e+02
2.000000000000000111e-01 2.320443868890174031e+02 5.171318703452658383e+02
2.166666666666666741e-01 2.234255223832630008e+02 5.171318703452658383e+02
2.333333333333333370e-01 2.148066578775085418e+02 5.171318703452658383e+02
2.500000000000000000e-01 2.061877933717541396e+02 5.171318703452658383e+02
2.666666666666666630e-01 1.975689288659996805e+02 5.171318703452675436e+02
2.833333333333333259e-01 1.889500643602452215e+02 5.171318703452658383e+02
2.999999999999999889e-01 1.803311998544908192e+02 5.171318703452658383e+02
3.166666666666666519e-01 1.717123353487363602e+02 5.171318703452658383e+02
3.333333333333333148e-01 1.630934708429819580e+02 5.171318703452658383e+02
3.499999999999999778e-01 1.544746063372274989e+02 5.171318703452667478e+02
3.666666666666666408e-01 1.458557418314730683e+02 5.171318703452658383e+02
3.833333333333333037e-01 1.372368773257186376e+02 5.171318703452667478e+02
4.000000000000000222e-01 1.286180128199641786e+02 5.171318703452667478e+02
4.166666666666666852e-01 1.199991483142097479e+02 5.171318703452662930e+02
4.333333333333333481e-01 1.113802838084553031e+02 5.171318703452662930e+02
4.500000000000000111e-01 1.027614193027008724e+02 5.171318703452658383e+02
4.666666666666666741e-01 9.414255479694644180e+01 5.171318703452662930e+02
4.833333333333333370e-01 8.552369029119199695e+01 5.171318703452662930e+02
5.000000000000000000e-01 7.690482578543756631e+01 5.171318703452650425e+02
5.166666666666666075e-01 6.828596127968316409e+01 5.171318703452658383e+02
5.333333333333333259e-01 5.966709677392870503e+01 5.171318703452677710e+02
5.500000000000000444e-01 5.104823226817423887e+01 5.171318703452662930e+02
5.666666666666666519e-01 4.242936776241982955e+01 5.171318703452660657e+02
5.833333333333333703e-01 3.381050325666537049e+01 5.171318703452659520e+02
5.999999999999999778e-01 2.519163875091096472e+01 4.369479204444881475e+02
6.166666666666666963e-01 1.924557257518243247e+01 3.192778425518213226e+02
6.333333333333333037e-01 1.454904399918358671e+01 2.547205885317410718e+02
6.500000000000000222e-01 1.075488629079106317e+01 2.063352548429158446e+02
6.666666666666666297e-01 7.671202171086392241e+00 1.677355438303297035e+02
6.833333333333333481e-01 5.163701496446740258e+00 1.363097202576604730e+02
6.999999999999999556e-01 3.127544829164376150e+00 1.105081433970014331e+02
7.166666666666666741e-01 1.480096716546692948e+00 8.918682286274946591e+01
7.333333333333332815e-01 1.546507337393939752e-01 7.147337665687352626e+01
7.500000000000000000e-01 -9.023491720157579277e-01 5.668520445299586896e+01
7.666666666666666075e-01 -1.734856081360468094e+00 4.428246328748711136e+01
7.833333333333333259e-01 -2.378431281598661684e+00 3.383574208020387886e+01
8.000000000000000444e-01 -2.862714150700597315e+00 2.502082308797709942e+01
8.166666666666666519e-01 -3.212458717864564939e+00 1.759944911516322108e+01
8.333333333333333703e-01 -3.449362454539371292e+00 1.139866147738542423e+01
8.499999999999999778e-01 -3.592414100444079050e+00 6.297859321311980452e+00
8.666666666666666963e-01 -3.659291098583103974e+00 2.203937297187281708e+00
8.833333333333333037e-01 -3.665878677016988441e+00 -9.886812685803469947e-01
9.000000000000000222e-01 -3.626335056297092407e+00 -3.416613439735458613e+00
9.166666666666666297e-01 -3.551991562359139820e+00 -5.224626537703676021e+00
9.333333333333333481e-01 -3.452180838373636540e+00 -6.553706600419646477e+00
9.499999999999999556e-01 -3.333534675678484938e+00 -7.533341026452746725e+00
9.666666666666666741e-01 -3.201069470825211649e+00 -8.252846012113842278e+00
9.833333333333332815e-01 -3.058439808608023558e+00 -8.770292618117236927e+00
1.000000000000000000e+00 -2.908726383554637085e+00 -9.138430558955482397e+00
1.016666666666666607e+00 -2.753825456642840841e+00 -9.408170720131275644e+00
1.033333333333333215e+00 -2.595120692883594593e+00 -9.612064211844222328e+00
1.050000000000000044e+00 -2.433423316248033430e+00 -9.760516149172127953e+00
1.066666666666666652e+00 -2.269770154577857024e+00 -9.833774708725639968e+00
1.083333333333333259e+00 -2.105630825957178764e+00 -9.794430365519602333e+00
1.100000000000000089e+00 -1.943289142393870295e+00 -9.607831713485863290e+00
1.116666666666666696e+00 -1.785369768840983307e+00 -9.257826225952801025e+00
1.133333333333333304e+00 -1.634694934862110260e+00 -8.735157410232492481e+00
1.149999999999999911e+00 -1.494197855166566891e+00 -8.059397495873207973e+00
1.166666666666666741e+00 -1.366048351666336647e+00 -7.292555746221818680e+00
1.183333333333333348e+00 -1.251112663625839616e+00 -6.520717668075349138e+00
1.199999999999999956e+00 -1.148691096063825023e+00 -5.815118916856474307e+00
1.216666666666666563e+00 -1.057275366397290473e+00 -5.215999304254167690e+00
1.233333333333333393e+00 -9.748244525886861078e-01 -4.730480077377356984e+00
1.250000000000000000e+00 -8.995926971513785730e-01 -4.340327821035029565e+00
1.266666666666666607e+00 -8.301468585541851297e-01 -4.017145631726025456e+00
1.283333333333333215e+00 -7.656878427605110504e-01 -3.735722063389741443e+00
1.300000000000000044e+00 -7.056227897745270816e-01 -3.473604234021244963e+00
1.316666666666666652e+00 -6.499010349598028924e-01 -3.214118116301238892e+00
1.333333333333333259e+00 -5.984855192311524519e-01 -2.952929998470614770e+00
1.350000000000000089e+00 -5.514700350107824001e-01 -2.688115154604149293e+00
1.366666666666666696e+00 -5.088816807443474755e-01 -2.417757604490868850e+00
1.383333333333333304e+00 -4.708781148610867717e-01 -2.151287725884964086e+00
1.399999999999999911e+00 -4.371720898815153467e-01 -1.912359533937114664e+00
1.416666666666666741e+00 -4.071327970631829496e-01 -1.715531080998845548e+00
1.433333333333333348e+00 -3.799877205148871617e-01 -1.558147152337665098e+00
1.449999999999999956e+00 -3.551945586519274500e-01 -1.430613128040426174e+00
1.466666666666666563e+00 -3.323006162468729596e-01 -1.326288933638806844e+00
1.483333333333333393e+00 -3.109849275306338923e-01 -1.241379653646237369e+00
1.500000000000000000e+00 -2.909212944586650473e-01 -1.173315921534864970e+00
1.516666666666666607e+00 -2.718743968128050637e-01 -1.118069731574100167e+00
1.533333333333333215e+00 -2.536523034061950455e-01 -1.071089245175011140e+00
1.550000000000000044e+00 -2.361714219736380238e-01 -1.030325717347223557e+00
1.566666666666666652e+00 -2.193081128279542602e-01 -9.960046652664750200e-01
1.583333333333333259e+00 -2.029712664647555231e-01 -9.649761112723734824e-01
1.600000000000000089e+00 -1.871422424522084793e-01 -9.313830071888801188e-01
1.616666666666666696e+00 -1.719251662251261858e-01 -8.910077886821835547e-01
1.633333333333333304e+00 -1.574419828294690293e-01 -8.428213761913627700e-01
1.649999999999999911e+00 -1.438311203520807602e-01 -7.868122259887916359e-01
1.666666666666666741e+00 -1.312149086298426415e-01 -7.236891552532371819e-01
1.683333333333333348e+00 -1.197081485103061865e-01 -6.585627587765009450e-01
1.699999999999999956e+00 -1.092628166706259424e-01 -5.991673089604570013e-01
1.716666666666666563e+00 -9.973590487829095408e-02 -5.500474210885124560e-01
1.733333333333333393e+00 -9.092790263434219478e-02 -5.109972620384820585e-01
1.750000000000000000e+00 -8.270266281034155398e-02 -4.792458590123390150e-01
1.766666666666666607e+00 -7.495304066726422854e-02 -4.513366966310590755e-01
1.783333333333333215e+00 -6.765810625597291905e-02 -4.242530267774723418e-01
1.800000000000000044e+00 -6.081127310801515140e-02 -3.983855841263395647e-01
1.816666666666666652e+00 -5.437858678509493310e-02 -3.770398728270246136e-01
1.833333333333333259e+00 -4.824327734711433141e-02 -3.626992696375606062e-01
1.849999999999999867e+00 -4.228861113050957909e-02 -3.546230569702529811e-01
1.866666666666666696e+00 -3.642250878143923204e-02 -3.483152222612024285e-01
1.883333333333333304e+00 -3.067810372180283102e-02 -3.371294719446856214e-01
1.899999999999999911e+00 -2.518485971661637776e-02 -3.179922375878387886e-01
1.916666666666666741e+00 -2.007836246887487186e-02 -2.935010666789750200e-01
1.933333333333333348e+00 -1.540149082731720985e-02 -5.598844261204203310e-01
1.949999999999999956e+00 -1.415548264860860437e-03 -4.609960090116878018e-01
1.966666666666666563e+00 -3.495719359428322063e-05 -4.237993830562946512e-02
1.983333333333333393e+00 -2.883654673211619986e-06 -1.048715807828496565e-03
2.000000000000000000e+00 0.000000000000000000e+00 -1.730192803926972110e-04
