0.000000000000000000e+00 nan nan
1.666666666666666644e-02 1.285806790784670469e+14 nan
3.333333333333333287e-02 5.022661144729899292e+11 3.856832454084138000e+15
5.000000000000000278e-02 1.959727566245113373e+10 1.500912817985237500e+13
6.666666666666666574e-02 1.961841811244081736e+09 5.780450429547004395e+11
8.333333333333332871e-02 3.291075639611195922e+08 5.655949976723001099e+10
1.000000000000000056e-01 7.652515233641487360e+07 9.204554697505994797e+09
1.166666666666666685e-01 2.228907404425313324e+07 2.066104724963326216e+09
1.333333333333333315e-01 7.654994837637329474e+06 5.792309119405283928e+08
1.499999999999999944e-01 2.981376979568854440e+06 1.911863797638993561e+08
1.666666666666666574e-01 1.282115512174017960e+06 7.152179518633936346e+07
1.833333333333333204e-01 5.973171400242089294e+05 2.954574239684288204e+07
2.000000000000000111e-01 2.972574322792552994e+05 1.322949454161816835e+07
2.166666666666666741e-01 1.563339886369366432e+05 6.332745329085946083e+06
2.333333333333333370e-01 8.616592130972376617e+04 3.206786101520282216e+06
2.500000000000000000e-01 4.944111858626056346e+04 1.703746285614548717e+06
2.666666666666666630e-01 2.937437845590547295e+04 9.435137172642368823e+05
2.833333333333333259e-01 1.799066134411933308e+04 5.417370799298994243e+05
2.999999999999999889e-01 1.131647579157549444e+04 3.210864448343281983e+05
3.166666666666666519e-01 7.287779849641728106e+03 1.957306635495324153e+05
3.333333333333333148e-01 4.792120339924414111e+03 1.223365171589940001e+05
3.499999999999999778e-01 3.209895944341928043e+03 7.819271480380609864e+04
3.666666666666666408e-01 2.185696513130877520e+03 5.099166736905618745e+04
3.833333333333333037e-01 1.510173698706721780e+03 3.386040609466140450e+04
4.000000000000000222e-01 1.057016309975497279e+03 2.285528202548385525e+04
4.166666666666666852e-01 7.483309645239265819e+02 1.565703471101982177e+04
4.333333333333333481e-01 5.351151529415031973e+02 1.124748893376563683e+04
4.500000000000000111e-01 3.734146667317386914e+02 1.125122333370444358e+04
4.666666666666666741e-01 1.600743751513550421e+02 8.464283129032382931e+03
4.833333333333333370e-01 9.127189576399257476e+01 3.372743694850849351e+03
5.000000000000000000e-01 4.764958532299340987e+01 1.983183175676302426e+03
5.166666666666666075e-01 2.516578990811582983e+01 7.135546968082278454e+02
5.333333333333333259e-01 2.386442876271915026e+01 3.202600188757298127e+01
5.500000000000000444e-01 2.409825651186339712e+01 -6.155382216119242855e+00
5.666666666666666519e-01 2.406960816992312502e+01 2.950194236818514781e+01
5.833333333333333703e-01 2.311485843292389220e+01 7.332061030909251542e+01
5.999999999999999778e-01 2.162558782628670784e+01 9.395191321233323833e+01
6.166666666666666963e-01 1.998312799251278449e+01 8.697998449801474408e+01
6.333333333333333037e-01 1.872625500968621637e+01 6.432759524807150342e+01
6.500000000000000222e-01 1.783887481757706794e+01 5.137603346892905876e+01
6.666666666666666297e-01 1.701372056072191441e+01 5.311323838022616428e+01
6.833333333333333481e-01 1.606843353823619580e+01 6.058259412624316553e+01
6.999999999999999556e-01 1.499430075651380889e+01 6.390025340688946898e+01
7.166666666666666741e-01 1.393842509133988017e+01 6.825041852170471657e+01
7.333333333333332815e-01 1.271928680579031834e+01 7.069513017219777851e+01
7.500000000000000000e-01 1.158192075226662077e+01 5.802099600335896668e+01
7.666666666666666075e-01 1.078525360567835278e+01 3.836016586400635475e+01
7.833333333333333259e-01 1.030324855679974227e+01 3.183693539230088021e+01
8.000000000000000444e-01 9.724022425934990110e+00 4.535234126722127002e+01
8.166666666666666519e-01 8.791503847892366608e+00 6.486378074443310027e+01
8.333333333333333703e-01 7.561896401120553612e+00 7.287529907482252156e+01
8.499999999999999778e-01 6.362327212064949222e+00 6.051074349928801155e+01
8.666666666666666963e-01 5.544871617810953168e+00 3.545188840066810343e+01
8.833333333333333037e-01 5.180597598709345775e+00 1.401702480763845848e+01
9.000000000000000222e-01 5.077637457556337885e+00 3.449647087570433257e+00
9.166666666666666297e-01 5.065609362456997999e+00 -3.329378458120615392e+00
9.333333333333333481e-01 5.188616739493691732e+00 -1.438456231704414279e+01
9.499999999999999556e-01 5.545094773025136092e+00 -2.645253575214480080e+01
9.666666666666666741e-01 6.070367931231851699e+00 -3.113287680581161965e+01
9.833333333333332815e-01 6.582857333218856688e+00 -2.651463296228812894e+01
1.000000000000000000e+00 6.954189029974789271e+00 -1.865782776800579867e+01
1.016666666666666607e+00 7.204784925485716585e+00 -9.504834819473781948e+00
1.033333333333333215e+00 7.271016857290582003e+00 3.757619104647007546e+00
1.050000000000000044e+00 7.079530955330816333e+00 1.716298826156822344e+01
1.066666666666666652e+00 6.698917248571641281e+00 2.283296302185760851e+01
1.083333333333333259e+00 6.318432187935562716e+00 2.208361522385963127e+01
1.100000000000000089e+00 5.962796741109653631e+00 2.287199601574255681e+01
1.116666666666666696e+00 5.556032320744144215e+00 2.901586210569512048e+01
1.133333333333333304e+00 4.995601337586482948e+00 3.751458350413563636e+01
1.149999999999999911e+00 4.305546203939623062e+00 4.181006511184697416e+01
1.166666666666666741e+00 3.601932500524917202e+00 3.960526161144762369e+01
1.183333333333333348e+00 2.985370816891368850e+00 3.485950538637874985e+01
1.199999999999999956e+00 2.439948987645625511e+00 3.229638982163480421e+01
1.216666666666666563e+00 1.908824489503541999e+00 3.091810913022451501e+01
1.233333333333333393e+00 1.409345349971474981e+00 2.622408122807576802e+01
1.250000000000000000e+00 1.034688448567683050e+00 1.800015466501053751e+01
1.266666666666666607e+00 8.093401944711237084e-01 1.082290834459010220e+01
1.283333333333333215e+00 6.739248370813463174e-01 7.950064623409647702e+00
1.300000000000000044e+00 5.443380403574687998e-01 8.528673996725245843e+00
1.316666666666666652e+00 3.896357038571714448e-01 9.832359638021333836e+00
1.333333333333333259e+00 2.165927190900910071e-01 9.400569044079063019e+00
1.350000000000000089e+00 7.628340238786934790e-02 6.875610946320624528e+00
1.366666666666666696e+00 -1.259431245392979293e-02 2.300430395711811293e+00
1.383333333333333304e+00 -3.976108025243590971e-04 -3.798002283789954525e+00
1.399999999999999911e+00 1.140057636724020190e-01 -8.872686714373703154e+00
1.416666666666666741e+00 2.953586130099323803e-01 -1.039034217016414630e+01
1.433333333333333348e+00 4.603505026778735298e-01 -8.231442308508977845e+00
1.449999999999999956e+00 5.697400232935649900e-01 -4.145196710908736648e+00
1.466666666666666563e+00 5.985237263748314218e-01 1.040722612009384873e+00
1.483333333333333393e+00 5.350492695599188275e-01 6.422468382149454591e+00
1.500000000000000000e+00 3.844414469698496095e-01 9.588958811376086189e+00
1.516666666666666607e+00 2.154173091807159435e-01 7.945702487166668604e+00
1.533333333333333215e+00 1.195846973976273098e-01 3.126758250090324598e+00
1.550000000000000044e+00 1.111920341777051235e-01 3.945945310775194059e-01
1.566666666666666652e+00 1.064315463617099972e-01 3.249635073098470883e+00
1.583333333333333259e+00 2.870865074422759844e-03 9.009960465307463195e+00
1.600000000000000089e+00 -1.939004691485388121e-01 1.075562300291130136e+01
1.616666666666666696e+00 -3.556499016892872844e-01 5.481583443038931414e+00
1.633333333333333304e+00 -3.766199172498365111e-01 -2.980983349464318088e+00
1.649999999999999911e+00 -2.562837900404766889e-01 -8.638007158468687052e+00
1.666666666666666741e+00 -8.868634530088027879e-02 -9.695294436494856782e+00
1.683333333333333348e+00 6.689269117601850945e-02 -8.994709985450684897e+00
1.699999999999999956e+00 2.111373208808091928e-01 -9.087319321975407149e+00
1.716666666666666563e+00 3.698033352418654274e-01 -9.305920572740465246e+00
1.733333333333333393e+00 5.213346733054913251e-01 -7.261364293491544331e+00
1.750000000000000000e+00 6.118488116915835606e-01 -3.345723259586019793e+00
1.766666666666666607e+00 6.328587819583586516e-01 -9.219624708025753179e-01
1.783333333333333215e+00 6.425808940516694046e-01 -1.318490703636818751e+00
1.800000000000000044e+00 6.768084720795859432e-01 -1.799678340267312215e+00
1.816666666666666652e+00 7.025701720605798117e-01 2.400659654078263205e-01
1.833333333333333259e+00 6.688062732326583992e-01 4.130203785394174432e+00
1.849999999999999867e+00 5.648967125474406714e-01 7.056010501823038794e+00
1.866666666666666696e+00 4.336059231718904505e-01 7.516431995090465001e+00
1.883333333333333304e+00 3.143489793777585195e-01 6.484796898906794560e+00
1.899999999999999911e+00 2.174460265416639781e-01 5.377101804284839304e+00
1.916666666666666741e+00 1.351122525682638686e-01 4.575063396225135470e+00
1.933333333333333348e+00 6.494391333415945600e-02 4.282917036351327589e+00
1.949999999999999956e+00 -7.651648643447052194e-03 2.076129170817668346e+00
1.966666666666666563e+00 -4.260392359762815891e-03 -2.105696568410585501e-01
1.983333333333333393e+00 -6.326600820784339515e-04 -1.278117707928844715e-01
2.000000000000000000e+00 0.000000000000000000e+00 -3.795960492470603492e-02
