0.000000000000000000e+00 7.764836333333361154e+02 1.068644000000008418e+03
1.666666666666666644e-02 7.586729000000026417e+02 1.068644000000001597e+03
3.333333333333333287e-02 7.408621666666693955e+02 1.068644000000001597e+03
5.000000000000000278e-02 7.230514333333359218e+02 1.068644000000005008e+03
6.666666666666666574e-02 7.052407000000025619e+02 1.068644000000005008e+03
8.333333333333332871e-02 6.874299666666690882e+02 1.068644000000005008e+03
1.000000000000000056e-01 6.696192333333357283e+02 1.068644000000005008e+03
1.166666666666666685e-01 6.518085000000022546e+02 1.068644000000001597e+03
1.333333333333333315e-01 6.339977666666690084e+02 1.068644000000001597e+03
1.499999999999999944e-01 6.161870333333355347e+02 1.068644000000005008e+03
1.666666666666666574e-01 5.983763000000021748e+02 1.068644000000005008e+03
1.833333333333333204e-01 5.805655666666687011e+02 1.068644000000005008e+03
2.000000000000000111e-01 5.627548333333353412e+02 1.068644000000001597e+03
2.166666666666666741e-01 5.449441000000019812e+02 1.068644000000005008e+03
2.333333333333333370e-01 5.271333666666685076e+02 1.068644000000006827e+03
2.500000000000000000e-01 5.093226333333350908e+02 1.068644000000003416e+03
2.666666666666666630e-01 4.915119000000017309e+02 1.068644000000003416e+03
2.833333333333333259e-01 4.737011666666683141e+02 1.068644000000005008e+03
2.999999999999999889e-01 4.558904333333348973e+02 1.068644000000003416e+03
3.166666666666666519e-01 4.380797000000015373e+02 1.068644000000003416e+03
3.333333333333333148e-01 4.202689666666681205e+02 1.068644000000005008e+03
3.499999999999999778e-01 4.024582333333347037e+02 1.068644000000003416e+03
3.666666666666666408e-01 3.846475000000013438e+02 1.068644000000003416e+03
3.833333333333333037e-01 3.668367666666679270e+02 1.068644000000006827e+03
4.000000000000000222e-01 3.490260333333344533e+02 1.068644000000005008e+03
4.166666666666666852e-01 3.312153000000010934e+02 1.068644000000003416e+03
4.333333333333333481e-01 3.134045666666676766e+02 1.068644000000003416e+03
4.500000000000000111e-01 2.955938333333343166e+02 1.068644000000003416e+03
4.666666666666666741e-01 2.777831000000008999e+02 1.068644000000005008e+03
4.833333333333333370e-01 2.599723666666674831e+02 1.068644000000003416e+03
5.000000000000000000e-01 2.421616333333341231e+02 1.068644000000001597e+03
5.166666666666666075e-01 2.243509000000007632e+02 1.068644000000004098e+03
5.333333333333333259e-01 2.065401666666673179e+02 2.829196997248046955e+03
5.500000000000000444e-01 1.300443334250658722e+02 3.333028973038801269e+03
5.666666666666666519e-01 9.543920089870728418e+01 1.252050949032606241e+03
5.833333333333333703e-01 8.830930179064566232e+01 9.785060423299494232e+02
5.999999999999999778e-01 6.282233282104230199e+01 9.218991958950771277e+02
6.166666666666666963e-01 5.757932859414309235e+01 4.511180102842963038e+02
6.333333333333333037e-01 4.778506581156575805e+01 5.800018005072518008e+02
6.500000000000000222e-01 3.824593524390136423e+01 4.664998759598395850e+02
6.666666666666666297e-01 3.223506994623777189e+01 3.011731598767394189e+02
6.833333333333333481e-01 2.820682991467671741e+01 3.083615590054691324e+02
6.999999999999999556e-01 2.195635131272213414e+01 3.099776557529051502e+02
7.166666666666666741e-01 1.787424138957987907e+01 2.295119139409807758e+02
7.333333333333332815e-01 1.430595418135610863e+01 2.024574786017265353e+02
7.500000000000000000e-01 1.112565876952232813e+01 1.720797172191587094e+02
7.666666666666666075e-01 8.569963607384151416e+00 1.401106821240516354e+02
7.833333333333333259e-01 6.455302698720607246e+00 1.149193325232593423e+02
8.000000000000000444e-01 4.739319189942173161e+00 9.465133530373952908e+01
8.166666666666666519e-01 3.300258188595956099e+00 7.955301239170657368e+01
8.333333333333333703e-01 2.087552110218620971e+00 6.607696174426853020e+01
8.499999999999999778e-01 1.097692797120338515e+00 5.394305195064829661e+01
8.666666666666666963e-01 2.894503785303443877e-01 4.442954770708680456e+01
8.833333333333333037e-01 -3.832921264492214486e-01 3.723733162015660270e+01
9.000000000000000222e-01 -9.517940088082090799e-01 3.246313185691783332e+01
9.166666666666666297e-01 -1.465396521679815933e+00 2.805163451040893108e+01
9.333333333333333481e-01 -1.886848492488506723e+00 2.225814464344396981e+01
9.499999999999999556e-01 -2.207334676461281564e+00 1.783106487771165050e+01
9.666666666666666741e-01 -2.481217321745561755e+00 1.521452118928204200e+01
9.833333333333332815e-01 -2.714485382770682964e+00 1.412856899260035881e+01
1.000000000000000000e+00 -2.952169621498907048e+00 1.251135463524884806e+01
1.016666666666666607e+00 -3.131530537278977899e+00 1.085282456738140588e+01
1.033333333333333215e+00 -3.313930440411620548e+00 1.003865713486633560e+01
1.050000000000000044e+00 -3.466152441774522419e+00 9.386593059119618943e+00
1.066666666666666652e+00 -3.626816875715607846e+00 7.650659112085587132e+00
1.083333333333333259e+00 -3.721174412177375324e+00 4.713873006747899552e+00
1.100000000000000089e+00 -3.783945975940537831e+00 1.928327190510499278e+00
1.116666666666666696e+00 -3.785451985194391966e+00 -6.961739339030703633e-01
1.133333333333333304e+00 -3.760740178143768819e+00 -2.070720575312576806e+00
1.149999999999999911e+00 -3.716427966017306073e+00 -3.965966478249827176e+00
1.166666666666666741e+00 -3.628541295535441247e+00 -5.740800136921513364e+00
1.183333333333333348e+00 -3.525067961453255627e+00 -6.799863795973140057e+00
1.199999999999999956e+00 -3.401879169003003245e+00 -6.675997857253750389e+00
1.216666666666666563e+00 -3.302534699544797281e+00 -6.505803022433904736e+00
1.233333333333333393e+00 -3.185019068255206420e+00 -6.465503665464908956e+00
1.250000000000000000e+00 -3.087017910695966982e+00 -5.941805031046509811e+00
1.266666666666666607e+00 -2.986958900553656093e+00 -5.752322612609046537e+00
1.283333333333333215e+00 -2.895273823608998764e+00 -5.531657173504265224e+00
1.300000000000000044e+00 -2.802570328103513919e+00 -5.527891501514474726e+00
1.316666666666666652e+00 -2.711010773558516274e+00 -4.791760496144910064e+00
1.333333333333333259e+00 -2.642844978232016917e+00 -3.873517113834998860e+00
1.350000000000000089e+00 -2.581893536430682978e+00 -3.511807553169581375e+00
1.366666666666666696e+00 -2.525784726459697538e+00 -3.512543885150409828e+00
1.383333333333333304e+00 -2.464808740259002651e+00 -3.721780462220420915e+00
1.399999999999999911e+00 -2.401725377719016841e+00 -3.834653135367940280e+00
1.416666666666666741e+00 -2.336986969080071308e+00 -3.579625249863682690e+00
1.433333333333333348e+00 -2.282404536056894084e+00 -3.269611542725865405e+00
1.449999999999999956e+00 -2.227999917655875795e+00 -3.661762009614117908e+00
1.466666666666666563e+00 -2.160345802403090154e+00 -4.743956690027988365e+00
1.483333333333333393e+00 -2.069868027988276182e+00 -6.271940943631586940e+00
1.500000000000000000e+00 -1.951281104282037271e+00 -7.434199525330464908e+00
1.516666666666666607e+00 -1.822061377143927352e+00 -7.522131306630120307e+00
1.533333333333333215e+00 -1.700543394061033275e+00 -7.231199369865213278e+00
1.550000000000000044e+00 -1.581021398148420243e+00 -7.046974766376705723e+00
1.566666666666666652e+00 -1.465644235181809751e+00 -7.166492014372534136e+00
1.583333333333333259e+00 -1.342138331002669105e+00 -7.326463074855221080e+00
1.600000000000000089e+00 -1.221428799353302397e+00 -7.285596153749636095e+00
1.616666666666666696e+00 -1.099285125877681235e+00 -7.720567441010255827e+00
1.633333333333333304e+00 -9.640765513196272174e-01 -8.175866662874234692e+00
1.649999999999999911e+00 -8.267562371152067380e-01 -8.362882531816204335e+00
1.666666666666666741e+00 -6.853138002590870581e-01 -8.278123648188350003e+00
1.683333333333333348e+00 -5.508187821755951008e-01 -7.636083668489070497e+00
1.699999999999999956e+00 -4.307776779761180452e-01 -6.803074879784115403e+00
1.716666666666666563e+00 -3.240496195161245985e-01 -5.886124627060595138e+00
1.733333333333333393e+00 -2.345735237407648721e-01 -4.999997225152757352e+00
1.750000000000000000e+00 -1.573830453443660349e-01 -4.330388009864282850e+00
1.766666666666666607e+00 -9.022725674528879469e-02 -3.608843412056156552e+00
1.783333333333333215e+00 -3.708826494249415490e-02 -2.857026419304828480e+00
1.800000000000000044e+00 5.006957231538822217e-03 -2.189703247714986478e+00
1.816666666666666652e+00 3.590184331467206197e-02 -1.682038687845703651e+00
1.833333333333333259e+00 6.107491349306228001e-02 -1.296619210183045601e+00
1.849999999999999867e+00 7.912248365410691486e-02 -9.045851811694233247e-01
1.866666666666666696e+00 9.122775286537639083e-02 -4.534046850408559037e-01
1.883333333333333304e+00 9.423597315546877740e-02 1.203472078497792863e-01
1.899999999999999911e+00 8.721617927038374796e-02 6.833106953641618908e-01
1.916666666666666741e+00 7.145894997666338289e-02 1.010740756526207207e+00
1.933333333333333348e+00 5.352482071951017439e-02 1.945061008140726244e+00
1.949999999999999956e+00 6.623583038639174921e-03 1.582824197456496940e+00
1.966666666666666563e+00 7.640141376269461151e-04 1.966439342852392969e-01
1.983333333333333393e+00 6.878522913119826745e-05 2.292042412880838237e-02
2.000000000000000000e+00 0.000000000000000000e+00 4.127113747871896318e-03
