0	1.09914e+07	2134.7
0.0166667	1.09914e+07	6609.28
0.0333333	1.09912e+07	25676
0.05	1.09906e+07	83734.5
0.0666667	1.09884e+07	241573
0.0833333	1.09825e+07	623603
0.1	1.09676e+07	1.45233e+06
0.116667	1.09341e+07	3.07249e+06
0.133333	1.08652e+07	5.93811e+06
0.15	1.07361e+07	1.05336e+07
0.166667	1.05141e+07	1.72172e+07
0.183333	1.01622e+07	2.6014e+07
0.2	9.64698e+06	3.64308e+07
0.216667	8.94788e+06	4.73928e+07
0.233333	8.06722e+06	5.73765e+07
0.25	7.03533e+06	6.4744e+07
0.266667	5.90908e+06	6.81814e+07
0.283333	4.76262e+06	6.70834e+07
0.3	3.67297e+06	6.17285e+07
0.316667	2.705e+06	5.31758e+07
0.333333	1.90044e+06	4.29331e+07
0.35	1.2739e+06	3.25339e+07
0.366667	815978	2.31844e+07
0.383333	501086	1.55808e+07
0.4	296617	9.91505e+06
0.416667	170584	6.00983e+06
0.433333	96288.8	3.4982e+06
0.45	53977.7	1.9766e+06
0.466667	30402.2	1.09841e+06
0.483333	17364	608946
0.5	10104	341402
0.516667	5983.88	195688
0.533333	3581.06	115335
0.55	2139.37	71996.5
0.566667	1181.18	44800.2
0.583333	646.028	24823.2
0.6	353.741	13684.7
0.616667	189.873	7546.97
0.633333	102.175	3994.93
0.65	56.7086	2055.6
0.666667	33.655	1039.55
0.683333	22.057	533.314
0.7	15.8779	299.774
0.716667	12.0645	198.412
0.733333	9.26416	152.318
0.75	6.98724	124.659
0.766667	5.10885	101.185
0.783333	3.61443	78.7047
0.8	2.48536	58.5726
0.816667	1.66201	42.9051
0.833333	1.05519	32.225
0.85	0.587842	25.0689
0.866667	0.219557	19.589
0.883333	-0.0651247	15.1057
0.9	-0.283968	11.9153
0.916667	-0.462302	9.94384
0.933333	-0.615429	8.67554
0.95	-0.751487	8.13445
0.966667	-0.886577	8.677
0.983333	-1.04072	9.73875
1	-1.2112	9.62717
1.01667	-1.36163	7.12961
1.03333	-1.44886	3.0791
1.05	-1.46426	-0.210468
1.06667	-1.44184	-1.16402
1.08333	-1.42546	-0.349284
1.1	-1.4302	0.329152
1.11667	-1.43643	-0.384287
1.13333	-1.41739	-2.14722
1.15	-1.36486	-3.77507
1.16667	-1.29155	-4.46042
1.18333	-1.21618	-4.22948
1.2	-1.15057	-3.56076
1.21667	-1.09749	-2.76443
1.23333	-1.05842	-1.69841
1.25	-1.04087	0.00383804
1.26667	-1.05855	2.36894
1.28333	-1.11984	4.67731
1.3	-1.21446	5.90865
1.31667	-1.31679	5.67049
1.33333	-1.40348	4.55456
1.35	-1.46861	3.60027
1.36667	-1.52349	3.30055
1.38333	-1.57863	3.09908
1.4	-1.62679	2.0565
1.41667	-1.64718	0.00335963
1.43333	-1.6269	-2.13308
1.45	-1.57608	-3.28064
1.46667	-1.51755	-3.39305
1.48333	-1.46298	-3.45309
1.5	-1.40244	-4.33687
1.51667	-1.31841	-5.91446
1.53333	-1.20529	-7.35748
1.55	-1.07316	-8.06733
1.56667	-0.936384	-8.12596
1.58333	-0.802299	-7.95691
1.6	-0.671153	-7.80946
1.61667	-0.541984	-7.67532
1.63333	-0.415309	-7.51052
1.65	-0.291633	-7.31305
1.66667	-0.171541	-6.99729
1.68333	-0.0583902	-6.38771
1.7	0.0413827	-5.39605
1.71667	0.121478	-4.11508
1.73333	0.178552	-2.74457
1.75	0.212964	-1.49249
1.76667	0.228302	-0.518473
1.78333	0.230246	0.118057
1.8	0.224366	0.504819
1.81667	0.213419	0.818534
1.83333	0.197082	1.17901
1.85	0.174119	1.56812
1.86667	0.144811	1.87589
1.88333	0.111589	1.99955
1.9	0.0781599	1.90255
1.91667	0.048171	1.61113
1.93333	0.0244556	1.18827
1.95	0.00856188	0.730763
1.96667	9.6877e-05	0.350067
1.98333	-0.00310701	0.00290631
2	0	-0.186421
