0.000000 92205200.000000 84438200.000000
0.016667 90797800.000000 156145600.000000
0.033333 87000200.000000 270898000.000000
0.050000 81767800.000000 330896000.000000
0.066667 75970400.000000 351244000.000000
0.083333 70059800.000000 354640000.000000
0.100000 64149000.000000 354640000.000000
0.116667 58238400.000000 354640000.000000
0.133333 52327800.000000 354640000.000000
0.150000 46417000.000000 354640000.000000
0.166667 40506400.000000 354640000.000000
0.183333 34595800.000000 354640000.000000
0.200000 28685000.000000 353692000.000000
0.216667 22806000.000000 347610000.000000
0.233333 17098040.000000 328270000.000000
0.250000 11863640.000000 287968000.000000
0.266667 7499140.000000 227068000.000000
0.283333 4294700.000000 157171200.000000
0.300000 2260100.000000 94707800.000000
0.316667 1137774.000000 50464600.000000
0.333333 577952.000000 24987800.000000
0.350000 304850.000000 12352780.000000
0.366667 166193.200000 6331300.000000
0.383333 93807.200000 3362600.000000
0.400000 54106.800000 1855934.000000
0.416667 31942.800000 1045688.000000
0.433333 19250.460000 603844.000000
0.450000 11814.560000 356546.000000
0.466667 7365.560000 219196.000000
0.483333 4508.040000 147977.800000
0.500000 2432.960000 98964.600000
0.516667 1209.214000 56999.800000
0.533333 532.970000 31433.400000
0.550000 161.435000 13436.020000
0.566667 85.103400 2967.280000
0.583333 62.525600 921.976000
0.600000 54.371000 348.970000
0.616667 50.893400 212.716000
0.633333 47.280400 245.942000
0.650000 42.695200 280.668000
0.666667 37.924800 273.244000
0.683333 33.587200 246.360000
0.700000 29.712800 222.164000
0.716667 26.181600 203.408000
0.733333 22.932400 189.600800
0.750000 19.861620 182.255400
0.766667 16.857320 178.516600
0.783333 13.911060 171.121200
0.800000 11.153280 157.153600
0.816667 8.672620 142.866200
0.833333 6.391060 134.219400
0.850000 4.198640 127.663400
0.866667 2.135620 116.344400
0.883333 0.320484 102.160800
0.900000 -1.269738 93.092200
0.916667 -2.782580 90.448000
0.933333 -4.284680 85.386400
0.950000 -5.628800 70.819000
0.966667 -6.645300 52.019800
0.983333 -7.362800 39.373600
1.000000 -7.957760 36.307200
1.016670 -8.573040 37.640000
1.033330 -9.212420 36.545400
1.050000 -9.791220 30.063400
1.066670 -10.214540 20.170400
1.083330 -10.463560 12.671860
1.100000 -10.636940 12.410540
1.116670 -10.877240 16.376740
1.133330 -11.182820 15.719020
1.150000 -11.401220 8.060580
1.166670 -11.451520 0.904176
1.183330 -11.431360 1.370204
1.200000 -11.497180 6.287300
1.216670 -11.640920 7.053000
1.233330 -11.732280 1.618640
1.250000 -11.694880 -5.856460
1.266670 -11.537060 -12.040760
1.283330 -11.293520 -16.038640
1.300000 -11.002440 -17.001980
1.316670 -10.726800 -14.799040
1.333330 -10.509140 -12.383300
1.350000 -10.314020 -13.790080
1.366670 -10.049480 -18.817020
1.383330 -9.686780 -22.626800
1.400000 -9.295240 -21.954600
1.416670 -8.954960 -18.936380
1.433330 -8.664040 -18.163500
1.450000 -8.349520 -20.824400
1.466670 -7.969880 -23.915000
1.483330 -7.552340 -24.693000
1.500000 -7.146780 -23.408000
1.516670 -6.772080 -22.008600
1.533330 -6.413160 -21.275400
1.550000 -6.062900 -20.531000
1.566670 -5.728800 -19.518080
1.583330 -5.412300 -18.737900
1.600000 -5.104200 -18.610700
1.616670 -4.791940 -19.524120
1.633330 -4.453400 -21.646200
1.650000 -4.070400 -23.459800
1.666670 -3.671400 -22.162000
1.683330 -3.331660 -16.964700
1.700000 -3.105920 -11.054100
1.716670 -2.963200 -8.625280
1.733330 -2.818400 -10.332000
1.750000 -2.618800 -13.205840
1.766670 -2.378200 -14.310700
1.783330 -2.141780 -13.071520
1.800000 -1.942492 -10.708720
1.816670 -1.784816 -8.688080
1.833330 -1.652890 -7.599780
1.850000 -1.531490 -7.032800
1.866670 -1.418462 -6.365860
1.883330 -1.319294 -5.640800
1.900000 -1.230436 -5.614820
1.916670 -1.132134 -6.895320
1.933330 -1.000592 -9.290260
1.950000 -0.822458 -12.176980
1.966670 -0.594694 -15.088720
1.983330 -0.319502 -17.840800
2.000000 0.000000 -19.170060
