0.000000 28863225.000000 26432250.000000
0.016667 28422675.000000 48879300.000000
0.033333 27233925.000000 84801000.000000
0.050000 25596000.000000 103582500.000000
0.066667 23781150.000000 109952250.000000
0.083333 21930900.000000 111015750.000000
0.100000 20080650.000000 111015750.000000
0.116667 18230400.000000 111015750.000000
0.133333 16380150.000000 111015750.000000
0.150000 14529900.000000 111015750.000000
0.166667 12679650.000000 111015750.000000
0.183333 10829400.000000 111015750.000000
0.200000 8979075.000000 110718750.000000
0.216667 7138747.500000 108814500.000000
0.233333 5351962.500000 102759750.000000
0.250000 3713407.500000 90143250.000000
0.266667 2347185.000000 71078850.000000
0.283333 1344112.500000 49197975.000000
0.300000 707256.000000 29644275.000000
0.316667 355971.750000 15794625.000000
0.333333 180768.750000 7819800.000000
0.350000 95311.500000 3865065.000000
0.366667 51933.225000 1985565.000000
0.383333 29126.175000 1055347.500000
0.400000 16755.075000 578113.500000
0.416667 9855.750000 325313.250000
0.433333 5911.320000 187503.000000
0.450000 3605.625000 110434.500000
0.466667 2230.177500 70483.200000
0.483333 1256.190000 49329.600000
0.500000 585.859500 30316.275000
0.516667 245.645250 14421.600000
0.533333 105.140250 5664.855000
0.550000 56.816325 2056.110000
0.566667 36.603225 916.012500
0.583333 26.282550 487.885500
0.600000 20.340450 297.778500
0.616667 16.356600 219.418500
0.633333 13.026450 191.293500
0.650000 9.980175 170.584500
0.666667 7.340310 142.555500
0.683333 5.228302 111.697500
0.700000 3.617055 83.744250
0.716667 2.436825 58.305450
0.733333 1.673535 34.609425
0.750000 1.283175 18.370800
0.766667 1.061175 15.268275
0.783333 0.774233 20.970450
0.800000 0.362162 25.461150
0.816667 -0.074471 24.155100
0.833333 -0.443007 19.924500
0.850000 -0.738622 16.084800
0.866667 -0.979170 12.735300
0.883333 -1.163130 8.094225
0.900000 -1.248975 0.754868
0.916667 -1.188292 -7.848675
0.933333 -0.987353 -13.406325
0.950000 -0.741417 -13.468200
0.966667 -0.538411 -11.470575
0.983333 -0.359064 -12.202200
1.000000 -0.131670 -14.942175
1.016670 0.139008 -14.734650
1.033330 0.359486 -10.068150
1.050000 0.474612 -4.605570
1.066670 0.513004 -1.448122
1.083330 0.522883 -0.302727
1.100000 0.523096 0.078165
1.116670 0.520277 0.052127
1.133330 0.521358 0.352651
1.150000 0.508522 2.550885
1.166670 0.436328 6.922215
1.183330 0.277782 11.598300
1.200000 0.049718 14.162400
1.216670 -0.194297 13.348125
1.233330 -0.395219 10.439250
1.250000 -0.542272 8.116275
1.266670 -0.665761 7.308435
1.283330 -0.785887 6.583860
1.300000 -0.885225 4.879215
1.316670 -0.948525 3.442260
1.333330 -0.999968 3.272880
1.350000 -1.057627 2.624077
1.366670 -1.087433 -0.408806
1.383330 -1.044000 -4.124302
1.400000 -0.949958 -4.671765
1.416670 -0.888270 -1.426147
1.433330 -0.902423 2.092493
1.450000 -0.958020 3.099743
1.466670 -1.005742 2.034420
1.483330 -1.025835 0.727041
1.500000 -1.029983 0.353392
1.516670 -1.037618 0.908528
1.533330 -1.060260 1.762328
1.550000 -1.096358 2.031360
1.566670 -1.127978 1.418805
1.583330 -1.143652 0.687595
1.600000 -1.150897 0.133739
1.616670 -1.148108 -1.101015
1.633330 -1.114192 -3.155475
1.650000 -1.042928 -4.594568
1.666670 -0.961043 -4.174568
1.683330 -0.903773 -2.605980
1.700000 -0.874178 -1.921433
1.716670 -0.839730 -2.879745
1.733330 -0.778185 -4.404187
1.750000 -0.692922 -5.347395
1.766670 -0.599938 -5.204505
1.783330 -0.519438 -4.139123
1.800000 -0.461967 -2.890703
1.816670 -0.423082 -2.223045
1.833330 -0.387865 -2.285055
1.850000 -0.346913 -2.448488
1.866670 -0.306250 -2.072460
1.883330 -0.277831 -1.245525
1.900000 -0.264732 -0.552768
1.916670 -0.259406 -0.416203
1.933330 -0.250858 -0.957067
1.950000 -0.227503 -2.157825
1.966670 -0.178931 -3.781440
1.983330 -0.101456 -5.367930
2.000000 0.000000 -6.087307
