0	2.12285e+07	4070.5
0.0166667	2.12285e+07	12661.2
0.0333333	2.12281e+07	49385.2
0.05	2.12268e+07	161416
0.0666667	2.12227e+07	466141
0.0833333	2.12113e+07	1.2038e+06
0.1	2.11826e+07	2.80408e+06
0.116667	2.11178e+07	5.93267e+06
0.133333	2.09849e+07	1.14664e+07
0.15	2.07356e+07	2.03406e+07
0.166667	2.03068e+07	3.32474e+07
0.183333	1.96274e+07	5.02351e+07
0.2	1.86323e+07	7.03517e+07
0.216667	1.72823e+07	9.15215e+07
0.233333	1.55816e+07	1.10803e+08
0.25	1.35889e+07	1.25033e+08
0.266667	1.14139e+07	1.31674e+08
0.283333	9.19976e+06	1.29556e+08
0.3	7.09533e+06	1.19218e+08
0.316667	5.22584e+06	1.02704e+08
0.333333	3.67188e+06	8.29246e+07
0.35	2.46168e+06	6.28427e+07
0.366667	1.57712e+06	4.47869e+07
0.383333	968785	3.0102e+07
0.4	573718	1.91589e+07
0.416667	330155	1.16155e+07
0.433333	186535	6.76328e+06
0.45	104713	3.82307e+06
0.466667	59099.7	2.12552e+06
0.483333	33862	1.17872e+06
0.5	19809	660503
0.516667	11845.3	377729
0.533333	7218.06	221843
0.55	4450.53	134143
0.566667	2746.65	84063.9
0.583333	1648.4	55503.6
0.6	896.527	34128.6
0.616667	510.775	18439
0.633333	281.894	10737.2
0.65	152.867	5969.72
0.666667	82.9037	3209.29
0.683333	45.8903	1687.71
0.7	26.6468	878.036
0.716667	16.6224	466.574
0.733333	11.0943	268.282
0.75	7.67966	174.174
0.766667	5.28848	126.387
0.783333	3.46676	97.8851
0.8	2.02564	78.008
0.816667	0.866498	62.8624
0.833333	-0.0697718	50.4691
0.85	-0.815807	39.8184
0.866667	-1.39705	30.9788
0.883333	-1.84843	24.3311
0.9	-2.20809	19.4946
0.916667	-2.49825	15.4263
0.933333	-2.7223	11.5718
0.95	-2.88398	8.42413
0.966667	-3.0031	6.61552
0.983333	-3.1045	5.98201
1	-3.2025	5.78618
1.01667	-3.29737	5.41307
1.03333	-3.38294	4.60599
1.05	-3.45091	3.23304
1.06667	-3.49071	1.31939
1.08333	-3.49488	-0.79377
1.1	-3.46425	-2.681
1.11667	-3.40552	-4.23014
1.13333	-3.32324	-5.61557
1.15	-3.21833	-6.89968
1.16667	-3.09325	-7.81859
1.18333	-2.95771	-8.00142
1.2	-2.82654	-7.38882
1.21667	-2.71142	-6.34591
1.23333	-2.61501	-5.38241
1.25	-2.532	-4.73537
1.26667	-2.45716	-4.21557
1.28333	-2.39149	-3.5122
1.3	-2.34009	-2.56685
1.31667	-2.30592	-1.60539
1.33333	-2.28658	-0.909979
1.35	-2.27559	-0.599051
1.36667	-2.26661	-0.558241
1.38333	-2.25698	-0.570964
1.4	-2.24758	-0.549503
1.41667	-2.23867	-0.651128
1.43333	-2.22587	-1.15185
1.45	-2.20027	-2.16472
1.46667	-2.15371	-3.48921
1.48333	-2.08396	-4.73523
1.5	-1.99587	-5.56861
1.51667	-1.89834	-5.91362
1.53333	-1.79875	-5.97914
1.55	-1.69904	-6.06373
1.56667	-1.59663	-6.29746
1.58333	-1.48912	-6.5935
1.6	-1.37685	-6.84286
1.61667	-1.26103	-7.06641
1.63333	-1.1413	-7.33278
1.65	-1.0166	-7.57823
1.66667	-0.888691	-7.61214
1.68333	-0.762865	-7.31581
1.7	-0.644831	-6.76502
1.71667	-0.537365	-6.12982
1.73333	-0.440503	-5.50858
1.75	-0.353745	-4.90099
1.76667	-0.277137	-4.2894
1.78333	-0.210765	-3.6944
1.8	-0.15399	-3.15445
1.81667	-0.105617	-2.68442
1.83333	-0.0645098	-2.26304
1.85	-0.0301827	-1.84524
1.86667	-0.00300173	-1.39338
1.88333	0.0162635	-0.914262
1.9	0.0274737	-0.464123
1.91667	0.0317342	-0.102769
1.93333	0.0308993	0.151795
1.95	0.0266744	0.31456
1.96667	0.020414	0.389547
1.98333	0.0136895	0.612419
2	0	0.821368
