0	1.0585e+07	7.08158e+06
0.0166667	1.0467e+07	1.3838e+07
0.0333333	1.01237e+07	2.64579e+07
0.05	9.58504e+06	3.69378e+07
0.0666667	8.89247e+06	4.48255e+07
0.0833333	8.09085e+06	5.01312e+07
0.1	7.22143e+06	5.31694e+07
0.116667	6.31854e+06	5.43407e+07
0.133333	5.41007e+06	5.39568e+07
0.15	4.51998e+06	5.21717e+07
0.166667	3.67101e+06	4.90272e+07
0.183333	2.88574e+06	4.45669e+07
0.2	2.18545e+06	3.89558e+07
0.216667	1.58721e+06	3.2542e+07
0.233333	1.10071e+06	2.58319e+07
0.25	726148	1.93899e+07
0.266667	454380	1.3708e+07
0.283333	269214	9.1014e+06
0.3	151000	5.6651e+06
0.316667	80376.9	3.30496e+06
0.333333	40834.9	1.81139e+06
0.35	19997.1	937773
0.366667	9575.8	463011
0.383333	4563.44	221084
0.4	2206.34	104020
0.416667	1096.12	49302.1
0.433333	562.937	23911.3
0.45	299.073	11955.7
0.466667	164.413	6154.6
0.483333	93.9192	3243.52
0.5	56.2956	1741.21
0.516667	35.8788	951.536
0.533333	24.5777	532.568
0.55	18.1266	309.747
0.566667	14.2528	191.599
0.583333	11.7399	129.466
0.6	9.93725	97.1972
0.616667	8.50004	80.5354
0.633333	7.25274	71.4668
0.65	6.11781	65.4239
0.666667	5.07194	60.1523
0.683333	4.11273	55.0928
0.7	3.23552	50.5244
0.716667	2.42859	46.5864
0.733333	1.68264	42.8533
0.75	1.00014	38.7119
0.766667	0.392238	33.9879
0.783333	-0.132785	29.0576
0.8	-0.576348	24.4466
0.816667	-0.947673	20.415
0.833333	-1.25685	16.9008
0.85	-1.51103	13.7559
0.866667	-1.71538	10.9411
0.883333	-1.87574	8.49099
0.9	-1.99841	6.38176
0.916667	-2.08846	4.53429
0.933333	-2.14955	2.87987
0.95	-2.18446	1.41493
0.966667	-2.19672	0.2371
0.983333	-2.19236	-0.500474
1	-2.18004	-0.760786
1.01667	-2.167	-0.801978
1.03333	-2.1533	-1.04409
1.05	-2.1322	-1.65909
1.06667	-2.098	-2.38984
1.08333	-2.05254	-2.85599
1.1	-2.0028	-2.94582
1.11667	-1.95434	-2.85051
1.13333	-1.90778	-2.81219
1.15	-1.8606	-2.91634
1.16667	-1.81057	-3.12372
1.18333	-1.75648	-3.39669
1.2	-1.69735	-3.72476
1.21667	-1.63232	-4.06222
1.23333	-1.56194	-4.29501
1.25	-1.48915	-4.31391
1.26667	-1.41814	-4.12718
1.28333	-1.35158	-3.87435
1.3	-1.289	-3.70834
1.31667	-1.22797	-3.67298
1.33333	-1.16657	-3.68796
1.35	-1.10504	-3.6333
1.36667	-1.04546	-3.45447
1.38333	-0.989889	-3.17586
1.4	-0.939595	-2.83716
1.41667	-0.895317	-2.47234
1.43333	-0.857184	-2.15402
1.45	-0.823517	-1.99905
1.46667	-0.790549	-2.06748
1.48333	-0.754601	-2.26812
1.5	-0.714945	-2.41061
1.51667	-0.674247	-2.365
1.53333	-0.636112	-2.1486
1.55	-0.602627	-1.87357
1.56667	-0.573659	-1.63732
1.58333	-0.548049	-1.46628
1.6	-0.524783	-1.34408
1.61667	-0.503247	-1.25256
1.63333	-0.483031	-1.18513
1.65	-0.463742	-1.13459
1.66667	-0.445212	-1.08419
1.68333	-0.427603	-1.0233
1.7	-0.411102	-0.960875
1.71667	-0.395574	-0.913347
1.73333	-0.380657	-0.88844
1.75	-0.365959	-0.887886
1.76667	-0.351061	-0.919259
1.78333	-0.335317	-0.993318
1.8	-0.31795	-1.09992
1.81667	-0.298653	-1.20462
1.83333	-0.277796	-1.28294
1.85	-0.255888	-1.34518
1.86667	-0.232957	-1.42102
1.88333	-0.208521	-1.51991
1.9	-0.182293	-1.61694
1.91667	-0.154623	-1.68497
1.93333	-0.126127	-1.72105
1.95	-0.0972548	-1.71372
1.96667	-0.0690034	-1.59158
1.98333	-0.0442022	-2.0701
2	0	-2.65213
