0	7.96773e+07	5.3303e+07
0.0166667	7.87889e+07	1.04158e+08
0.0333333	7.62053e+07	1.99148e+08
0.05	7.21506e+07	2.78031e+08
0.0666667	6.69376e+07	3.37401e+08
0.0833333	6.09039e+07	3.77337e+08
0.1	5.43597e+07	4.00206e+08
0.116667	4.75637e+07	4.09024e+08
0.133333	4.07256e+07	4.06135e+08
0.15	3.40258e+07	3.92701e+08
0.166667	2.76355e+07	3.69035e+08
0.183333	2.17247e+07	3.35466e+08
0.2	1.64533e+07	2.93235e+08
0.216667	1.19502e+07	2.44962e+08
0.233333	8.28793e+06	1.94457e+08
0.25	5.46824e+06	1.45969e+08
0.266667	3.42229e+06	1.03201e+08
0.283333	2.02822e+06	6.85196e+07
0.3	1.1383e+06	4.2651e+07
0.316667	606522	2.48886e+07
0.333333	308683	1.36457e+07
0.35	151666	7.06806e+06
0.366667	73081.4	3.49383e+06
0.383333	35205.4	1.6737e+06
0.4	17291.2	792824
0.416667	8777.93	379843
0.433333	4629.78	187405
0.45	2531.09	95898.4
0.466667	1433.17	50823.4
0.483333	836.978	27899
0.5	503.202	15766.7
0.516667	311.422	9136.53
0.533333	198.65	5413.93
0.55	130.958	3272.56
0.566667	89.5652	2014.5
0.583333	63.8082	1262.78
0.6	47.4724	808.839
0.616667	36.8469	533.771
0.633333	29.6801	367.323
0.65	24.6028	266.647
0.666667	20.7918	205.297
0.683333	17.7596	167.172
0.7	15.2194	142.785
0.716667	13.0001	126.644
0.733333	10.998	115.35
0.75	9.15508	106.559
0.766667	7.44602	98.6981
0.783333	5.86514	90.9811
0.8	4.41331	83.2677
0.816667	3.08955	75.7128
0.833333	1.88955	68.4604
0.85	0.807539	61.5553
0.866667	-0.162292	54.9885
0.883333	-1.02541	48.7255
0.9	-1.78648	42.7101
0.916667	-2.44908	36.9023
0.933333	-3.01655	31.3245
0.95	-3.49323	26.0545
0.966667	-3.88504	21.169
0.983333	-4.19886	16.7126
1	-4.44212	12.7282
1.01667	-4.62313	9.26061
1.03333	-4.75081	6.28956
1.05	-4.83279	3.68727
1.06667	-4.87372	1.29598
1.08333	-4.87598	-0.941493
1.1	-4.84234	-2.92863
1.11667	-4.77836	-4.51526
1.13333	-4.69183	-5.66491
1.15	-4.58953	-6.50008
1.16667	-4.47516	-7.16065
1.18333	-4.35084	-7.62115
1.2	-4.22112	-7.70434
1.21667	-4.09403	-7.31978
1.23333	-3.97713	-6.6479
1.25	-3.87244	-6.02586
1.26667	-3.77626	-5.67775
1.28333	-3.68318	-5.60122
1.3	-3.58956	-5.67232
1.31667	-3.4941	-5.78268
1.33333	-3.3968	-5.86671
1.35	-3.29854	-5.88889
1.36667	-3.20051	-5.86447
1.38333	-3.10306	-5.86025
1.4	-3.00516	-5.93545
1.41667	-2.90521	-6.08286
1.43333	-2.8024	-6.2489
1.45	-2.69692	-6.39564
1.46667	-2.58921	-6.51174
1.48333	-2.47986	-6.57192
1.5	-2.37015	-6.53865
1.51667	-2.2619	-6.40993
1.53333	-2.15648	-6.22734
1.55	-2.05433	-6.02575
1.56667	-1.95563	-5.79973
1.58333	-1.861	-5.53706
1.6	-1.77106	-5.25871
1.61667	-1.68571	-5.00597
1.63333	-1.60419	-4.80004
1.65	-1.52571	-4.63244
1.66667	-1.44978	-4.4863
1.68333	-1.37617	-4.35376
1.7	-1.30465	-4.23809
1.71667	-1.2349	-4.14522
1.73333	-1.16648	-4.07766
1.75	-1.09897	-4.03479
1.76667	-1.03199	-4.01504
1.78333	-0.965139	-4.01659
1.8	-0.898099	-4.03779
1.81667	-0.830546	-4.07876
1.83333	-0.762141	-4.14061
1.85	-0.692526	-4.21966
1.86667	-0.621485	-4.30449
1.88333	-0.549043	-4.38309
1.9	-0.475382	-4.4483
1.91667	-0.400766	-4.50156
1.93333	-0.32533	-4.54141
1.95	-0.249386	-4.49489
1.96667	-0.1755	-4.15413
1.98333	-0.110915	-5.26501
2	0	-6.6549
