0.000000000000000000e+00 4.095382428596761315e+02 7.429365185266897242e+02
1.666666666666666644e-02 3.971559675508979694e+02 7.429365185266914295e+02
3.333333333333333287e-02 3.847736922421197505e+02 7.429365185266914295e+02
5.000000000000000278e-02 3.723914169333415884e+02 7.429365185266914295e+02
6.666666666666666574e-02 3.600091416245633695e+02 7.429365185266914295e+02
8.333333333333332871e-02 3.476268663157852075e+02 7.429365185266914295e+02
1.000000000000000056e-01 3.352445910070069885e+02 7.429365185266931348e+02
1.166666666666666685e-01 3.228623156982287696e+02 7.429365185266897242e+02
1.333333333333333315e-01 3.104800403894506644e+02 7.429365185266897242e+02
1.499999999999999944e-01 2.980977650806724455e+02 7.429365185266914295e+02
1.666666666666666574e-01 2.857154897718942834e+02 7.429365185266914295e+02
1.833333333333333204e-01 2.733332144631160645e+02 7.429365185266914295e+02
2.000000000000000111e-01 2.609509391543379024e+02 7.429365185266906337e+02
2.166666666666666741e-01 2.485686638455597119e+02 7.429365185266914295e+02
2.333333333333333370e-01 2.361863885367815215e+02 7.429365185266914295e+02
2.500000000000000000e-01 2.238041132280033310e+02 7.429365185266914295e+02
2.666666666666666630e-01 2.114218379192251405e+02 7.429365185266914295e+02
2.833333333333333259e-01 1.990395626104469500e+02 7.429365185266914295e+02
2.999999999999999889e-01 1.866572873016687595e+02 7.429365185266906337e+02
3.166666666666666519e-01 1.742750119928905974e+02 7.429365185266906337e+02
3.333333333333333148e-01 1.618927366841124069e+02 7.429365185266914295e+02
3.499999999999999778e-01 1.495104613753342164e+02 7.429365185266914295e+02
3.666666666666666408e-01 1.371281860665560259e+02 7.429365185266914295e+02
3.833333333333333037e-01 1.247459107577778354e+02 7.429365185266923390e+02
4.000000000000000222e-01 1.123636354489996165e+02 7.429365185266923390e+02
4.166666666666666852e-01 9.998136014022142604e+01 7.429365185266914295e+02
4.333333333333333481e-01 8.759908483144323554e+01 7.429365185266914295e+02
4.500000000000000111e-01 7.521680952266504505e+01 7.429365185266909748e+02
4.666666666666666741e-01 6.283453421388686877e+01 7.429365185266909748e+02
4.833333333333333370e-01 5.045225890510867828e+01 7.429365185266912022e+02
5.000000000000000000e-01 3.806998359633049489e+01 7.429365185266898379e+02
5.166666666666666075e-01 2.568770828755235058e+01 5.752812806329736759e+02
5.333333333333333259e-01 1.889394090856470498e+01 3.500553829694912906e+02
5.500000000000000444e-01 1.401919552190264184e+01 2.611604347689853967e+02
5.666666666666666519e-01 1.018859308293185784e+01 2.083583447628206784e+02
5.833333333333333703e-01 7.073917363141952741e+00 1.697096316713893600e+02
5.999999999999999778e-01 4.531605360552212858e+00 1.380322860584014961e+02
6.166666666666666963e-01 2.472841161195236115e+00 1.115676148704462918e+02
6.333333333333333037e-01 8.126848648706698208e-01 8.953956896886174377e+01
6.500000000000000222e-01 -5.118111377668224105e-01 7.074547636403541162e+01
6.666666666666666297e-01 -1.545497680597177181e+00 5.431588142571083466e+01
6.833333333333333481e-01 -2.322340518623850159e+00 4.006631106229392714e+01
6.999999999999999556e-01 -2.881041382673641404e+00 2.783745458822984986e+01
7.166666666666666741e-01 -3.250255671564845183e+00 1.729956657699653988e+01
7.333333333333332815e-01 -3.457693601906859371e+00 8.301358437887902397e+00
7.500000000000000000e-01 -3.526967619494441930e+00 8.924815792246132418e-01
7.666666666666666075e-01 -3.487442987881013146e+00 -4.867548841868782894e+00
7.833333333333333259e-01 -3.364715991432149167e+00 -8.868799986066786545e+00
8.000000000000000444e-01 -3.191816321678786927e+00 -1.116348966637626283e+01
8.166666666666666519e-01 -2.992599669219607073e+00 -1.212721726782854503e+01
8.333333333333333703e-01 -2.787575746084502093e+00 -1.217599892427506880e+01
8.499999999999999778e-01 -2.586733038410438112e+00 -1.145007081694902951e+01
8.666666666666666963e-01 -2.405906718852867776e+00 -1.005455970740957916e+01
8.833333333333333037e-01 -2.251581048163452170e+00 -8.410431782029498038e+00
9.000000000000000222e-01 -2.125558992785217871e+00 -6.786739315954561924e+00
9.166666666666666297e-01 -2.025356404298300106e+00 -5.269878551430391411e+00
9.333333333333333481e-01 -1.949896374404204824e+00 -4.104184703484041741e+00
9.499999999999999556e-01 -1.888550247515498715e+00 -3.592282054081414877e+00
9.666666666666666741e-01 -1.830153639268157661e+00 -3.707130149785440310e+00
9.833333333333332815e-01 -1.764979242522650704e+00 -4.302602564014404329e+00
1.000000000000000000e+00 -1.686733553801010865e+00 -5.240304717216222485e+00
1.016666666666666607e+00 -1.590302418615443303e+00 -6.230839459520849388e+00
1.033333333333333215e+00 -1.479038905150315886e+00 -6.832028277726467813e+00
1.050000000000000044e+00 -1.362568142691227724e+00 -6.952290920152082165e+00
1.066666666666666652e+00 -1.247295874478579814e+00 -6.720777396479922672e+00
1.083333333333333259e+00 -1.138542229475230316e+00 -6.234674343660717710e+00
1.100000000000000089e+00 -1.039473396356555890e+00 -5.596243639909360468e+00
1.116666666666666696e+00 -9.520007748115849600e-01 -4.980355200645687930e+00
1.133333333333333304e+00 -8.734615563350329737e-01 -4.516042723547638360e+00
1.149999999999999911e+00 -8.014660173599970072e-01 -4.105649940261653974e+00
1.166666666666666741e+00 -7.366065583263111671e-01 -3.632979187532706877e+00
1.183333333333333348e+00 -6.803667111089067854e-01 -3.121721017913367202e+00
1.199999999999999956e+00 -6.325491910625322678e-01 -2.601644163134796628e+00
1.216666666666666563e+00 -5.936452390044135718e-01 -2.135652016510474205e+00
1.233333333333333393e+00 -5.613607905121831276e-01 -1.782777662321968215e+00
1.250000000000000000e+00 -5.342193169270146313e-01 -1.612118348233149145e+00
1.266666666666666607e+00 -5.076235122377448228e-01 -1.678798882793304914e+00
1.283333333333333215e+00 -4.782593541672378046e-01 -1.937201163012757243e+00
1.300000000000000044e+00 -4.430501401373195813e-01 -2.276396225394571982e+00
1.316666666666666652e+00 -4.023794799874187422e-01 -2.502856854574111445e+00
1.333333333333333259e+00 -3.596215783181825332e-01 -2.518764832873813475e+00
1.350000000000000089e+00 -3.184206522249583005e-01 -2.374471352106474420e+00
1.366666666666666696e+00 -2.804725332479667266e-01 -2.161172714932251271e+00
1.383333333333333304e+00 -2.463815617272165914e-01 -1.973150360521719326e+00
1.399999999999999911e+00 -2.147008545639094157e-01 -1.812595754967347261e+00
1.416666666666666741e+00 -1.859617032283050198e-01 -1.676711622198326923e+00
1.433333333333333348e+00 -1.588104671572985183e-01 -1.583887619919322587e+00
1.449999999999999956e+00 -1.331654492309942706e-01 -1.526387674142592576e+00
1.466666666666666563e+00 -1.079308780192120981e-01 -1.478975519478161527e+00
1.483333333333333393e+00 -8.386626524838888819e-02 -1.383777981568698578e+00
1.500000000000000000e+00 -6.180494530025548022e-02 -1.243680569348201370e+00
1.516666666666666607e+00 -4.241024627011551196e-02 -1.081798985076963815e+00
1.533333333333333215e+00 -2.574497913102335653e-02 -9.247323263929880799e-01
1.550000000000000044e+00 -1.158583539034924344e-02 -8.112129982064566480e-01
1.566666666666666652e+00 1.295454142525197293e-03 -7.508240076698508014e-01
1.583333333333333259e+00 1.344163153197911777e-02 -7.048352507612091200e-01
1.600000000000000089e+00 2.478996250123216907e-02 -6.355946744743077303e-01
1.616666666666666696e+00 3.462812068112270519e-02 -5.243320119345291630e-01
1.633333333333333304e+00 4.226769623238314094e-02 -3.816849347462982767e-01
1.649999999999999911e+00 4.735095183933264729e-02 -2.453907314469538914e-01
1.666666666666666741e+00 5.044738728061493732e-02 -1.690225437279868070e-01
1.683333333333333348e+00 5.298503663026554039e-02 -1.431860092929322648e-01
1.699999999999999956e+00 5.522025425704601281e-02 -1.014880803918379037e-01
1.716666666666666563e+00 5.636797264332680385e-02 -2.054780414324143545e-02
1.733333333333333393e+00 5.590518106182072733e-02 6.117687186724916903e-02
1.750000000000000000e+00 5.432874358108516488e-02 1.145446741475628083e-01
1.766666666666666607e+00 5.208702525690196705e-02 1.458449149964378411e-01
1.783333333333333215e+00 4.946724641453723731e-02 1.612157140087800700e-01
1.800000000000000044e+00 4.671316812327596518e-02 1.622959683636131245e-01
1.816666666666666652e+00 4.405738080241679983e-02 1.551870523518339429e-01
1.833333333333333259e+00 4.154026637821483375e-02 1.552565981938689721e-01
1.849999999999999867e+00 3.888216086262116788e-02 1.715702271599750528e-01
1.866666666666666696e+00 3.582125880621566533e-02 2.031648100031990811e-01
1.883333333333333304e+00 3.211000052918119851e-02 2.309488413963866893e-01
1.899999999999999911e+00 2.812296409300277591e-02 2.405922941851192098e-01
1.916666666666666741e+00 2.409025738967722485e-02 2.416314205978349894e-01
1.933333333333333348e+00 2.006858340640827604e-02 5.762348551315238376e-01
1.949999999999999956e+00 4.882428885293095197e-03 5.830317063053634952e-01
1.966666666666666563e+00 6.341931962294926339e-04 1.446776779110628686e-01
1.983333333333333393e+00 5.983962159099997261e-05 1.902579588688477902e-02
2.000000000000000000e+00 0.000000000000000000e+00 3.590377295459998546e-03
