0.000000000000000000e+00 1.947548015992355488e+02 3.306848240674912631e+02
1.666666666666666644e-02 1.892433878647773611e+02 3.306848240674904105e+02
3.333333333333333287e-02 1.837319741303192018e+02 3.306848240674912631e+02
5.000000000000000278e-02 1.782205603958609856e+02 3.306848240674912631e+02
6.666666666666666574e-02 1.727091466614028263e+02 3.306848240674904105e+02
8.333333333333332871e-02 1.671977329269446386e+02 3.306848240674912631e+02
1.000000000000000056e-01 1.616863191924864509e+02 3.306848240674912631e+02
1.166666666666666685e-01 1.561749054580282632e+02 3.306848240674904105e+02
1.333333333333333315e-01 1.506634917235701039e+02 3.306848240674912631e+02
1.499999999999999944e-01 1.451520779891118877e+02 3.306848240674912631e+02
1.666666666666666574e-01 1.396406642546537284e+02 3.306848240674904105e+02
1.833333333333333204e-01 1.341292505201955407e+02 3.306848240674912631e+02
2.000000000000000111e-01 1.286178367857373530e+02 3.306848240674908652e+02
2.166666666666666741e-01 1.231064230512791795e+02 3.306848240674904105e+02
2.333333333333333370e-01 1.175950093168210060e+02 3.306848240674908652e+02
2.500000000000000000e-01 1.120835955823628183e+02 3.306848240674908652e+02
2.666666666666666630e-01 1.065721818479046448e+02 3.306848240674908652e+02
2.833333333333333259e-01 1.010607681134464571e+02 3.306848240674908652e+02
2.999999999999999889e-01 9.554935437898828354e+01 3.306848240674908652e+02
3.166666666666666519e-01 9.003794064453009582e+01 3.306848240674912631e+02
3.333333333333333148e-01 8.452652691007190811e+01 3.306848240674908652e+02
3.499999999999999778e-01 7.901511317561373460e+01 3.306848240674908652e+02
3.666666666666666408e-01 7.350369944115554688e+01 3.306848240674912631e+02
3.833333333333333037e-01 6.799228570669735916e+01 3.306848240674912631e+02
4.000000000000000222e-01 6.248087197223917144e+01 3.306848240674912631e+02
4.166666666666666852e-01 5.696945823778098372e+01 3.306848240674912631e+02
4.333333333333333481e-01 5.145804450332279600e+01 3.306848240674908652e+02
4.500000000000000111e-01 4.594663076886462250e+01 3.306848240674908652e+02
4.666666666666666741e-01 4.043521703440643478e+01 3.306848240674908652e+02
4.833333333333333370e-01 3.492380329994826127e+01 3.306848240674908652e+02
5.000000000000000000e-01 2.941238956549007355e+01 3.306848240674905242e+02
5.166666666666666075e-01 2.390097583103191070e+01 3.306848240674908652e+02
5.333333333333333259e-01 1.838956209657371232e+01 3.306848240674920021e+02
5.500000000000000444e-01 1.287814836211551039e+01 3.306848240674909221e+02
5.666666666666666519e-01 7.366734627657347545e+00 3.306848240674909221e+02
5.833333333333333703e-01 1.855320893199147392e+00 2.565428200849258928e+02
5.999999999999999778e-01 -1.184692708506848380e+00 1.527337600000472833e+02
6.166666666666666963e-01 -3.235804440135762405e+00 1.046379524884934682e+02
6.333333333333333037e-01 -4.672624458123297408e+00 7.205333630968402758e+01
6.500000000000000222e-01 -5.637582317125230169e+00 4.608922919828842168e+01
6.666666666666666297e-01 -6.208932098066244798e+00 2.430358210351129600e+01
6.833333333333333481e-01 -6.447701720575606643e+00 6.373497022328651340e+00
6.999999999999999556e-01 -6.421381998810533176e+00 -7.893087190805392339e+00
7.166666666666666741e-01 -6.184598814215426898e+00 -1.940511064598885227e+01
7.333333333333332815e-01 -5.774544977277571434e+00 -2.906948550746290394e+01
7.500000000000000000e-01 -5.215615963966663493e+00 -3.684588582669697843e+01
7.666666666666666075e-01 -4.546348783054338760e+00 -4.193273309536439086e+01
7.833333333333333259e-01 -3.817858194121183768e+00 -4.368970012145587134e+01
8.000000000000000444e-01 -3.090025445672476501e+00 -4.216225652962608450e+01
8.166666666666666519e-01 -2.412449643133647736e+00 -3.798400134774845327e+01
8.333333333333333703e-01 -1.823892067414194740e+00 -3.207201317000851049e+01
8.499999999999999778e-01 -1.343382537466697446e+00 -2.534476333950811267e+01
8.666666666666666963e-01 -9.790666227639243102e-01 -1.878428438192357319e+01
8.833333333333333037e-01 -7.172397247359116879e-01 -1.305666899808092296e+01
9.000000000000000222e-01 -5.438443228278935226e-01 -8.425163338340940555e+00
9.166666666666666297e-01 -4.364009467912136619e-01 -4.839935014827826620e+00
9.333333333333333481e-01 -3.825131556669659760e-01 -2.050056055948845213e+00
9.499999999999999556e-01 -3.680657449262521586e-01 2.423607092804880292e-01
9.666666666666666741e-01 -3.905918459763155770e-01 2.102957297383238888e+00
9.833333333333332815e-01 -4.381643215056934548e-01 3.218782614490788507e+00
1.000000000000000000e+00 -4.978845997926751865e-01 3.615616574777407610e+00
1.016666666666666607e+00 -5.586848739982737122e-01 3.494416499196180137e+00
1.033333333333333215e+00 -6.143651497658811911e-01 2.801650241415329923e+00
1.050000000000000044e+00 -6.520732153787847096e-01 1.545559940152431144e+00
1.066666666666666652e+00 -6.658838144376288959e-01 1.020908218745630869e-01
1.083333333333333259e+00 -6.554762427746034792e-01 -1.326083366008097286e+00
1.100000000000000089e+00 -6.216810355706923197e-01 -2.865167763448464022e+00
1.116666666666666696e+00 -5.599706506596546784e-01 -4.475524979459594377e+00
1.133333333333333304e+00 -4.724968695887058479e-01 -5.778514947247693989e+00
1.149999999999999911e+00 -3.673534857513982010e-01 -6.441686426988506575e+00
1.166666666666666741e+00 -2.577739886890889620e-01 -6.130889607732754598e+00
1.183333333333333348e+00 -1.629904988269730570e-01 -4.523479345497656290e+00
1.199999999999999956e+00 -1.069913438391670996e-01 -1.951800163832742907e+00
1.216666666666666563e+00 -9.793049336588162401e-02 6.861553332984070552e-01
1.233333333333333393e+00 -1.298631882824473338e-01 2.787235908463947087e+00
1.250000000000000000e+00 -1.908383569813465186e-01 4.134165148583218929e+00
1.266666666666666607e+00 -2.676686932352213000e-01 4.586993185528261741e+00
1.283333333333333215e+00 -3.437381298322885748e-01 4.202579829955189972e+00
1.300000000000000044e+00 -4.077546875670609583e-01 3.320099821010423113e+00
1.316666666666666652e+00 -4.544081238659693489e-01 2.273561979990472715e+00
1.333333333333333259e+00 -4.835400869000767154e-01 1.255269439524893116e+00
1.350000000000000089e+00 -4.962504385167991194e-01 3.472415042943377550e-01
1.366666666666666696e+00 -4.951148037098879739e-01 -4.576241815106674160e-01
1.383333333333333304e+00 -4.809962991331102056e-01 -1.187767099121081582e+00
1.399999999999999911e+00 -4.555225670725185916e-01 -1.806232194792216195e+00
1.416666666666666741e+00 -4.207885593067030028e-01 -2.214345588812473231e+00
1.433333333333333348e+00 -3.817110474454361579e-01 -2.389245875546176734e+00
1.449999999999999956e+00 -3.411470301218304524e-01 -2.391707531009903409e+00
1.466666666666666563e+00 -3.019874630784393776e-01 -2.266209671636268297e+00
1.483333333333333393e+00 -2.656067077339548388e-01 -2.086084510267556702e+00
1.500000000000000000e+00 -2.324513127361874931e-01 -1.955859129098229898e+00
1.516666666666666607e+00 -2.004114034306805070e-01 -1.882537015045860018e+00
1.533333333333333215e+00 -1.697000789013254907e-01 -1.851455529293468683e+00
1.550000000000000044e+00 -1.386962191208982176e-01 -1.866729829891326409e+00
1.566666666666666652e+00 -1.074757512382812780e-01 -1.855067883525662875e+00
1.583333333333333259e+00 -7.686062300337612174e-02 -1.751856899462831407e+00
1.600000000000000089e+00 -4.908052125618690004e-02 -1.602090826303579574e+00
1.616666666666666696e+00 -2.345759545992347206e-02 -1.486748937492955669e+00
1.633333333333333304e+00 4.777766602449544809e-04 -1.481833934313185219e+00
1.649999999999999911e+00 2.593686901718270446e-02 -1.634327270252234898e+00
1.666666666666666741e+00 5.495535233531945174e-02 -1.825357382631121794e+00
1.683333333333333348e+00 8.678211510488675895e-02 -1.823094625582095230e+00
1.699999999999999956e+00 1.157251731880559603e-01 -1.473714591058409518e+00
1.716666666666666563e+00 1.359059348068337447e-01 -8.258749284362369991e-01
1.733333333333333393e+00 1.432543374692638594e-01 -7.102873519109292877e-02
1.750000000000000000e+00 1.382735593132035090e-01 5.911516087365110694e-01
1.766666666666666607e+00 1.235492838447134895e-01 1.058554974063371956e+00
1.783333333333333215e+00 1.029883935110911114e-01 1.326405407967105710e+00
1.800000000000000044e+00 7.933577024580996950e-02 1.439365304473267715e+00
1.816666666666666652e+00 5.500955002864885840e-02 1.424256614522974917e+00
1.833333333333333259e+00 3.186054976171080744e-02 1.293902096606658780e+00
1.849999999999999867e+00 1.187948014176023505e-02 1.088539731109544384e+00
1.866666666666666696e+00 -4.424107941940668733e-03 8.592298255344861246e-01
1.883333333333333304e+00 -1.676151404272263612e-02 6.199620027113971199e-01
1.899999999999999911e+00 -2.508950803232057325e-02 3.688565671134171331e-01
1.916666666666666741e+00 -2.905673294650320745e-02 1.220946909268891961e-01
1.933333333333333348e+00 -2.915933106321687979e-02 -3.629723035987841850e-01
1.949999999999999956e+00 -1.695765615987706795e-02 -7.713366048386564033e-01
1.966666666666666563e+00 -3.448110901928336594e-03 -4.979612582858624070e-01
1.983333333333333393e+00 -3.589475503483215255e-04 -1.034433270578501013e-01
2.000000000000000000e+00 0.000000000000000000e+00 -2.153685302089929088e-02
