0.000000000000000000e+00 5.297817714741267991e+02 8.613232285250433051e+02
1.666666666666666644e-02 5.154263843320427441e+02 8.613232285250398945e+02
3.333333333333333287e-02 5.010709971899588027e+02 8.613232285250364839e+02
5.000000000000000278e-02 4.867156100478748613e+02 8.613232285250364839e+02
6.666666666666666574e-02 4.723602229057909199e+02 8.613232285250398945e+02
8.333333333333332871e-02 4.580048357637068648e+02 8.613232285250398945e+02
1.000000000000000056e-01 4.436494486216229234e+02 8.613232285250364839e+02
1.166666666666666685e-01 4.292940614795389820e+02 8.613232285250364839e+02
1.333333333333333315e-01 4.149386743374550406e+02 8.613232285250398945e+02
1.499999999999999944e-01 4.005832871953709855e+02 8.613232285250398945e+02
1.666666666666666574e-01 3.862279000532870441e+02 8.613232285250398945e+02
1.833333333333333204e-01 3.718725129112029890e+02 8.613232285250398945e+02
2.000000000000000111e-01 3.575171257691190476e+02 8.613232285250364839e+02
2.166666666666666741e-01 3.431617386270351062e+02 8.613232285250364839e+02
2.333333333333333370e-01 3.288063514849511648e+02 8.613232285250398945e+02
2.500000000000000000e-01 3.144509643428671097e+02 8.613232285250398945e+02
2.666666666666666630e-01 3.000955772007831683e+02 8.613232285250364839e+02
2.833333333333333259e-01 2.857401900586992269e+02 8.613232285250381892e+02
2.999999999999999889e-01 2.713848029166152287e+02 8.613232285250398945e+02
3.166666666666666519e-01 2.570294157745312305e+02 8.613232285250381892e+02
3.333333333333333148e-01 2.426740286324472891e+02 8.613232285250373934e+02
3.499999999999999778e-01 2.283186414903633192e+02 8.613232285250381892e+02
3.666666666666666408e-01 2.139632543482793494e+02 8.613232285250381892e+02
3.833333333333333037e-01 1.996078672061953796e+02 8.613232285250398945e+02
4.000000000000000222e-01 1.852524800641113529e+02 8.613232285250398945e+02
4.166666666666666852e-01 1.708970929220273831e+02 8.613232285250381892e+02
4.333333333333333481e-01 1.565417057799434133e+02 8.613232285250390987e+02
4.500000000000000111e-01 1.421863186378594150e+02 8.613232285250386440e+02
4.666666666666666741e-01 1.278309314957754594e+02 8.613232285250377345e+02
4.833333333333333370e-01 1.134755443536914896e+02 8.613232285250386440e+02
5.000000000000000000e-01 9.912015721160750559e+01 8.613232285250369387e+02
5.166666666666666075e-01 8.476477006952359261e+01 8.613232285250381892e+02
5.333333333333333259e-01 7.040938292743956595e+01 8.613232285250411451e+02
5.500000000000000444e-01 5.605399578535555349e+01 8.613232285250381892e+02
5.666666666666666519e-01 4.169860864327162631e+01 8.613232285250384166e+02
5.833333333333333703e-01 2.734322150118760675e+01 6.272914099506847379e+02
5.999999999999999778e-01 2.078889497824880195e+01 3.346347188152757326e+02
6.166666666666666963e-01 1.618873087401174971e+01 2.470771137007065192e+02
6.333333333333333037e-01 1.255299118822525095e+01 1.984034314108557737e+02
6.500000000000000222e-01 9.575283160316557129e+00 1.629908560960317345e+02
6.666666666666666297e-01 7.119962651690859623e+00 1.338094622375760423e+02
6.833333333333333481e-01 5.114967752397356016e+00 1.090042724546799064e+02
6.999999999999999556e-01 3.486486903201529319e+00 8.843610515593108801e+01
7.166666666666666741e-01 2.167097580532986623e+00 7.158951146049750491e+01
7.333333333333332815e-01 1.100169854518278978e+00 5.756214143541409811e+01
7.500000000000000000e-01 2.483595326858501207e-01 4.558814155912952515e+01
7.666666666666666075e-01 -4.194348641193718641e-01 3.524361538210412448e+01
7.833333333333333259e-01 -9.264276467176206786e-01 2.641737356559982075e+01
8.000000000000000444e-01 -1.300013982972699322e+00 1.918196436997373056e+01
8.166666666666666519e-01 -1.565826459050078334e+00 1.346064957001653895e+01
8.333333333333333703e-01 -1.748702301973250606e+00 8.961085442368405651e+00
8.499999999999999778e-01 -1.864529307129025204e+00 5.332687606139612235e+00
8.666666666666666963e-01 -1.926458555511237680e+00 2.425061530615708616e+00
8.833333333333333037e-01 -1.945364691482882158e+00 1.747960529971015475e-01
9.000000000000000222e-01 -1.932285090611141065e+00 -1.547171959635373906e+00
9.166666666666666297e-01 -1.893792292828369694e+00 -2.892395153813751563e+00
9.333333333333333481e-01 -1.835871918817349346e+00 -3.959815133415203192e+00
9.499999999999999556e-01 -1.761798455047862921e+00 -4.812361069154471593e+00
9.666666666666666741e-01 -1.675459883178866960e+00 -5.395690079199741973e+00
9.833333333333332815e-01 -1.581942119074538189e+00 -5.673151849717748441e+00
1.000000000000000000e+00 -1.486354821521608693e+00 -5.736789910345881260e+00
1.016666666666666607e+00 -1.390715788729675495e+00 -5.766645833250070297e+00
1.033333333333333215e+00 -1.294133293746606350e+00 -5.855583596195237384e+00
1.050000000000000044e+00 -1.195529668856500916e+00 -6.069615237843722255e+00
1.066666666666666652e+00 -1.091812785818482290e+00 -6.388894169858605920e+00
1.083333333333333259e+00 -9.825665298612140663e-01 -6.732666451828105636e+00
1.100000000000000089e+00 -8.673905707575454427e-01 -7.098740099382366608e+00
1.116666666666666696e+00 -7.459418598818018387e-01 -7.466029913928361239e+00
1.133333333333333304e+00 -6.185229069599333940e-01 -7.647248971513243454e+00
1.149999999999999911e+00 -4.910335608313604050e-01 -7.423207281140735248e+00
1.166666666666666741e+00 -3.710826642552422228e-01 -6.625807110093267838e+00
1.183333333333333348e+00 -2.701733238282514882e-01 -5.260422646690170012e+00
1.199999999999999956e+00 -1.957352426989032168e-01 -3.557146197874968330e+00
1.216666666666666563e+00 -1.516017838990858790e-01 -1.795170594821132504e+00
1.233333333333333393e+00 -1.358962228715321352e-01 -1.381596928289177684e-01
1.250000000000000000e+00 -1.469964608047886201e-01 1.255247425660245275e+00
1.266666666666666607e+00 -1.777378037268736444e-01 2.163006330106287400e+00
1.283333333333333215e+00 -2.190966718083315334e-01 2.489727514982482681e+00
1.300000000000000044e+00 -2.607287208929564004e-01 2.307661226825219458e+00
1.316666666666666652e+00 -2.960187127025055154e-01 1.814477745526644314e+00
1.333333333333333259e+00 -3.212113124105112072e-01 1.217412318392268045e+00
1.350000000000000089e+00 -3.365991233155811169e-01 6.391372003639128607e-01
1.366666666666666696e+00 -3.425158857559749692e-01 9.888365514631958231e-02
1.383333333333333304e+00 -3.398952451537917696e-01 -3.762198551427664572e-01
1.399999999999999911e+00 -3.299752239178827540e-01 -7.065686535716247940e-01
1.416666666666666741e+00 -3.163429567014042765e-01 -8.444499140797739889e-01
1.433333333333333348e+00 -3.018268934485569543e-01 -8.547656327232450169e-01
1.449999999999999956e+00 -2.878507689439627759e-01 -8.121754966034017142e-01
1.466666666666666563e+00 -2.747543768951102305e-01 -7.491175103090091936e-01
1.483333333333333393e+00 -2.628801852669958028e-01 -6.958892026253865604e-01
1.500000000000000000e+00 -2.515580701409306785e-01 -6.900727358756447716e-01
1.516666666666666607e+00 -2.398777607378076437e-01 -7.361833509667473630e-01
1.533333333333333215e+00 -2.270186251087057683e-01 -8.256590281388757058e-01
1.550000000000000044e+00 -2.123557931331784554e-01 -9.349691442883212300e-01
1.566666666666666652e+00 -1.958529869657617273e-01 -1.018510321279161523e+00
1.583333333333333259e+00 -1.784054490905397361e-01 -1.063051662475831050e+00
1.600000000000000089e+00 -1.604179315499006941e-01 -1.108046533008182122e+00
1.616666666666666696e+00 -1.414705646569336672e-01 -1.156633757074181590e+00
1.633333333333333304e+00 -1.218634729807613060e-01 -1.182469564581163590e+00
1.649999999999999911e+00 -1.020549125042282124e-01 -1.177924382112365720e+00
1.666666666666666741e+00 -8.259932691034911623e-02 -1.137451853022109605e+00
1.683333333333333348e+00 -6.413985073682455795e-02 -1.056827072265811518e+00
1.699999999999999956e+00 -4.737175783482206609e-02 -9.534826255348934909e-01
1.716666666666666563e+00 -3.235709655232810872e-02 -8.431536458775656939e-01
1.733333333333333393e+00 -1.926663630556987514e-02 -7.156567844458237015e-01
1.750000000000000000e+00 -8.501870404133986606e-03 -5.705888853131119154e-01
1.766666666666666607e+00 -2.470067951328130257e-04 -4.172947351240021696e-01
1.783333333333333215e+00 5.407954099999418007e-03 -2.587972845061012328e-01
1.800000000000000044e+00 8.379569355070561401e-03 -1.099467058936490771e-01
1.816666666666666652e+00 9.072844296454387128e-03 1.017053786583574718e-02
1.833333333333333259e+00 8.040551426209369829e-03 9.770076846974101725e-02
1.849999999999999867e+00 5.816152014129686784e-03 1.525021120185822698e-01
1.866666666666666696e+00 2.957147692256626836e-03 1.720491860772644932e-01
1.883333333333333304e+00 8.117914488753728733e-05 1.584357668492572258e-01
1.899999999999999911e+00 -2.324044536051947558e-03 1.183118592149079856e-01
1.916666666666666741e+00 -3.862549495609395381e-03 6.234122038975532104e-02
1.933333333333333348e+00 -4.402085215710458202e-03 -7.579365709449352451e-02
1.949999999999999956e+00 -1.336094259126278288e-03 -1.256660844424392354e-01
1.966666666666666563e+00 -2.132157342958168026e-04 -3.943854931400517239e-02
1.983333333333333393e+00 -2.147594865943911044e-05 -6.396472028874503751e-03
2.000000000000000000e+00 0.000000000000000000e+00 -1.288556919566346626e-03
