0.000000000000000000e+00 3.179231065327363694e+02 5.061071754197371320e+02
1.666666666666666644e-02 3.094879869424074172e+02 5.061071754197354267e+02
3.333333333333333287e-02 3.010528673520785219e+02 5.061071754197354267e+02
5.000000000000000278e-02 2.926177477617495697e+02 5.061071754197354267e+02
6.666666666666666574e-02 2.841826281714206743e+02 5.061071754197354267e+02
8.333333333333332871e-02 2.757475085810917221e+02 5.061071754197354267e+02
1.000000000000000056e-01 2.673123889907628268e+02 5.061071754197354267e+02
1.166666666666666685e-01 2.588772694004338746e+02 5.061071754197354267e+02
1.333333333333333315e-01 2.504421498101049792e+02 5.061071754197354267e+02
1.499999999999999944e-01 2.420070302197760270e+02 5.061071754197354267e+02
1.666666666666666574e-01 2.335719106294471317e+02 5.061071754197354267e+02
1.833333333333333204e-01 2.251367910391181795e+02 5.061071754197362793e+02
2.000000000000000111e-01 2.167016714487892557e+02 5.061071754197354267e+02
2.166666666666666741e-01 2.082665518584603319e+02 5.061071754197354267e+02
2.333333333333333370e-01 1.998314322681314081e+02 5.061071754197354267e+02
2.500000000000000000e-01 1.913963126778024844e+02 5.061071754197354267e+02
2.666666666666666630e-01 1.829611930874735606e+02 5.061071754197354267e+02
2.833333333333333259e-01 1.745260734971446368e+02 5.061071754197354267e+02
2.999999999999999889e-01 1.660909539068157130e+02 5.061071754197354267e+02
3.166666666666666519e-01 1.576558343164867892e+02 5.061071754197354267e+02
3.333333333333333148e-01 1.492207147261578655e+02 5.061071754197354267e+02
3.499999999999999778e-01 1.407855951358289417e+02 5.061071754197354267e+02
3.666666666666666408e-01 1.323504755455000179e+02 5.061071754197354267e+02
3.833333333333333037e-01 1.239153559551710941e+02 5.061071754197362793e+02
4.000000000000000222e-01 1.154802363648421419e+02 5.061071754197362793e+02
4.166666666666666852e-01 1.070451167745132182e+02 5.061071754197354267e+02
4.333333333333333481e-01 9.860999718418429438e+01 5.061071754197354267e+02
4.500000000000000111e-01 9.017487759385537061e+01 5.061071754197354267e+02
4.666666666666666741e-01 8.173975800352644683e+01 5.061071754197354267e+02
4.833333333333333370e-01 7.330463841319752305e+01 5.061071754197354267e+02
5.000000000000000000e-01 6.486951882286859927e+01 5.061071754197345740e+02
5.166666666666666075e-01 5.643439923253970392e+01 5.061071754197354267e+02
5.333333333333333259e-01 4.799927964221075172e+01 5.061071754197371320e+02
5.500000000000000444e-01 3.956416005188179952e+01 5.061071754197355403e+02
5.666666666666666519e-01 3.112904046155290061e+01 5.061071754197355403e+02
5.833333333333333703e-01 2.269392087122394841e+01 4.109806934901602062e+02
5.999999999999999778e-01 1.742968401188089445e+01 2.765283973380123825e+02
6.166666666666666963e-01 1.347630762662353554e+01 2.131025239938823859e+02
6.333333333333333037e-01 1.032626654541814837e+01 1.715548982079962741e+02
6.500000000000000222e-01 7.757811019690326049e+00 1.400999501084862686e+02
6.666666666666666297e-01 5.656268208468605785e+00 1.144588208600348338e+02
6.833333333333333481e-01 3.942516991022498196e+00 9.299288808790002747e+01
6.999999999999999556e-01 2.556505272205271684e+00 7.504520056926097027e+01
7.166666666666666741e-01 1.441010305380465706e+00 6.022937422532040586e+01
7.333333333333332815e-01 5.488594646945914590e-01 4.791608016421054828e+01
7.500000000000000000e-01 -1.561923667598858478e-01 3.754176347819050363e+01
7.666666666666666075e-01 -7.025326512450920102e-01 2.877781481788443330e+01
7.833333333333333259e-01 -1.115452860689366998e+00 2.144575218114001558e+01
8.000000000000000444e-01 -1.417391057283092559e+00 1.547502891297729377e+01
8.166666666666666519e-01 -1.631287157788610109e+00 1.073295932993300994e+01
8.333333333333333703e-01 -1.775156368280859542e+00 6.858937250002246522e+00
8.499999999999999778e-01 -1.859918399455351645e+00 3.525900704880524650e+00
8.666666666666666963e-01 -1.892686391776877031e+00 6.500050914790267420e-01
8.833333333333333037e-01 -1.881585235837985870e+00 -1.687618598600717501e+00
9.000000000000000222e-01 -1.836432438490186447e+00 -3.386967069526745089e+00
9.166666666666666297e-01 -1.768686333520427700e+00 -4.462071451951644008e+00
9.333333333333333481e-01 -1.687696723425131662e+00 -5.107225227979411031e+00
9.499999999999999556e-01 -1.598445492587780681e+00 -5.539532664532011985e+00
9.666666666666666741e-01 -1.503045634607397929e+00 -5.837797988154691531e+00
9.833333333333332815e-01 -1.403852226315957630e+00 -5.973282323129596172e+00
1.000000000000000000e+00 -1.303936223836411390e+00 -5.945537562623046668e+00
1.016666666666666607e+00 -1.205667640895189408e+00 -5.754475913926460073e+00
1.033333333333333215e+00 -1.112120360038862721e+00 -5.415958739980249348e+00
1.050000000000000044e+00 -1.025135682895847777e+00 -4.996281453274036721e+00
1.066666666666666652e+00 -9.455776449297281783e-01 -4.551058611559071210e+00
1.083333333333333259e+00 -8.734337291772120704e-01 -4.147857992668285476e+00
1.100000000000000089e+00 -8.073157118407853217e-01 -3.887863641543358728e+00
1.116666666666666696e+00 -7.438382744591001128e-01 -3.824771824744774840e+00
1.133333333333333304e+00 -6.798233176826261603e-01 -3.894505774689537514e+00
1.149999999999999911e+00 -6.140214153027822030e-01 -4.043232829949944040e+00
1.166666666666666741e+00 -5.450488900176280183e-01 -4.242918208116559953e+00
1.183333333333333348e+00 -4.725908083655635528e-01 -4.413855765415395815e+00
1.199999999999999956e+00 -3.979203645037814874e-01 -4.502866573757533963e+00
1.216666666666666563e+00 -3.224952559069790836e-01 -4.471555538386614792e+00
1.233333333333333393e+00 -2.488685132242276776e-01 -4.262461509817779159e+00
1.250000000000000000e+00 -1.804132055797197931e-01 -3.867872006091127801e+00
1.266666666666666607e+00 -1.199394463545234157e-01 -3.341856214886953502e+00
1.283333333333333215e+00 -6.901799841682133840e-02 -2.692486632919532052e+00
1.300000000000000044e+00 -3.018989192387235010e-02 -1.960249684347515675e+00
1.316666666666666652e+00 -3.676342271904149347e-03 -1.261269066220470192e+00
1.333333333333333259e+00 1.185241028347664913e-02 -6.767643627527646366e-01
1.350000000000000089e+00 1.888246981985466921e-02 -2.202483660866478843e-01
1.366666666666666696e+00 1.919402248636491171e-02 1.124063378220921117e-01
1.383333333333333304e+00 1.513559189245159906e-02 3.300698039801330808e-01
1.399999999999999911e+00 8.191695687027142347e-03 4.466689779109975222e-01
1.416666666666666741e+00 2.466259620850139687e-04 4.729791692102611744e-01
1.433333333333333348e+00 -7.574276619981562195e-03 4.552998346064893731e-01
1.449999999999999956e+00 -1.493003519146463183e-02 4.569091552393890754e-01
1.466666666666666563e+00 -2.280458179462786436e-02 5.125224166432166273e-01
1.483333333333333393e+00 -3.201411574623851813e-02 5.820822665886445924e-01
1.500000000000000000e+00 -4.220732401424934915e-02 5.916089322356176128e-01
1.516666666666666607e+00 -5.173441348742577328e-02 4.924094660604884655e-01
1.533333333333333215e+00 -5.862097288293229708e-02 2.985261423284413795e-01
1.550000000000000044e+00 -6.168528489837381973e-02 8.044673091891434147e-02
1.566666666666666652e+00 -6.130253058022944179e-02 -9.007989910083308294e-02
1.583333333333333259e+00 -5.868262159501271696e-02 -2.031904261690371805e-01
1.600000000000000089e+00 -5.452951637459486911e-02 -2.951873352720243426e-01
1.616666666666666696e+00 -4.884304375261190601e-02 -3.949898427036580562e-01
1.633333333333333304e+00 -4.136318828447293344e-02 -4.994310813374593372e-01
1.649999999999999911e+00 -3.219534104136326236e-02 -5.668261571912953656e-01
1.666666666666666741e+00 -2.246898304476308700e-02 -5.675886406661464489e-01
1.683333333333333348e+00 -1.327571968582504612e-02 -5.291202029597068535e-01
1.699999999999999956e+00 -4.831642946106191362e-03 -4.875703135708541192e-01
1.716666666666666563e+00 2.976624099870090693e-03 -4.352192836935515063e-01
1.733333333333333393e+00 9.675666510345525689e-03 -3.546253723688185255e-01
1.750000000000000000e+00 1.479746984549737410e-02 -2.427964212917898545e-01
1.766666666666666607e+00 1.776888055340518704e-02 -1.088938745261754104e-01
1.783333333333333215e+00 1.842726566303655444e-02 2.269916041979284926e-02
1.800000000000000044e+00 1.701224187274542540e-02 1.335294698850467698e-01
1.816666666666666652e+00 1.397628333353499556e-02 2.202235897230562789e-01
1.833333333333333259e+00 9.671455548643549671e-03 2.765084979190329806e-01
1.849999999999999867e+00 4.759333402900562011e-03 2.903966409051327302e-01
1.866666666666666696e+00 -8.432481527540311049e-06 2.582696717293584965e-01
1.883333333333333304e+00 -3.849655654744721985e-03 1.895143157768061914e-01
1.899999999999999911e+00 -6.325576340754412823e-03 1.060776624790836370e-01
1.916666666666666741e+00 -7.385577737380842958e-03 2.762794665661035681e-02
1.933333333333333348e+00 -7.246507895974758050e-03 -1.630107448208940324e-01
1.949999999999999956e+00 -1.951886243351042341e-03 -2.085077353447467863e-01
1.966666666666666563e+00 -2.962500511498655570e-04 -5.768138309997834778e-02
1.983333333333333393e+00 -2.917347335176412353e-05 -8.887501534495967359e-03
2.000000000000000000e+00 0.000000000000000000e+00 -1.750408401105847493e-03
