0.0000 2837.0984 71.0746
0.0167 2834.8000 260.2442
0.0333 2828.8607 422.9839
0.0500 2821.1355 484.9523
0.0667 2812.8905 498.4493
0.0833 2804.5632 499.9354
0.1000 2796.2300 500.0106
0.1167 2787.8967 499.9900
0.1333 2779.5633 499.9900
0.1500 2771.2300 500.0200
0.1667 2762.8967 499.9900
0.1833 2754.5633 499.9900
0.2000 2746.2300 500.0200
0.2167 2737.8967 499.9900
0.2333 2729.5633 499.9900
0.2500 2721.2300 500.0200
0.2667 2712.8967 499.9900
0.2833 2704.5633 499.9900
0.3000 2696.2300 500.0200
0.3167 2687.8967 499.9900
0.3333 2679.5633 499.9900
0.3500 2671.2300 500.0200
0.3667 2662.8967 499.9900
0.3833 2654.5633 499.9900
0.4000 2646.2300 500.0200
0.4167 2637.8967 499.9900
0.4333 2629.5633 499.9918
0.4500 2621.2298 500.0918
0.4667 2612.8907 501.3886
0.4833 2604.4748 515.4861
0.5000 2595.4206 608.8338
0.5167 2582.9410 1020.4922
0.5333 2557.8983 2287.0040
0.5500 2500.2022 5083.9390
0.5667 2381.0158 9584.3793
0.5833 2177.2181 14875.8812
0.6000 1888.4534 19430.9086
0.6167 1536.2546 22447.7976
0.6333 1146.2390 23927.7561
0.6500 748.8884 22878.2354
0.6667 401.4175 17795.4504
0.6833 167.1670 10166.0473
0.7000 55.8310 3967.7798
0.7167 20.2690 1059.1042
0.7333 11.6759 278.1710
0.7500 8.5707 151.2252
0.7667 6.3268 123.9657
0.7833 4.3938 109.4961
0.8000 2.6702 96.6721
0.8167 1.1937 79.1059
0.8333 0.0481 58.3954
0.8500 -0.7690 41.2001
0.8667 -1.3509 29.6473
0.8833 -1.7631 19.7735
0.9000 -2.0108 10.4577
0.9167 -2.1278 4.7233
0.9333 -2.1854 2.9825
0.9500 -2.2368 3.5704
0.9667 -2.3056 4.2833
0.9833 -2.3654 1.8868
1.0000 -2.3564 -3.1176
1.0167 -2.2681 -6.8479
1.0333 -2.1361 -8.8061
1.0500 -1.9745 -10.5256
1.0667 -1.7907 -11.0339
1.0833 -1.6138 -10.0747
1.1000 -1.4498 -10.1727
1.1167 -1.2661 -12.1335
1.1333 -1.0461 -14.0018
1.1500 -0.8043 -14.7840
1.1667 -0.5567 -14.7483
1.1833 -0.3157 -14.0124
1.2000 -0.0895 -13.3299
1.2167 0.1335 -13.6825
1.2333 0.3675 -14.2004
1.2500 0.6011 -13.4756
1.2667 0.8120 -11.6747
1.2833 0.9894 -9.6564
1.3000 1.1364 -8.0901
1.3167 1.2569 -5.9303
1.3333 1.3235 -1.5421
1.3500 1.3069 3.0388
1.3667 1.2383 4.0730
1.3833 1.1862 1.7595
1.4000 1.1770 -0.0360
1.4167 1.1740 1.0615
1.4333 1.1372 3.1705
1.4500 1.0761 3.6609
1.4667 1.0199 3.1193
1.4833 0.9673 3.5480
1.5000 0.8980 4.7353
1.5167 0.8145 4.8331
1.5333 0.7434 3.5536
1.5500 0.6926 3.0383
1.5667 0.6331 4.4191
1.5833 0.5468 5.4987
1.6000 0.4591 4.5761
1.6167 0.3976 2.8607
1.6333 0.3603 1.8465
1.6500 0.3336 1.3437
1.6667 0.3176 0.4728
1.6833 0.3161 0.0786
1.7000 0.3069 1.3815
1.7167 0.2701 2.6547
1.7333 0.2279 1.9021
1.7500 0.2103 0.3488
1.7667 0.2096 0.2390
1.7833 0.1954 1.6342
1.8000 0.1570 2.6420
1.8167 0.1144 2.1096
1.8333 0.0902 0.7004
1.8500 0.0916 -0.8576
1.8667 0.1174 -2.0007
1.8833 0.1514 -1.5923
1.9000 0.1633 0.3929
1.9167 0.1389 2.2811
1.9333 0.0943 2.6105
1.9500 0.0580 1.5661
1.9667 0.0415 0.5996
1.9833 0.0346 0.3288
2.0000 0.0306 0.1840
