0	1.78622e+08	1.63565e+08
0.0166667	1.75896e+08	3.02469e+08
0.0333333	1.68539e+08	5.24756e+08
0.05	1.58404e+08	6.40978e+08
0.0666667	1.47173e+08	6.80395e+08
0.0833333	1.35724e+08	6.86972e+08
0.1	1.24274e+08	6.86972e+08
0.116667	1.12825e+08	6.86972e+08
0.133333	1.01375e+08	6.86972e+08
0.15	8.99257e+07	6.86972e+08
0.166667	7.84762e+07	6.86972e+08
0.183333	6.70266e+07	6.86972e+08
0.2	5.55771e+07	6.85136e+08
0.216667	4.41887e+07	6.73357e+08
0.233333	3.31319e+07	6.35903e+08
0.25	2.2992e+07	5.57851e+08
0.266667	1.45368e+07	4.39907e+08
0.283333	8.32838e+06	3.04532e+08
0.3	4.38575e+06	1.83545e+08
0.316667	2.2102e+06	9.78396e+07
0.333333	1.12443e+06	4.8477e+07
0.35	594301	2.39874e+07
0.366667	324850	1.23332e+07
0.383333	183193	6.56598e+06
0.4	105984	3.6119e+06
0.416667	62796.6	2.03916e+06
0.433333	38011.7	1.18027e+06
0.45	23454.2	698685
0.466667	14722.2	422117
0.483333	9383.64	259810
0.5	6061.9	162681
0.516667	3960.94	103506
0.533333	2611.69	71401.7
0.55	1580.88	54045
0.566667	810.188	34595.3
0.583333	427.709	19104
0.6	173.386	10941
0.616667	63.0072	4592.88
0.633333	20.2902	1334.32
0.65	18.5298	79.2516
0.666667	17.6485	55.9996
0.683333	16.6632	68.3609
0.7	15.3698	81.2958
0.716667	13.9533	85.4374
0.733333	12.5218	86.7957
0.75	11.0601	87.0715
0.766667	9.61946	82.1463
0.783333	8.32193	72.1829
0.8	7.21337	63.9935
0.816667	6.18881	61.5625
0.833333	5.16128	59.9231
0.85	4.19138	53.443
0.866667	3.37985	44.4849
0.883333	2.70854	39.8229
0.9	2.05242	40.7133
0.916667	1.35144	41.0923
0.933333	0.682676	36.3673
0.95	0.139193	29.6138
0.966667	-0.304449	26.0921
0.983333	-0.730545	25.648
1	-1.15938	24.538
1.01667	-1.54848	21.0723
1.03333	-1.86179	16.8664
1.05	-2.11069	14.2019
1.06667	-2.33519	13.4079
1.08333	-2.55762	13.1449
1.1	-2.77335	12.1757
1.11667	-2.96348	9.92642
1.13333	-3.10423	7.08695
1.15	-3.19971	5.56347
1.16667	-3.28968	6.6653
1.18333	-3.42189	9.33463
1.2	-3.60083	10.1349
1.21667	-3.75972	6.37809
1.23333	-3.81344	0.168572
1.25	-3.76533	-3.09735
1.26667	-3.71019	-1.24686
1.28333	-3.72377	2.27905
1.3	-3.78616	2.97333
1.31667	-3.82288	0.640465
1.33333	-3.80751	-1.88785
1.35	-3.75995	-3.63407
1.36667	-3.68637	-5.24705
1.38333	-3.58505	-6.00158
1.4	-3.48632	-4.43252
1.41667	-3.4373	-1.48854
1.43333	-3.4367	-0.593827
1.45	-3.41751	-3.56696
1.46667	-3.3178	-8.10116
1.48333	-3.14747	-10.5872
1.5	-2.9649	-10.0327
1.51667	-2.81305	-8.1774
1.53333	-2.69232	-6.85272
1.55	-2.58462	-6.37833
1.56667	-2.4797	-6.34488
1.58333	-2.37313	-6.70499
1.6	-2.25621	-7.59038
1.61667	-2.12012	-8.53347
1.63333	-1.97176	-8.64123
1.65	-1.83207	-7.5619
1.66667	-1.71969	-5.88451
1.68333	-1.63592	-4.6317
1.7	-1.5653	-4.37791
1.71667	-1.48999	-4.83827
1.73333	-1.40403	-5.34931
1.75	-1.31168	-5.5242
1.76667	-1.21989	-5.25733
1.78333	-1.13644	-4.64189
1.8	-1.06516	-3.99595
1.81667	-1.00324	-3.80455
1.83333	-0.938339	-4.33904
1.85	-0.858606	-5.14493
1.86667	-0.766841	-5.42338
1.88333	-0.677826	-4.98077
1.9	-0.600816	-4.40938
1.91667	-0.530847	-4.3262
1.93333	-0.456609	-4.84076
1.95	-0.369488	-5.7567
1.96667	-0.264719	-6.84722
1.98333	-0.141247	-7.94156
2	0	-8.47485
