0.000000000000000000e+00 7.946836383751280664e+04 7.355273904429676477e+05
1.666666666666666644e-02 6.720957399679668015e+04 6.789275426308785100e+05
3.333333333333333287e-02 5.683744574981685582e+04 5.744282637079566484e+05
5.000000000000000278e-02 4.806196520653145853e+04 4.859932412694850354e+05
6.666666666666666574e-02 4.063767104083402228e+04 4.111545827384632430e+05
8.333333333333332871e-02 3.435681244858268474e+04 3.478234009228229988e+05
1.000000000000000056e-01 2.904355767673992159e+04 2.942316186667793081e+05
1.166666666666666685e-01 2.454909182635670732e+04 2.488827084388729418e+05
1.333333333333333315e-01 2.074746739544415686e+04 2.105099951097333687e+05
1.499999999999999944e-01 1.753209198936559551e+04 1.780413607664320443e+05
1.666666666666666574e-01 1.481275536989642205e+04 1.505693686737827375e+05
1.833333333333333204e-01 1.251311303357283759e+04 1.273259743892566330e+05
2.000000000000000111e-01 1.056855622358786786e+04 1.076611197687593813e+05
2.166666666666666741e-01 8.924409041280858219e+03 9.102461372181738261e+04
2.333333333333333370e-01 7.534402432860621957e+03 7.695079509704028897e+04
2.500000000000000000e-01 6.359382538046182162e+03 6.504555055044125766e+04
2.666666666666666630e-01 5.366217414512580035e+03 5.497532582727838599e+04
2.833333333333333259e-01 4.526871677136902690e+03 4.645782439851820527e+04
2.999999999999999889e-01 3.817623267895306526e+03 3.925413438131925795e+04
3.166666666666666519e-01 3.218400531092927395e+03 3.316206444746883062e+04
3.333333333333333148e-01 2.712221119646345414e+03 2.801050309193715293e+04
3.499999999999999778e-01 2.284717094695022297e+03 2.365464413305788912e+04
3.666666666666666408e-01 1.923732981877749125e+03 1.997194543986391363e+04
3.833333333333333037e-01 1.618985580032891903e+03 1.685870830248475613e+04
4.000000000000000222e-01 1.361776038461590588e+03 1.422718214685577186e+04
4.166666666666666852e-01 1.144746175137699538e+03 1.200311392658450677e+04
4.333333333333333481e-01 9.616722409087736878e+02 1.012367391007653896e+04
4.500000000000000111e-01 8.072903781351482166e+02 8.535700064806980663e+03
4.666666666666666741e-01 6.771489054152076505e+02 7.194212114856386506e+03
4.833333333333333370e-01 5.674833076399353331e+02 6.061153859610440122e+03
5.000000000000000000e-01 4.751104434281929798e+02 5.104328700022073463e+03
5.166666666666666075e-01 3.973390176391995396e+02 4.296498701109963804e+03
5.333333333333333259e-01 3.318938200578608644e+02 3.614622075293178113e+03
5.500000000000000444e-01 2.768516151294269321e+02 3.039207827601464487e+03
5.666666666666666519e-01 2.305868924711453758e+02 2.553769568146073652e+03
5.833333333333333703e-01 1.917259628578911475e+02 2.144363260387826358e+03
5.999999999999999778e-01 1.591081171248845010e+02 1.799196012645207020e+03
6.166666666666666963e-01 1.317527624363842449e+02 1.508295000078212297e+03
6.333333333333333037e-01 1.088316171222774216e+02 1.263227280198349945e+03
6.500000000000000222e-01 8.964518642977257912e+01 2.255551048885312412e+03
6.666666666666666297e-01 3.364658215943367736e+01 1.678363142212509956e+03
6.833333333333333481e-01 3.369974835602224772e+01 2.761745294951948040e+02
6.999999999999999556e-01 2.444076450959385127e+01 6.133606587613180636e+02
7.166666666666666741e-01 1.325439306397831452e+01 2.995917031771246002e+02
7.333333333333332815e-01 1.445437440368969817e+01 -7.219868164510945263e+00
7.500000000000000000e-01 1.349505533612867936e+01 7.669732711600431685e+01
7.666666666666666075e-01 1.189779683315622094e+01 9.860399596275003375e+01
7.833333333333333259e-01 1.020825547070367811e+01 9.702870655644284170e+01
8.000000000000000444e-01 8.663506614608126100e+00 8.698147701656336039e+01
8.166666666666666519e-01 7.308872903484899375e+00 7.695257171726116496e+01
8.333333333333333703e-01 6.098420890699420838e+00 6.959454812547828340e+01
8.499999999999999778e-01 4.989054632635623321e+00 6.373179510329772768e+01
8.666666666666666963e-01 3.974027720589496493e+00 5.811274102609053926e+01
8.833333333333333037e-01 3.051963265099272071e+00 5.311883569718490605e+01
9.000000000000000222e-01 2.203399864016666321e+00 4.940044374683960626e+01
9.166666666666666297e-01 1.405281806871285122e+00 4.667932063665753617e+01
9.333333333333333481e-01 6.474225094614152187e-01 4.414172966289140732e+01
9.499999999999999556e-01 -6.610918189176186177e-02 4.096688497731604883e+01
9.666666666666666741e-01 -7.181403231157863498e-01 3.681023591754221513e+01
9.833333333333332815e-01 -1.293117045809835552e+00 3.205022777120684907e+01
1.000000000000000000e+00 -1.786481248822681334e+00 2.733019008588094323e+01
1.016666666666666607e+00 -2.204123382005866993e+00 2.310805859183430400e+01
1.033333333333333215e+00 -2.556749868550491467e+00 1.964410572458159265e+01
1.050000000000000044e+00 -2.858926906158586689e+00 1.699244996490932635e+01
1.066666666666666652e+00 -3.123164867380802345e+00 1.482703041770979091e+01
1.083333333333333259e+00 -3.353161253415579690e+00 1.268630853320761176e+01
1.100000000000000089e+00 -3.546041818487722708e+00 1.044142470095530051e+01
1.116666666666666696e+00 -3.701208743447423011e+00 8.183295030164563499e+00
1.133333333333333304e+00 -3.818818319493208158e+00 5.956266320284249183e+00
1.149999999999999911e+00 -3.899750954123564650e+00 3.750857949149697390e+00
1.166666666666666741e+00 -3.943846917798198071e+00 1.508138394816573857e+00
1.183333333333333348e+00 -3.950022233950783779e+00 -7.765429285704694706e-01
1.199999999999999956e+00 -3.917962153512515755e+00 -2.960177260470402416e+00
1.216666666666666563e+00 -3.851349658601770365e+00 -4.839667435261332251e+00
1.233333333333333393e+00 -3.756639905670471347e+00 -6.255510360183125229e+00
1.250000000000000000e+00 -3.642832646595666191e+00 -7.164757511726929096e+00
1.266666666666666607e+00 -3.517814655279573710e+00 -7.538921480559239718e+00
1.283333333333333215e+00 -3.391535263910358200e+00 -7.499756528188035176e+00
1.300000000000000044e+00 -3.267822771006639204e+00 -7.426301435741202717e+00
1.316666666666666652e+00 -3.143991882718984776e+00 -7.598094274877240650e+00
1.333333333333333259e+00 -3.014552961844064516e+00 -7.941652121576163736e+00
1.350000000000000089e+00 -2.879270145333112652e+00 -8.264169133271277445e+00
1.366666666666666696e+00 -2.739080657401688601e+00 -8.492610292189835874e+00
1.383333333333333304e+00 -2.596183135593451485e+00 -8.610609397190827963e+00
1.399999999999999911e+00 -2.452060344161994365e+00 -8.577077292721551061e+00
1.416666666666666741e+00 -2.310280559169399783e+00 -8.369711749888351093e+00
1.433333333333333348e+00 -2.173069952499049329e+00 -7.991919919508840842e+00
1.449999999999999956e+00 -2.043883228519105089e+00 -7.446125668835311018e+00
1.466666666666666563e+00 -1.924865763537872310e+00 -6.829770808411872451e+00
1.483333333333333393e+00 -1.816224201572042674e+00 -6.247062590327392861e+00
1.500000000000000000e+00 -1.716630343860292562e+00 -5.748672818710431898e+00
1.516666666666666607e+00 -1.624601774281694944e+00 -5.366397734426969102e+00
1.533333333333333215e+00 -1.537750419379393607e+00 -5.156673598422245597e+00
1.550000000000000044e+00 -1.452712654334286757e+00 -5.079907081924392998e+00
1.566666666666666652e+00 -1.368420183315247174e+00 -5.030044481231590758e+00
1.583333333333333259e+00 -1.285044504959900413e+00 -4.986189359982677871e+00
1.600000000000000089e+00 -1.202213871315824578e+00 -5.001678137807344271e+00
1.616666666666666696e+00 -1.118321900366322286e+00 -5.076014148632553180e+00
1.633333333333333304e+00 -1.033013399694739487e+00 -5.134695483642990332e+00
1.649999999999999911e+00 -9.471653842448892746e-01 -5.078530356877095642e+00
1.666666666666666741e+00 -8.637290544655029656e-01 -4.850589988366560412e+00
1.683333333333333348e+00 -7.854790512993372609e-01 -4.477513891573678073e+00
1.699999999999999956e+00 -7.144785914130470372e-01 -4.054708184698966100e+00
1.716666666666666563e+00 -6.503221118093717168e-01 -3.691244045734444423e+00
1.733333333333333393e+00 -5.914371232218988972e-01 -3.423784463305374004e+00
1.750000000000000000e+00 -5.361959630325259241e-01 -3.241639906578786423e+00
1.766666666666666607e+00 -4.833824596692726794e-01 -3.118525105286669152e+00
1.783333333333333215e+00 -4.322451261896369523e-01 -3.009718854554435552e+00
1.800000000000000044e+00 -3.830584978507914906e-01 -2.876570233775066932e+00
1.816666666666666652e+00 -3.363594517304680509e-01 -2.720029215133709322e+00
1.833333333333333259e+00 -2.923908573463345206e-01 -2.558737526571161602e+00
1.849999999999999867e+00 -2.510682008447626679e-01 -2.403192622719287019e+00
1.866666666666666696e+00 -2.122844365890249607e-01 -2.245400881398594173e+00
1.883333333333333304e+00 -1.762215047981428584e-01 -2.073908266674942880e+00
1.899999999999999911e+00 -1.431541610331935332e-01 -1.892756531232125283e+00
1.916666666666666741e+00 -1.131296204237386832e-01 -1.717812422880063972e+00
1.933333333333333348e+00 -8.589374693719140086e-02 -2.997820119449902343e+00
1.949999999999999956e+00 -1.320228310874194295e-02 -2.540453752144137933e+00
1.966666666666666563e+00 -1.211955199053475112e-03 -3.929985490542206028e-01
1.983333333333333393e+00 -1.023314736012566209e-04 -3.635865597160425206e-02
2.000000000000000000e+00 0.000000000000000000e+00 -6.139888416075397690e-03
