0.000000000000000000e+00 6.007744653019691759e+04 5.568220624273078283e+05
1.666666666666666644e-02 5.079707882307512045e+04 5.139432284230791265e+05
3.333333333333333287e-02 4.294600558276094671e+04 4.347792511535307276e+05
5.000000000000000278e-02 3.630443711795743002e+04 3.677895233334740042e+05
6.666666666666666574e-02 3.068635480497848039e+04 3.111033855485905078e+05
8.333333333333332871e-02 2.593432426633774594e+04 2.631374938871667255e+05
1.000000000000000056e-01 2.191510500873958881e+04 2.225517009580387385e+05
1.166666666666666685e-01 1.851593423440312108e+04 1.882117108422283782e+05
1.333333333333333315e-01 1.564138131399864324e+04 1.591574679865713988e+05
1.499999999999999944e-01 1.321068530151740742e+04 1.345763997109492193e+05
1.666666666666666574e-01 1.115550132363366902e+04 1.137807671522710152e+05
1.833333333333333204e-01 9.417993063108373462e+03 9.618849387130037940e+04
2.000000000000000111e-01 7.949218194590323037e+03 8.130693818805176124e+04
2.166666666666666741e-01 6.707761790173314694e+03 6.871915728409832809e+04
2.333333333333333370e-01 5.658579618453712101e+03 5.807228049814756378e+04
2.500000000000000000e-01 4.772019106901729174e+03 4.906766797664870683e+04
2.666666666666666630e-01 4.022990685898755146e+03 4.145258055933615105e+04
2.833333333333333259e-01 3.390266421590524260e+03 3.501312886492153484e+04
2.999999999999999889e-01 2.855886390401370591e+03 2.956830516632227227e+04
3.166666666666666519e-01 2.404656249379781912e+03 2.496493179982980655e+04
3.333333333333333148e-01 2.023721997073710327e+03 2.107338537810594426e+04
3.499999999999999778e-01 1.702210070109583739e+03 1.778397768356971574e+04
3.666666666666666408e-01 1.430922740954719757e+03 1.500389240823063119e+04
3.833333333333333037e-01 1.202080323168562700e+03 1.265459238759572145e+04
4.000000000000000222e-01 1.009102994701529042e+03 1.066962508100875129e+04
4.166666666666666852e-01 8.464261538016043005e+02 8.992765143570428336e+03
4.333333333333333481e-01 7.093441565825147563e+02 7.576442324513026506e+03
4.500000000000000111e-01 5.938780763178367579e+02 6.380410875027607290e+03
4.666666666666666741e-01 4.966637940815945171e+02 5.370623376387480675e+03
4.833333333333333370e-01 4.148572971049207467e+02 4.518277594116460023e+03
5.000000000000000000e-01 3.460545409443791982e+02 3.799009784501804916e+03
5.166666666666666075e-01 2.882236376215272458e+02 3.192211960182592520e+03
5.333333333333333259e-01 2.396474756049594532e+02 2.680454075484788518e+03
5.500000000000000444e-01 1.988751684387009675e+02 2.248995015806508945e+03
5.666666666666666519e-01 1.646809750780758179e+02 1.885368750097763723e+03
5.833333333333333703e-01 1.360295434354421786e+02 1.579034100247936749e+03
5.999999999999999778e-01 1.120465050698112606e+02 1.893463748866884544e+03
6.166666666666666963e-01 7.291408513987936146e+01 2.037882806125080378e+03
6.333333333333333037e-01 4.411707819897525695e+01 1.083542034819502305e+03
6.500000000000000222e-01 3.679601731256261843e+01 6.533511006536641617e+02
6.666666666666666297e-01 2.233870817718645085e+01 5.542877201114515628e+02
6.833333333333333481e-01 1.831975997551423418e+01 1.303604081822297474e+02
6.999999999999999556e-01 1.799336123777879237e+01 6.676796714861012561e+01
7.166666666666666741e-01 1.609416107056056333e+01 1.215137806382920616e+02
7.333333333333332815e-01 1.394290188316905699e+01 1.257826251380298714e+02
7.500000000000000000e-01 1.190140689929290119e+01 1.158081855028169826e+02
7.666666666666666075e-01 1.008262903307515757e+01 1.029959387771357058e+02
7.833333333333333259e-01 8.468208940055044209e+00 9.236427085998727193e+01
8.000000000000000444e-01 7.003820004408915167e+00 8.450110201962186807e+01
8.166666666666666519e-01 5.651505539400981881e+00 7.801670081762296149e+01
8.333333333333333703e-01 4.403263310488149784e+00 7.190634678494667753e+01
8.499999999999999778e-01 3.254627313236092778e+00 6.614859606095484423e+01
8.666666666666666963e-01 2.198310108456321910e+00 6.074344915968418235e+01
8.833333333333333037e-01 1.229845674579953529e+00 5.556429383231115082e+01
9.000000000000000222e-01 3.461669807126168119e-01 5.052060298604938993e+01
9.166666666666666297e-01 -4.541744249550260237e-01 4.559391981464538190e+01
9.333333333333333481e-01 -1.173630346442229078e+00 4.086202911786721614e+01
9.499999999999999556e-01 -1.816242062217266362e+00 3.639675897199759191e+01
9.666666666666666741e-01 -2.386855645508815460e+00 3.223174714078236036e+01
9.833333333333332815e-01 -2.890633633576678463e+00 2.831426974487062509e+01
1.000000000000000000e+00 -3.330664637004502993e+00 2.453325654710832637e+01
1.016666666666666607e+00 -3.708408851813622675e+00 2.083696113614381673e+01
1.033333333333333215e+00 -4.025230008209296884e+00 1.732169614297853499e+01
1.050000000000000044e+00 -4.285798723246240449e+00 1.410950965232503407e+01
1.066666666666666652e+00 -4.495546996620131353e+00 1.112577001742239169e+01
1.083333333333333259e+00 -4.656657723826986839e+00 8.222485155993206618e+00
1.100000000000000089e+00 -4.769629835153238240e+00 5.490743261191015634e+00
1.116666666666666696e+00 -4.839682499200020693e+00 3.153873652950229811e+00
1.133333333333333304e+00 -4.874758956918245900e+00 1.252332223625911567e+00
1.149999999999999911e+00 -4.881426906654217746e+00 -4.159133254591296236e-01
1.166666666666666741e+00 -4.860895179402941579e+00 -2.125335273362152222e+00
1.183333333333333348e+00 -4.810582397542146005e+00 -4.045933184395797966e+00
1.199999999999999956e+00 -4.726030739923081647e+00 -6.090707942019308874e+00
1.216666666666666563e+00 -4.607558799474835709e+00 -7.862769693115403413e+00
1.233333333333333393e+00 -4.463938416819234867e+00 -8.961754038678835244e+00
1.250000000000000000e+00 -4.308833664852207868e+00 -9.309327162429328339e+00
1.266666666666666607e+00 -4.153627511404923922e+00 -9.186214868297808422e+00
1.283333333333333215e+00 -4.002626502575614253e+00 -9.004672787576657456e+00
1.300000000000000044e+00 -3.853471751819035340e+00 -9.046333294795845248e+00
1.316666666666666652e+00 -3.701082059415752745e+00 -9.403711127393222569e+00
1.333333333333333259e+00 -3.540014714239261284e+00 -9.969597861093699720e+00
1.350000000000000089e+00 -3.368762130712629421e+00 -1.049287263521874181e+01
1.366666666666666696e+00 -3.190252293065303224e+00 -1.081354942034827182e+01
1.383333333333333304e+00 -3.008310483367687027e+00 -1.088764504410720235e+01
1.399999999999999911e+00 -2.827330791595063175e+00 -1.073016603852361506e+01
1.416666666666666741e+00 -2.650638282083566555e+00 -1.041104618618092559e+01
1.433333333333333348e+00 -2.480295918722365656e+00 -1.003824351286344729e+01
1.449999999999999956e+00 -2.316030164988118312e+00 -9.689630272513438669e+00
1.466666666666666563e+00 -2.157308242971917700e+00 -9.386695849092099309e+00
1.483333333333333393e+00 -2.003140303351715001e+00 -9.123909682012731892e+00
1.500000000000000000e+00 -1.853177920238159970e+00 -8.838648428437469562e+00
1.516666666666666607e+00 -1.708518689070466001e+00 -8.447203975162789646e+00
1.533333333333333215e+00 -1.571604454399400330e+00 -7.976454680342044412e+00
1.550000000000000044e+00 -1.442636866392397854e+00 -7.550307837853216242e+00
1.566666666666666652e+00 -1.319927526470959789e+00 -7.239814217725224488e+00
1.583333333333333259e+00 -1.201309725801557038e+00 -7.022168818727617001e+00
1.600000000000000089e+00 -1.085855232513372570e+00 -6.803664421730361234e+00
1.616666666666666696e+00 -9.745209117438783375e-01 -6.491016690812859480e+00
1.633333333333333304e+00 -8.694880094862772468e-01 -6.035175556097770233e+00
1.649999999999999911e+00 -7.733483932072859890e-01 -5.445453556202728862e+00
1.666666666666666741e+00 -6.879728909461862996e-01 -4.777211539856718758e+00
1.683333333333333348e+00 -6.141080085453953785e-01 -4.101486272794952370e+00
1.699999999999999956e+00 -5.512566818530212354e-01 -3.490598266964301200e+00
1.716666666666666563e+00 -4.977547329799186793e-01 -3.003030525539009066e+00
1.733333333333333393e+00 -4.511556643350542739e-01 -2.664632203290631107e+00
1.750000000000000000e+00 -4.089336595368976424e-01 -2.456887147046167286e+00
1.766666666666666607e+00 -3.692594261001820310e-01 -2.330273942355771233e+00
1.783333333333333215e+00 -3.312578614583719383e-01 -2.225017229414050224e+00
1.800000000000000044e+00 -2.950921851197136903e-01 -2.093035162899210100e+00
1.816666666666666652e+00 -2.614900226950649387e-01 -1.916561248937409756e+00
1.833333333333333259e+00 -2.312068101551333632e-01 -1.711107124718672212e+00
1.849999999999999867e+00 -2.044531185377758686e-01 -1.506993302941053159e+00
1.866666666666666696e+00 -1.809737000570982579e-01 -1.331049177809559669e+00
1.883333333333333304e+00 -1.600848126107905500e-01 -1.206897128416813514e+00
1.899999999999999911e+00 -1.407437957765378111e-01 -1.159357644438101298e+00
1.916666666666666741e+00 -1.214395577961871753e-01 -1.201218557205342652e+00
1.933333333333333348e+00 -1.007031772030263922e-01 -3.159597954538951203e+00
1.949999999999999956e+00 -1.611962597822214072e-02 -2.972113447658185859e+00
1.966666666666666563e+00 -1.632728947753530127e-03 -4.788131680587028871e-01
1.983333333333333393e+00 -1.591870429320457823e-04 -4.898186843260590728e-02
2.000000000000000000e+00 0.000000000000000000e+00 -9.551222575922746830e-03
