0.000000000000000000e+00 3.706621764755906838e+02 6.800316543797259783e+02
1.666666666666666644e-02 3.593283155692619175e+02 6.800316543797259783e+02
3.333333333333333287e-02 3.479944546629331512e+02 6.800316543797259783e+02
5.000000000000000278e-02 3.366605937566043849e+02 6.800316543797259783e+02
6.666666666666666574e-02 3.253267328502756186e+02 6.800316543797259783e+02
8.333333333333332871e-02 3.139928719439468523e+02 6.800316543797276836e+02
1.000000000000000056e-01 3.026590110376180291e+02 6.800316543797259783e+02
1.166666666666666685e-01 2.913251501312893197e+02 6.800316543797259783e+02
1.333333333333333315e-01 2.799912892249604965e+02 6.800316543797259783e+02
1.499999999999999944e-01 2.686574283186317871e+02 6.800316543797259783e+02
1.666666666666666574e-01 2.573235674123029639e+02 6.800316543797259783e+02
1.833333333333333204e-01 2.459897065059742545e+02 6.800316543797259783e+02
2.000000000000000111e-01 2.346558455996454313e+02 6.800316543797276836e+02
2.166666666666666741e-01 2.233219846933166650e+02 6.800316543797259783e+02
2.333333333333333370e-01 2.119881237869878987e+02 6.800316543797259783e+02
2.500000000000000000e-01 2.006542628806591324e+02 6.800316543797259783e+02
2.666666666666666630e-01 1.893204019743303661e+02 6.800316543797259783e+02
2.833333333333333259e-01 1.779865410680015998e+02 6.800316543797268878e+02
2.999999999999999889e-01 1.666526801616728051e+02 6.800316543797268878e+02
3.166666666666666519e-01 1.553188192553440388e+02 6.800316543797259783e+02
3.333333333333333148e-01 1.439849583490152725e+02 6.800316543797259783e+02
3.499999999999999778e-01 1.326510974426865062e+02 6.800316543797259783e+02
3.666666666666666408e-01 1.213172365363577399e+02 6.800316543797259783e+02
3.833333333333333037e-01 1.099833756300289735e+02 6.800316543797276836e+02
4.000000000000000222e-01 9.864951472370015040e+01 6.800316543797276836e+02
4.166666666666666852e-01 8.731565381737138409e+01 6.800316543797259783e+02
4.333333333333333481e-01 7.598179291104261779e+01 6.800316543797259783e+02
4.500000000000000111e-01 6.464793200471385148e+01 6.800316543797259783e+02
4.666666666666666741e-01 5.331407109838508518e+01 6.800316543797262057e+02
4.833333333333333370e-01 4.198021019205631177e+01 6.800316543797263193e+02
5.000000000000000000e-01 3.064634928572754191e+01 5.590987476188008714e+02
5.166666666666666075e-01 2.334358527142961748e+01 3.881331630555747552e+02
5.333333333333333259e-01 1.770857718387505031e+01 3.068584386268364597e+02
5.500000000000000444e-01 1.311497065053506894e+01 2.527766831978579489e+02
5.666666666666666519e-01 9.282687743946452130e+00 2.103135829411493205e+02
5.833333333333333703e-01 6.104517885830091473e+00 1.735317924292377540e+02
5.999999999999999778e-01 3.498294662971860092e+00 1.412138779449727508e+02
6.166666666666666963e-01 1.397388620997666475e+00 1.131651078603935190e+02
6.333333333333333037e-01 -2.738755990412573005e-01 8.946669435800708925e+01
6.500000000000000222e-01 -1.584834524269236100e+00 6.991274639334874053e+01
6.666666666666666297e-01 -2.604300478819548736e+00 5.394105340102503021e+01
6.833333333333333481e-01 -3.382869637636737092e+00 4.066589341099358990e+01
6.999999999999999556e-01 -3.959830259186001733e+00 2.923606128088124123e+01
7.166666666666666741e-01 -4.357405013666111770e+00 1.905265382949673736e+01
7.333333333333332815e-01 -4.594918720169226312e+00 1.009243328403692352e+01
7.500000000000000000e-01 -4.693819456467342555e+00 2.725450453467352929e+00
7.666666666666666075e-01 -4.685767068618138076e+00 -2.764849838644725111e+00
7.833333333333333259e-01 -4.601657795179185051e+00 -6.437381583406782681e+00
8.000000000000000444e-01 -4.471187682504578653e+00 -8.612923729606709600e+00
8.166666666666666519e-01 -4.314560337525628064e+00 -9.785997859093962248e+00
8.333333333333333703e-01 -4.144987753868113245e+00 -1.040091766985650423e+01
8.499999999999999778e-01 -3.967863081863744590e+00 -1.075873549950576802e+01
8.666666666666666963e-01 -3.786363237217921007e+00 -1.102213443637168666e+01
8.833333333333333037e-01 -3.600458600651355034e+00 -1.124968507615093571e+01
9.000000000000000222e-01 -3.411373734679556513e+00 -1.150420091088749963e+01
9.166666666666666297e-01 -3.216985236955105076e+00 -1.191726946994763559e+01
9.333333333333333481e-01 -3.014131419014635327e+00 -1.245900181101429283e+01
9.499999999999999556e-01 -2.801685176587962012e+00 -1.303580180567798230e+01
9.666666666666666741e-01 -2.579604692158702584e+00 -1.359568375031764731e+01
9.833333333333332815e-01 -2.348495718244040464e+00 -1.409274793932344316e+01
1.000000000000000000e+00 -2.109846427514587841e+00 -1.441867244233358747e+01
1.016666666666666607e+00 -1.867873303499587578e+00 -1.446227872993115504e+01
1.033333333333333215e+00 -1.627770469850216006e+00 -1.407901704902079665e+01
1.050000000000000044e+00 -1.398572735198894357e+00 -1.319036547574932428e+01
1.066666666666666652e+00 -1.188091620658571879e+00 -1.186885196950293775e+01
1.083333333333333259e+00 -1.002944336215463084e+00 -1.028742568152851966e+01
1.100000000000000089e+00 -8.451774312742879047e-01 -8.593717829613952475e+00
1.116666666666666696e+00 -7.164870752283313271e-01 -6.911009406298518343e+00
1.133333333333333304e+00 -6.148104510643372933e-01 -5.423880361090053448e+00
1.149999999999999911e+00 -5.356910631919962196e-01 -4.288670673631293617e+00
1.166666666666666741e+00 -4.718547619432941764e-01 -3.533746405685436187e+00
1.183333333333333348e+00 -4.178995163358150133e-01 -3.067330970459038131e+00
1.199999999999999956e+00 -3.696103962613262461e-01 -2.812487999063393751e+00
1.216666666666666563e+00 -3.241499163670352179e-01 -2.671687263057406447e+00
1.233333333333333393e+00 -2.805541541594127053e-01 -2.523951222846828824e+00
1.250000000000000000e+00 -2.400182089388075979e-01 -2.280187371330586465e+00
1.266666666666666607e+00 -2.045479084483931564e-01 -1.969436210782967711e+00
1.283333333333333215e+00 -1.743703352460420075e-01 -1.692813134893597304e+00
1.300000000000000044e+00 -1.481208039519399111e-01 -1.520626023152271911e+00
1.316666666666666652e+00 -1.236828011409662753e-01 -1.448890408204286606e+00
1.333333333333333259e+00 -9.982445701179702702e-02 -1.404438764410272045e+00
1.350000000000000089e+00 -7.686817566062387197e-02 -1.294512828192957432e+00
1.366666666666666696e+00 -5.667402940536511030e-02 -1.069320609190532290e+00
1.383333333333333304e+00 -4.122415535427279704e-02 -7.556372492885916614e-01
1.399999999999999911e+00 -3.148612109574538964e-02 -4.082263418702715141e-01
1.416666666666666741e+00 -2.761661062526374680e-02 -9.930873619450261702e-02
1.433333333333333348e+00 -2.817582988926196907e-02 1.153484839450768795e-01
1.449999999999999956e+00 -3.146156009009964255e-02 2.304399981605059766e-01
1.466666666666666563e+00 -3.585716316127883496e-02 2.967098872962062317e-01
1.483333333333333393e+00 -4.135188966663985027e-02 3.653982321610396711e-01
1.500000000000000000e+00 -4.803710423331349066e-02 4.423740033357786428e-01
1.516666666666666607e+00 -5.609768977783247124e-02 4.973420559359430504e-01
1.533333333333333215e+00 -6.461517276451159142e-02 4.925922377963048993e-01
1.550000000000000044e+00 -7.251743103770930121e-02 4.138379545855246366e-01
1.566666666666666652e+00 -7.840977125069574505e-02 2.862670679783657635e-01
1.583333333333333259e+00 -8.205966663698815999e-02 1.668427408902031783e-01
1.600000000000000089e+00 -8.397119594703585099e-02 8.198627847425032922e-02
1.616666666666666696e+00 -8.479254258612983763e-02 2.839690780566311856e-02
1.633333333333333304e+00 -8.491775954055795494e-02 -9.712879618489489442e-03
1.649999999999999911e+00 -8.446877993218018799e-02 -4.802295606931392125e-02
1.666666666666666741e+00 -8.331699433824749090e-02 -1.059537325166920452e-01
1.683333333333333348e+00 -8.093698884829045315e-02 -1.955122655180463465e-01
1.699999999999999956e+00 -7.679991882097927935e-02 -3.090796653395690430e-01
1.716666666666666563e+00 -7.063433333697148597e-02 -4.170861711493484281e-01
1.733333333333333393e+00 -6.289704644933433175e-02 -4.878564447408864080e-01
1.750000000000000000e+00 -5.437245184560860617e-02 -5.065106981981436496e-01
1.766666666666666607e+00 -4.601335650939621102e-02 -4.851228834280825741e-01
1.783333333333333215e+00 -3.820168906467252129e-02 -4.540298231749171909e-01
1.800000000000000044e+00 -3.087902907023230489e-02 -4.355457304277853270e-01
1.816666666666666652e+00 -2.368349805041301132e-02 -4.321865959859328421e-01
1.833333333333333259e+00 -1.647280920403454418e-02 -4.328655455758155246e-01
1.849999999999999867e+00 -9.254646531219160727e-03 -4.134808954105846923e-01
1.866666666666666696e+00 -2.690112690348387542e-03 -3.540171479357099860e-01
1.883333333333333304e+00 2.545925066637837707e-03 -2.636348625052380434e-01
1.899999999999999911e+00 6.097716059826212114e-03 -1.671063569792797798e-01
1.916666666666666741e+00 8.116136965947163759e-03 -8.200346280410346356e-02
1.933333333333333348e+00 8.831164819962994059e-03 2.267815491111423165e-01
1.949999999999999956e+00 5.567519955757527748e-04 2.633826079765180239e-01
1.966666666666666563e+00 5.174455407905973787e-05 1.642233730481562973e-02
1.983333333333333393e+00 9.340752081898420450e-06 1.552336622371792204e-03
2.000000000000000000e+00 0.000000000000000000e+00 5.604451249139051931e-04
