0.0000 2180.4384 71.0746
0.0167 2178.1400 260.2442
0.0333 2172.2007 422.9839
0.0500 2164.4755 484.9523
0.0667 2156.2305 498.4493
0.0833 2147.9032 499.9354
0.1000 2139.5700 500.0106
0.1167 2131.2367 499.9900
0.1333 2122.9033 499.9900
0.1500 2114.5700 500.0200
0.1667 2106.2367 499.9900
0.1833 2097.9033 499.9900
0.2000 2089.5700 500.0200
0.2167 2081.2367 499.9900
0.2333 2072.9033 499.9900
0.2500 2064.5700 500.0200
0.2667 2056.2367 499.9900
0.2833 2047.9033 499.9900
0.3000 2039.5700 500.0200
0.3167 2031.2367 499.9900
0.3333 2022.9033 499.9900
0.3500 2014.5700 500.0200
0.3667 2006.2367 499.9900
0.3833 1997.9033 499.9900
0.4000 1989.5700 500.0200
0.4167 1981.2367 499.9900
0.4333 1972.9033 499.9900
0.4500 1964.5700 500.0200
0.4667 1956.2367 499.9900
0.4833 1947.9033 499.9900
0.5000 1939.5700 500.0200
0.5167 1931.2367 499.9912
0.5333 1922.9032 500.0381
0.5500 1914.5661 500.9422
0.5667 1906.1784 510.1757
0.5833 1897.3711 571.5989
0.6000 1886.3054 843.6024
0.6167 1866.9224 1684.1959
0.6333 1825.7976 3554.3521
0.6500 1743.2627 6626.5118
0.6667 1601.4038 10536.9735
0.6833 1390.5427 14818.8784
0.7000 1107.6928 18931.3412
0.7167 768.1603 20875.6071
0.7333 433.2477 17945.9956
0.7500 187.9571 10991.0255
0.7667 64.1742 4527.3935
0.7833 22.5087 1278.2668
0.8000 11.7771 358.0286
0.8167 7.7466 193.4302
0.8333 4.9506 149.4349
0.8500 2.7121 121.1198
0.8667 0.8931 97.9113
0.8833 -0.5602 76.9179
0.9000 -1.6773 57.4581
0.9167 -2.4803 39.2405
0.9333 -2.9925 22.7248
0.9500 -3.2467 8.3500
0.9667 -3.2826 -3.0845
0.9833 -3.1641 -9.8583
1.0000 -2.9720 -12.4834
1.0167 -2.7541 -13.4784
1.0333 -2.5249 -13.9420
1.0500 -2.2879 -14.7522
1.0667 -2.0290 -16.3509
1.0833 -1.7483 -16.7261
1.1000 -1.4815 -14.9254
1.1167 -1.2514 -12.9824
1.1333 -1.0400 -13.0105
1.1500 -0.8075 -15.3112
1.1667 -0.5288 -17.8051
1.1833 -0.2240 -18.1305
1.2000 0.0689 -16.9031
1.2167 0.3397 -15.5406
1.2333 0.5832 -13.3884
1.2500 0.7842 -10.9472
1.2667 0.9554 -9.9951
1.2833 1.1192 -9.4506
1.3000 1.2650 -7.8584
1.3167 1.3827 -6.5958
1.3333 1.4903 -6.3946
1.3500 1.5914 -5.2358
1.3667 1.6568 -2.3739
1.3833 1.6719 0.2646
1.4000 1.6537 1.6724
1.4167 1.6174 2.8190
1.4333 1.5546 5.0392
1.4500 1.4474 7.5635
1.4667 1.3126 7.9116
1.4833 1.1917 6.5150
1.5000 1.0911 5.9235
1.5167 0.9901 6.2334
1.5333 0.8858 6.0502
1.5500 0.7912 5.3344
1.5667 0.7039 5.5243
1.5833 0.6017 6.7542
1.6000 0.4849 6.6223
1.6167 0.3912 4.3606
1.6333 0.3356 2.9695
1.6500 0.2790 4.3623
1.6667 0.1896 5.9073
1.6833 0.0943 4.8825
1.7000 0.0318 2.7180
1.7167 -0.0030 1.9567
1.7333 -0.0404 2.7656
1.7500 -0.0948 3.4853
1.7667 -0.1497 2.7242
1.7833 -0.1822 1.1814
1.8000 -0.1916 0.1102
1.8167 -0.1876 -0.5532
1.8333 -0.1731 -1.1962
1.8500 -0.1476 -1.8232
1.8667 -0.1136 -2.1462
1.8833 -0.0780 -2.0310
1.9000 -0.0475 -1.5325
1.9167 -0.0282 -0.7626
1.9333 -0.0211 -0.1991
1.9500 -0.0196 -0.0631
1.9667 -0.0184 -0.0900
1.9833 -0.0167 -0.1013
2.0000 -0.0154 -0.0579
