0.000000000000000000e+00 9.008781117894081945e+02 1.581639225586882276e+03
1.666666666666666644e-02 8.745174580296268232e+02 1.581639225586878865e+03
3.333333333333333287e-02 8.481568042698455656e+02 1.581639225586875455e+03
5.000000000000000278e-02 8.217961505100643080e+02 1.581639225586878865e+03
6.666666666666666574e-02 7.954354967502829368e+02 1.581639225586878865e+03
8.333333333333332871e-02 7.690748429905016792e+02 1.581639225586878865e+03
1.000000000000000056e-01 7.427141892307203079e+02 1.581639225586882276e+03
1.166666666666666685e-01 7.163535354709389367e+02 1.581639225586878865e+03
1.333333333333333315e-01 6.899928817111576791e+02 1.581639225586878865e+03
1.499999999999999944e-01 6.636322279513763078e+02 1.581639225586878865e+03
1.666666666666666574e-01 6.372715741915950503e+02 1.581639225586878865e+03
1.833333333333333204e-01 6.109109204318136790e+02 1.581639225586878865e+03
2.000000000000000111e-01 5.845502666720324214e+02 1.581639225586875455e+03
2.166666666666666741e-01 5.581896129122511638e+02 1.581639225586878865e+03
2.333333333333333370e-01 5.318289591524697926e+02 1.581639225586880684e+03
2.500000000000000000e-01 5.054683053926884782e+02 1.581639225586878865e+03
2.666666666666666630e-01 4.791076516329071637e+02 1.581639225586878865e+03
2.833333333333333259e-01 4.527469978731258493e+02 1.581639225586878865e+03
2.999999999999999889e-01 4.263863441133445349e+02 1.581639225586878865e+03
3.166666666666666519e-01 4.000256903535632205e+02 1.581639225586878865e+03
3.333333333333333148e-01 3.736650365937819060e+02 1.581639225586878865e+03
3.499999999999999778e-01 3.473043828340005916e+02 1.581639225586877274e+03
3.666666666666666408e-01 3.209437290742193341e+02 1.581639225586877274e+03
3.833333333333333037e-01 2.945830753144380196e+02 1.581639225586882276e+03
4.000000000000000222e-01 2.682224215546565915e+02 1.581639225586880684e+03
4.166666666666666852e-01 2.418617677948753339e+02 1.581639225586877274e+03
4.333333333333333481e-01 2.155011140350940195e+02 1.581639225586878865e+03
4.500000000000000111e-01 1.891404602753127051e+02 1.581639225586878865e+03
4.666666666666666741e-01 1.627798065155313907e+02 1.581639225586878865e+03
4.833333333333333370e-01 1.364191527557500763e+02 1.581639225586878865e+03
5.000000000000000000e-01 1.100584989959687618e+02 1.581639225586875909e+03
5.166666666666666075e-01 8.369784523618754690e+01 1.581639225586878410e+03
5.333333333333333259e-01 5.733719147640614722e+01 1.581639225586884095e+03
5.500000000000000444e-01 3.097653771662475108e+01 1.024937053224455667e+03
5.666666666666666519e-01 2.317262303559095571e+01 3.910636860983913152e+02
5.833333333333333703e-01 1.794108151334503987e+01 2.799198462253920638e+02
5.999999999999999778e-01 1.384196149474455417e+01 2.243225872642553895e+02
6.166666666666666963e-01 1.046366193786986010e+01 1.859631855989183862e+02
6.333333333333333037e-01 7.643188641447274279e+00 1.550268692299461009e+02
6.500000000000000222e-01 5.296099630204990305e+00 1.285126672359713496e+02
6.666666666666666297e-01 3.359433066914895516e+00 1.055909741387575025e+02
6.833333333333333481e-01 1.776400492246406726e+00 8.578982954858999221e+01
6.999999999999999556e-01 4.997720819618954313e-01 6.847832384004095729e+01
7.166666666666666741e-01 -5.062103024216253466e-01 5.312980883037523938e+01
7.333333333333332815e-01 -1.271221545717279300e+00 3.951745314337659210e+01
7.500000000000000000e-01 -1.823458740534178446e+00 2.758002685696661871e+01
7.666666666666666075e-01 -2.190555774282833212e+00 1.734809770880083235e+01
7.833333333333333259e-01 -2.401728664160872828e+00 8.885067493096499902e+00
8.000000000000000444e-01 -2.486724690719383180e+00 2.229725272656679635e+00
8.166666666666666519e-01 -2.476052839916095483e+00 -2.652099765165409906e+00
8.333333333333333703e-01 -2.398321365213869516e+00 -5.919372120241481738e+00
8.499999999999999778e-01 -2.278740435908046091e+00 -7.880204272384632169e+00
8.666666666666666963e-01 -2.135647889467715110e+00 -8.942661240103053188e+00
8.833333333333333037e-01 -1.980651727904610970e+00 -9.559682942008645767e+00
9.000000000000000222e-01 -1.816991791400760281e+00 -1.005157986782598201e+01
9.166666666666666297e-01 -1.645599065643744918e+00 -1.043359115129583792e+01
9.333333333333333481e-01 -1.469205419690899017e+00 -1.036153860842157393e+01
9.499999999999999556e-01 -1.300214445363025773e+00 -9.253788844584841300e+00
9.666666666666666741e-01 -1.160745791538071003e+00 -6.636489436534030339e+00
9.833333333333332815e-01 -1.078998130811891443e+00 -2.584169545937664569e+00
1.000000000000000000e+00 -1.074606806673482184e+00 2.157553208609657158e+00
1.016666666666666607e+00 -1.150916571098880015e+00 6.519276689651912093e+00
1.033333333333333215e+00 -1.291916029661879239e+00 9.575192098075904212e+00
1.050000000000000044e+00 -1.470089641034743488e+00 1.089925444916359787e+01
1.066666666666666652e+00 -1.655224511300665835e+00 1.061343434352199289e+01
1.083333333333333259e+00 -1.823870785818809903e+00 9.186468573423903550e+00
1.100000000000000089e+00 -1.961440130414795924e+00 7.168690425027959279e+00
1.116666666666666696e+00 -2.062827133319741879e+00 5.042118526327170613e+00
1.133333333333333304e+00 -2.129510747959034944e+00 3.139034289802098421e+00
1.149999999999999911e+00 -2.167461609646478493e+00 1.620448941368728413e+00
1.166666666666666741e+00 -2.183525712671325891e+00 4.922206454736777204e-01
1.183333333333333348e+00 -2.183868964495601084e+00 -3.209373207918275739e-01
1.199999999999999956e+00 -2.172827801978264972e+00 -9.334188937289811250e-01
1.216666666666666563e+00 -2.152755001371301713e+00 -1.471962437129357149e+00
1.233333333333333393e+00 -2.123762387407286401e+00 -2.032229856656604383e+00
1.250000000000000000e+00 -2.085014006149414900e+00 -2.631962065251887140e+00
1.266666666666666607e+00 -2.036030318565556829e+00 -3.237642048539983719e+00
1.283333333333333215e+00 -1.977092604531415443e+00 -3.820145232910383548e+00
1.300000000000000044e+00 -1.908692144135210711e+00 -4.356930655297879262e+00
1.316666666666666652e+00 -1.831861582688152801e+00 -4.836000820828898483e+00
1.333333333333333259e+00 -1.747492116774247428e+00 -5.276045801584590578e+00
1.350000000000000089e+00 -1.655993389301999796e+00 -5.707546901580247578e+00
1.366666666666666696e+00 -1.557240553388239190e+00 -6.151442809383976140e+00
1.383333333333333304e+00 -1.450945295655867273e+00 -6.622109586388041258e+00
1.399999999999999911e+00 -1.336503567175304497e+00 -7.107443888705223145e+00
1.416666666666666741e+00 -1.214030499365693183e+00 -7.552809141052447828e+00
1.433333333333333348e+00 -1.084743262473556236e+00 -7.879488738514397461e+00
1.449999999999999956e+00 -9.513808747485466011e-01 -8.019846660822777196e+00
1.466666666666666563e+00 -8.174150404461303365e-01 -7.928582756652907015e+00
1.483333333333333393e+00 -6.870947828601163820e-01 -7.601930259039955118e+00
1.500000000000000000e+00 -5.640173651447984993e-01 -7.100650569303360804e+00
1.516666666666666607e+00 -4.504064305500043441e-01 -6.519069935029898843e+00
1.533333333333333215e+00 -3.467150339771352119e-01 -5.926503841137864548e+00
1.550000000000000044e+00 -2.528563025120755259e-01 -5.343727626911255690e+00
1.566666666666666652e+00 -1.685907797467600389e-01 -4.762428045864910864e+00
1.583333333333333259e+00 -9.410870098324516930e-02 -4.174087783981531352e+00
1.600000000000000089e+00 -2.945452028070900258e-02 -3.582296471916699421e+00
1.616666666666666696e+00 2.530118141397814588e-02 -2.999391520681972789e+00
1.633333333333333304e+00 7.052519707535674642e-02 -2.439321665013256091e+00
1.649999999999999911e+00 1.066119035810866866e-01 -1.907825873145299278e+00
1.666666666666666741e+00 1.341193928468667196e-01 -1.400044625133031184e+00
1.683333333333333348e+00 1.532800577521877261e-01 -9.053516599896541672e-01
1.699999999999999956e+00 1.642977815131885233e-01 -4.207033353222117134e-01
1.716666666666666563e+00 1.673035022629281166e-01 4.153541343763028637e-02
1.733333333333333393e+00 1.629132677319341804e-01 4.515811253806542580e-01
1.750000000000000000e+00 1.522507980835729746e-01 7.776571120086073208e-01
1.766666666666666607e+00 1.369913639983139364e-01 9.959487136311293565e-01
1.783333333333333215e+00 1.190525076292019979e-01 1.097301065366927730e+00
1.800000000000000044e+00 1.004146618194163426e-01 1.091245488732479840e+00
1.816666666666666652e+00 8.267765800478600602e-02 1.004841708859301797e+00
1.833333333333333259e+00 6.691993819077295125e-02 8.706543619119458954e-01
1.849999999999999867e+00 5.365584594105447802e-02 7.175140248163814904e-01
1.866666666666666696e+00 4.300280403022690295e-02 5.653617161744366459e-01
1.883333333333333304e+00 3.481045540190658844e-02 4.292344889202464597e-01
1.899999999999999911e+00 2.869498773288535476e-02 3.242223430522772620e-01
1.916666666666666741e+00 2.400304396683067970e-02 2.620687426376082652e-01
1.933333333333333348e+00 1.995936297829841236e-02 5.433990404855164602e-01
1.949999999999999956e+00 5.889742617313464997e-03 5.770871123490989296e-01
1.966666666666666563e+00 7.231258999951151352e-04 1.746975985521602992e-01
1.983333333333333393e+00 6.648933224145557250e-05 2.169377699985345492e-02
2.000000000000000000e+00 0.000000000000000000e+00 3.989359934487334350e-03
