0.000000000000000000e+00 nan nan
1.666666666666666644e-02 5.062783130677975000e+13 nan
3.333333333333333287e-02 1.977637292766500244e+11 1.518603452496898500e+15
5.000000000000000278e-02 7.716223549793790817e+09 5.909738760207309570e+12
6.666666666666666574e-02 7.724372697397224903e+08 2.275995005837268677e+11
8.333333333333332871e-02 1.295735303362281919e+08 2.226933120326158905e+10
1.000000000000000056e-01 3.012622963100293651e+07 3.624002510856661320e+09
1.166666666666666685e-01 8.773446641006147489e+06 8.134118268397346735e+08
1.333333333333333315e-01 3.012502069678448606e+06 2.280164887122046053e+08
1.499999999999999944e-01 1.172897017265993869e+06 7.525002574426135421e+07
1.666666666666666574e-01 5.041678782030700240e+05 2.814467750984057412e+07
1.833333333333333204e-01 2.347411002713081543e+05 1.162324463695578463e+07
2.000000000000000111e-01 1.167263903045438929e+05 5.202468381999426521e+06
2.166666666666666741e-01 6.132548753799393307e+04 2.489103554943299387e+06
2.333333333333333370e-01 3.375627180643391330e+04 1.259643753823684994e+06
2.500000000000000000e-01 1.933736241053777121e+04 6.687159027680662693e+05
2.666666666666666630e-01 1.146574171416503486e+04 3.699689079280960723e+05
2.833333333333333259e-01 7.005065479601235893e+03 2.121754535859321477e+05
2.999999999999999889e-01 4.393226594633963032e+03 1.255781648859359993e+05
3.166666666666666519e-01 2.819126650070035794e+03 7.642191465973641607e+04
3.333333333333333148e-01 1.845829439309416102e+03 4.767019858169260988e+04
3.499999999999999778e-01 1.230120030680282071e+03 3.039733641604604054e+04
3.666666666666666408e-01 8.325848921078813873e+02 1.976845806532995266e+04
3.833333333333333037e-01 5.711714285026170046e+02 1.308496829469998920e+04
4.000000000000000222e-01 3.964192822845484443e+02 8.799336981727905368e+03
4.166666666666666852e-01 2.778601957783534999e+02 6.002069269517575776e+03
4.333333333333333481e-01 1.963503066339625889e+02 4.062679014409441606e+03
4.500000000000000111e-01 1.424375619647054521e+02 2.897890985211574389e+03
4.666666666666666741e-01 9.975394046024344163e+01 2.034582801230926862e+03
4.833333333333333370e-01 7.461813525700789285e+01 1.180578287418488571e+03
5.000000000000000000e-01 6.040133087962715308e+01 8.937638669504077598e+02
5.166666666666666075e-01 4.482600635866096894e+01 7.271384936235795067e+02
5.333333333333333259e-01 3.616338109217450381e+01 4.786429146259206959e+02
5.500000000000000444e-01 2.887124253779694527e+01 4.009931298030044218e+02
5.666666666666666519e-01 2.279694343207435736e+01 3.225534778133245482e+02
5.833333333333333703e-01 1.811945994401946081e+01 2.666154091051023443e+02
5.999999999999999778e-01 1.390976312857094577e+01 2.311571525426276139e+02
6.166666666666666963e-01 1.041422152593187356e+01 1.947321404224070704e+02
6.333333333333333037e-01 7.418691781157376930e+00 1.623047047294214735e+02
6.500000000000000222e-01 5.004064701617824795e+00 1.314678150530056939e+02
6.666666666666666297e-01 3.036431279390520821e+00 1.088290395615819079e+02
6.833333333333333481e-01 1.376430049565094738e+00 8.555857922682662320e+01
6.999999999999999556e-01 1.844786384963002235e-01 6.803573057530678625e+01
7.166666666666666741e-01 -8.914276362784648855e-01 5.232724624034588601e+01
7.333333333333332815e-01 -1.559762902848562671e+00 4.100111778434582988e+01
7.500000000000000000e-01 -2.258131562423325800e+00 3.203228603791745144e+01
7.666666666666666075e-01 -2.627505770779144267e+00 2.286180619325971719e+01
7.833333333333333259e-01 -3.020191768865316373e+00 1.623483712889184361e+01
8.000000000000000444e-01 -3.168667008408872388e+00 6.440077389659344398e+00
8.166666666666666519e-01 -3.234861015187294520e+00 2.216060895899651939e-02
8.333333333333333703e-01 -3.169405695374172272e+00 -1.484964681445974932e+00
8.499999999999999778e-01 -3.185362192472428688e+00 -1.719605585166643635e+00
8.666666666666666963e-01 -3.112085509201950817e+00 -3.960806855355438749e+00
8.833333333333333037e-01 -3.053335297293914063e+00 -6.861940323379864815e+00
9.000000000000000222e-01 -2.883354165089288657e+00 -3.390098298935577681e+00
9.166666666666666297e-01 -2.940332020662728141e+00 4.775468494369805583e-01
9.333333333333333481e-01 -2.899272393403854675e+00 7.826563754108573079e-01
9.499999999999999556e-01 -2.966420566509756718e+00 1.789225975668147228e+00
9.666666666666666741e-01 -2.958913259259459583e+00 5.003055669365958913e+00
9.833333333333332815e-01 -3.133189088821955348e+00 4.945853071197583439e+00
1.000000000000000000e+00 -3.123775028299379031e+00 6.763019862719543696e-01
1.016666666666666607e+00 -3.155732488364353827e+00 -2.537920153773463028e+00
1.033333333333333215e+00 -3.039177689840263596e+00 -5.392290057017463667e+00
1.050000000000000044e+00 -2.975989486463771705e+00 -6.946223541235010401e+00
1.066666666666666652e+00 -2.807636905132429916e+00 -8.283095087576800353e+00
1.083333333333333259e+00 -2.699886316877878389e+00 -8.199175101396699361e+00
1.100000000000000089e+00 -2.534331068419206634e+00 -8.536464304564068684e+00
1.116666666666666696e+00 -2.415337506725742767e+00 -5.364028024358216129e+00
1.133333333333333304e+00 -2.355530134273932763e+00 -4.514131995065873149e+00
1.149999999999999911e+00 -2.264866440223546995e+00 -4.457456804746691148e+00
1.166666666666666741e+00 -2.206948240782376391e+00 -3.645695032146667458e+00
1.183333333333333348e+00 -2.143343272485324746e+00 -1.536351792000560934e+00
1.199999999999999956e+00 -2.155736514382357694e+00 5.290775690414584176e-02
1.216666666666666563e+00 -2.145106864382129608e+00 -2.694135018466083942e+00
1.233333333333333393e+00 -2.065932013766821562e+00 -4.873145149688378197e+00
1.250000000000000000e+00 -1.982668692725850335e+00 -6.685591801169479709e+00
1.266666666666666607e+00 -1.843078953727838920e+00 -8.637608902794294607e+00
1.283333333333333215e+00 -1.694748395966040544e+00 -1.063929473915915302e+01
1.300000000000000044e+00 -1.488435795755867153e+00 -1.197490052848572084e+01
1.316666666666666652e+00 -1.295585045016516501e+00 -1.005508936698456424e+01
1.333333333333333259e+00 -1.153266150189715011e+00 -6.841047568162874626e+00
1.350000000000000089e+00 -1.067550126077754014e+00 -3.566447297497934432e+00
1.366666666666666696e+00 -1.034384573606450530e+00 -1.302278489804800099e+00
1.383333333333333304e+00 -1.024140843084260677e+00 1.097726707379984568e+00
1.399999999999999911e+00 -1.070975463852450016e+00 2.592238960763257882e+00
1.416666666666666741e+00 -1.110548808443035940e+00 2.092138725449024239e+00
1.433333333333333348e+00 -1.140713421367417491e+00 2.649471926774680242e+00
1.449999999999999956e+00 -1.198864539335525281e+00 2.262174970736483548e+00
1.466666666666666563e+00 -1.216119253725300275e+00 8.469869620968495383e-01
1.483333333333333393e+00 -1.227097438072086932e+00 -1.889286457708538869e-01
1.500000000000000000e+00 -1.209821632199605146e+00 -2.717186923662229248e-01
1.516666666666666607e+00 -1.218040148326546168e+00 -1.069772641835400329e+00
1.533333333333333215e+00 -1.174162544138425135e+00 -3.104142044561950531e+00
1.550000000000000044e+00 -1.114568746841147817e+00 -4.901596226528575073e+00
1.566666666666666652e+00 -1.010776003254139299e+00 -5.313241058763232161e+00
1.583333333333333259e+00 -9.374607115490400933e-01 -5.364275402817816563e+00
1.600000000000000089e+00 -8.319668231602120878e-01 -4.795999864903314425e+00
1.616666666666666696e+00 -7.775940493855962865e-01 -4.032839470911986801e+00
1.633333333333333304e+00 -6.975388407964792092e-01 -3.567488196705838277e+00
1.649999999999999911e+00 -6.586777761620683513e-01 -3.068619099893599156e+00
1.666666666666666741e+00 -5.952515374666925707e-01 -2.444573709527492422e+00
1.683333333333333348e+00 -5.771919858444852780e-01 -4.288089909407766243e-01
1.699999999999999956e+00 -5.809579044353333499e-01 6.509989652585623787e-01
1.716666666666666563e+00 -5.988919513531040240e-01 1.715207055921272872e+00
1.733333333333333393e+00 -6.381314729660424456e-01 1.509867990490519896e+00
1.750000000000000000e+00 -6.492208843694546871e-01 8.532931765214224473e-01
1.766666666666666607e+00 -6.665745788500898605e-01 5.010309920495015223e-01
1.783333333333333215e+00 -6.659219174377714046e-01 -1.810210795208089252e-01
1.800000000000000044e+00 -6.605405428660628964e-01 -1.257626479551033905e+00
1.816666666666666652e+00 -6.240010347860702744e-01 -2.171306337409143694e+00
1.833333333333333259e+00 -5.881636649524247806e-01 -2.274740422615279201e+00
1.849999999999999867e+00 -5.481763540322276418e-01 -2.608192529250345171e+00
1.866666666666666696e+00 -5.012239139774132823e-01 -2.893869905823729383e+00
1.883333333333333304e+00 -4.517140238381033290e-01 -2.768537593332729863e+00
1.899999999999999911e+00 -4.089393275329889499e-01 -2.469573479807143368e+00
1.916666666666666741e+00 -3.693949078445318834e-01 -2.592060145633672708e+00
1.933333333333333348e+00 -3.225373226785331893e-01 -1.064493976118194318e+01
1.949999999999999956e+00 -1.456358247180044446e-02 -9.616695396971362442e+00
1.966666666666666563e+00 -1.980809446154428981e-03 -4.316649144964955220e-01
1.983333333333333393e+00 -1.747519885839278074e-04 -5.942428338463286858e-02
2.000000000000000000e+00 0.000000000000000000e+00 -1.048511931503566877e-02
