0.000000000000000000e+00 nan nan
1.666666666666666644e-02 1.616620596085487411e+19 nan
3.333333333333333287e-02 3.946827548937001000e+15 4.849852662387969884e+20
5.000000000000000278e-02 3.041956164155908203e+13 1.183759190764409920e+17
6.666666666666666574e-02 9.635797223016781006e+11 9.106003556225207500e+14
8.333333333333332871e-02 6.621645414172162628e+10 2.868459536443734766e+13
1.000000000000000056e-01 7.426543487099806786e+09 1.951455825991938965e+12
1.166666666666666685e-01 1.167926608656999111e+09 2.157394088795326233e+11
1.333333333333333315e-01 2.352298577820530832e+08 3.332089180557223511e+10
1.499999999999999944e-01 5.723021513792464137e+07 6.572062130107292175e+09
1.666666666666666574e-01 1.616112011180998757e+07 1.562461036291522026e+09
1.833333333333333204e-01 5.148180594873905182e+06 4.304902731371232271e+08
2.000000000000000111e-01 1.811444340572547866e+06 1.336604595983371735e+08
2.166666666666666741e-01 6.928319415959997568e+05 4.580912720377671719e+07
2.333333333333333370e-01 2.844734337799906498e+05 1.706039645168827474e+07
2.500000000000000000e-01 1.241520598730573256e+05 6.820280149179353379e+06
2.666666666666666630e-01 5.713076214067889669e+04 2.898463216221186332e+06
2.833333333333333259e-01 2.753661933235111428e+04 1.299172013149159960e+06
2.999999999999999889e-01 1.382502836904022843e+04 6.102195693569320720e+05
3.166666666666666519e-01 7.195967020453377700e+03 2.987299660975360894e+05
3.333333333333333148e-01 3.867362832455692114e+03 1.517256940887448727e+05
3.499999999999999778e-01 2.138443884161882124e+03 7.963910947524762014e+04
3.666666666666666408e-01 1.212725849947438292e+03 4.305322314588078734e+04
3.833333333333333037e-01 7.033364459658558872e+02 2.390023001670368103e+04
4.000000000000000222e-01 4.160515160573155526e+02 1.358827441900868507e+04
4.166666666666666852e-01 2.503939653322330230e+02 7.969845297201728499e+03
4.333333333333333481e-01 1.503900061505912333e+02 4.974407670670882908e+03
4.500000000000000111e-01 8.458037630987027455e+01 2.660952536943053019e+03
4.666666666666666741e-01 6.169158825248946698e+01 1.112798672213079726e+03
4.833333333333333370e-01 4.748708723610095461e+01 7.426381310708568435e+02
5.000000000000000000e-01 3.693698388346090411e+01 5.581264500612393249e+02
5.166666666666666075e-01 2.888287223405964355e+01 4.387055974879452833e+02
5.333333333333333259e-01 2.231346396719606062e+01 3.567770752623029580e+02
5.500000000000000444e-01 1.699030305864954471e+01 2.969084674127225867e+02
5.666666666666666519e-01 1.241651505343864059e+01 2.505916394748705898e+02
5.833333333333333703e-01 8.637248409487192191e+00 2.123624626819051286e+02
5.999999999999999778e-01 5.337766297375136304e+00 1.830901354261735321e+02
6.166666666666666963e-01 2.534243895281408143e+00 1.562477465903023131e+02
6.333333333333333037e-01 1.295080776983931758e-01 1.303262701861614801e+02
6.500000000000000222e-01 -1.809965110923974274e+00 1.060540889618871887e+02
6.666666666666666297e-01 -3.405628221031180125e+00 8.732883265090308100e+01
6.833333333333333481e-01 -4.720926199287410086e+00 7.323309231501907846e+01
6.999999999999999556e-01 -5.846731298198482918e+00 5.781495845442427139e+01
7.166666666666666741e-01 -6.648091481101552347e+00 3.997445321378776129e+01
7.333333333333332815e-01 -7.179213071991408235e+00 2.508926381002133610e+01
7.500000000000000000e-01 -7.484400274768930217e+00 1.617191616501883544e+01
7.666666666666666075e-01 -7.718276944158702690e+00 1.132714163584094713e+01
7.833333333333333259e-01 -7.861971662630295121e+00 4.298284656133191106e+00
8.000000000000000444e-01 -7.861553099363142394e+00 -1.486970574795076772e+00
8.166666666666666519e-01 -7.812405976803792562e+00 -7.563988082378063638e+00
8.333333333333333703e-01 -7.609420163283873606e+00 -1.248244822113063535e+01
8.499999999999999778e-01 -7.396324369432771384e+00 -1.678528229922996218e+01
8.666666666666666963e-01 -7.049910753309541533e+00 -2.030704494004528016e+01
8.833333333333333037e-01 -6.719422871431262045e+00 -2.071408338510476455e+01
9.000000000000000222e-01 -6.359441307139382715e+00 -2.362585224530546313e+01
9.166666666666666297e-01 -5.931894463254413274e+00 -2.669056388239387800e+01
9.333333333333333481e-01 -5.469755844392920174e+00 -2.919468960708124783e+01
9.499999999999999556e-01 -4.958738143018371680e+00 -2.909830247102151546e+01
9.666666666666666741e-01 -4.499812428692202992e+00 -2.638859684039960740e+01
9.833333333333332815e-01 -4.079118248338384767e+00 -2.489576586657397073e+01
1.000000000000000000e+00 -3.669953566473070694e+00 -2.505144888817628868e+01
1.016666666666666607e+00 -3.244069952065841811e+00 -2.423142428311336616e+01
1.033333333333333215e+00 -2.862239423702625185e+00 -2.153215912271660315e+01
1.050000000000000044e+00 -2.526331314641955039e+00 -1.860156233393723824e+01
1.066666666666666652e+00 -2.242187345904717244e+00 -1.696082734501438338e+01
1.083333333333333259e+00 -1.960970403141475638e+00 -1.506260893031814163e+01
1.100000000000000089e+00 -1.740100381560779175e+00 -1.324723148847869858e+01
1.116666666666666696e+00 -1.519396020192185670e+00 -1.158894629903274343e+01
1.133333333333333304e+00 -1.353802171593021075e+00 -9.304032080016650497e+00
1.149999999999999911e+00 -1.209261617524963972e+00 -7.321430729418718641e+00
1.166666666666666741e+00 -1.109754480612397121e+00 -6.044565176688809771e+00
1.183333333333333348e+00 -1.007776111635336980e+00 -6.087454772662273861e+00
1.199999999999999956e+00 -9.068393215236546512e-01 -5.450485587970779200e+00
1.216666666666666563e+00 -8.260932587029776730e-01 -3.906184890357446982e+00
1.233333333333333393e+00 -7.766331585117397518e-01 -2.260783213839654415e+00
1.250000000000000000e+00 -7.507338182416558592e-01 -1.470888927582794103e+00
1.266666666666666607e+00 -7.276035275923132817e-01 -1.265812868140768765e+00
1.283333333333333215e+00 -7.085400559702969003e-01 -9.338876606425372540e-01
1.300000000000000044e+00 -6.964739389042287065e-01 -2.444123977625756172e-01
1.316666666666666652e+00 -7.003929760448777131e-01 4.072348749174570237e-01
1.333333333333333259e+00 -7.100484347348106073e-01 3.423754672760992435e-01
1.350000000000000089e+00 -7.118054916207476879e-01 7.305652139548257651e-02
1.366666666666666696e+00 -7.124836521146600266e-01 1.655806916729285483e-02
1.383333333333333304e+00 -7.123574272596574497e-01 3.028287879533431148e-01
1.399999999999999911e+00 -7.225779450464381304e-01 8.652379739149418381e-01
1.416666666666666741e+00 -7.411986930568221776e-01 8.960464794697142743e-01
1.433333333333333348e+00 -7.524461610287619395e-01 6.772034099009049957e-01
1.449999999999999956e+00 -7.637721400535190108e-01 1.415062289587698530e-01
1.466666666666666563e+00 -7.571630353273876013e-01 -3.404161702780916787e-01
1.483333333333333393e+00 -7.524249343775826215e-01 -6.005252783336600952e-01
1.500000000000000000e+00 -7.371455260495989315e-01 -1.176734060715063368e+00
1.516666666666666607e+00 -7.132004656870805093e-01 -1.607803821283277923e+00
1.533333333333333215e+00 -6.835520653401563340e-01 -1.946166405034823743e+00
1.550000000000000044e+00 -6.483282521859197178e-01 -2.174943266057949298e+00
1.566666666666666652e+00 -6.110539564715580241e-01 -2.410186547484920450e+00
1.583333333333333259e+00 -5.679887006030890362e-01 -2.612270833833135963e+00
1.600000000000000089e+00 -5.239782620104534994e-01 -2.647108278130308356e+00
1.616666666666666696e+00 -4.797517579987454206e-01 -2.585321875707912387e+00
1.633333333333333304e+00 -4.378008661535230939e-01 -2.651187754571301625e+00
1.649999999999999911e+00 -3.913788328463687072e-01 -2.748465418750939637e+00
1.666666666666666741e+00 -3.461853521951584467e-01 -2.748331980271190300e+00
1.683333333333333348e+00 -2.997677668373290305e-01 -2.632498477982441187e+00
1.699999999999999956e+00 -2.584354029290770738e-01 -2.368306795757884053e+00
1.716666666666666563e+00 -2.208242069787328954e-01 -2.138508983340517311e+00
1.733333333333333393e+00 -1.871517701510598264e-01 -1.852425487136873716e+00
1.750000000000000000e+00 -1.590766907408371067e-01 -1.648914489287027774e+00
1.766666666666666607e+00 -1.321879538414922339e-01 -1.426425619790114396e+00
1.783333333333333215e+00 -1.115291700811666259e-01 -1.294265693890835900e+00
1.800000000000000044e+00 -8.904576404513103727e-02 -1.181316396082988218e+00
1.816666666666666652e+00 -7.215195687840035565e-02 -1.031838527695228880e+00
1.833333333333333259e+00 -5.465114645529007414e-02 -9.513512049520189695e-01
1.849999999999999867e+00 -4.044025004666639000e-02 -7.840295510973197546e-01
1.866666666666666696e+00 -2.851682808537941635e-02 -6.473580395547292587e-01
1.883333333333333304e+00 -1.886164872817541402e-02 -4.915558039445038774e-01
1.899999999999999911e+00 -1.213163462056262090e-02 -3.535935778919062633e-01
1.916666666666666741e+00 -7.075196131778538344e-03 -2.728741740955141215e-01
1.933333333333333348e+00 -3.035828817378816505e-03 -2.136874767670033093e-01
1.949999999999999956e+00 4.771976045490530625e-05 -9.321194657045181464e-02
1.966666666666666563e+00 7.123606830291094171e-05 9.855975828367768369e-04
1.983333333333333393e+00 1.486650769367940909e-05 2.137082049087328170e-03
2.000000000000000000e+00 0.000000000000000000e+00 8.919904616207645657e-04
