0.000000000000000000e+00 7.071219660347368290e+02 1.294856601938693075e+03
1.666666666666666644e-02 6.855410226690919444e+02 1.294856601938693075e+03
3.333333333333333287e-02 6.639600793034470598e+02 1.294856601938693075e+03
5.000000000000000278e-02 6.423791359378021752e+02 1.294856601938693075e+03
6.666666666666666574e-02 6.207981925721572907e+02 1.294856601938693075e+03
8.333333333333332871e-02 5.992172492065124061e+02 1.294856601938693075e+03
1.000000000000000056e-01 5.776363058408675215e+02 1.294856601938696485e+03
1.166666666666666685e-01 5.560553624752225232e+02 1.294856601938696485e+03
1.333333333333333315e-01 5.344744191095776387e+02 1.294856601938693075e+03
1.499999999999999944e-01 5.128934757439327541e+02 1.294856601938691483e+03
1.666666666666666574e-01 4.913125323782879263e+02 1.294856601938693075e+03
1.833333333333333204e-01 4.697315890126429849e+02 1.294856601938696485e+03
2.000000000000000111e-01 4.481506456469980435e+02 1.294856601938694894e+03
2.166666666666666741e-01 4.265697022813531589e+02 1.294856601938693075e+03
2.333333333333333370e-01 4.049887589157082743e+02 1.294856601938693075e+03
2.500000000000000000e-01 3.834078155500633898e+02 1.294856601938693075e+03
2.666666666666666630e-01 3.618268721844185052e+02 1.294856601938693075e+03
2.833333333333333259e-01 3.402459288187736206e+02 1.294856601938694894e+03
2.999999999999999889e-01 3.186649854531286792e+02 1.294856601938694894e+03
3.166666666666666519e-01 2.970840420874837946e+02 1.294856601938693075e+03
3.333333333333333148e-01 2.755030987218389100e+02 1.294856601938693075e+03
3.499999999999999778e-01 2.539221553561940254e+02 1.294856601938694894e+03
3.666666666666666408e-01 2.323412119905490840e+02 1.294856601938694894e+03
3.833333333333333037e-01 2.107602686249041994e+02 1.294856601938694894e+03
4.000000000000000222e-01 1.891793252592592580e+02 1.294856601938694894e+03
4.166666666666666852e-01 1.675983818936143734e+02 1.294856601938693984e+03
4.333333333333333481e-01 1.460174385279694604e+02 1.294856601938694439e+03
4.500000000000000111e-01 1.244364951623245616e+02 1.294856601938693984e+03
4.666666666666666741e-01 1.028555517966796629e+02 1.294856601938693530e+03
4.833333333333333370e-01 8.127460843103477828e+01 1.294856601938693530e+03
5.000000000000000000e-01 5.969366506538987949e+01 1.294856601938691711e+03
5.166666666666666075e-01 3.811272169974505175e+01 1.294856601938693984e+03
5.333333333333333259e-01 1.653177833410008546e+01 8.514456013218035650e+02
5.500000000000000444e-01 9.731201655684934337e+00 3.355021566297158984e+02
5.666666666666666519e-01 5.348373113109555987e+00 2.276410043484083587e+02
5.833333333333333703e-01 2.143168177404655594e+00 1.676207028632025242e+02
5.999999999999999778e-01 -2.389836489971947364e-01 1.230565846899053781e+02
6.166666666666666963e-01 -1.958717978925523573e+00 8.645912028997113907e+01
6.333333333333333037e-01 -3.120954325329566181e+00 5.602331585771114675e+01
6.500000000000000222e-01 -3.826161840849228390e+00 3.180547036325644683e+01
6.666666666666666297e-01 -4.181136670771447683e+00 1.418280010278343717e+01
6.833333333333333481e-01 -4.298921844275342963e+00 3.043973318056263366e+00
6.999999999999999556e-01 -4.282602448039989795e+00 -2.536245768895994956e+00
7.166666666666666741e-01 -4.214380318645476464e+00 -4.334127807589647219e+00
7.333333333333332815e-01 -4.138131521120334888e+00 -4.526230809067719463e+00
7.500000000000000000e-01 -4.063505958343219149e+00 -5.162983669389680230e+00
7.666666666666666075e-01 -3.966032065474012214e+00 -7.353751061072544282e+00
7.833333333333333259e-01 -3.818380922974134339e+00 -1.082046594768269898e+01
8.000000000000000444e-01 -3.605349867217922277e+00 -1.426684200181254170e+01
8.166666666666666519e-01 -3.342819522913716312e+00 -1.642090823203158578e+01
8.333333333333333703e-01 -3.057986259483536085e+00 -1.697023308057318403e+01
8.499999999999999778e-01 -2.777145086894610149e+00 -1.624105131736069652e+01
8.666666666666666963e-01 -2.516617882238179504e+00 -1.447422635214691056e+01
8.833333333333333037e-01 -2.294670875156379797e+00 -1.188666054556269813e+01
9.000000000000000222e-01 -2.120395864052756263e+00 -9.018095320779609736e+00
9.166666666666666297e-01 -1.994067697797059502e+00 -6.630741617931914966e+00
9.333333333333333481e-01 -1.899371143455025779e+00 -5.266309214813380990e+00
9.499999999999999556e-01 -1.818524057303280150e+00 -5.040259750499034297e+00
9.666666666666666741e-01 -1.731362485105057969e+00 -5.721965613844786525e+00
9.833333333333332815e-01 -1.627791870175120614e+00 -6.877735518353871313e+00
1.000000000000000000e+00 -1.502104634493262258e+00 -8.152602937238825120e+00
1.016666666666666607e+00 -1.356038438933826473e+00 -9.430243888139205666e+00
1.033333333333333215e+00 -1.187763171555288766e+00 -1.025154854776927849e+01
1.050000000000000044e+00 -1.014320154008183872e+00 -9.725728972742285094e+00
1.066666666666666652e+00 -8.635722057972126109e-01 -7.847826815308657444e+00
1.083333333333333259e+00 -7.527259268312286311e-01 -5.621253683012660041e+00
1.100000000000000089e+00 -6.761970830301239355e-01 -3.713916908403797290e+00
1.116666666666666696e+00 -6.289286965511020622e-01 -2.102588338941726587e+00
1.133333333333333304e+00 -6.061108050653997159e-01 -1.124041544770586487e+00
1.149999999999999911e+00 -5.914606450587491793e-01 -1.190998432139880325e+00
1.166666666666666741e+00 -5.664108573274037051e-01 -1.999268558608681134e+00
1.183333333333333348e+00 -5.248183597717931415e-01 -2.922938285193281249e+00
1.199999999999999956e+00 -4.689795811542943338e-01 -3.474529812987159350e+00
1.216666666666666563e+00 -4.090006993388878298e-01 -3.278243342681732120e+00
1.233333333333333393e+00 -3.597048030649032668e-01 -2.360825841170833161e+00
1.250000000000000000e+00 -3.303065046331933874e-01 -1.076831139246524627e+00
1.266666666666666607e+00 -3.238104317566857793e-01 2.940953713091609689e-01
1.283333333333333215e+00 -3.401096836768320864e-01 1.645711718109226229e+00
1.300000000000000044e+00 -3.786674890269933202e-01 2.675437999861263627e+00
1.316666666666666652e+00 -4.292909503388742110e-01 3.034943402663136780e+00
1.333333333333333259e+00 -4.798322691157645425e-01 2.756738368566161945e+00
1.350000000000000089e+00 -5.211822292910796017e-01 2.086187952816302538e+00
1.366666666666666696e+00 -5.493718675429746234e-01 1.234549149039355642e+00
1.383333333333333304e+00 -5.623338675923914565e-01 4.307587465427975548e-01
1.399999999999999911e+00 -5.637304924277345419e-01 -1.279097124837758059e-01
1.416666666666666741e+00 -5.580702105095989296e-01 -4.967520574357486840e-01
1.433333333333333348e+00 -5.471720905132095858e-01 -7.223907532822249067e-01
1.449999999999999956e+00 -5.339905187335247660e-01 -7.128799745997027593e-01
1.466666666666666563e+00 -5.234094246932194938e-01 -5.519366945883596998e-01
1.483333333333333393e+00 -5.155926289139127761e-01 -4.448801245545741523e-01
1.500000000000000000e+00 -5.085800872080670221e-01 -3.722952688102276753e-01
1.516666666666666607e+00 -5.031827866202385202e-01 -3.007003903435573333e-01
1.533333333333333215e+00 -4.985567408632817776e-01 -2.879617730253625218e-01
1.550000000000000044e+00 -4.935840608527264362e-01 -3.281854798035066523e-01
1.566666666666666652e+00 -4.876172248698315559e-01 -3.296399250235965139e-01
1.583333333333333259e+00 -4.825960633519398857e-01 -3.642649258261715373e-01
1.600000000000000089e+00 -4.754750606756258380e-01 -5.385182898058787915e-01
1.616666666666666696e+00 -4.646454536917439260e-01 -8.031978914382226220e-01
1.633333333333333304e+00 -4.487017976276850839e-01 -1.039319202423773625e+00
1.649999999999999911e+00 -4.300014802776181422e-01 -1.135124448856245083e+00
1.666666666666666741e+00 -4.108643159991435811e-01 -1.023675471296566775e+00
1.683333333333333348e+00 -3.958789645677325830e-01 -7.472799524903123158e-01
1.699999999999999956e+00 -3.859549842494665040e-01 -4.640838175358641404e-01
1.716666666666666563e+00 -3.804095039832037783e-01 -3.364261360173692594e-01
1.733333333333333393e+00 -3.747407797155541953e-01 -3.845870126500927633e-01
1.750000000000000000e+00 -3.675899368948673529e-01 -5.177781566255207357e-01
1.766666666666666607e+00 -3.574815078280368374e-01 -6.600402591326332002e-01
1.783333333333333215e+00 -3.455885949237795796e-01 -7.733103814869751735e-01
1.800000000000000044e+00 -3.317044951118043317e-01 -8.698409791567474070e-01
1.816666666666666652e+00 -3.165938956185546660e-01 -9.602961510741614415e-01
1.833333333333333259e+00 -2.996946234093322836e-01 -1.055470556990301789e+00
1.849999999999999867e+00 -2.814115437188779434e-01 -1.162995731783821318e+00
1.866666666666666696e+00 -2.609280990165382397e-01 -1.308906243676846382e+00
1.883333333333333304e+00 -2.377813355963163955e-01 -1.477192040767025816e+00
1.899999999999999911e+00 -2.116883643243040458e-01 -1.626200251141804554e+00
1.916666666666666741e+00 -1.835746605582562474e-01 -1.759088443024767523e+00
1.933333333333333348e+00 -1.530520828901451302e-01 -4.243587899288668197e+00
1.949999999999999956e+00 -4.212173058196728992e-02 -4.413538395411496396e+00
1.966666666666666563e+00 -5.934136376428582327e-03 -1.246188936420731252e+00
1.983333333333333393e+00 -5.820993679429116918e-04 -1.780240912928574837e-01
2.000000000000000000e+00 0.000000000000000000e+00 -3.492596207657470281e-02
