0.000000000000000000e+00 7.012584580087359427e+02 9.979332575630519386e+02
1.666666666666666644e-02 6.846262370493517437e+02 9.979332575630519386e+02
3.333333333333333287e-02 6.679940160899675448e+02 9.979332575630519386e+02
5.000000000000000278e-02 6.513617951305833458e+02 9.979332575630519386e+02
6.666666666666666574e-02 6.347295741711991468e+02 9.979332575630519386e+02
8.333333333333332871e-02 6.180973532118149478e+02 9.979332575630519386e+02
1.000000000000000056e-01 6.014651322524307488e+02 9.979332575630519386e+02
1.166666666666666685e-01 5.848329112930465499e+02 9.979332575630519386e+02
1.333333333333333315e-01 5.682006903336623509e+02 9.979332575630519386e+02
1.499999999999999944e-01 5.515684693742781519e+02 9.979332575630519386e+02
1.666666666666666574e-01 5.349362484148939529e+02 9.979332575630519386e+02
1.833333333333333204e-01 5.183040274555097540e+02 9.979332575630519386e+02
2.000000000000000111e-01 5.016718064961255550e+02 9.979332575630519386e+02
2.166666666666666741e-01 4.850395855367413560e+02 9.979332575630536439e+02
2.333333333333333370e-01 4.684073645773571002e+02 9.979332575630536439e+02
2.500000000000000000e-01 4.517751436179729012e+02 9.979332575630519386e+02
2.666666666666666630e-01 4.351429226585887022e+02 9.979332575630519386e+02
2.833333333333333259e-01 4.185107016992045033e+02 9.979332575630519386e+02
2.999999999999999889e-01 4.018784807398203043e+02 9.979332575630519386e+02
3.166666666666666519e-01 3.852462597804361053e+02 9.979332575630519386e+02
3.333333333333333148e-01 3.686140388210519063e+02 9.979332575630519386e+02
3.499999999999999778e-01 3.519818178616677073e+02 9.979332575630519386e+02
3.666666666666666408e-01 3.353495969022835084e+02 9.979332575630519386e+02
3.833333333333333037e-01 3.187173759428993094e+02 9.979332575630553492e+02
4.000000000000000222e-01 3.020851549835149967e+02 9.979332575630553492e+02
4.166666666666666852e-01 2.854529340241307978e+02 9.979332575630519386e+02
4.333333333333333481e-01 2.688207130647465988e+02 9.979332575630519386e+02
4.500000000000000111e-01 2.521884921053623998e+02 9.979332575630519386e+02
4.666666666666666741e-01 2.355562711459782008e+02 9.979332575630519386e+02
4.833333333333333370e-01 2.189240501865940018e+02 9.979332575630519386e+02
5.000000000000000000e-01 2.022918292272098029e+02 9.979332575630502333e+02
5.166666666666666075e-01 1.856596082678256607e+02 9.979332575630528481e+02
5.333333333333333259e-01 1.690273873084413765e+02 9.979332575630562587e+02
5.500000000000000444e-01 1.523951663490571207e+02 9.979332575630519386e+02
5.666666666666666519e-01 1.357629453896729785e+02 9.979332575630519386e+02
5.833333333333333703e-01 1.191307244302887227e+02 9.979332575630528481e+02
5.999999999999999778e-01 1.024985034709045522e+02 9.979332575630528481e+02
6.166666666666666963e-01 8.586628251152029634e+01 9.979332575630519386e+02
6.333333333333333037e-01 6.923406155213615421e+01 9.979332575630521660e+02
6.500000000000000222e-01 5.260184059275189128e+01 9.979332575630523934e+02
6.666666666666666297e-01 3.596961963336774204e+01 7.155684721565955897e+02
6.833333333333333481e-01 2.874955818753203829e+01 3.827928365535026387e+02
6.999999999999999556e-01 2.320985841491765456e+01 3.025354359633331001e+02
7.166666666666666741e-01 1.866504365542093424e+01 2.506217876168670955e+02
7.333333333333332815e-01 1.485579882768875137e+01 2.098111336274325538e+02
7.500000000000000000e-01 1.167133920117318269e+01 1.749431115740467533e+02
7.666666666666666075e-01 9.024361775220526738e+00 1.452783877877432417e+02
7.833333333333333259e-01 6.828726274915074335e+00 1.203762625358064184e+02
8.000000000000000444e-01 5.011819690693646301e+00 9.943133546532504852e+01
8.166666666666666519e-01 3.514348426070906140e+00 8.196650595152325991e+01
8.333333333333333703e-01 2.279602825642871089e+00 6.755768101725794850e+01
8.499999999999999778e-01 1.262425725495641249e+00 5.569656248942806798e+01
8.666666666666666963e-01 4.230507426619354860e-01 4.581877713073187408e+01
8.833333333333333037e-01 -2.648668455287545020e-01 3.740148030545663005e+01
9.000000000000000222e-01 -8.236652675199521711e-01 3.016917690634012672e+01
9.166666666666666297e-01 -1.270506075740092111e+00 2.386099263580715046e+01
9.333333333333333481e-01 -1.619031688713523875e+00 1.828685837149867766e+01
9.499999999999999556e-01 -1.880068021456714700e+00 1.332470342363057547e+01
9.666666666666666741e-01 -2.063188469501209710e+00 8.936691060491593674e+00
9.833333333333332815e-01 -2.177957723473101126e+00 5.194490943573821795e+00
1.000000000000000000e+00 -2.236338167620337103e+00 2.113918592624912662e+00
1.016666666666666607e+00 -2.248421676560598215e+00 -3.520443318775834385e-01
1.033333333333333215e+00 -2.224603356557750988e+00 -2.325492131250701533e+00
1.050000000000000044e+00 -2.170905272185574830e+00 -3.935844444656519947e+00
1.066666666666666652e+00 -2.093408541735866990e+00 -5.229358497849889709e+00
1.083333333333333259e+00 -1.996593322257245173e+00 -6.297174882574674726e+00
1.100000000000000089e+00 -1.883502712316711181e+00 -7.198871135815124056e+00
1.116666666666666696e+00 -1.756630951063407720e+00 -7.895085332631491148e+00
1.133333333333333304e+00 -1.620333201228994824e+00 -8.292549938796947018e+00
1.149999999999999911e+00 -1.480212619770176152e+00 -8.341272437848815002e+00
1.166666666666666741e+00 -1.342290786634034339e+00 -8.101487038295573484e+00
1.183333333333333348e+00 -1.210163051826990355e+00 -7.558522101923482062e+00
1.199999999999999956e+00 -1.090340049903251618e+00 -6.743921796886578335e+00
1.216666666666666563e+00 -9.853656585974377435e-01 -5.843995291329372677e+00
1.233333333333333393e+00 -8.955402068589392028e-01 -5.031915834287842060e+00
1.250000000000000000e+00 -8.176351307878430008e-01 -4.396441341181765772e+00
1.266666666666666607e+00 -7.489921621528803364e-01 -3.951898899177487490e+00
1.283333333333333215e+00 -6.859051674819267586e-01 -3.714132604266947801e+00
1.300000000000000044e+00 -6.251877420106487504e-01 -3.633053630487813823e+00
1.316666666666666652e+00 -5.648033797989996385e-01 -3.566762447168784433e+00
1.333333333333333259e+00 -5.062956604383559434e-01 -3.416779983763805095e+00
1.350000000000000089e+00 -4.509107136735394650e-01 -3.119284012374043513e+00
1.366666666666666696e+00 -4.023195266925544966e-01 -2.694408472528266429e+00
1.383333333333333304e+00 -3.610970979225972544e-01 -2.237872755099816757e+00
1.399999999999999911e+00 -3.277237681892272714e-01 -1.817478774086869198e+00
1.416666666666666741e+00 -3.005144721197016144e-01 -1.466422705640025859e+00
1.433333333333333348e+00 -2.788430113345597428e-01 -1.199905320309430090e+00
1.449999999999999956e+00 -2.605176281093872781e-01 -1.023887073998947850e+00
1.466666666666666563e+00 -2.447134422012614829e-01 -8.791615270131190041e-01
1.483333333333333393e+00 -2.312122438756166465e-01 -7.217558045511301978e-01
1.500000000000000000e+00 -2.206549153828904763e-01 -5.718238067578199635e-01
1.516666666666666607e+00 -2.121514503170226495e-01 -4.655968925130607450e-01
1.533333333333333215e+00 -2.051350189657884515e-01 -4.043316879410027709e-01
1.550000000000000044e+00 -1.986737273856558905e-01 -3.846640539858012242e-01
1.566666666666666652e+00 -1.923128838329284107e-01 -4.103069029350012165e-01
1.583333333333333259e+00 -1.849968306211558500e-01 -4.852852802278248556e-01
1.600000000000000089e+00 -1.761367078253342489e-01 -5.740652291616404890e-01
1.616666666666666696e+00 -1.658613229824345003e-01 -6.431639573193612680e-01
1.633333333333333304e+00 -1.546979092480222084e-01 -6.686183861737454714e-01
1.649999999999999911e+00 -1.435740434433096513e-01 -6.501036605897245746e-01
1.666666666666666741e+00 -1.330277872283647245e-01 -6.063707019886663829e-01
1.683333333333333348e+00 -1.233616867103541070e-01 -5.594470567564195917e-01
1.699999999999999956e+00 -1.143795520031507390e-01 -5.206680666207551544e-01
1.716666666666666563e+00 -1.060060844896622695e-01 -4.920218025156815611e-01
1.733333333333333393e+00 -9.797882525262802123e-02 -4.804608588293748928e-01
1.750000000000000000e+00 -8.999072252868310640e-02 -4.886092524325273967e-01
1.766666666666666607e+00 -8.169185017154377559e-02 -4.989543306949723034e-01
1.783333333333333215e+00 -7.335891150551736295e-02 -4.890855327675618369e-01
1.800000000000000044e+00 -6.538899907929171529e-02 -4.592351600155424873e-01
1.816666666666666652e+00 -5.805107283833261383e-02 -4.305034745080102976e-01
1.833333333333333259e+00 -5.103888326235803824e-02 -4.173935409152739751e-01
1.849999999999999867e+00 -4.413795480782348180e-02 -4.115248890624015332e-01
1.866666666666666696e+00 -3.732138696027798713e-02 -4.069212621579528233e-01
1.883333333333333304e+00 -3.057391273589172079e-02 -3.962758337125809049e-01
1.899999999999999911e+00 -2.411219250319195789e-02 -3.718340262768883853e-01
1.916666666666666741e+00 -1.817944519332877554e-02 -3.318925872053986592e-01
1.933333333333333348e+00 -1.304910626301200235e-02 -4.974034570233417107e-01
1.949999999999999956e+00 -1.599329959217384587e-03 -3.892367501751478054e-01
1.966666666666666563e+00 -7.454792384040931342e-05 -4.789507806359129954e-02
1.983333333333333393e+00 -2.827357097674528690e-06 -2.236437715212279565e-03
2.000000000000000000e+00 0.000000000000000000e+00 -1.696414258604717214e-04
