0.000000000000000000e+00 3.314459840596177855e+02 7.286309887700667787e+02
1.666666666666666644e-02 3.193021342467833392e+02 7.286309887700667787e+02
3.333333333333333287e-02 3.071582844339488929e+02 7.286309887700667787e+02
5.000000000000000278e-02 2.950144346211144466e+02 7.286309887700650734e+02
6.666666666666666574e-02 2.828705848082800571e+02 7.286309887700650734e+02
8.333333333333332871e-02 2.707267349954456108e+02 7.286309887700667787e+02
1.000000000000000056e-01 2.585828851826111645e+02 7.286309887700659829e+02
1.166666666666666685e-01 2.464390353697767466e+02 7.286309887700667787e+02
1.333333333333333315e-01 2.342951855569422719e+02 7.286309887700659829e+02
1.499999999999999944e-01 2.221513357441078824e+02 7.286309887700659829e+02
1.666666666666666574e-01 2.100074859312734077e+02 7.286309887700667787e+02
1.833333333333333204e-01 1.978636361184389898e+02 7.286309887700659829e+02
2.000000000000000111e-01 1.857197863056045435e+02 7.286309887700667787e+02
2.166666666666666741e-01 1.735759364927700972e+02 7.286309887700667787e+02
2.333333333333333370e-01 1.614320866799356509e+02 7.286309887700659829e+02
2.500000000000000000e-01 1.492882368671012330e+02 7.286309887700659829e+02
2.666666666666666630e-01 1.371443870542667867e+02 7.286309887700667787e+02
2.833333333333333259e-01 1.250005372414323404e+02 7.286309887700659829e+02
2.999999999999999889e-01 1.128566874285979225e+02 7.286309887700659829e+02
3.166666666666666519e-01 1.007128376157634762e+02 7.286309887700667787e+02
3.333333333333333148e-01 8.856898780292902984e+01 7.286309887700659829e+02
3.499999999999999778e-01 7.642513799009461195e+01 7.286309887700659829e+02
3.666666666666666408e-01 6.428128817726016564e+01 7.286309887700663239e+02
3.833333333333333037e-01 5.213743836442573354e+01 7.286309887700672334e+02
4.000000000000000222e-01 3.999358855159125881e+01 7.286309887700674608e+02
4.166666666666666852e-01 2.784973873875681960e+01 7.286309887700662102e+02
4.333333333333333481e-01 1.570588892592238395e+01 5.413918681287934760e+02
4.500000000000000111e-01 9.803343134463705866e+00 2.899449116287921129e+02
4.666666666666666741e-01 6.041058538295979830e+00 1.893975132079844172e+02
4.833333333333333370e-01 3.490092694197559187e+00 1.289875060092920762e+02
5.000000000000000000e-01 1.741475004652909941e+00 8.792721772004006198e+01
5.166666666666666075e-01 5.591854368628906835e-01 5.938953572880296150e+01
5.333333333333333259e-01 -2.381761863071887586e-01 4.071237613302748315e+01
5.500000000000000444e-01 -7.978937675713587696e-01 3.033376781961546342e+01
5.666666666666666519e-01 -1.249301780294370889e+00 2.637939114958707520e+01
5.833333333333333703e-01 -1.677206805890927965e+00 2.556723542406696481e+01
5.999999999999999778e-01 -2.101542961096602991e+00 2.349678011229531194e+01
6.166666666666666963e-01 -2.460432809634105045e+00 1.709364014548326338e+01
6.333333333333333037e-01 -2.671330965946045133e+00 6.791066101104754615e+00
6.500000000000000222e-01 -2.686801679670930199e+00 -4.309762244126642550e+00
6.666666666666666297e-01 -2.527672224475157048e+00 -1.323259276791228345e+01
6.833333333333333481e-01 -2.245715254073854084e+00 -1.815353747891984426e+01
6.999999999999999556e-01 -1.922554308511162269e+00 -1.779986130450773274e+01
7.166666666666666741e-01 -1.652386543923596296e+00 -1.236164033875639667e+01
7.333333333333332815e-01 -1.510499630552615713e+00 -4.395428513886197486e+00
7.500000000000000000e-01 -1.505872260127389728e+00 2.789723945411977102e+00
7.666666666666666075e-01 -1.603490428733014950e+00 7.418356846096054724e+00
7.833333333333333259e-01 -1.753150821663924885e+00 9.477440438447775506e+00
8.000000000000000444e-01 -1.919405110014607452e+00 9.565179690990499140e+00
8.166666666666666519e-01 -2.071990144696941538e+00 8.134750560842102018e+00
8.333333333333333703e-01 -2.190563462042677489e+00 5.405015077257426803e+00
8.499999999999999778e-01 -2.252157313938855765e+00 1.728323405053067141e+00
8.666666666666666963e-01 -2.248174242211113061e+00 -2.099567239829656096e+00
8.833333333333333037e-01 -2.182171739277867228e+00 -5.530964532903404063e+00
9.000000000000000222e-01 -2.063808757780999592e+00 -8.636470497342054742e+00
9.166666666666666297e-01 -1.894289389366465404e+00 -1.122493547833722971e+01
9.333333333333333481e-01 -1.689644241836425254e+00 -1.260851718097792151e+01
9.499999999999999556e-01 -1.474005483333868050e+00 -1.262359486336678138e+01
9.666666666666666741e-01 -1.268857746390865904e+00 -1.193911855955324519e+01
9.833333333333332815e-01 -1.076034864682093195e+00 -1.101176459999469159e+01
1.000000000000000000e+00 -9.017989263910428654e-01 -9.873236868611444450e+00
1.016666666666666607e+00 -7.469269690617117430e-01 -8.663419096813248288e+00
1.033333333333333215e+00 -6.130182898306012484e-01 -7.463114514074563388e+00
1.050000000000000044e+00 -4.981564852592262893e-01 -6.181329201784001803e+00
1.066666666666666652e+00 -4.069739831044678624e-01 -4.858943820196876651e+00
1.083333333333333259e+00 -3.361916912526637380e-01 -3.489163051923052095e+00
1.100000000000000089e+00 -2.906685480403661259e-01 -1.952015772040833319e+00
1.116666666666666696e+00 -2.711244988513026311e-01 -3.975011811385964489e-01
1.133333333333333304e+00 -2.774185086690795776e-01 8.865706649555227248e-01
1.149999999999999911e+00 -3.006768543498200552e-01 1.907727683845901856e+00
1.166666666666666741e+00 -3.410094314639429691e-01 2.783871027291566769e+00
1.183333333333333348e+00 -3.934725552595389475e-01 3.324421966123008332e+00
1.199999999999999956e+00 -4.518234970013765839e-01 3.351134623754864705e+00
1.216666666666666563e+00 -5.051770427180344303e-01 2.978928221383694286e+00
1.233333333333333393e+00 -5.511211043808330601e-01 2.458722126061879898e+00
1.250000000000000000e+00 -5.871344469200970861e-01 1.854493423268799290e+00
1.266666666666666607e+00 -6.129375518231263698e-01 1.133979036413651498e+00
1.283333333333333215e+00 -6.249337481338854694e-01 2.547971943491189606e-01
1.300000000000000044e+00 -6.214307916347636684e-01 -6.281740191749107804e-01
1.316666666666666652e+00 -6.039946141613884434e-01 -1.311073459544036535e+00
1.333333333333333259e+00 -5.777283429832957840e-01 -1.800657651378037016e+00
1.350000000000000089e+00 -5.439726924487872095e-01 -2.252166338708016191e+00
1.366666666666666696e+00 -5.026561316930285850e-01 -2.693393955863454536e+00
1.383333333333333304e+00 -4.541928939200053916e-01 -3.021908352088007454e+00
1.399999999999999911e+00 -4.019258532900950032e-01 -3.198407989405414042e+00
1.416666666666666741e+00 -3.475792942731582569e-01 -3.245808344743878582e+00
1.433333333333333348e+00 -2.937322417986323875e-01 -3.138096019197807784e+00
1.449999999999999956e+00 -2.429760936332313326e-01 -2.907452853464000952e+00
1.466666666666666563e+00 -1.968171466831656891e-01 -2.615419915782897231e+00
1.483333333333333393e+00 -1.557954297738014249e-01 -2.275486153938871769e+00
1.500000000000000000e+00 -1.209676082185366375e-01 -1.916139578978874214e+00
1.516666666666666607e+00 -9.192411047450561867e-02 -1.609217538161788585e+00
1.533333333333333215e+00 -6.732702361314368833e-02 -1.367513931361171275e+00
1.550000000000000044e+00 -4.634031276246657755e-02 -1.156303097060096041e+00
1.566666666666666652e+00 -2.878358704447381983e-02 -9.921651805238469457e-01
1.583333333333333259e+00 -1.326814007833834741e-02 -8.748744139218975757e-01
1.600000000000000089e+00 3.788934195894308465e-04 -7.622398524454329083e-01
1.616666666666666696e+00 1.213985500317608414e-02 -6.743736618468532118e-01
1.633333333333333304e+00 2.285801548115120457e-02 -6.400293015558934373e-01
1.649999999999999911e+00 3.347416505503919559e-02 -6.413791018044381342e-01
1.666666666666666741e+00 4.423731887463247525e-02 -6.660360227256323373e-01
1.683333333333333348e+00 5.567536581256027350e-02 -7.150129511608516175e-01
1.699999999999999956e+00 6.807108391332752917e-02 -7.401485065187461965e-01
1.716666666666666563e+00 8.034698269651847913e-02 -6.796805317832926852e-01
1.733333333333333393e+00 9.072710163943728534e-02 -5.349392246696902387e-01
1.750000000000000000e+00 9.817829018550815190e-02 -3.501392679112971806e-01
1.766666666666666607e+00 1.023984105698138580e-01 -1.603529294414011985e-01
1.783333333333333215e+00 1.035233878335548585e-01 1.223597105956680808e-02
1.800000000000000044e+00 1.019905448678282978e-01 1.565864522674671744e-01
1.816666666666666652e+00 9.830383942463928604e-02 2.727641426440903794e-01
1.833333333333333259e+00 9.289840677969195271e-02 3.618637740063671004e-01
1.849999999999999867e+00 8.624171362442704936e-02 4.338955866656535321e-01
1.866666666666666696e+00 7.843522055750350164e-02 4.970125533413932706e-01
1.883333333333333304e+00 6.967462851304727367e-02 5.517383926314364251e-01
1.899999999999999911e+00 6.004394080312228793e-02 5.873427020933067455e-01
1.916666666666666741e+00 5.009653844327038169e-02 6.023546179017121860e-01
1.933333333333333348e+00 3.996545353973188219e-02 1.150906297964721769e+00
1.949999999999999956e+00 1.173299517777965512e-02 1.150132393811461817e+00
1.966666666666666563e+00 1.627707079349825477e-03 3.475815297230299694e-01
1.983333333333333393e+00 1.469441870119897508e-04 4.883121238049476648e-02
2.000000000000000000e+00 0.000000000000000000e+00 8.816651220719385479e-03
