0	3.80491e+06	86.3379
0.0166667	3.80491e+06	165.282
0.0333333	3.8049e+06	304.396
0.05	3.8049e+06	402.425
0.0666667	3.80489e+06	459.596
0.0833333	3.80488e+06	486.646
0.1	3.80488e+06	496.688
0.116667	3.80487e+06	6147.26
0.133333	3.80467e+06	65037.4
0.15	3.8027e+06	369429
0.166667	3.79236e+06	1.40153e+06
0.183333	3.75598e+06	3.95607e+06
0.2	3.66049e+06	8.80711e+06
0.216667	3.46241e+06	1.60135e+07
0.233333	3.1267e+06	2.43186e+07
0.25	2.65179e+06	3.13077e+07
0.266667	2.08311e+06	3.45191e+07
0.283333	1.50116e+06	3.28384e+07
0.3	988497	2.71245e+07
0.316667	597004	1.95951e+07
0.333333	335327	1.25196e+07
0.35	179685	7.21156e+06
0.366667	94941.3	3.86317e+06
0.383333	50912.5	2.00557e+06
0.4	28088.8	1.04898e+06
0.416667	15946.6	564244
0.433333	9280.69	313032
0.45	5512.17	179155
0.466667	3308.85	106413
0.483333	1965.06	65785.2
0.5	1116.01	41404.8
0.516667	584.903	25094.8
0.533333	279.518	13679
0.55	128.938	6372.13
0.566667	67.1136	2555.81
0.583333	43.7439	1039.14
0.6	32.4757	568.922
0.616667	24.7799	412.677
0.633333	18.7198	331.678
0.65	13.7239	273.36
0.666667	9.60776	222.77
0.683333	6.29823	176.325
0.7	3.73026	134.627
0.716667	1.81067	99.0443
0.733333	0.428778	70.0011
0.75	-0.522703	46.9471
0.766667	-1.13612	28.8089
0.783333	-1.483	14.2494
0.8	-1.61111	2.13145
0.816667	-1.55405	-7.65306
0.833333	-1.356	-13.976
0.85	-1.08818	-15.765
0.866667	-0.830503	-13.7221
0.883333	-0.630777	-10.3586
0.9	-0.485216	-8.08967
0.916667	-0.361121	-7.56235
0.933333	-0.233137	-7.97387
0.95	-0.0953252	-8.52271
0.966667	0.050953	-9.01237
0.983333	0.205087	-9.25166
1	0.359342	-8.63181
1.01667	0.492814	-6.76216
1.03333	0.584747	-4.34819
1.05	0.637754	-2.97064
1.06667	0.683768	-3.66598
1.08333	0.759953	-5.72276
1.1	0.874527	-7.1257
1.11667	0.997476	-6.40099
1.13333	1.08789	-3.97874
1.15	1.1301	-1.58529
1.16667	1.14074	-0.372699
1.18333	1.14252	0.0963814
1.2	1.13752	1.03218
1.21667	1.10812	2.9843
1.23333	1.03805	5.4413
1.25	0.926742	7.52529
1.26667	0.787204	8.62387
1.28333	0.639279	8.42831
1.3	0.50626	6.95226
1.31667	0.407538	4.85454
1.33333	0.344442	3.37736
1.35	0.294959	3.38356
1.36667	0.231657	4.35673
1.38333	0.149735	4.69919
1.4	0.0750174	3.23892
1.41667	0.0417705	0.351489
1.43333	0.0633011	-2.44807
1.45	0.123373	-3.8444
1.46667	0.191448	-3.60288
1.48333	0.243469	-2.41897
1.5	0.27208	-1.21022
1.51667	0.283809	-0.513751
1.53333	0.289205	-0.309412
1.55	0.294123	-0.287442
1.56667	0.298786	-0.295895
1.58333	0.303986	-0.492819
1.6	0.315214	-1.00227
1.61667	0.337395	-1.5169
1.63333	0.365777	-1.45479
1.65	0.385888	-0.600186
1.66667	0.385783	0.527134
1.68333	0.368317	1.08514
1.7	0.349612	0.715208
1.71667	0.344477	-0.110794
1.73333	0.353305	-0.546703
1.75	0.3627	-0.122866
1.76667	0.357401	0.959635
1.78333	0.330713	2.17362
1.8	0.284947	3.15957
1.81667	0.225394	3.8537
1.83333	0.15649	4.27984
1.85	0.0827323	4.4003
1.86667	0.00981329	4.19821
1.88333	-0.0572082	3.76965
1.9	-0.115842	3.21175
1.91667	-0.164267	2.43052
1.93333	-0.196859	1.19942
1.95	-0.204247	-0.434714
1.96667	-0.182368	-1.8362
1.98333	-0.143041	-2.10424
2	-0.112227	-1.84882
