0 21391.4 14735.5
0.0166667 21145.8 27248.6
0.0333333 20483.1 47270.2
0.05 19570.2 57726.9
0.0666667 18558.9 61244.2
0.0833333 17528.7 61763.2
0.1 16500.2 61618.2
0.116667 15474.7 61359.9
0.133333 14454.8 60928.7
0.15 13443.8 60258.6
0.166667 12446.2 59287.7
0.183333 11467.5 57970.2
0.2 10513.8 56346.3
0.216667 9589.28 54623.3
0.233333 8693.04 53325.9
0.25 7811.78 53500.1
0.266667 6909.7 56497.8
0.283333 5928.54 62584.5
0.3 4823.58 69044.3
0.316667 3627.02 70431.4
0.333333 2475.89 62311.6
0.35 1549.99 45622.9
0.366667 955.096 26677.5
0.383333 660.75 12219.8
0.4 547.769 4713.44
0.416667 503.631 2264.74
0.433333 472.278 1858.1
0.45 441.695 1787.83
0.466667 412.682 1696.5
0.483333 385.146 1612.86
0.5 358.921 1537.36
0.516667 333.9 1470.38
0.533333 309.91 1411.8
0.55 286.84 1355.24
0.566667 264.734 1296.5
0.583333 243.624 1236.83
0.6 223.506 1178.78
0.616667 204.33 1123.42
0.633333 186.059 1069.92
0.65 168.666 1017.21
0.666667 152.152 964.176
0.683333 136.528 910.984
0.7 121.786 859.16
0.716667 107.888 810.088
0.733333 94.7832 763.17
0.75 82.4496 717.023
0.766667 70.8821 670.991
0.783333 60.0834 625.814
0.8 50.0218 582.728
0.816667 40.6588 541.382
0.833333 31.9759 500.773
0.85 23.9665 460.886
0.866667 16.6127 422.614
0.883333 9.87952 386.126
0.9 3.74202 350.612
0.916667 -1.80778 315.74
0.933333 -6.78253 282.487
0.95 -11.2239 251.958
0.966667 -15.1813 223.726
0.983333 -18.6814 196.632
1 -21.7357 170.458
1.01667 -24.3639 146.014
1.03333 -26.6023 123.439
1.05 -28.4782 102.139
1.06667 -30.0076 82.3672
1.08333 -31.2234 65.4286
1.1 -32.1883 52.3025
1.11667 -32.9672 42.253
1.13333 -33.5966 33.617
1.15 -34.0877 25.1682
1.16667 -34.4358 16.1313
1.18333 -34.6253 6.22846
1.2 -34.6434 -3.44841
1.21667 -34.5103 -10.9131
1.23333 -34.2796 -15.475
1.25 -33.9946 -18.7601
1.26667 -33.6542 -22.7251
1.28333 -33.2371 -27.3999
1.3 -32.7409 -31.5602
1.31667 -32.185 -34.6256
1.33333 -31.5868 -37.1879
1.35 -30.9454 -40.1867
1.36667 -30.247 -43.9391
1.38333 -29.481 -47.858
1.4 -28.6519 -51.1938
1.41667 -27.7742 -53.6661
1.43333 -26.8632 -55.5663
1.45 -25.9222 -57.5324
1.46667 -24.945 -59.6766
1.48333 -23.9331 -61.2638
1.5 -22.9031 -61.4928
1.51667 -21.883 -60.3446
1.53333 -20.8918 -58.6638
1.55 -19.9277 -57.4506
1.56667 -18.9765 -56.8865
1.58333 -18.0317 -56.547
1.6 -17.0918 -56.3869
1.61667 -16.1517 -56.5567
1.63333 -15.2067 -56.615
1.65 -14.2647 -55.6862
1.66667 -13.3502 -53.4108
1.68333 -12.4846 -50.2846
1.7 -11.6742 -47.1103
1.71667 -10.9139 -44.4406
1.73333 -10.193 -42.5105
1.75 -9.49704 -41.3984
1.76667 -8.81272 -40.8384
1.78333 -8.13584 -40.1562
1.8 -7.47432 -38.8804
1.81667 -6.8396 -37.0871
1.83333 -6.2382 -35.0146
1.85 -5.67257 -32.8273
1.86667 -5.14374 -30.675
1.88333 -4.65017 -28.8047
1.9 -4.18368 -27.8021
1.91667 -3.4583 -28.6466
1.93333 -2.41634 -32.0569
1.95 -1.35292 -36.7733
1.96667 -0.534453 -38.1858
1.98333 -0.106551 -30.3816
2 0 -23.5038
