0	1.50151e+08	7.16868e+07
0.0166667	1.48957e+08	1.41706e+08
0.0333333	1.45428e+08	2.76887e+08
0.05	1.39727e+08	3.99564e+08
0.0666667	1.32109e+08	5.04774e+08
0.0833333	1.22901e+08	5.88883e+08
0.1	1.1248e+08	6.49722e+08
0.116667	1.01244e+08	6.86577e+08
0.133333	8.95938e+07	7.00045e+08
0.15	7.79091e+07	6.91836e+08
0.166667	6.65326e+07	6.64541e+08
0.183333	5.57577e+07	6.21412e+08
0.2	4.58189e+07	5.66139e+08
0.216667	3.68864e+07	5.02635e+08
0.233333	2.90644e+07	4.34808e+08
0.25	2.23928e+07	3.66327e+08
0.266667	1.68535e+07	3.00406e+08
0.283333	1.23793e+07	2.39617e+08
0.3	8.86623e+06	1.85774e+08
0.316667	6.1868e+06	1.39897e+08
0.333333	4.20301e+06	1.02258e+08
0.35	2.77819e+06	7.25114e+07
0.366667	1.78597e+06	4.98565e+07
0.383333	1.11631e+06	3.32269e+07
0.4	678402	2.14597e+07
0.416667	400980	1.34316e+07
0.433333	230681	8.14936e+06
0.45	129335	4.79604e+06
0.466667	70812.8	2.74088e+06
0.483333	37972	1.52377e+06
0.5	20020.6	826261
0.516667	10429.9	438670
0.533333	5398.22	229209
0.55	2789.62	118648
0.566667	1443.28	61295.3
0.583333	746.444	31996.5
0.6	376.727	17020.8
0.616667	179.083	9007.92
0.633333	76.4633	4311.96
0.65	35.3513	1641.8
0.666667	21.7365	577.274
0.683333	16.1088	244.99
0.7	13.5702	124.154
0.716667	11.9704	92.6706
0.733333	10.4812	77.2564
0.75	9.39517	66.8331
0.766667	8.25341	66.9567
0.783333	7.16328	58.2821
0.8	6.31068	53.8529
0.816667	5.36819	50.7515
0.833333	4.61896	44.9681
0.85	3.86925	42.2237
0.866667	3.2115	37.9364
0.883333	2.6047	35.9127
0.9	2.01441	32.9227
0.916667	1.50728	28.5431
0.933333	1.06297	26.255
0.95	0.632113	23.4781
0.966667	0.280369	21.6664
0.983333	-0.0900999	19.3707
1	-0.365321	15.5364
1.01667	-0.607978	14.3449
1.03333	-0.843485	12.453
1.05	-1.02308	6.7498
1.06667	-1.06848	6.62457
1.08333	-1.2439	8.39673
1.1	-1.34837	6.93905
1.11667	-1.4752	8.74552
1.13333	-1.63989	6.68617
1.15	-1.69807	4.76625
1.16667	-1.79876	6.2823
1.18333	-1.90748	4.6552
1.2	-1.95393	4.58572
1.21667	-2.06034	5.74883
1.23333	-2.14556	4.80434
1.25	-2.22048	4.22007
1.26667	-2.28623	3.8325
1.28333	-2.34823	4.25345
1.3	-2.42801	3.70907
1.31667	-2.47187	2.17306
1.33333	-2.50045	2.08168
1.35	-2.54126	1.04532
1.36667	-2.53529	-0.109782
1.38333	-2.5376	-0.690789
1.4	-2.51227	-1.37686
1.41667	-2.4917	-2.23171
1.43333	-2.43788	-2.77953
1.45	-2.39905	-3.1094
1.46667	-2.33423	-4.83382
1.48333	-2.23792	-4.99276
1.5	-2.1678	-5.07407
1.51667	-2.06879	-6.67059
1.53333	-1.94545	-6.42012
1.55	-1.85478	-6.36103
1.56667	-1.73342	-7.17797
1.58333	-1.61552	-7.30298
1.6	-1.48998	-6.72036
1.61667	-1.39151	-6.82979
1.63333	-1.26232	-6.75799
1.65	-1.16624	-5.19649
1.66667	-1.08911	-4.954
1.68333	-1.00111	-5.32105
1.7	-0.91174	-4.72333
1.71667	-0.843663	-4.32782
1.73333	-0.767479	-4.47109
1.75	-0.694626	-4.23051
1.76667	-0.626462	-3.73247
1.78333	-0.570211	-3.12506
1.8	-0.522293	-2.70152
1.81667	-0.48016	-2.41991
1.83333	-0.441629	-2.27037
1.85	-0.404481	-2.30484
1.86667	-0.364801	-2.36254
1.88333	-0.32573	-2.24022
1.9	-0.290127	-2.14294
1.91667	-0.254298	-1.96548
1.93333	-0.224611	-1.75104
1.95	-0.19593	-1.61702
1.96667	-0.170711	-1.3112
1.98333	-0.152223	-0.868476
2	-0.141761	-0.627715
