0.00000000 79468.36383751 792127.23825506
0.01666667 67209.57399680 678927.54263088
0.03333333 56837.44574982 574428.26370796
0.05000000 48061.96520653 485993.24126949
0.06666667 40637.67104083 411154.58273846
0.08333333 34356.81244858 347823.40092282
0.10000000 29043.55767674 294231.61866678
0.11666667 24549.09182636 248882.70843887
0.13333333 20747.46739544 210509.99510973
0.15000000 17532.09198937 178041.36076643
0.16666667 14812.75536990 150569.36867378
0.18333333 12513.11303357 127325.97438926
0.20000000 10568.55622359 107661.11976876
0.21666667 8924.40904128 91024.61372182
0.23333333 7534.40243286 76950.79509704
0.25000000 6359.38253805 65045.55055044
0.26666667 5366.21741451 54975.32582728
0.28333333 4526.87167714 46457.82439852
0.30000000 3817.62326790 39254.13438132
0.31666667 3218.40053109 33162.06444747
0.33333333 2712.22111965 28010.50309194
0.35000000 2284.71709470 23654.64413306
0.36666667 1923.73298188 19971.94543986
0.38333333 1618.98558003 16858.70830248
0.40000000 1361.77603846 14227.18214686
0.41666667 1144.74617514 12003.11392658
0.43333333 961.67224091 10123.67391008
0.45000000 807.29037814 8535.70006481
0.46666667 677.14890542 7194.21211486
0.48333333 567.48330764 6061.15385961
0.50000000 475.11044343 5104.32870002
0.51666667 397.33901764 4296.49870111
0.53333333 331.89382006 3614.62207529
0.55000000 276.85161513 3039.20782760
0.56666667 230.58689247 2553.76956815
0.58333333 191.72596286 2144.36326039
0.60000000 159.10811712 1799.19601265
0.61666667 131.75276244 1508.29500008
0.63333333 108.83161712 1263.22728020
0.65000000 89.64518643 1414.77449188
0.66666667 61.67246739 1678.36314221
0.68333333 33.69974836 1116.95108650
0.70000000 24.44076451 427.56536698
0.71666667 19.44756946 299.59170318
0.73333333 14.45437440 178.57542362
0.75000000 13.49505534 76.69732712
0.76666667 11.89779683 98.60399596
0.78333333 10.20825547 97.02870656
0.80000000 8.66350661 86.98147702
0.81666667 7.30887290 76.95257172
0.83333333 6.09842089 69.59454813
0.85000000 4.98905463 63.73179510
0.86666667 3.97402772 58.11274103
0.88333333 3.05196327 53.11883570
0.90000000 2.20339986 49.40044375
0.91666667 1.40528181 46.67932064
0.93333333 0.64742251 44.14172966
0.95000000 -0.06610918 40.96688498
0.96666667 -0.71814032 36.81023592
0.98333333 -1.29311705 32.05022777
1.00000000 -1.78648125 27.33019009
1.01666667 -2.20412338 23.10805859
1.03333333 -2.55674987 19.64410572
1.05000000 -2.85892691 16.99244996
1.06666667 -3.12316487 14.82703042
1.08333333 -3.35316125 12.68630853
1.10000000 -3.54604182 10.44142470
1.11666667 -3.70120874 8.18329503
1.13333333 -3.81881832 5.95626632
1.15000000 -3.89975095 3.75085795
1.16666667 -3.94384692 1.50813839
1.18333333 -3.95002223 -0.77654293
1.20000000 -3.91796215 -2.96017726
1.21666667 -3.85134966 -4.83966744
1.23333333 -3.75663991 -6.25551036
1.25000000 -3.64283265 -7.16475751
1.26666667 -3.51781466 -7.53892148
1.28333333 -3.39153526 -7.49975653
1.30000000 -3.26782277 -7.42630144
1.31666667 -3.14399188 -7.59809427
1.33333333 -3.01455296 -7.94165212
1.35000000 -2.87927015 -8.26416913
1.36666667 -2.73908066 -8.49261029
1.38333333 -2.59618314 -8.61060940
1.40000000 -2.45206034 -8.57707729
1.41666667 -2.31028056 -8.36971175
1.43333333 -2.17306995 -7.99191992
1.45000000 -2.04388323 -7.44612567
1.46666667 -1.92486576 -6.82977081
1.48333333 -1.81622420 -6.24706259
1.50000000 -1.71663034 -5.74867282
1.51666667 -1.62460177 -5.36639773
1.53333333 -1.53775042 -5.15667360
1.55000000 -1.45271265 -5.07990708
1.56666667 -1.36842018 -5.03004448
1.58333333 -1.28504450 -4.98618936
1.60000000 -1.20221387 -5.00167814
1.61666667 -1.11832190 -5.07601415
1.63333333 -1.03301340 -5.13469548
1.65000000 -0.94716538 -5.07853036
1.66666667 -0.86372905 -4.85058999
1.68333333 -0.78547905 -4.47751389
1.70000000 -0.71447859 -4.05470818
1.71666667 -0.65032211 -3.69124405
1.73333333 -0.59143712 -3.42378446
1.75000000 -0.53619596 -3.24163991
1.76666667 -0.48338246 -3.11852511
1.78333333 -0.43224513 -3.00971885
1.80000000 -0.38305850 -2.87657023
1.81666667 -0.33635945 -2.72002922
1.83333333 -0.29239086 -2.55873753
1.85000000 -0.25106820 -2.40319262
1.86666667 -0.21228444 -2.24540088
1.88333333 -0.17622150 -2.07390827
1.90000000 -0.14315416 -1.89275653
1.91666667 -0.11312962 -1.71781242
1.93333333 -0.08589375 -2.99782012
1.95000000 -0.01320228 -2.54045375
1.96666667 -0.00121196 -0.39299855
1.98333333 -0.00010233 -0.03635866
2.00000000 0.00000000 0.02407888
