0.000000000000000000e+00 4.498054751490773810e+02 7.007905174053553310e+02
1.666666666666666644e-02 4.381256331923214589e+02 7.007905174053553310e+02
3.333333333333333287e-02 4.264457912355655367e+02 7.007905174053553310e+02
5.000000000000000278e-02 4.147659492788096145e+02 7.007905174053536257e+02
6.666666666666666574e-02 4.030861073220537492e+02 7.007905174053553310e+02
8.333333333333332871e-02 3.914062653652977701e+02 7.007905174053553310e+02
1.000000000000000056e-01 3.797264234085419048e+02 7.007905174053553310e+02
1.166666666666666685e-01 3.680465814517859258e+02 7.007905174053553310e+02
1.333333333333333315e-01 3.563667394950300604e+02 7.007905174053553310e+02
1.499999999999999944e-01 3.446868975382740814e+02 7.007905174053553310e+02
1.666666666666666574e-01 3.330070555815182161e+02 7.007905174053553310e+02
1.833333333333333204e-01 3.213272136247622370e+02 7.007905174053553310e+02
2.000000000000000111e-01 3.096473716680063717e+02 7.007905174053536257e+02
2.166666666666666741e-01 2.979675297112504495e+02 7.007905174053570363e+02
2.333333333333333370e-01 2.862876877544944705e+02 7.007905174053553310e+02
2.500000000000000000e-01 2.746078457977386051e+02 7.007905174053536257e+02
2.666666666666666630e-01 2.629280038409826830e+02 7.007905174053553310e+02
2.833333333333333259e-01 2.512481618842267608e+02 7.007905174053553310e+02
2.999999999999999889e-01 2.395683199274708386e+02 7.007905174053553310e+02
3.166666666666666519e-01 2.278884779707149164e+02 7.007905174053553310e+02
3.333333333333333148e-01 2.162086360139589942e+02 7.007905174053553310e+02
3.499999999999999778e-01 2.045287940572030720e+02 7.007905174053553310e+02
3.666666666666666408e-01 1.928489521004471499e+02 7.007905174053553310e+02
3.833333333333333037e-01 1.811691101436912277e+02 7.007905174053553310e+02
4.000000000000000222e-01 1.694892681869353055e+02 7.007905174053553310e+02
4.166666666666666852e-01 1.578094262301793833e+02 7.007905174053553310e+02
4.333333333333333481e-01 1.461295842734234611e+02 7.007905174053553310e+02
4.500000000000000111e-01 1.344497423166675389e+02 7.007905174053553310e+02
4.666666666666666741e-01 1.227699003599116168e+02 7.007905174053553310e+02
4.833333333333333370e-01 1.110900584031556946e+02 7.007905174053553310e+02
5.000000000000000000e-01 9.941021644639977239e+01 7.007905174053540804e+02
5.166666666666666075e-01 8.773037448964389284e+01 7.007905174053548762e+02
5.333333333333333259e-01 7.605053253288794224e+01 7.007905174053574910e+02
5.500000000000000444e-01 6.437069057613197742e+01 7.007905174053551036e+02
5.666666666666666519e-01 5.269084861937610498e+01 7.007905174053548762e+02
5.833333333333333703e-01 4.101100666262014727e+01 7.007905174053551036e+02
5.999999999999999778e-01 2.933116470586426772e+01 5.536390353188506879e+02
6.166666666666666963e-01 2.255637215199179124e+01 3.584516992984973740e+02
6.333333333333333037e-01 1.738277472924768929e+01 2.799112336632367146e+02
6.500000000000000222e-01 1.322599769655056789e+01 2.266169157959272979e+02
6.666666666666666297e-01 9.828877536050113051e+00 1.857188101645175209e+02
6.833333333333333481e-01 7.035370691066650473e+00 1.529723489812198238e+02
6.999999999999999556e-01 4.729799236676118568e+00 1.262966362180559514e+02
7.166666666666666741e-01 2.825482817131451885e+00 1.042795526062249962e+02
7.333333333333332815e-01 1.253814149801951938e+00 8.590311369481887027e+01
7.500000000000000000e-01 -3.795430602917731350e-02 7.035418228903898807e+01
7.666666666666666075e-01 -1.091325259832681027e+00 5.699068651237357130e+01
7.833333333333333259e-01 -1.937643856441629620e+00 4.534320329208489397e+01
8.000000000000000444e-01 -2.602765369568844189e+00 3.512877468881542598e+01
8.166666666666666519e-01 -3.108603012735477122e+00 2.619322294218637737e+01
8.333333333333333703e-01 -3.475872800975056798e+00 1.848332495164967781e+01
8.499999999999999778e-01 -3.724713844457133050e+00 1.200798349869237036e+01
8.666666666666666963e-01 -3.876138917598135780e+00 6.771380546780600973e+00
8.833333333333333037e-01 -3.950426529349819749e+00 2.676785209128356158e+00
9.000000000000000222e-01 -3.965365091235747652e+00 -4.818313574816768252e-01
9.166666666666666297e-01 -3.934365484100430521e+00 -2.926663780979499307e+00
9.333333333333333481e-01 -3.867809631869764342e+00 -4.841907623549430717e+00
9.499999999999999556e-01 -3.772968563315449497e+00 -6.379535134489904280e+00
9.666666666666666741e-01 -3.655158460720100866e+00 -7.620973828034092179e+00
9.833333333333332815e-01 -3.518936102380979758e+00 -8.629449538226673155e+00
1.000000000000000000e+00 -3.367510142779211790e+00 -9.489579945390765658e+00
1.016666666666666607e+00 -3.202616770867954266e+00 -1.028313682436098198e+01
1.033333333333333215e+00 -3.024738915300512421e+00 -1.105807087730195626e+01
1.050000000000000044e+00 -2.834014408291222420e+00 -1.182770464015588807e+01
1.066666666666666652e+00 -2.630482093961982848e+00 -1.252744346408552012e+01
1.083333333333333259e+00 -2.416432959488371779e+00 -1.302814430853240779e+01
1.100000000000000089e+00 -2.196210617010902588e+00 -1.319542307771235023e+01
1.116666666666666696e+00 -1.976585523564626801e+00 -1.294249027020009102e+01
1.133333333333333304e+00 -1.764794274670899554e+00 -1.222554463114378365e+01
1.149999999999999911e+00 -1.569067369193167361e+00 -1.109197093446263338e+01
1.166666666666666741e+00 -1.395061910188811760e+00 -9.699077045688692778e+00
1.183333333333333348e+00 -1.245764801003544253e+00 -8.262451576143574172e+00
1.199999999999999956e+00 -1.119646857650692606e+00 -6.956518197267809178e+00
1.216666666666666563e+00 -1.013880861094617281e+00 -5.873912579651795696e+00
1.233333333333333393e+00 -9.238497716622994238e-01 -5.045833933742348343e+00
1.250000000000000000e+00 -8.456863966365389951e-01 -4.443211742836195022e+00
1.266666666666666607e+00 -7.757427135677595897e-01 -4.004188667565572679e+00
1.283333333333333215e+00 -7.122134410510199132e-01 -3.669605397916576806e+00
1.300000000000000044e+00 -6.534225336372070370e-01 -3.374992261462200993e+00
1.316666666666666652e+00 -5.997136990022798875e-01 -3.059339564764692820e+00
1.333333333333333259e+00 -5.514445481450506170e-01 -2.708546270598367833e+00
1.350000000000000089e+00 -5.094288233156676338e-01 -2.331912041945658043e+00
1.366666666666666696e+00 -4.737141467468620193e-01 -1.941295307775379175e+00
1.383333333333333304e+00 -4.447189797231549946e-01 -1.565480885416478118e+00
1.399999999999999911e+00 -4.215314505663127487e-01 -1.258348629723866186e+00
1.416666666666666741e+00 -4.027740253990261254e-01 -1.040944097776566712e+00
1.433333333333333348e+00 -3.868333139737605286e-01 -8.945378782912000171e-01
1.449999999999999956e+00 -3.729560961226527915e-01 -7.952920719607825539e-01
1.466666666666666563e+00 -3.603235782417344435e-01 -7.388782983710656671e-01
1.483333333333333393e+00 -3.483268195102839360e-01 -7.258615981601279632e-01
1.500000000000000000e+00 -3.361281916363968447e-01 -7.525952189649681712e-01
1.516666666666666607e+00 -3.232403122114516636e-01 -8.067067890701867805e-01
1.533333333333333215e+00 -3.092379653340572854e-01 -8.700665417608804963e-01
1.550000000000000044e+00 -2.942380941527556470e-01 -9.257428060698014161e-01
1.566666666666666652e+00 -2.783798717983972382e-01 -9.737362245195346766e-01
1.583333333333333259e+00 -2.617802200021044912e-01 -1.011331613262298479e+00
1.600000000000000089e+00 -2.446688180229872889e-01 -1.030414338500330373e+00
1.616666666666666696e+00 -2.274330753854268139e-01 -1.028628050085694801e+00
1.633333333333333304e+00 -2.103812163534641289e-01 -1.007638632486449470e+00
1.649999999999999911e+00 -1.938451209692118316e-01 -9.608226006900830729e-01
1.666666666666666741e+00 -1.783537963304613616e-01 -8.833146742990697353e-01
1.683333333333333348e+00 -1.644012984925761756e-01 -7.885227769985936330e-01
1.699999999999999956e+00 -1.520697037638415738e-01 -6.996535000800863102e-01
1.716666666666666563e+00 -1.410795151565732986e-01 -6.301134584716233666e-01
1.733333333333333393e+00 -1.310659218147874616e-01 -5.815782372256610433e-01
1.750000000000000000e+00 -1.216935739157179314e-01 -5.506487521451363110e-01
1.766666666666666607e+00 -1.127109634099495855e-01 -5.299086872947045279e-01
1.783333333333333215e+00 -1.040299510058944471e-01 -5.115672876952738202e-01
1.800000000000000044e+00 -9.565872048677379058e-02 -4.961496857426170304e-01
1.816666666666666652e+00 -8.749162814780721276e-02 -4.921072306969114241e-01
1.833333333333333259e+00 -7.925514613021007737e-02 -5.044687197256162436e-01
1.849999999999999867e+00 -7.067600415695333982e-02 -5.284648843778576577e-01
1.866666666666666696e+00 -6.163964998428148739e-02 -5.486922746086502212e-01
1.883333333333333304e+00 -5.238626166999833106e-02 -5.481491673401630571e-01
1.899999999999999911e+00 -4.336801107294271929e-02 -5.239500533216304712e-01
1.916666666666666741e+00 -3.492125989261064822e-02 -4.882372133976107254e-01
1.933333333333333348e+00 -2.709343729302236131e-02 -9.948812806948893472e-01
1.949999999999999956e+00 -1.758550536114340205e-03 -8.081598170174280060e-01
1.966666666666666563e+00 -1.547767257747625512e-04 -5.232463619882654626e-02
1.983333333333333393e+00 -1.439599615345523428e-05 -4.643301773242876698e-03
2.000000000000000000e+00 0.000000000000000000e+00 -8.637597692073140229e-04
