0.000000000000000000e+00 4.174602216110229165e+02 9.152723157973036905e+02
1.666666666666666644e-02 4.022056830144011883e+02 9.152723157973019852e+02
3.333333333333333287e-02 3.869511444177795170e+02 9.152723157973019852e+02
5.000000000000000278e-02 3.716966058211577888e+02 9.152723157973019852e+02
6.666666666666666574e-02 3.564420672245361175e+02 9.152723157973002799e+02
8.333333333333332871e-02 3.411875286279144461e+02 9.152723157973036905e+02
1.000000000000000056e-01 3.259329900312926611e+02 9.152723157973019852e+02
1.166666666666666685e-01 3.106784514346710466e+02 9.152723157973019852e+02
1.333333333333333315e-01 2.954239128380492616e+02 9.152723157973019852e+02
1.499999999999999944e-01 2.801693742414276471e+02 9.152723157973002799e+02
1.666666666666666574e-01 2.649148356448059189e+02 9.152723157973028947e+02
1.833333333333333204e-01 2.496602970481842192e+02 9.152723157973028947e+02
2.000000000000000111e-01 2.344057584515624910e+02 9.152723157973028947e+02
2.166666666666666741e-01 2.191512198549407913e+02 9.152723157973019852e+02
2.333333333333333370e-01 2.038966812583190915e+02 9.152723157973011894e+02
2.500000000000000000e-01 1.886421426616974202e+02 9.152723157973011894e+02
2.666666666666666630e-01 1.733876040650757204e+02 9.152723157973019852e+02
2.833333333333333259e-01 1.581330654684540207e+02 9.152723157973019852e+02
2.999999999999999889e-01 1.428785268718323209e+02 9.152723157973019852e+02
3.166666666666666519e-01 1.276239882752106212e+02 9.152723157973019852e+02
3.333333333333333148e-01 1.123694496785889214e+02 9.152723157973015304e+02
3.499999999999999778e-01 9.711491108196723587e+01 9.152723157973011894e+02
3.666666666666666408e-01 8.186037248534555033e+01 9.152723157973015304e+02
3.833333333333333037e-01 6.660583388872385058e+01 9.152723157973036905e+02
4.000000000000000222e-01 5.135129529210209398e+01 9.152723157973034631e+02
4.166666666666666852e-01 3.609675669548040133e+01 9.152723157973016441e+02
4.333333333333333481e-01 2.084221809885870513e+01 6.664322046886180715e+02
4.500000000000000111e-01 1.388234987252646491e+01 3.396333960671702243e+02
4.666666666666666741e-01 9.521104896619696945e+00 2.201208724730918505e+02
4.833333333333333370e-01 6.544987456756736321e+00 1.520358716945037258e+02
5.000000000000000000e-01 4.453242506802905787e+00 1.069778216054495630e+02
5.166666666666666075e-01 2.979060069908417763e+00 7.577921149732159734e+01
5.333333333333333259e-01 1.927268790225519668e+00 5.506600264535505573e+01
5.500000000000000444e-01 1.143526648396582690e+00 4.350698626380938805e+01
5.666666666666666519e-01 4.770359147652068477e-01 3.969978254408501073e+01
5.833333333333333703e-01 -1.797994364062509565e-01 4.008113435559675253e+01
5.999999999999999778e-01 -8.590018970880181071e-01 3.888888776169696371e+01
6.166666666666666963e-01 -1.476095695129483021e+00 3.164306875285414122e+01
6.333333333333333037e-01 -1.913770855516489400e+00 1.874725389221110916e+01
6.500000000000000222e-01 -2.101004158203186645e+00 4.527966832291714816e+00
6.666666666666666297e-01 -2.064703083259546545e+00 -6.992896217690137028e+00
6.833333333333333481e-01 -1.867907617613515425e+00 -1.376217641322040919e+01
6.999999999999999556e-01 -1.605963869485532935e+00 -1.438352468823673291e+01
7.166666666666666741e-01 -1.388456794672290995e+00 -8.933619885712962727e+00
7.333333333333332815e-01 -1.308176539961767526e+00 -5.351703493603454653e-01
7.500000000000000000e-01 -1.370617783026946146e+00 6.718776848532808543e+00
7.666666666666666075e-01 -1.532135768246194463e+00 1.081615905929702848e+01
7.833333333333333259e-01 -1.731156418336847080e+00 1.201598329323025460e+01
8.000000000000000444e-01 -1.932668544687202949e+00 1.137715848406986652e+01
8.166666666666666519e-01 -2.110395034472509312e+00 9.505871118984572377e+00
8.333333333333333703e-01 -2.249530915320022029e+00 6.392158969393331169e+00
8.499999999999999778e-01 -2.323467000118953685e+00 2.139824758474953015e+00
8.666666666666666963e-01 -2.320858407269187129e+00 -2.365504295847520311e+00
8.833333333333333037e-01 -2.244616856924036341e+00 -6.480537260486931572e+00
9.000000000000000222e-01 -2.104840498586289410e+00 -1.046968105823947681e+01
9.166666666666666297e-01 -1.895627488316053766e+00 -1.415645112678869211e+01
9.333333333333333481e-01 -1.632958794359999688e+00 -1.647410359841777705e+01
9.499999999999999556e-01 -1.346490701702127923e+00 -1.694227242117390375e+01
9.666666666666666741e-01 -1.068216380320869519e+00 -1.638332848847898049e+01
9.833333333333332815e-01 -8.003797520861619663e-01 -1.537764998448886011e+01
1.000000000000000000e+00 -5.556280475045741740e-01 -1.391410941063704954e+01
1.016666666666666607e+00 -3.365761050649269670e-01 -1.225139893070752173e+01
1.033333333333333215e+00 -1.472480831476568053e-01 -1.053078132867834249e+01
1.050000000000000044e+00 1.444993922435111947e-02 -8.588307097309765936e+00
1.066666666666666652e+00 1.390288200960020371e-01 -6.547938438136757355e+00
1.083333333333333259e+00 2.327145538289096816e-01 -4.446786029233951609e+00
1.100000000000000089e+00 2.872550210704670759e-01 -2.119533688723557852e+00
1.116666666666666696e+00 3.033656767863616155e-01 1.382550319250314130e-01
1.133333333333333304e+00 2.826465200062993621e-01 1.868430302535326160e+00
1.149999999999999911e+00 2.410846667018507472e-01 3.169241469076198303e+00
1.166666666666666741e+00 1.770051377037594187e-01 4.346840965794394052e+00
1.183333333333333348e+00 9.618996784203762140e-02 5.236612769133131451e+00
1.199999999999999956e+00 2.451378732655064806e-03 5.618117287654377456e+00
1.216666666666666563e+00 -9.108060841310831879e-02 5.545757497756948595e+00
1.233333333333333393e+00 -1.824072045259098884e-01 5.207373953182275805e+00
1.250000000000000000e+00 -2.646597401858508669e-01 4.557080843003391557e+00
1.266666666666666607e+00 -3.343098992926896162e-01 3.575251545465429892e+00
1.283333333333333215e+00 -3.838347917013651966e-01 2.334525793311627684e+00
1.300000000000000044e+00 -4.121274257364105353e-01 1.090079317374185175e+00
1.316666666666666652e+00 -4.201707689471713691e-01 8.274358713561302814e-02
1.333333333333333259e+00 -4.148855453075976363e-01 -6.834225564079055015e-01
1.350000000000000089e+00 -3.973900170669078524e-01 -1.358726630133952895e+00
1.366666666666666696e+00 -3.695946576364658731e-01 -1.970633009838769212e+00
1.383333333333333304e+00 -3.317022500722822120e-01 -2.437239383646152113e+00
1.399999999999999911e+00 -2.883533448482608064e-01 -2.738651797390099230e+00
1.416666666666666741e+00 -2.404138568259455710e-01 -2.908426677540793648e+00
1.433333333333333348e+00 -1.914057889302343551e-01 -2.860682589876543780e+00
1.449999999999999956e+00 -1.450577704967274395e-01 -2.600477725425640596e+00
1.466666666666666563e+00 -1.047231980827130066e-01 -2.202809661578028599e+00
1.483333333333333393e+00 -7.163078177745982322e-02 -1.723200394923755985e+00
1.500000000000000000e+00 -4.728318491858780892e-02 -1.248016566871194444e+00
1.516666666666666607e+00 -3.003022954842001283e-02 -8.763148957214856871e-01
1.533333333333333215e+00 -1.807268839453828740e-02 -6.175985187470937054e-01
1.550000000000000044e+00 -9.443612256850220446e-03 -4.276560721311097324e-01
1.566666666666666652e+00 -3.817485990167963916e-03 -2.835576235371496945e-01
1.583333333333333259e+00 8.308527721436484784e-06 -1.552061855395992507e-01
1.600000000000000089e+00 1.356053527818677730e-03 -2.053922661065574543e-02
1.616666666666666696e+00 6.929494147432946078e-04 3.066352365990987483e-02
1.633333333333333304e+00 3.339360724883486120e-04 -2.893468712574813820e-02
1.649999999999999911e+00 1.657438985601565867e-03 -1.607153870391231365e-01
1.666666666666666741e+00 5.691115640459119829e-03 -3.816873983146432669e-01
1.683333333333333348e+00 1.438035226275634175e-02 -6.976503637884144959e-01
1.699999999999999956e+00 2.894612776673960441e-02 -9.937556159465170680e-01
1.716666666666666563e+00 4.750553946097357816e-02 -1.134414119333328808e+00
1.733333333333333393e+00 6.675993174451723411e-02 -1.086084174593547003e+00
1.750000000000000000e+00 8.370834528075847547e-02 -8.981948281434718462e-01
1.766666666666666607e+00 9.669975934929962713e-02 -6.361274801381131550e-01
1.783333333333333215e+00 1.049125946186955788e-01 -3.785345994458708119e-01
1.800000000000000044e+00 1.093175793308286542e-01 -1.650174076625482433e-01
1.816666666666666652e+00 1.104131748741138536e-01 1.173549296262274555e-02
1.833333333333333259e+00 1.089263962320745627e-01 1.505247137426844739e-01
1.849999999999999867e+00 1.053956844160243711e-01 2.669120845924745633e-01
1.866666666666666696e+00 1.000293267456587448e-01 3.773359462071904091e-01
1.883333333333333304e+00 9.281781954245135746e-02 4.899907692818299410e-01
1.899999999999999911e+00 8.369630110293108105e-02 5.935108095352065183e-01
1.916666666666666741e+00 7.303412589127780685e-02 6.874514026954549051e-01
1.933333333333333348e+00 6.078125434641591662e-02 1.820731513119419276e+00
1.949999999999999956e+00 1.234307545396383723e-02 1.775829987841953006e+00
1.966666666666666563e+00 1.586921418350814312e-03 3.658533614682054624e-01
1.983333333333333393e+00 1.479634050236540259e-04 4.760764255052443022e-02
2.000000000000000000e+00 0.000000000000000000e+00 8.877804301419241553e-03
