0	1.13003e+07	9.89308e+06
0.0166667	1.11354e+07	1.8939e+07
0.0333333	1.0669e+07	3.48794e+07
0.05	9.97276e+06	4.61121e+07
0.0666667	9.13192e+06	5.26631e+07
0.0833333	8.21732e+06	5.57609e+07
0.1	7.27322e+06	5.68928e+07
0.116667	6.32089e+06	5.71022e+07
0.133333	5.36982e+06	5.67569e+07
0.15	4.429e+06	5.56363e+07
0.166667	3.51527e+06	5.3159e+07
0.183333	2.65703e+06	4.87153e+07
0.2	1.89143e+06	4.20745e+07
0.216667	1.25455e+06	3.369e+07
0.233333	768429	2.46664e+07
0.25	432334	1.63434e+07
0.266667	223648	9.74252e+06
0.283333	107583	5.22864e+06
0.3	49360.1	2.55462e+06
0.316667	22429.3	1.16677e+06
0.333333	10467.7	519668
0.35	5107.02	236004
0.366667	2600.92	112019
0.383333	1373.05	55612.2
0.4	747.179	28676.5
0.416667	417.163	15274.4
0.433333	238.031	8362.14
0.45	138.425	4683.13
0.466667	81.9269	2672.36
0.483333	49.3458	1549.34
0.5	30.2822	911.393
0.516667	18.9661	544.399
0.533333	12.1356	331.3
0.55	7.92271	206.599
0.566667	5.24895	133.057
0.583333	3.48748	89.331
0.6	2.27125	63.1054
0.616667	1.38397	47.1671
0.633333	0.699013	37.1893
0.65	0.144329	30.5536
0.666667	-0.319439	25.7476
0.683333	-0.713924	21.9954
0.7	-1.05262	18.9389
0.716667	-1.34522	16.3655
0.733333	-1.59814	14.067
0.75	-1.81412	11.8565
0.766667	-1.99335	9.65364
0.783333	-2.13591	7.51283
0.8	-2.24378	5.55357
0.816667	-2.32103	3.85928
0.833333	-2.37242	2.43166
0.85	-2.40208	1.21991
0.866667	-2.41309	0.17536
0.883333	-2.40793	-0.72208
0.9	-2.38902	-1.47432
0.916667	-2.35878	-2.0849
0.933333	-2.31952	-2.56269
0.95	-2.27336	-2.91053
0.966667	-2.2225	-3.12085
0.983333	-2.16933	-3.19507
1	-2.116	-3.17311
1.01667	-2.06356	-3.13612
1.03333	-2.01146	-3.16266
1.05	-1.95814	-3.26935
1.06667	-1.90248	-3.39496
1.08333	-1.84497	-3.44992
1.1	-1.78749	-3.38809
1.11667	-1.73204	-3.23733
1.13333	-1.67958	-3.07118
1.15	-1.62967	-2.95848
1.16667	-1.58096	-2.93369
1.18333	-1.53188	-2.9952
1.2	-1.48112	-3.11374
1.21667	-1.42808	-3.24006
1.23333	-1.37312	-3.31823
1.25	-1.31748	-3.30894
1.26667	-1.26282	-3.21046
1.28333	-1.21046	-3.05843
1.3	-1.16087	-2.90173
1.31667	-1.11374	-2.77286
1.33333	-1.06844	-2.67521
1.35	-1.02456	-2.59201
1.36667	-0.982043	-2.50377
1.38333	-0.941105	-2.39953
1.4	-0.902059	-2.28015
1.41667	-0.8651	-2.15866
1.43333	-0.830103	-2.05771
1.45	-0.79651	-1.9985
1.46667	-0.763487	-1.98384
1.48333	-0.730382	-1.99008
1.5	-0.697151	-1.97968
1.51667	-0.664393	-1.92679
1.53333	-0.632925	-1.8336
1.55	-0.603273	-1.72406
1.56667	-0.575456	-1.62346
1.58333	-0.549157	-1.54318
1.6	-0.524017	-1.48065
1.61667	-0.499802	-1.42855
1.63333	-0.476399	-1.38203
1.65	-0.453735	-1.3397
1.66667	-0.431742	-1.30152
1.68333	-0.41035	-1.26775
1.7	-0.389484	-1.23912
1.71667	-0.369047	-1.21694
1.73333	-0.348919	-1.20294
1.75	-0.328948	-1.19929
1.76667	-0.308943	-1.20773
1.78333	-0.288691	-1.22742
1.8	-0.268029	-1.25319
1.81667	-0.246918	-1.27749
1.83333	-0.225446	-1.29534
1.85	-0.20374	-1.30773
1.86667	-0.181855	-1.31938
1.88333	-0.15976	-1.33325
1.9	-0.137413	-1.3472
1.91667	-0.114854	-1.35679
1.93333	-0.092187	-1.35466
1.95	-0.0696984	-1.31171
1.96667	-0.0484635	-1.16069
1.98333	-0.0310089	-1.4539
2	0	-1.86054
