0.000000000000000000e+00 4.597445883835363816e+02 6.470691179647189983e+02
1.666669999999999957e-02 4.489601354374185007e+02 6.470652355694249991e+02
3.333330000000000320e-02 4.381757471978888816e+02 6.470652355694249991e+02
5.000000000000000278e-02 4.273912942517710007e+02 6.470671767670711461e+02
6.666669999999999541e-02 4.166068413056531767e+02 6.470652355694249991e+02
8.333329999999999904e-02 4.058224530661235008e+02 6.470652355694249991e+02
1.000000000000000056e-01 3.950380001200056768e+02 6.470730003600164082e+02
1.166670000000000068e-01 3.842533530541229538e+02 6.470594119764831476e+02
1.333330000000000071e-01 3.734693530541229052e+02 6.470594119764814423e+02
1.499999999999999944e-01 3.626847059882402391e+02 6.470788239529599650e+02
1.666670000000000096e-01 3.519000589223575730e+02 6.470594119764797369e+02
1.833329999999999960e-01 3.411160589223575812e+02 6.470594119764814423e+02
2.000000000000000111e-01 3.303314118564748583e+02 6.470788239529616703e+02
2.166669999999999985e-01 3.195467647905921922e+02 6.470594119764797369e+02
2.333330000000000126e-01 3.087627647905922004e+02 6.470594119764797369e+02
2.500000000000000000e-01 2.979781177247095343e+02 6.470788239529599650e+02
2.666669999999999874e-01 2.871934706588268682e+02 6.470594119764814423e+02
2.833330000000000015e-01 2.764094706588268195e+02 6.470594119764814423e+02
2.999999999999999889e-01 2.656248235929441535e+02 6.470788239529599650e+02
3.166669999999999763e-01 2.548401765270614874e+02 6.470594119764814423e+02
3.333329999999999904e-01 2.440561765270614387e+02 6.470594119764814423e+02
3.499999999999999778e-01 2.332715294611787726e+02 6.470788239529599650e+02
3.666670000000000207e-01 2.224868823952961066e+02 6.470594119764806464e+02
3.833329999999999793e-01 2.117028823952960863e+02 6.470594119764814423e+02
4.000000000000000222e-01 2.009182353294133918e+02 6.470788239529608745e+02
4.166670000000000096e-01 1.901335882635307257e+02 6.470594119764814423e+02
4.333330000000000237e-01 1.793495882635306771e+02 6.470594119764806464e+02
4.500000000000000111e-01 1.685649411976480394e+02 6.470788239529591692e+02
4.666669999999999985e-01 1.577802941317653733e+02 6.470594119764814423e+02
4.833330000000000126e-01 1.469962941317653247e+02 6.470594119764814423e+02
5.000000000000000000e-01 1.362116470658826586e+02 6.470788239529595103e+02
5.166669999999999874e-01 1.254270000000000067e+02 6.470594119764797369e+02
5.333329999999999460e-01 1.146430000000000007e+02 7.717320000000000846e+02
5.500000000000000444e-01 9.970260000000000389e+01 9.155759999999999081e+02
5.666670000000000318e-01 8.412380000000000280e+01 9.114149999999999636e+02
5.833329999999999904e-01 6.932210000000000605e+01 8.413590000000001510e+02
5.999999999999999778e-01 5.607849999999999824e+01 7.362600000000002183e+02
6.166669999999999652e-01 4.478009999999999735e+01 6.217500000000000000e+02
6.333330000000000348e-01 3.535349999999999682e+01 5.173739999999999100e+02
6.500000000000000222e-01 2.753430000000000177e+01 4.293029999999999404e+02
6.666670000000000096e-01 2.104339999999999833e+01 3.567600000000000477e+02
6.833329999999999682e-01 1.564230000000000054e+01 2.969129999999999541e+02
6.999999999999999556e-01 1.114630000000000010e+01 2.464559999999999889e+02
7.166670000000000540e-01 7.427100000000000257e+00 2.025534000000000106e+02
7.333330000000000126e-01 4.394519999999999982e+00 1.635969000000000051e+02
7.500000000000000000e-01 1.973870000000000013e+00 1.289901600000000030e+02
7.666669999999999874e-01 9.484800000000000175e-02 9.878430000000000177e+01
7.833329999999999460e-01 -1.318940000000000001e+00 7.358544000000000551e+01
8.000000000000000444e-01 -2.358000000000000096e+00 5.379630000000000933e+01
8.166670000000000318e-01 -3.112150000000000194e+00 3.850829999999999842e+01
8.333329999999999904e-01 -3.641610000000000014e+00 2.592060000000000031e+01
8.499999999999999778e-01 -3.976170000000000204e+00 1.512689999999999202e+01
8.666669999999999652e-01 -4.145839999999999748e+00 6.648899999999993149e+00
8.833330000000000348e-01 -4.197799999999999976e+00 9.854999999999947136e-01
9.000000000000000222e-01 -4.178689999999999571e+00 -2.613000000000011980e+00
9.166670000000000096e-01 -4.110699999999999577e+00 -5.554499999999991111e+00
9.333329999999999682e-01 -3.993539999999999868e+00 -8.446499999999993236e+00
9.499999999999999556e-01 -3.829149999999999832e+00 -1.070969999999999089e+01
9.666670000000000540e-01 -3.636550000000000171e+00 -1.167389999999999262e+01
9.833330000000000126e-01 -3.440020000000000078e+00 -1.148940000000001049e+01
1.000000000000000000e+00 -3.253569999999999851e+00 -1.075559999999999938e+01
1.016669999999999963e+00 -3.081500000000000128e+00 -9.894599999999993400e+00
1.033330000000000082e+00 -2.923750000000000071e+00 -9.199799999999997979e+00
1.050000000000000044e+00 -2.774840000000000195e+00 -8.991000000000003212e+00
1.066670000000000007e+00 -2.624049999999999994e+00 -9.429600000000011306e+00
1.083329999999999904e+00 -2.460519999999999818e+00 -1.033859999999999779e+01
1.100000000000000089e+00 -2.279430000000000067e+00 -1.122719999999999807e+01
1.116670000000000051e+00 -2.086279999999999912e+00 -1.162950000000000195e+01
1.133329999999999949e+00 -1.891780000000000017e+00 -1.155779999999999852e+01
1.149999999999999911e+00 -1.701019999999999976e+00 -1.139550000000000018e+01
1.166670000000000096e+00 -1.511929999999999996e+00 -1.131930000000000192e+01
1.183329999999999993e+00 -1.323709999999999942e+00 -1.111200000000000188e+01
1.199999999999999956e+00 -1.141529999999999934e+00 -1.049235000000000007e+01
1.216669999999999918e+00 -9.739649999999999697e-01 -9.414899999999997604e+00
1.233330000000000037e+00 -8.276999999999999913e-01 -8.137679999999997804e+00
1.250000000000000000e+00 -7.027090000000000281e-01 -7.043880000000000585e+00
1.266669999999999963e+00 -5.929039999999999866e-01 -6.324480000000000324e+00
1.283330000000000082e+00 -4.918930000000000247e-01 -5.840279999999999028e+00
1.300000000000000044e+00 -3.982280000000000264e-01 -5.256930000000000547e+00
1.316670000000000007e+00 -3.166619999999999990e-01 -4.343820000000000903e+00
1.333329999999999904e+00 -2.534339999999999926e-01 -3.239040000000000141e+00
1.350000000000000089e+00 -2.086939999999999906e-01 -2.337599999999999678e+00
1.366670000000000051e+00 -1.755140000000000033e-01 -1.880910000000000082e+00
1.383329999999999949e+00 -1.459969999999999879e-01 -1.757970000000000033e+00
1.399999999999999911e+00 -1.169150000000000050e-01 -1.669448999999999517e+00
1.416670000000000096e+00 -9.034870000000000401e-02 -1.459119000000000277e+00
1.433329999999999993e+00 -6.827769999999999673e-02 -1.281534000000000173e+00
1.449999999999999956e+00 -4.763089999999999685e-02 -1.324343999999999966e+00
1.466669999999999918e+00 -2.413289999999999880e-02 -1.481258399999999753e+00
1.483330000000000037e+00 1.744380000000000019e-03 -1.520243999999999929e+00
1.500000000000000000e+00 2.654190000000000021e-02 -1.374246600000000207e+00
1.516669999999999963e+00 4.755260000000000042e-02 -1.081877999999999895e+00
1.533330000000000082e+00 6.260449999999999349e-02 -6.782309999999998062e-01
1.550000000000000044e+00 7.016029999999999489e-02 -2.590380000000002125e-01
1.566670000000000007e+00 7.123909999999999965e-02 3.847499999999975939e-02
1.583329999999999904e+00 6.887780000000000291e-02 1.651170000000001803e-01
1.600000000000000089e+00 6.573519999999999364e-02 1.671929999999999250e-01
1.616670000000000051e+00 6.330470000000000541e-02 9.086999999999970101e-02
1.633329999999999949e+00 6.270620000000000360e-02 -4.241999999999995774e-02
1.649999999999999911e+00 6.471870000000000400e-02 -1.808099999999997209e-01
1.666670000000000096e+00 6.873319999999999430e-02 -2.336729999999997975e-01
1.683329999999999993e+00 7.250779999999999725e-02 -1.440960000000002239e-01
1.699999999999999956e+00 7.353640000000000176e-02 5.703300000000008363e-02
1.716669999999999918e+00 7.060669999999999447e-02 2.882850000000002355e-01
1.733330000000000037e+00 6.392689999999999484e-02 4.867979999999998419e-01
1.750000000000000000e+00 5.438010000000000066e-02 6.180749999999999300e-01
1.766669999999999963e+00 4.332439999999999902e-02 6.597899999999999876e-01
1.783330000000000082e+00 3.238710000000000200e-02 6.296849999999999392e-01
1.800000000000000044e+00 2.233490000000000128e-02 5.879460000000000797e-01
1.816670000000000007e+00 1.278890000000000061e-02 5.583036000000000110e-01
1.833329999999999904e+00 3.724780000000000018e-03 4.974759000000000264e-01
1.850000000000000089e+00 -3.793630000000000092e-03 3.799623000000000306e-01
1.866670000000000051e+00 -8.940629999999999758e-03 2.502231000000000316e-01
1.883329999999999949e+00 -1.213440000000000005e-02 1.601151000000000102e-01
1.899999999999999911e+00 -1.427780000000000021e-02 1.065540000000000237e-01
1.916670000000000096e+00 -1.568620000000000084e-02 5.207099999999999229e-02
1.933329999999999993e+00 -1.601349999999999996e-02 -2.737500000000000350e-02
1.949999999999999956e+00 -1.477370000000000072e-02 -1.266329999999999956e-01
1.966669999999999918e+00 -1.179239999999999976e-02 -2.102274000000000365e-01
1.983330000000000037e+00 -7.766119999999999621e-03 -3.537719999999999754e-01
2.000000000000000000e+00 0.000000000000000000e+00 -5.781623999999999652e-01
