0.000000000000000000e+00 7.015595154446193646e+02 1.157884104524198392e+03
1.666669999999999957e-02 6.822615049297986616e+02 1.157877157254292797e+03
3.333330000000000320e-02 6.629636102028096047e+02 1.157877157254292797e+03
5.000000000000000278e-02 6.436655996879889017e+02 1.157880630889238773e+03
6.666669999999999541e-02 6.243675891731683123e+02 1.157877157254292797e+03
8.333329999999999904e-02 6.050696944461791418e+02 1.157877157254292797e+03
1.000000000000000056e-01 5.857716839313585524e+02 1.157891051794073292e+03
1.166670000000000068e-01 5.664733260530433654e+02 1.157866736349461689e+03
1.333330000000000071e-01 5.471761260530431628e+02 1.157866736349458279e+03
1.499999999999999944e-01 5.278777681747280894e+02 1.157901472698907810e+03
1.666670000000000096e-01 5.085794102964129024e+02 1.157866736349456687e+03
1.833329999999999960e-01 4.892822102964128703e+02 1.157866736349456687e+03
2.000000000000000111e-01 4.699838524180976833e+02 1.157901472698911221e+03
2.166669999999999985e-01 4.506854945397824963e+02 1.157866736349458279e+03
2.333330000000000126e-01 4.313882945397824074e+02 1.157866736349456687e+03
2.500000000000000000e-01 4.120899366614672772e+02 1.157901472698909629e+03
2.666669999999999874e-01 3.927915787831520902e+02 1.157866736349458279e+03
2.833330000000000015e-01 3.734943787831520012e+02 1.157866736349458279e+03
2.999999999999999889e-01 3.541960209048368142e+02 1.157901472698909629e+03
3.166669999999999763e-01 3.348976630265216841e+02 1.157866736349454868e+03
3.333329999999999904e-01 3.156004630265216520e+02 1.157866736349456687e+03
3.499999999999999778e-01 2.963021051482064649e+02 1.157901472698913039e+03
3.666670000000000207e-01 2.770037472698912211e+02 1.157866736349458279e+03
3.833329999999999793e-01 2.577065472698911890e+02 1.157866736349457369e+03
4.000000000000000222e-01 2.384081893915759736e+02 1.157901472698911221e+03
4.166670000000000096e-01 2.191098315132608150e+02 1.157866736349457369e+03
4.333330000000000237e-01 1.998126315132607260e+02 1.157866736349456687e+03
4.500000000000000111e-01 1.805142736349455959e+02 1.157901472698909629e+03
4.666669999999999985e-01 1.612159157566304089e+02 1.157866736349457369e+03
4.833330000000000126e-01 1.419187157566303483e+02 1.157866736349456914e+03
5.000000000000000000e-01 1.226203578783151755e+02 1.157901472698910311e+03
5.166669999999999874e-01 1.033220000000000027e+02 1.157866736349455323e+03
5.333329999999999460e-01 8.402479999999999905e+01 1.060776000000000067e+03
5.500000000000000444e-01 6.796280000000000143e+01 8.431379999999999200e+02
5.666670000000000318e-01 5.592020000000000124e+01 6.334770000000000891e+02
5.833329999999999904e-01 4.684689999999999799e+01 4.889699999999999704e+02
5.999999999999999778e-01 3.962120000000000175e+01 4.003589999999998668e+02
6.166669999999999652e-01 3.350160000000000338e+01 3.434280000000000541e+02
6.333330000000000348e-01 2.817360000000000042e+01 2.989800000000001319e+02
6.500000000000000222e-01 2.353559999999999874e+01 2.591430000000000291e+02
6.666670000000000096e-01 1.953549999999999898e+01 2.224649999999999466e+02
6.833329999999999682e-01 1.612010000000000076e+01 1.892879999999999825e+02
6.999999999999999556e-01 1.322589999999999932e+01 1.595280000000000200e+02
7.166670000000000540e-01 1.080250000000000021e+01 1.320065999999999633e+02
7.333330000000000126e-01 8.825680000000000192e+00 1.065069000000000017e+02
7.500000000000000000e-01 7.252270000000000216e+00 8.511480000000000246e+01
7.666669999999999874e-01 5.988520000000000287e+00 6.907200000000001694e+01
7.833329999999999460e-01 4.949869999999999770e+00 5.641049999999999898e+01
8.000000000000000444e-01 4.108170000000000321e+00 4.513829999999998677e+01
8.166670000000000318e-01 3.445260000000000211e+00 3.576090000000001368e+01
8.333329999999999904e-01 2.916139999999999954e+00 2.874360000000000426e+01
8.499999999999999778e-01 2.487140000000000128e+00 2.272620000000000218e+01
8.666669999999999652e-01 2.158599999999999852e+00 1.691490000000000293e+01
8.833330000000000348e-01 1.923310000000000075e+00 1.232759999999999856e+01
9.000000000000000222e-01 1.747679999999999900e+00 9.543300000000003891e+00
9.166670000000000096e-01 1.605199999999999960e+00 7.690499999999995673e+00
9.333329999999999682e-01 1.491330000000000044e+00 5.978100000000002190e+00
9.499999999999999556e-01 1.405929999999999902e+00 4.400400000000004752e+00
9.666670000000000540e-01 1.344649999999999901e+00 3.016499999999997517e+00
9.833330000000000126e-01 1.305379999999999985e+00 1.641599999999996395e+00
1.000000000000000000e+00 1.289930000000000021e+00 3.038999999999991708e-01
1.016669999999999963e+00 1.295250000000000012e+00 -3.735000000000021636e-01
1.033330000000000082e+00 1.302380000000000093e+00 2.472000000000007525e-01
1.050000000000000044e+00 1.287009999999999987e+00 1.631100000000000882e+00
1.066670000000000007e+00 1.248010000000000064e+00 2.329499999999999904e+00
1.083329999999999904e+00 1.209359999999999991e+00 1.836299999999999599e+00
1.100000000000000089e+00 1.186800000000000077e+00 1.290899999999997050e+00
1.116670000000000051e+00 1.166330000000000089e+00 1.906800000000001827e+00
1.133329999999999949e+00 1.123240000000000016e+00 3.464100000000005508e+00
1.149999999999999911e+00 1.050859999999999905e+00 4.826339999999999186e+00
1.166670000000000096e+00 9.623620000000000507e-01 5.347139999999996895e+00
1.183329999999999993e+00 8.726220000000000088e-01 5.255130000000002077e+00
1.199999999999999956e+00 7.871909999999999741e-01 5.067509999999999515e+00
1.216669999999999918e+00 7.037050000000000249e-01 5.149499999999998856e+00
1.233330000000000037e+00 6.155410000000000048e-01 5.680560000000002496e+00
1.250000000000000000e+00 5.143529999999999491e-01 6.573180000000000689e+00
1.266669999999999963e+00 3.964349999999999818e-01 7.382909999999998973e+00
1.283330000000000082e+00 2.682559999999999945e-01 7.702469999999999928e+00
1.300000000000000044e+00 1.396860000000000046e-01 7.619978999999999836e+00
1.316670000000000007e+00 1.425670000000000062e-02 7.378800000000000026e+00
1.333329999999999904e+00 -1.062739999999999935e-01 6.860991000000000284e+00
1.350000000000000089e+00 -2.144429999999999947e-01 5.896170000000000577e+00
1.366670000000000051e+00 -3.028129999999999988e-01 4.715279999999999916e+00
1.383329999999999949e+00 -3.716189999999999771e-01 3.692580000000000862e+00
1.399999999999999911e+00 -4.258990000000000276e-01 2.942190000000000527e+00
1.416670000000000096e+00 -4.696919999999999984e-01 2.372819999999999929e+00
1.433329999999999993e+00 -5.049930000000000252e-01 1.976099999999999524e+00
1.449999999999999956e+00 -5.355619999999999825e-01 1.919939999999999980e+00
1.466669999999999918e+00 -5.689910000000000245e-01 2.223870000000000235e+00
1.483330000000000037e+00 -6.096909999999999830e-01 2.502419999999999867e+00
1.500000000000000000e+00 -6.524050000000000127e-01 2.353260000000000574e+00
1.516669999999999963e+00 -6.881329999999999947e-01 1.841790000000000926e+00
1.533330000000000082e+00 -7.137980000000000436e-01 1.251839999999999620e+00
1.550000000000000044e+00 -7.298609999999999820e-01 5.653199999999991565e-01
1.566670000000000007e+00 -7.326420000000000154e-01 -4.102199999999989188e-01
1.583329999999999904e+00 -7.161870000000000180e-01 -1.581150000000000055e+00
1.600000000000000089e+00 -6.799370000000000136e-01 -2.581590000000001606e+00
1.616670000000000051e+00 -6.301339999999999719e-01 -3.120840000000000281e+00
1.633329999999999949e+00 -5.759090000000000042e-01 -3.155820000000000292e+00
1.649999999999999911e+00 -5.249399999999999622e-01 -2.893110000000000070e+00
1.666670000000000096e+00 -4.794720000000000093e-01 -2.646029999999999216e+00
1.683329999999999993e+00 -4.367389999999999883e-01 -2.564940000000000442e+00
1.699999999999999956e+00 -3.939739999999999909e-01 -2.559449999999999115e+00
1.716669999999999918e+00 -3.514240000000000141e-01 -2.489189999999998903e+00
1.733330000000000037e+00 -3.110010000000000274e-01 -2.305530000000000079e+00
1.750000000000000000e+00 -2.745730000000000115e-01 -2.027340000000001030e+00
1.766669999999999963e+00 -2.434230000000000005e-01 -1.710540000000000393e+00
1.783330000000000082e+00 -2.175549999999999984e-01 -1.439399999999999791e+00
1.800000000000000044e+00 -1.954430000000000056e-01 -1.268519999999999648e+00
1.816670000000000007e+00 -1.752710000000000101e-01 -1.172250000000000014e+00
1.833329999999999904e+00 -1.563680000000000070e-01 -1.090110000000000356e+00
1.850000000000000089e+00 -1.389340000000000019e-01 -1.016010000000000302e+00
1.866670000000000051e+00 -1.225009999999999988e-01 -1.001280000000000170e+00
1.883329999999999949e+00 -1.055579999999999991e-01 -1.053758999999999890e+00
1.899999999999999911e+00 -8.737570000000000059e-02 -1.095395999999999814e+00
1.916670000000000096e+00 -6.904480000000000339e-02 -1.060857000000000161e+00
1.933329999999999993e+00 -5.201379999999999892e-02 -9.653610000000001357e-01
1.949999999999999956e+00 -3.686609999999999887e-02 -8.468729999999999869e-01
1.966669999999999918e+00 -2.378469999999999890e-02 -7.043159999999999421e-01
1.983330000000000037e+00 -1.338890000000000045e-02 -7.135409999999999808e-01
2.000000000000000000e+00 0.000000000000000000e+00 -8.931270000000001152e-01
