0.000000000000000000e+00 7.312420854347575414e+02 1.068149073285449049e+03
1.666666666666666644e-02 7.134396008800000573e+02 1.068149073285442228e+03
3.333333333333333287e-02 6.956371163252428005e+02 1.068149073285438817e+03
5.000000000000000278e-02 6.778346317704854300e+02 1.068149073285438817e+03
6.666666666666666574e-02 6.600321472157281733e+02 1.068149073285438817e+03
8.333333333333332871e-02 6.422296626609708028e+02 1.068149073285438817e+03
1.000000000000000056e-01 6.244271781062135460e+02 1.068149073285438817e+03
1.166666666666666685e-01 6.066246935514561756e+02 1.068149073285438817e+03
1.333333333333333315e-01 5.888222089966989188e+02 1.068149073285442228e+03
1.499999999999999944e-01 5.710197244419414346e+02 1.068149073285442228e+03
1.666666666666666574e-01 5.532172398871841779e+02 1.068149073285435406e+03
1.833333333333333204e-01 5.354147553324269211e+02 1.068149073285438817e+03
2.000000000000000111e-01 5.176122707776695506e+02 1.068149073285440636e+03
2.166666666666666741e-01 4.998097862229122370e+02 1.068149073285440636e+03
2.333333333333333370e-01 4.820073016681548665e+02 1.068149073285440636e+03
2.500000000000000000e-01 4.642048171133975529e+02 1.068149073285438817e+03
2.666666666666666630e-01 4.464023325586402393e+02 1.068149073285438817e+03
2.833333333333333259e-01 4.285998480038829257e+02 1.068149073285438817e+03
2.999999999999999889e-01 4.107973634491256121e+02 1.068149073285440636e+03
3.166666666666666519e-01 3.929948788943682416e+02 1.068149073285440636e+03
3.333333333333333148e-01 3.751923943396109280e+02 1.068149073285438817e+03
3.499999999999999778e-01 3.573899097848536144e+02 1.068149073285438817e+03
3.666666666666666408e-01 3.395874252300963008e+02 1.068149073285440636e+03
3.833333333333333037e-01 3.217849406753389303e+02 1.068149073285442228e+03
4.000000000000000222e-01 3.039824561205815598e+02 1.068149073285440636e+03
4.166666666666666852e-01 2.861799715658242462e+02 1.068149073285438817e+03
4.333333333333333481e-01 2.683774870110669326e+02 1.068149073285438817e+03
4.500000000000000111e-01 2.505750024563096190e+02 1.068149073285439727e+03
4.666666666666666741e-01 2.327725179015522770e+02 1.068149073285439727e+03
4.833333333333333370e-01 2.149700333467949633e+02 1.068149073285439727e+03
5.000000000000000000e-01 1.971675487920376213e+02 1.068149073285437908e+03
5.166666666666666075e-01 1.793650642372803645e+02 1.068149073285438817e+03
5.333333333333333259e-01 1.615625796825229941e+02 1.068149073285443137e+03
5.500000000000000444e-01 1.437600951277655952e+02 1.068149073285439727e+03
5.666666666666666519e-01 1.259576105730083384e+02 1.068149073285439727e+03
5.833333333333333703e-01 1.081551260182509395e+02 1.068149073285439727e+03
5.999999999999999778e-01 9.035264146349368275e+01 1.068149073285439272e+03
6.166666666666666963e-01 7.255015690873629808e+01 9.614829109197112302e+02
6.333333333333333037e-01 5.830321109950330793e+01 7.781341114108028023e+02
6.500000000000000222e-01 4.661235319504287133e+01 6.378826931196344958e+02
6.666666666666666297e-01 3.704045466218215665e+01 5.208758068552265286e+02
6.833333333333333481e-01 2.924982629986865490e+01 4.300004742349037770e+02
6.999999999999999556e-01 2.270710552101869695e+01 3.635703752001494422e+02
7.166666666666666741e-01 1.713081379319700659e+01 3.108423469189216348e+02
7.333333333333332815e-01 1.234569395705464245e+01 2.665819030630529483e+02
7.500000000000000000e-01 8.244750357761908788e+00 2.275889418686008980e+02
7.666666666666666075e-01 4.759395894767945556e+00 1.915632615307703475e+02
7.833333333333333259e-01 1.859308306736230376e+00 1.597801478928222423e+02
8.000000000000000444e-01 -5.666090349927956904e-01 1.332922664320203125e+02
8.166666666666666519e-01 -2.583767240997779879e+00 1.116741516310583791e+02
8.333333333333333703e-01 -4.289080756028075037e+00 9.385053849457814579e+01
8.499999999999999778e-01 -5.712118524150384680e+00 7.740934061087300222e+01
8.666666666666666963e-01 -6.869392109723841955e+00 6.277909361206744165e+01
8.833333333333333037e-01 -7.804754977885965950e+00 5.029853038667747711e+01
9.000000000000000222e-01 -8.546009789279757740e+00 4.006463036900412789e+01
9.166666666666666297e-01 -9.140242656852770153e+00 2.972243604964758035e+01
9.333333333333333481e-01 -9.536757657601343752e+00 2.013945808168033480e+01
9.499999999999999556e-01 -9.811557926242114647e+00 1.162770905184517645e+01
9.666666666666666741e-01 -9.924347959329516300e+00 4.263225788406295180e+00
9.833333333333332815e-01 -9.953665452522324486e+00 -2.290912878025839206e+00
1.000000000000000000e+00 -9.847984196728654993e+00 -7.613156982781301707e+00
1.016666666666666607e+00 -9.699893553096281096e+00 -1.063003418842679793e+01
1.033333333333333215e+00 -9.493649723781095062e+00 -1.418723053591865124e+01
1.050000000000000044e+00 -9.226985868565659388e+00 -1.848921376331730926e+01
1.066666666666666652e+00 -8.877342598337184754e+00 -2.277408659481855224e+01
1.083333333333333259e+00 -8.467849648738374313e+00 -2.557683254574904197e+01
1.100000000000000089e+00 -8.024781513478883355e+00 -2.757951032393147983e+01
1.116666666666666696e+00 -7.548532637940658319e+00 -2.793844027706843036e+01
1.133333333333333304e+00 -7.093500170909935676e+00 -2.661702070740737014e+01
1.149999999999999911e+00 -6.661298614360412707e+00 -2.532877311927082431e+01
1.166666666666666741e+00 -6.249207733600908199e+00 -2.402185592572605444e+01
1.183333333333333348e+00 -5.860570083502877559e+00 -2.297956742591603430e+01
1.199999999999999956e+00 -5.483222152737040389e+00 -2.211440308000758748e+01
1.216666666666666563e+00 -5.123423314169291309e+00 -2.071781234773938607e+01
1.233333333333333393e+00 -4.792628407812394187e+00 -1.911573766066278779e+01
1.250000000000000000e+00 -4.486232058813865109e+00 -1.706464426796826928e+01
1.266666666666666607e+00 -4.223806932213451937e+00 -1.554429918724888893e+01
1.283333333333333215e+00 -3.968088752572235478e+00 -1.454015561275118884e+01
1.300000000000000044e+00 -3.739135078455078975e+00 -1.397499449673976635e+01
1.316666666666666652e+00 -3.502255602680909963e+00 -1.322299080621596268e+01
1.333333333333333259e+00 -3.298368718247880249e+00 -1.194705773333057941e+01
1.350000000000000089e+00 -3.104020344903223982e+00 -1.102800746495988804e+01
1.366666666666666696e+00 -2.930768469415883981e+00 -1.029357564547889048e+01
1.383333333333333304e+00 -2.760901156720594329e+00 -1.017557955636311995e+01
1.399999999999999911e+00 -2.591582484203780012e+00 -9.909377425534607653e+00
1.416666666666666741e+00 -2.430588575869440771e+00 -9.855697877521159000e+00
1.433333333333333348e+00 -2.263059221619741379e+00 -1.006622541889869105e+01
1.449999999999999956e+00 -2.095047728572817736e+00 -9.697619575452307572e+00
1.466666666666666563e+00 -1.939805235771331127e+00 -9.430148795609127887e+00
1.483333333333333393e+00 -1.780709435385846806e+00 -9.325317455948873402e+00
1.500000000000000000e+00 -1.628961320573035332e+00 -8.827179823833890993e+00
1.516666666666666607e+00 -1.486470107924717121e+00 -8.606369109290044506e+00
1.533333333333333215e+00 -1.342082350263367196e+00 -8.692218359858330246e+00
1.550000000000000044e+00 -1.196729495929439446e+00 -8.525954127005677563e+00
1.566666666666666652e+00 -1.057883879363177959e+00 -7.855195443575144765e+00
1.583333333333333259e+00 -9.348896478102679541e-01 -6.770168550922672779e+00
1.600000000000000089e+00 -8.322115943324221998e-01 -5.434283956341108279e+00
1.616666666666666696e+00 -7.537468492655643448e-01 -4.303705905125961628e+00
1.633333333333333304e+00 -6.887547308282234715e-01 -3.440503483872547896e+00
1.649999999999999911e+00 -6.390633998031460816e-01 -2.779586936041162915e+00
1.666666666666666741e+00 -5.961018329601847077e-01 -2.467025489601967436e+00
1.683333333333333348e+00 -5.568292168164138412e-01 -2.340333351577563725e+00
1.699999999999999956e+00 -5.180907212409325835e-01 -2.119830404099349863e+00
1.716666666666666563e+00 -4.861682033464355124e-01 -1.904373910129425473e+00
1.733333333333333393e+00 -4.546115909032850677e-01 -1.768246631515162370e+00
1.750000000000000000e+00 -4.272266489625967667e-01 -1.643435731564430569e+00
1.766666666666666607e+00 -3.998303998511373858e-01 -1.562668283578185324e+00
1.783333333333333215e+00 -3.751377061766572596e-01 -1.482678354515026831e+00
1.800000000000000044e+00 -3.504077880339698248e-01 -1.459113065040680945e+00
1.816666666666666652e+00 -3.265006040086345651e-01 -1.538322271794169804e+00
1.833333333333333259e+00 -2.991303789741641683e-01 -1.571195767061658310e+00
1.849999999999999867e+00 -2.741274117732459548e-01 -1.524413450157542371e+00
1.866666666666666696e+00 -2.483165973022460893e-01 -1.463709324747102913e+00
1.883333333333333304e+00 -2.253371009483425280e-01 -1.456054412759190342e+00
1.899999999999999911e+00 -1.997814502102730760e-01 -1.592149697739770442e+00
1.916666666666666741e+00 -1.722654443570168503e-01 -1.674370535372302182e+00
1.933333333333333348e+00 -1.439690990311963403e-01 -3.948022883298087926e+00
1.949999999999999956e+00 -4.066468158041391945e-02 -4.219352256628922326e+00
1.966666666666666563e+00 -3.324023810232273370e-03 -1.211869337449225981e+00
1.983333333333333393e+00 -2.690369987730484281e-04 -9.972071430696820282e-02
2.000000000000000000e+00 0.000000000000000000e+00 -1.614221992638290720e-02
