0.000000000000000000e+00 nan nan
1.666666666666666644e-02 1.812145859001192500e+14 nan
3.333333333333333287e-02 7.078656443628044434e+11 5.435609001995784000e+15
5.000000000000000278e-02 2.761916692645175934e+10 2.115302351031953125e+13
6.666666666666666574e-02 2.764860685486750126e+09 8.146608615832851562e+11
8.333333333333332871e-02 4.638048736755867600e+08 7.971061861994258118e+10
1.000000000000000056e-01 1.078400648219975382e+08 1.297192303502222633e+10
1.166666666666666685e-01 3.140743917484587058e+07 2.911643863997462273e+09
1.333333333333333315e-01 1.078526935541546717e+07 8.162305821633185148e+08
1.499999999999999944e-01 4.199753102735253982e+06 2.693898646028728485e+08
1.666666666666666574e-01 1.805607201986371540e+06 1.007651915750648975e+08
1.833333333333333204e-01 8.409133835664244834e+05 4.161939846690279245e+07
2.000000000000000111e-01 4.182939197562783374e+05 1.863158064268367365e+07
2.166666666666666741e-01 2.198606954769686854e+05 8.916126690074734390e+06
2.333333333333333370e-01 1.210896967537872115e+05 4.513350820623073727e+06
2.500000000000000000e-01 6.941566812286623463e+04 2.396847865188791417e+06
2.666666666666666630e-01 4.119476791416083870e+04 1.326617225295234704e+06
2.833333333333333259e-01 2.519509394635841454e+04 7.611960221153027378e+05
2.999999999999999889e-01 1.582156717698408102e+04 4.507976873809648678e+05
3.166666666666666519e-01 1.016850436699291822e+04 2.745385525054318132e+05
3.333333333333333148e-01 6.670282093469685606e+03 1.713993731385097490e+05
3.499999999999999778e-01 4.455191929042593074e+03 1.094061603573622269e+05
3.666666666666666408e-01 3.023410081557611193e+03 7.123598086216753291e+04
3.833333333333333037e-01 2.080659233637008583e+03 4.721789173977680912e+04
4.000000000000000222e-01 1.449480356898384343e+03 3.180462182424126877e+04
4.166666666666666852e-01 1.020505172828966352e+03 2.173505651128846512e+04
4.333333333333333481e-01 7.249784731887688167e+02 1.504862122632963110e+04
4.500000000000000111e-01 5.188844652846453300e+02 9.121423632549762260e+03
4.666666666666666741e-01 4.209310187704434156e+02 1.437031030302557610e+03
4.833333333333333370e-01 4.709834309412267430e+02 6.443729557286222189e+03
5.000000000000000000e-01 2.061400335275693578e+02 1.179708108836580504e+04
5.166666666666666075e-01 7.774739466236655971e+01 4.310187326708081855e+03
5.333333333333333259e-01 6.246712263729997261e+01 -6.745306661738183607e+01
5.500000000000000444e-01 7.999583021627928758e+01 -4.550832216104075769e+02
5.666666666666666519e-01 7.763656335764689231e+01 5.883415467560904517e+02
5.833333333333333703e-01 6.038444532440960444e+01 9.626746302212112596e+02
5.999999999999999778e-01 4.554740901693985222e+01 6.714592294782888757e+02
6.166666666666666963e-01 3.800247100846664239e+01 3.779375343707785646e+02
6.333333333333333037e-01 3.294949120458056768e+01 3.382916823373109878e+02
6.500000000000000222e-01 2.672608159722294374e+01 3.815897989200179836e+02
6.666666666666666297e-01 2.022983124057996918e+01 3.495872292300178401e+02
6.833333333333333481e-01 1.507317395622234990e+01 2.686535105643148995e+02
6.999999999999999556e-01 1.127471422176947335e+01 2.068249553117099708e+02
7.166666666666666741e-01 8.179008779165350518e+00 1.730585559064523409e+02
7.333333333333332815e-01 5.506095691554395266e+00 1.469735023277536641e+02
7.500000000000000000e-01 3.279892034906895404e+00 1.206370343621892971e+02
7.666666666666666075e-01 1.484861212814752029e+00 9.580628460565395699e+01
7.833333333333333259e-01 8.634921471843018392e-02 7.467052073738476281e+01
8.000000000000000444e-01 -1.004156145098073161e+00 6.259513111049611211e+01
8.166666666666666519e-01 -2.000155155631440085e+00 6.140339806291072478e+01
8.333333333333333703e-01 -3.050936080528430683e+00 6.071683244471938679e+01
8.499999999999999778e-01 -4.024049570455419556e+00 4.854620580588272105e+01
8.666666666666666963e-01 -4.669142940724521296e+00 2.760838651626309925e+01
8.833333333333333037e-01 -4.944329120997522864e+00 1.037625034943089553e+01
9.000000000000000222e-01 -5.015017952372217813e+00 2.548983989415534168e+00
9.166666666666666297e-01 -5.029295253978040670e+00 9.783499830490605120e-01
9.333333333333333481e-01 -5.047629618473853164e+00 6.994975328724173380e-01
9.499999999999999556e-01 -5.052611838407121247e+00 -9.332966408175735751e-01
9.666666666666666741e-01 -5.016519730446600711e+00 -3.793056002204542310e+00
9.833333333333332815e-01 -4.926176638333636504e+00 -6.235138258598569294e+00
1.000000000000000000e+00 -4.808681788493315068e+00 -8.057526593340238463e+00
1.016666666666666607e+00 -4.657592418555628555e+00 -1.016786077647179987e+01
1.033333333333333215e+00 -4.469753095944255072e+00 -1.206048486366996464e+01
1.050000000000000044e+00 -4.255576256433296400e+00 -1.193228773739488879e+01
1.066666666666666652e+00 -4.072010171364425446e+00 -7.728951121919571676e+00
1.083333333333333259e+00 -3.997944552369310678e+00 -3.639885703097256453e-01
1.100000000000000089e+00 -4.059877219020767924e+00 5.411927815042645307e+00
1.116666666666666696e+00 -4.178342146204065521e+00 5.696225941480257404e+00
1.133333333333333304e+00 -4.249751417070109838e+00 2.229772327061638748e+00
1.149999999999999911e+00 -4.252667890439453480e+00 -1.670176509303509249e+00
1.166666666666666741e+00 -4.194078866759992863e+00 -5.869970592569835333e+00
1.183333333333333348e+00 -4.057002204020458969e+00 -9.656117579943011009e+00
1.199999999999999956e+00 -3.872208280761892496e+00 -8.837224682490699479e+00
1.216666666666666563e+00 -3.762428047937435682e+00 -1.398204576408899058e+00
1.233333333333333393e+00 -3.825601461548262527e+00 7.631968739123817791e+00
1.250000000000000000e+00 -4.016827005908229609e+00 1.138678534597303837e+01
1.266666666666666607e+00 -4.205160973080697140e+00 8.447293115979324085e+00
1.283333333333333215e+00 -4.298403443107540411e+00 2.776857033381316953e+00
1.300000000000000044e+00 -4.297722874193407705e+00 -1.230098499488176955e+00
1.316666666666666652e+00 -4.257400159791267846e+00 -2.651657314974791291e+00
1.333333333333333259e+00 -4.209334297027581329e+00 -3.349479111955346866e+00
1.350000000000000089e+00 -4.145750856059422951e+00 -4.911229192634962715e+00
1.366666666666666696e+00 -4.045626657273082571e+00 -6.881170490534951334e+00
1.383333333333333304e+00 -3.916378506374924573e+00 -7.802548336690247055e+00
1.399999999999999911e+00 -3.785541712716741003e+00 -7.060079368477678585e+00
1.416666666666666741e+00 -3.681042527425668620e+00 -5.516858630106540318e+00
1.433333333333333348e+00 -3.601646425046522992e+00 -4.657005661768387483e+00
1.449999999999999956e+00 -3.525809005366722371e+00 -5.675423730323623239e+00
1.466666666666666563e+00 -3.412465634035735551e+00 -8.579726072705074813e+00
1.483333333333333393e+00 -3.239818136276553240e+00 -1.196743155334413444e+01
1.500000000000000000e+00 -3.013551248924264403e+00 -1.462398959191316905e+01
1.516666666666666607e+00 -2.752351816546114271e+00 -1.635978296961863876e+01
1.533333333333333215e+00 -2.468225149936976504e+00 -1.707095789792072793e+01
1.550000000000000044e+00 -2.183319886615423311e+00 -1.605608092142254151e+01
1.566666666666666652e+00 -1.933022452556225179e+00 -1.354852738489960551e+01
1.583333333333333259e+00 -1.731702307118769824e+00 -1.149211863227620967e+01
1.600000000000000089e+00 -1.549951831480351538e+00 -1.152340276966477006e+01
1.616666666666666696e+00 -1.347588881463277488e+00 -1.245690972164110555e+01
1.633333333333333304e+00 -1.134721507425648035e+00 -1.210592031544627289e+01
1.649999999999999911e+00 -9.440582042817350361e-01 -1.066105524498780888e+01
1.666666666666666741e+00 -7.793529992593877243e-01 -9.942710757857426529e+00
1.683333333333333348e+00 -6.126345123531541370e-01 -1.056509129140438397e+01
1.699999999999999956e+00 -4.271832895459082846e-01 -1.132988024061590338e+01
1.716666666666666563e+00 -2.349718376659573615e-01 -1.108196817443581317e+01
1.733333333333333393e+00 -5.778435039804783596e-02 -9.864935343454915184e+00
1.750000000000000000e+00 9.385934044920649089e-02 -8.508433195738794197e+00
1.766666666666666607e+00 2.258300894599119812e-01 -7.087236048596278870e+00
1.783333333333333215e+00 3.301005420690824588e-01 -4.659573887599157693e+00
1.800000000000000044e+00 3.811492190465505803e-01 -9.947982679078959389e-01
1.816666666666666652e+00 3.632604843326789901e-01 2.436281458102709241e+00
1.833333333333333259e+00 2.999398371097936056e-01 3.962820042901936013e+00
1.849999999999999867e+00 2.311664829026144619e-01 3.674930468185849453e+00
1.866666666666666696e+00 1.774421548369319590e-01 3.183067915278628313e+00
1.883333333333333304e+00 1.250642190599935144e-01 3.759737460919894581e+00
1.899999999999999911e+00 5.211757280626881650e-02 4.468417709883973465e+00
1.916666666666666741e+00 -2.388303793613893652e-02 3.874607641993946139e+00
1.933333333333333348e+00 -7.703601526019605850e-02 -7.458177749854226768e-01
1.949999999999999956e+00 9.775545633751545234e-04 -2.267297130808620942e+00
1.966666666666666563e+00 -1.459444233242032955e-03 3.695503041217493984e-02
1.983333333333333393e+00 -2.542797836973433988e-04 -4.378332699726098648e-02
2.000000000000000000e+00 0.000000000000000000e+00 -1.525678702184060480e-02
