0.000000000000000000e+00 5.538823027244002333e+02 7.568014042078380044e+02
1.666666666666666644e-02 5.412689459876029332e+02 7.568014042078311832e+02
3.333333333333333287e-02 5.286555892508058605e+02 7.568014042078311832e+02
5.000000000000000278e-02 5.160422325140085604e+02 7.568014042078311832e+02
6.666666666666666574e-02 5.034288757772114877e+02 7.568014042078311832e+02
8.333333333333332871e-02 4.908155190404141877e+02 7.568014042078345938e+02
1.000000000000000056e-01 4.782021623036170013e+02 7.568014042078311832e+02
1.166666666666666685e-01 4.655888055668198149e+02 7.568014042078311832e+02
1.333333333333333315e-01 4.529754488300226285e+02 7.568014042078311832e+02
1.499999999999999944e-01 4.403620920932254421e+02 7.568014042078311832e+02
1.666666666666666574e-01 4.277487353564282557e+02 7.568014042078311832e+02
1.833333333333333204e-01 4.151353786196310693e+02 7.568014042078311832e+02
2.000000000000000111e-01 4.025220218828338830e+02 7.568014042078311832e+02
2.166666666666666741e-01 3.899086651460366966e+02 7.568014042078345938e+02
2.333333333333333370e-01 3.772953084092393965e+02 7.568014042078345938e+02
2.500000000000000000e-01 3.646819516724422101e+02 7.568014042078311832e+02
2.666666666666666630e-01 3.520685949356450237e+02 7.568014042078311832e+02
2.833333333333333259e-01 3.394552381988478373e+02 7.568014042078311832e+02
2.999999999999999889e-01 3.268418814620506510e+02 7.568014042078311832e+02
3.166666666666666519e-01 3.142285247252534646e+02 7.568014042078311832e+02
3.333333333333333148e-01 3.016151679884562782e+02 7.568014042078311832e+02
3.499999999999999778e-01 2.890018112516590918e+02 7.568014042078311832e+02
3.666666666666666408e-01 2.763884545148619054e+02 7.568014042078311832e+02
3.833333333333333037e-01 2.637750977780647190e+02 7.568014042078337980e+02
4.000000000000000222e-01 2.511617410412674474e+02 7.568014042078337980e+02
4.166666666666666852e-01 2.385483843044702610e+02 7.568014042078311832e+02
4.333333333333333481e-01 2.259350275676730746e+02 7.568014042078320927e+02
4.500000000000000111e-01 2.133216708308758598e+02 7.568014042078320927e+02
4.666666666666666741e-01 2.007083140940786734e+02 7.568014042078311832e+02
4.833333333333333370e-01 1.880949573572814870e+02 7.568014042078311832e+02
5.000000000000000000e-01 1.754816006204843006e+02 7.568014042078311832e+02
5.166666666666666075e-01 1.628682438836871142e+02 7.568014042078320927e+02
5.333333333333333259e-01 1.502548871468898994e+02 7.568014042078337980e+02
5.500000000000000444e-01 1.376415304100926562e+02 7.568014042078320927e+02
5.666666666666666519e-01 1.250281736732954982e+02 7.568014042078316379e+02
5.833333333333333703e-01 1.124148169364982692e+02 7.568014042078316379e+02
5.999999999999999778e-01 9.980146019970111126e+01 7.568014042078316379e+02
6.166666666666666963e-01 8.718810346290388225e+01 7.568014042078316379e+02
6.333333333333333037e-01 7.457474672610672428e+01 7.568014042078318653e+02
6.500000000000000222e-01 6.196138998930948816e+01 7.324117849970007228e+02
6.666666666666666297e-01 5.016102055954003447e+01 6.352667166538726633e+02
6.833333333333333481e-01 4.078583276751373177e+01 5.116991987725224362e+02
6.999999999999999556e-01 3.310438060045595421e+01 4.333761014461291552e+02
7.166666666666666741e-01 2.633996271930942612e+01 3.750912512695868486e+02
7.333333333333332815e-01 2.060133889146972663e+01 3.181469743435688997e+02
7.500000000000000000e-01 1.573506357452379589e+01 2.703963680223378105e+02
7.666666666666666075e-01 1.158812662405846616e+01 2.300058106139819643e+02
7.833333333333333259e-01 8.068203220724397440e+00 1.934241224589214596e+02
8.000000000000000444e-01 5.140655875427751376e+00 1.623635496743629574e+02
8.166666666666666519e-01 2.656084898245631987e+00 1.363216085353139988e+02
8.333333333333333703e-01 5.966022575839512454e-01 1.130742063312955707e+02
8.499999999999999778e-01 -1.113055312797553542e+00 9.086395680882733927e+01
8.666666666666666963e-01 -2.432196302710293079e+00 7.160315012638952226e+01
8.833333333333333037e-01 -3.499826983677204240e+00 5.617867155142816671e+01
9.000000000000000222e-01 -4.304818687757898665e+00 4.304331079897231405e+01
9.166666666666666297e-01 -4.934604010309614708e+00 3.204175363648124630e+01
9.333333333333333481e-01 -5.372877142307273424e+00 2.212071389679415034e+01
9.499999999999999556e-01 -5.671961140202752993e+00 1.395070429776991361e+01
9.666666666666666741e-01 -5.837900618899603877e+00 6.511421855458081609e+00
9.833333333333332815e-01 -5.889008535384689047e+00 1.043397204203166950e-01
1.000000000000000000e+00 -5.841378609580281100e+00 -5.166175710932341403e+00
1.016666666666666607e+00 -5.716802678353611000e+00 -9.302360450004538706e+00
1.033333333333333215e+00 -5.531299927913463144e+00 -1.267406820538712786e+01
1.050000000000000044e+00 -5.294333738174040072e+00 -1.572353450520238560e+01
1.066666666666666652e+00 -5.007182111073383624e+00 -1.857123590327667273e+01
1.083333333333333259e+00 -4.675292541398150981e+00 -1.975500019101398053e+01
1.100000000000000089e+00 -4.348682104706250939e+00 -2.056761229094643184e+01
1.116666666666666696e+00 -3.989705465033269949e+00 -2.218185665751964208e+01
1.133333333333333304e+00 -3.609286882788929507e+00 -2.282013207258992438e+01
1.149999999999999911e+00 -3.229034395946939195e+00 -2.227971163253225484e+01
1.166666666666666741e+00 -2.866629828371187738e+00 -2.098086317113192578e+01
1.183333333333333348e+00 -2.529672290242541699e+00 -1.870722057044986286e+01
1.199999999999999956e+00 -2.243055809356192309e+00 -1.586811482493403958e+01
1.216666666666666563e+00 -2.000735129411407076e+00 -1.328002961357765344e+01
1.233333333333333393e+00 -1.800388155570270543e+00 -1.086582809827501528e+01
1.250000000000000000e+00 -1.638540859468906596e+00 -9.032229737729485564e+00
1.266666666666666607e+00 -1.499313830979287721e+00 -8.039616598809651293e+00
1.283333333333333215e+00 -1.370553639508584887e+00 -8.190939858937660745e+00
1.300000000000000044e+00 -1.226282502348032377e+00 -7.652454137811965929e+00
1.316666666666666652e+00 -1.115471834914852689e+00 -6.083118943766745446e+00
1.333333333333333259e+00 -1.023511870889140862e+00 -4.377043416866253089e+00
1.350000000000000089e+00 -9.695703876859775860e-01 -3.525026368152153200e+00
1.366666666666666696e+00 -9.060109919507357557e-01 -3.772904093748470356e+00
1.383333333333333304e+00 -8.438069178943619075e-01 -3.800454636647629947e+00
1.399999999999999911e+00 -7.793291707291480908e-01 -4.377139830416786559e+00
1.416666666666666741e+00 -6.979022568804690296e-01 -4.625159253476200050e+00
1.433333333333333348e+00 -6.251571956132747632e-01 -4.729584039864003664e+00
1.449999999999999956e+00 -5.402494555516689223e-01 -4.781721042380207898e+00
1.466666666666666563e+00 -4.657664942006011777e-01 -4.661863232800642187e+00
1.483333333333333393e+00 -3.848540144583141864e-01 -4.244689676601035799e+00
1.500000000000000000e+00 -3.242768383138999733e-01 -3.704843761871413843e+00
1.516666666666666607e+00 -2.613592223959337324e-01 -3.238311221281734653e+00
1.533333333333333215e+00 -2.163331309378421496e-01 -2.812835642023394644e+00
1.550000000000000044e+00 -1.675980343284872442e-01 -2.599261105677237005e+00
1.566666666666666652e+00 -1.296910940819342439e-01 -2.053832491780369196e+00
1.583333333333333259e+00 -9.913695126914161271e-02 -1.518468787791308339e+00
1.600000000000000089e+00 -7.907546782222396597e-02 -9.313814863097579222e-01
1.616666666666666696e+00 -6.809090172548301623e-02 -5.903898788050347957e-01
1.633333333333333304e+00 -5.939580519538947140e-02 -1.249576574627314640e-01
1.649999999999999911e+00 -6.392564647672530076e-02 -4.001864003418155458e-02
1.666666666666666741e+00 -5.806185052758341958e-02 -1.049027786583320299e-02
1.683333333333333348e+00 -6.357597054786419399e-02 1.351717760511046695e-01
1.699999999999999956e+00 -6.256757639595357523e-02 4.654321836808167356e-02
1.716666666666666563e+00 -6.512741116013358311e-02 1.804068489754287463e-01
1.733333333333333393e+00 -6.858113802846786677e-02 5.009581715402514623e-01
1.750000000000000000e+00 -8.182601687814196334e-02 6.948313280400784109e-01
1.766666666666666607e+00 -9.174218229647047862e-02 4.733073757201191056e-01
1.783333333333333215e+00 -9.760292940214593260e-02 2.530378223261094406e-01
1.800000000000000044e+00 -1.001767763740074590e-01 1.026095314070163411e-01
1.816666666666666652e+00 -1.010232471157131440e-01 2.942988368624249729e-02
1.833333333333333259e+00 -1.011577724968822090e-01 -1.055254836193010581e-01
1.849999999999999867e+00 -9.750573099506977537e-02 -2.358063097509902062e-01
1.866666666666666696e+00 -9.329756217184920208e-02 -3.500344059960399101e-01
1.883333333333333304e+00 -8.583791746186844596e-02 -4.646400555182138570e-01
1.899999999999999911e+00 -7.780956032124207444e-02 -5.266869882281333126e-01
1.916666666666666741e+00 -6.828168452093066887e-02 -6.119717160189421801e-01
1.933333333333333348e+00 -5.741050312061066890e-02 -1.512587667770232347e+00
1.949999999999999956e+00 -1.786209559525625545e-02 -1.669331926698051749e+00
1.966666666666666563e+00 -1.766105564008945686e-03 -5.307808085603690218e-01
1.983333333333333393e+00 -1.694019765772883965e-04 -5.298316692026837360e-02
2.000000000000000000e+00 0.000000000000000000e+00 -1.016411859463730444e-02
