0.000000000000000000e+00 nan nan
1.666666666666666644e-02 1.322391183439845156e+14 nan
3.333333333333333287e-02 5.165571502357723389e+11 3.966568902325485500e+15
5.000000000000000278e-02 2.015493313500602341e+10 1.543618403939201562e+13
6.666666666666666574e-02 2.017682256038516760e+09 5.944935884865161133e+11
8.333333333333332871e-02 3.384801854554843903e+08 5.816926730001284790e+10
1.000000000000000056e-01 7.870667937142170966e+07 9.466639978119079590e+09
1.166666666666666685e-01 2.292551951818174496e+07 2.124976572586157560e+09
1.333333333333333315e-01 7.874126951883116737e+06 5.957545653515256643e+08
1.499999999999999944e-01 3.067034006464225240e+06 1.966496354154237807e+08
1.666666666666666574e-01 1.319139104702324839e+06 7.357049985223507881e+07
1.833333333333333204e-01 6.146840113897224655e+05 3.039484519505122304e+07
2.000000000000000111e-01 3.059775982006173581e+05 1.361134167132958211e+07
2.166666666666666741e-01 1.609726223454030696e+05 6.516551554843643680e+06
2.333333333333333370e-01 8.875921303916258330e+04 3.300518769570067991e+06
2.500000000000000000e-01 5.095533002640079940e+04 1.753981007268117741e+06
2.666666666666666630e-01 3.029317946355865570e+04 9.716294022974565160e+05
2.833333333333333259e-01 1.856768328315224790e+04 5.580869410299577285e+05
2.999999999999999889e-01 1.169028142922673214e+04 3.309242394969058805e+05
3.166666666666666519e-01 7.536875299922051454e+03 2.018346203724588559e+05
3.333333333333333148e-01 4.962460750144769918e+03 1.262306579577739612e+05
3.499999999999999778e-01 3.329186701329585958e+03 8.074099658966940478e+04
3.666666666666666408e-01 2.271094197155789971e+03 5.269861703054036479e+04
3.833333333333333037e-01 1.572566133644907040e+03 3.502870813006973913e+04
4.000000000000000222e-01 1.103470592820131969e+03 2.367106000091139867e+04
4.166666666666666852e-01 7.835308002811937058e+02 1.623735923207565065e+04
4.333333333333333481e-01 5.622252850842769476e+02 1.129078969918313123e+04
4.500000000000000111e-01 4.071711436417559753e+02 9.708686849735247961e+03
4.666666666666666741e-01 2.386023900931020307e+02 8.589215981327375630e+03
4.833333333333333370e-01 1.208639442641767516e+02 4.802620257966200370e+03
5.000000000000000000e-01 7.851504816089536121e+01 2.444763078131751172e+03
5.166666666666666075e-01 3.937184165978504780e+01 1.776024203595007521e+03
5.333333333333333259e-01 1.931424137439510957e+01 7.304848266606453535e+02
5.500000000000000444e-01 1.502234743776353731e+01 1.885993336022379196e+02
5.666666666666666519e-01 1.302759692098717892e+01 8.696881696340601309e+01
5.833333333333333703e-01 1.212338687231667045e+01 5.414831150201190013e+01
5.999999999999999778e-01 1.122265320425344903e+01 5.529570901226128399e+01
6.166666666666666963e-01 1.028019657190796110e+01 5.898977183496678123e+01
6.333333333333333037e-01 9.256327476421223110e+00 6.449105077914721562e+01
6.500000000000000222e-01 8.130494879269720698e+00 6.772737711031604135e+01
6.666666666666666297e-01 6.998748239410688576e+00 6.583984564569558984e+01
6.833333333333333481e-01 5.935833357746534311e+00 6.064672963961163532e+01
6.999999999999999556e-01 4.977190584756967517e+00 5.430787961287985155e+01
7.166666666666666741e-01 4.125570703983872711e+00 4.607380753204316193e+01
7.333333333333332815e-01 3.441397000355528757e+00 3.634286352281301191e+01
7.500000000000000000e-01 2.914141919890105736e+00 3.036363381101232051e+01
7.666666666666666075e-01 2.429275873321784740e+00 3.144943515087790331e+01
7.833333333333333259e-01 1.865827414860842248e+00 3.728086361106386448e+01
8.000000000000000444e-01 1.186580419619655880e+00 4.333380350526088876e+01
8.166666666666666519e-01 4.213672980188124528e-01 4.710901668289248079e+01
8.333333333333333703e-01 -3.837201364767600653e-01 4.841324494337574436e+01
8.499999999999999778e-01 -1.192407533427045863e+00 4.706247993970231391e+01
8.666666666666666963e-01 -1.952469467800170388e+00 4.084628371404313185e+01
8.833333333333333037e-01 -2.553950323895150198e+00 2.802532628400194881e+01
9.000000000000000222e-01 -2.886647010600235319e+00 1.097477924736906196e+01
9.166666666666666297e-01 -2.919776298807452264e+00 -4.633141679497536636e+00
9.333333333333333481e-01 -2.732208954616984098e+00 -1.370254390970581859e+01
9.499999999999999556e-01 -2.463024835150591674e+00 -1.500179204067513261e+01
9.666666666666666741e-01 -2.232149219927813011e+00 -1.042672608142920510e+01
9.833333333333332815e-01 -2.115467299102951504e+00 -2.919521787422261205e+00
1.000000000000000000e+00 -2.134831827013737637e+00 4.577867531502950449e+00
1.016666666666666607e+00 -2.268062883486383186e+00 9.806764727674504911e+00
1.033333333333333215e+00 -2.461723984602887771e+00 1.175756816852184805e+01
1.050000000000000044e+00 -2.659981822437111454e+00 1.058969571875709725e+01
1.066666666666666652e+00 -2.814713841894791013e+00 8.204026650565557688e+00
1.083333333333333259e+00 -2.933449377455963347e+00 6.551722938182722444e+00
1.100000000000000089e+00 -3.033104606500881761e+00 5.610547823984757265e+00
1.116666666666666696e+00 -3.120467638255455256e+00 3.950114216625748575e+00
1.133333333333333304e+00 -3.164775080388406714e+00 1.082288718591088994e+00
1.149999999999999911e+00 -3.156543928875158223e+00 -1.059995803209261567e+00
1.166666666666666741e+00 -3.129441886948097995e+00 -1.345718422079951182e+00
1.183333333333333348e+00 -3.111686648139159850e+00 -9.700685066356440345e-01
1.199999999999999956e+00 -3.097106270060243194e+00 -1.069558113185422599e+00
1.216666666666666563e+00 -3.076034711032979097e+00 -1.571978335189814224e+00
1.233333333333333393e+00 -3.044706992220582720e+00 -2.220828780009003189e+00
1.250000000000000000e+00 -3.002007085032678990e+00 -3.420318544875740052e+00
1.266666666666666607e+00 -2.930696374058058051e+00 -5.421191990590448206e+00
1.283333333333333215e+00 -2.821300685346330717e+00 -7.905963407052962744e+00
1.300000000000000044e+00 -2.667164260489625960e+00 -1.040179297073662745e+01
1.316666666666666652e+00 -2.474574252988443135e+00 -1.240717821436846258e+01
1.333333333333333259e+00 -2.253591653344010570e+00 -1.369472928744961493e+01
1.350000000000000089e+00 -2.018083276740122667e+00 -1.442548867056915363e+01
1.366666666666666696e+00 -1.772742030991705464e+00 -1.468395422276572582e+01
1.383333333333333304e+00 -1.528618135981265169e+00 -1.389956971963185239e+01
1.399999999999999911e+00 -1.309423040337310384e+00 -1.208524343572437409e+01
1.416666666666666741e+00 -1.125776688123786062e+00 -9.753079385701195037e+00
1.433333333333333348e+00 -9.843203941472705720e-01 -7.244986195922640704e+00
1.449999999999999956e+00 -8.842771482596980537e-01 -4.624685571942555917e+00
1.466666666666666563e+00 -8.301642084158520341e-01 -1.838023640707595607e+00
1.483333333333333393e+00 -8.230096935694448668e-01 4.435683131815459923e-01
1.500000000000000000e+00 -8.449498188552369005e-01 1.788270264274266497e+00
1.516666666666666607e+00 -8.826187023785870833e-01 2.661385899685490219e+00
1.533333333333333215e+00 -9.336626821780865670e-01 3.254920488653780808e+00
1.550000000000000044e+00 -9.911160520003797769e-01 3.506014349235017313e+00
1.566666666666666652e+00 -1.050529827152587137e+00 3.570336384696367826e+00
1.583333333333333259e+00 -1.110127264823592030e+00 3.317557948177893845e+00
1.600000000000000089e+00 -1.161115092091850265e+00 2.517981416525583160e+00
1.616666666666666696e+00 -1.194059978707778136e+00 1.448022513597866379e+00
1.633333333333333304e+00 -1.209382509211779144e+00 4.247767649489819775e-01
1.649999999999999911e+00 -1.208219204206077535e+00 -3.918563305359645810e-01
1.666666666666666741e+00 -1.196320631527246992e+00 -1.128270312651871166e+00
1.683333333333333348e+00 -1.170610193784348496e+00 -2.020889608240750146e+00
1.699999999999999956e+00 -1.128957644585888653e+00 -2.942429377439546023e+00
1.716666666666666563e+00 -1.072529214536363629e+00 -3.655676860470362666e+00
1.733333333333333393e+00 -1.007101749236876564e+00 -4.124628267190368014e+00
1.750000000000000000e+00 -9.350416056300180356e-01 -4.384199983260584688e+00
1.766666666666666607e+00 -8.609617497948570675e-01 -4.324033859462960372e+00
1.783333333333333215e+00 -7.909071436479193640e-01 -4.044316909005175376e+00
1.800000000000000044e+00 -7.261511861613512142e-01 -3.756628331136010690e+00
1.816666666666666652e+00 -6.656861992767190150e-01 -3.590232156694839194e+00
1.833333333333333259e+00 -6.064767809381899077e-01 -3.533874842494634461e+00
1.849999999999999867e+00 -5.478903711935645404e-01 -3.477742191366062219e+00
1.866666666666666696e+00 -4.905520412259878338e-01 -3.393590649757068256e+00
1.883333333333333304e+00 -4.347706828683289282e-01 -3.357377929918059056e+00
1.899999999999999911e+00 -3.786394435620525356e-01 -3.476626515710090182e+00
1.916666666666666741e+00 -3.188831323446592592e-01 -3.704466942420566067e+00
1.933333333333333348e+00 -2.551572121480336630e-01 -8.287516260775117161e+00
1.949999999999999956e+00 -4.263259031882203620e-02 -7.496062510246250810e+00
1.966666666666666563e+00 -5.288461806491980347e-03 -1.264366965233434836e+00
1.983333333333333393e+00 -4.870248110408785720e-04 -1.586538541947594139e-01
2.000000000000000000e+00 0.000000000000000000e+00 -2.922148866245271454e-02
