0	6.69042e+08	1.4698e+09
0.0166667	6.44545e+08	2.73293e+09
0.0333333	5.77944e+08	4.78878e+09
0.05	4.84919e+08	5.90745e+09
0.0666667	3.81029e+08	6.21038e+09
0.0833333	2.77906e+08	5.88549e+09
0.1	1.84846e+08	5.04112e+09
0.116667	1.09869e+08	3.82013e+09
0.133333	5.7508e+07	2.50114e+09
0.15	2.64977e+07	1.39528e+09
0.166667	1.09988e+07	6.64821e+08
0.183333	4.33699e+06	2.77544e+08
0.2	1.74731e+06	1.07283e+08
0.216667	760889	4.1536e+07
0.233333	362773	1.72261e+07
0.25	186688	7.82327e+06
0.266667	101998	3.84667e+06
0.283333	58465.3	2.014e+06
0.3	34864.2	1.10917e+06
0.316667	21492.9	637005
0.333333	13630.7	379041
0.35	8858.19	232520
0.366667	5880.02	146466
0.383333	3975.98	94430
0.4	2732.35	62145.1
0.416667	1904.48	41652.8
0.433333	1343.92	28381.3
0.45	958.433	19649
0.466667	688.957	13880
0.483333	495.766	10179.4
0.5	349.643	7856.89
0.516667	233.87	5960.63
0.533333	150.956	4077.28
0.55	97.9606	2324.68
0.566667	73.4663	1141.12
0.583333	59.9233	693.085
0.6	50.3635	529.42
0.616667	42.276	449.605
0.633333	35.3767	383.227
0.65	29.5018	329.649
0.666667	24.3884	286.754
0.683333	19.9433	248.728
0.7	16.0974	215.92
0.716667	12.746	188.104
0.733333	9.8273	163.347
0.75	7.30113	140.788
0.766667	5.13437	119.846
0.783333	3.30624	100.217
0.8	1.7938	82.4607
0.816667	0.557552	67.4167
0.833333	-0.453426	54.8887
0.85	-1.27207	43.8689
0.866667	-1.91572	34.1073
0.883333	-2.40898	25.4496
0.9	-2.76404	17.4926
0.916667	-2.99207	10.7798
0.933333	-3.12337	5.7283
0.95	-3.18301	1.78518
0.966667	-3.18287	-1.42619
0.983333	-3.13547	-3.95613
1	-3.051	-6.20485
1.01667	-2.92864	-8.33989
1.03333	-2.77301	-9.88992
1.05	-2.59898	-10.8285
1.06667	-2.41206	-11.656
1.08333	-2.21044	-12.1253
1.1	-2.00788	-11.9072
1.11667	-1.81354	-11.5344
1.13333	-1.6234	-11.3342
1.15	-1.43573	-10.9033
1.16667	-1.25996	-9.91211
1.18333	-1.10533	-8.51324
1.2	-0.976181	-7.27073
1.21667	-0.862972	-6.75757
1.23333	-0.750929	-6.65984
1.25	-0.640978	-6.21372
1.26667	-0.543805	-5.29387
1.28333	-0.464515	-4.24789
1.3	-0.402209	-3.43433
1.31667	-0.350038	-3.11133
1.33333	-0.298497	-3.15787
1.35	-0.244775	-3.04042
1.36667	-0.19715	-2.34871
1.38333	-0.166485	-1.28165
1.4	-0.154429	-0.328381
1.41667	-0.155539	0.355176
1.43333	-0.166268	0.850875
1.45	-0.183901	1.22947
1.46667	-0.20725	1.51846
1.48333	-0.234517	1.5981
1.5	-0.26052	1.38912
1.51667	-0.280821	0.975334
1.53333	-0.293031	0.4357
1.55	-0.295344	-0.0876052
1.56667	-0.290111	-0.475459
1.58333	-0.279495	-0.847578
1.6	-0.261858	-1.3017
1.61667	-0.236106	-1.75168
1.63333	-0.203469	-2.13174
1.65	-0.165047	-2.44529
1.66667	-0.121959	-2.6968
1.68333	-0.0751541	-2.85985
1.7	-0.0266306	-2.85002
1.71667	0.0198467	-2.6813
1.73333	0.0627461	-2.45183
1.75	0.101574	-2.18234
1.76667	0.135491	-1.82394
1.78333	0.162372	-1.35584
1.8	0.180685	-0.879675
1.81667	0.191695	-0.491956
1.83333	0.197084	-0.154801
1.85	0.196855	0.172057
1.86667	0.191349	0.474748
1.88333	0.18103	0.776682
1.9	0.165459	1.08106
1.91667	0.144995	1.35095
1.93333	0.120427	1.57038
1.95	0.0926487	1.73059
1.96667	0.0627412	1.83114
1.98333	0.0316107	1.88224
2	0	1.89664
