0.000000000000000000e+00 7.265358091359914397e+03 1.394448126259409037e+04
1.666666666666666644e-02 7.032950070316679557e+03 1.394448126259406308e+04
3.333333333333333287e-02 6.800542049273445627e+03 1.394448126259406308e+04
5.000000000000000278e-02 6.568134028230210788e+03 1.394448126259409037e+04
6.666666666666666574e-02 6.335726007186975949e+03 1.394448126259409037e+04
8.333333333333332871e-02 6.103317986143741109e+03 1.394448126259411765e+04
1.000000000000000056e-01 5.870909965100505360e+03 1.394448126259409037e+04
1.166666666666666685e-01 5.638501944057271430e+03 1.394448126259406308e+04
1.333333333333333315e-01 5.406093923014036591e+03 1.394448126259409037e+04
1.499999999999999944e-01 5.173685901970801751e+03 1.394448126259409037e+04
1.666666666666666574e-01 4.941277880927566912e+03 1.394448126259409037e+04
1.833333333333333204e-01 4.708869859884332072e+03 1.394448126259409037e+04
2.000000000000000111e-01 4.476461838841097233e+03 1.394448126259409037e+04
2.166666666666666741e-01 4.244053817797862393e+03 1.394448126259409037e+04
2.333333333333333370e-01 4.011645796754627554e+03 1.394448126259409037e+04
2.500000000000000000e-01 3.779237775711392715e+03 1.394448126259409037e+04
2.666666666666666630e-01 3.546829754668157875e+03 1.394448126259409037e+04
2.833333333333333259e-01 3.314421733624923036e+03 1.394448126259409037e+04
2.999999999999999889e-01 3.082013712581688196e+03 1.394448126259407763e+04
3.166666666666666519e-01 2.849605691538453812e+03 1.394448126259406308e+04
3.333333333333333148e-01 2.617197670495219427e+03 1.394448126259407763e+04
3.499999999999999778e-01 2.384789649451984587e+03 1.394448126259409037e+04
3.666666666666666408e-01 2.152381628408749748e+03 1.394448126259409037e+04
3.833333333333333037e-01 1.919973607365514908e+03 1.394448126259410492e+04
4.000000000000000222e-01 1.687565586322279614e+03 1.394448126259410492e+04
4.166666666666666852e-01 1.455157565279044775e+03 1.394448126259409037e+04
4.333333333333333481e-01 1.222749544235809935e+03 1.394448126259408309e+04
4.500000000000000111e-01 9.903415231925753233e+02 1.394448126259407945e+04
4.666666666666666741e-01 7.579335021493405975e+02 1.205899421361582245e+04
4.833333333333333370e-01 5.883750494053812190e+02 8.945995483813694591e+03
5.000000000000000000e-01 4.597336526888840922e+02 6.847541356311206982e+03
5.166666666666666075e-01 3.601236708616743272e+02 5.348743812332767448e+03
5.333333333333333259e-01 2.814421922777918326e+02 4.264678333410523010e+03
5.500000000000000444e-01 2.179677264146569087e+02 3.468509555063559219e+03
5.666666666666666519e-01 1.658252071090065272e+02 2.861511100130370778e+03
5.833333333333333703e-01 1.225840230769778856e+02 2.365424480403573853e+03
5.999999999999999778e-01 8.697772442888739874e+01 1.915010895883895955e+03
6.166666666666666963e-01 5.875032654751468897e+01 1.474958338917341962e+03
6.333333333333333037e-01 3.781244646497599859e+01 1.065877292940321695e+03
6.500000000000000222e-01 2.322108344950396841e+01 7.348886091217590320e+02
6.666666666666666297e-01 1.331615949425069978e+01 5.003084232712159860e+02
6.833333333333333481e-01 6.544136007130102684e+00 3.454878962694832580e+02
6.999999999999999556e-01 1.799896285267925666e+00 2.451778219367133431e+02
7.166666666666666741e-01 -1.628458057427008887e+00 1.788675221315110662e+02
7.333333333333332815e-01 -4.162354452449109843e+00 1.324650452266519665e+02
7.500000000000000000e-01 -6.043959564982074539e+00 9.830598264538130593e+01
7.666666666666666075e-01 -7.439220540628486589e+00 7.322345255504245642e+01
7.833333333333333259e-01 -8.484741316816823087e+00 5.549529130568547686e+01
8.000000000000000444e-01 -9.289063584151335817e+00 4.297759550740013168e+01
8.166666666666666519e-01 -9.917327833730160691e+00 3.256361106948016726e+01
8.333333333333333703e-01 -1.037451728646734139e+01 2.056090349774848391e+01
8.499999999999999778e-01 -1.060269128365511015e+01 4.686319272084933374e+00
8.666666666666666963e-01 -1.053072792887017251e+01 -1.385142059880950072e+01
8.833333333333333037e-01 -1.014097726369479346e+01 -3.112721803939592746e+01
9.000000000000000222e-01 -9.493153994223641590e+00 -4.323418400604661116e+01
9.166666666666666297e-01 -8.699837796826573211e+00 -4.872519043250211013e+01
9.333333333333333481e-01 -7.868980979806904585e+00 -4.930133990096954477e+01
9.499999999999999556e-01 -7.056459800127588444e+00 -4.811085394258447678e+01
9.666666666666666741e-01 -6.265285848387422085e+00 -4.723329985043477564e+01
9.833333333333332815e-01 -5.482016471779762590e+00 -4.692138051440452529e+01
1.000000000000000000e+00 -4.701239831240604516e+00 -4.639040320998860523e+01
1.016666666666666607e+00 -3.935669698113475778e+00 -4.461300162714192652e+01
1.033333333333333215e+00 -3.214139777002540388e+00 -4.073085454657962146e+01
1.050000000000000044e+00 -2.577974546560821700e+00 -3.427252254587078539e+01
1.066666666666666652e+00 -2.071722358806847630e+00 -2.576565953168607948e+01
1.083333333333333259e+00 -1.719119228837952429e+00 -1.723132306143094183e+01
1.100000000000000089e+00 -1.497344923425816265e+00 -1.131326683663540145e+01
1.116666666666666696e+00 -1.342010334283439077e+00 -9.670348139029059098e+00
1.133333333333333304e+00 -1.174999985458180962e+00 -1.173075484145529579e+01
1.149999999999999911e+00 -9.509851729015958988e-01 -1.481835882744716315e+01
1.166666666666666741e+00 -6.810546912099422201e-01 -1.586519174007676725e+01
1.183333333333333348e+00 -4.221454482323702684e-01 -1.291278295901681616e+01
1.199999999999999956e+00 -2.506285925760483591e-01 -5.821231656901712626e+00
1.216666666666666563e+00 -2.281043930023131938e-01 3.160011679907308135e+00
1.233333333333333393e+00 -3.559623152396252932e-01 1.049133575455149803e+01
1.250000000000000000e+00 -5.778155848206965040e-01 1.388086695655068326e+01
1.266666666666666607e+00 -8.186578804579813795e-01 1.356174994467883543e+01
1.283333333333333215e+00 -1.029873916309991033e+00 1.136275229671095488e+01
1.300000000000000044e+00 -1.197416290348346513e+00 9.076354072898574543e+00
1.316666666666666652e+00 -1.332419052073276822e+00 7.534522048440013720e+00
1.333333333333333259e+00 -1.448567025296346955e+00 6.666995603011618421e+00
1.350000000000000089e+00 -1.554652238840330769e+00 6.161041382602079786e+00
1.366666666666666696e+00 -1.653935071383082933e+00 5.944318333884977434e+00
1.383333333333333304e+00 -1.752796183303163335e+00 6.038265792349817751e+00
1.399999999999999911e+00 -1.855210597794743510e+00 6.189230674866366577e+00
1.416666666666666741e+00 -1.959103872465375540e+00 5.895754723877271175e+00
1.433333333333333348e+00 -2.051735755257319216e+00 4.614255090436965467e+00
1.449999999999999956e+00 -2.112912375479941041e+00 2.238533140498022433e+00
1.466666666666666563e+00 -2.126353526607253297e+00 -8.017946839778344881e-01
1.483333333333333393e+00 -2.086185886014013224e+00 -3.734738640757919725e+00
1.500000000000000000e+00 -2.001862238581989306e+00 -5.844835617128794070e+00
1.516666666666666607e+00 -1.891358032109720089e+00 -6.768549366563221703e+00
1.533333333333333215e+00 -1.776243926363215264e+00 -6.605372334339825180e+00
1.550000000000000044e+00 -1.671178954298392583e+00 -5.747425000054415811e+00
1.566666666666666652e+00 -1.584663093028068070e+00 -4.690648187942050740e+00
1.583333333333333259e+00 -1.514824014700324240e+00 -3.969778413795010952e+00
1.600000000000000089e+00 -1.452337145901567705e+00 -3.879244069449903076e+00
1.616666666666666696e+00 -1.385515879051994137e+00 -4.298589495626286450e+00
1.633333333333333304e+00 -1.309050829380691505e+00 -4.886030915367014948e+00
1.649999999999999911e+00 -1.222648181873093653e+00 -5.501851144656315640e+00
1.666666666666666741e+00 -1.125655791225480984e+00 -6.253478542029047738e+00
1.683333333333333348e+00 -1.014198897138792077e+00 -7.147971648347759555e+00
1.699999999999999956e+00 -8.873900696138889987e-01 -7.916487207200670895e+00
1.716666666666666563e+00 -7.503159902321030472e-01 -8.245576517386325577e+00
1.733333333333333393e+00 -6.125375190343448351e-01 -8.029757788194217483e+00
1.750000000000000000e+00 -4.826573972922957867e-01 -7.345860578798856011e+00
1.766666666666666607e+00 -3.676754997410496273e-01 -6.299148768497325079e+00
1.783333333333333215e+00 -2.726857716757182803e-01 -4.992448353613771594e+00
1.800000000000000044e+00 -2.012605546205905871e-01 -3.608326112022441023e+00
1.816666666666666652e+00 -1.524082346083035777e-01 -2.442977158043172725e+00
1.833333333333333259e+00 -1.198279826858181657e-01 -1.735796975047305679e+00
1.849999999999999867e+00 -9.454833544006005508e-02 -1.436796684408222502e+00
1.866666666666666696e+00 -7.193475987221074897e-02 -1.289582444751308898e+00
1.883333333333333304e+00 -5.156225394834976217e-02 -1.121080428624525727e+00
1.899999999999999911e+00 -3.456541225139322243e-02 -9.249038257911403882e-01
1.916666666666666741e+00 -2.073212642197841751e-02 -7.225909466195664654e-01
1.933333333333333348e+00 -1.047904736407434187e-02 -6.983170610717125415e-01
1.949999999999999956e+00 2.545108947078666278e-03 -3.237052648357320317e-01
1.966666666666666563e+00 3.111281304500597509e-04 7.563675067544516073e-02
1.983333333333333393e+00 2.388392456382775150e-05 9.333843913501792960e-03
2.000000000000000000e+00 0.000000000000000000e+00 1.433035473829665212e-03
