0	3.20359e+07	2.93381e+07
0.0166667	3.15469e+07	5.42528e+07
0.0333333	3.02274e+07	9.41238e+07
0.05	2.84094e+07	1.1497e+08
0.0666667	2.63951e+07	1.2204e+08
0.0833333	2.43414e+07	1.2322e+08
0.1	2.22878e+07	1.2322e+08
0.116667	2.02341e+07	1.2322e+08
0.133333	1.81805e+07	1.2322e+08
0.15	1.61268e+07	1.2322e+08
0.166667	1.40731e+07	1.2322e+08
0.183333	1.20195e+07	1.2322e+08
0.2	9.96579e+06	1.2289e+08
0.216667	7.92311e+06	1.20777e+08
0.233333	5.9399e+06	1.14056e+08
0.25	4.12123e+06	1.00052e+08
0.266667	2.60484e+06	7.88908e+07
0.283333	1.49153e+06	5.46036e+07
0.3	784714	3.28999e+07
0.316667	394868	1.75278e+07
0.333333	200455	8.67668e+06
0.35	105645	4.28772e+06
0.366667	57530.7	2.20211e+06
0.383333	32241.4	1.17004e+06
0.4	18529.3	640661
0.416667	10886	360309
0.433333	6519.04	207532
0.45	3968.29	122112
0.466667	2448.64	74773.2
0.483333	1475.85	51930.5
0.5	717.627	35742
0.516667	284.455	17275
0.533333	141.794	6089.03
0.55	81.4869	2525.35
0.566667	57.6155	1141.47
0.583333	43.4377	694.649
0.6	34.4606	466.917
0.616667	27.8738	366.437
0.633333	22.246	316.874
0.65	17.3114	273.431
0.666667	13.1316	225.606
0.683333	9.79114	176.539
0.7	7.24701	134.292
0.716667	5.31476	101.887
0.733333	3.8508	75.4365
0.75	2.80021	51.7525
0.766667	2.12572	32.7959
0.783333	1.70701	20.7991
0.8	1.43241	11.9038
0.816667	1.31021	-0.00849672
0.833333	1.4327	-12.3014
0.85	1.72026	-14.2578
0.866667	1.90795	-4.33512
0.883333	1.86476	5.97342
0.9	1.70884	7.27687
0.916667	1.6222	3.17122
0.933333	1.60313	1.61765
0.95	1.56828	2.26585
0.966667	1.5276	0.694324
0.983333	1.54514	-2.58346
1	1.61372	-3.42096
1.01667	1.65917	0.0268459
1.03333	1.61282	6.15609
1.05	1.45396	10.6203
1.06667	1.25881	8.64797
1.08333	1.1657	0.812177
1.1	1.23174	-5.46284
1.11667	1.34779	-3.58321
1.13333	1.35118	3.90363
1.15	1.21767	8.39944
1.16667	1.0712	6.35897
1.18333	1.00571	2.89276
1.2	0.974774	3.68429
1.21667	0.882897	7.99103
1.23333	0.708406	11.7948
1.25	0.489736	13.4798
1.26667	0.259079	14.3705
1.28333	0.0107184	14.7958
1.3	-0.234113	12.3492
1.31667	-0.400921	6.51616
1.33333	-0.451318	1.66999
1.35	-0.456587	2.79214
1.36667	-0.54439	8.54855
1.38333	-0.741539	11.6729
1.4	-0.933486	7.8936
1.41667	-1.00466	0.569279
1.43333	-0.952462	-4.65568
1.45	-0.84947	-6.01671
1.46667	-0.751905	-4.91246
1.48333	-0.685721	-2.58387
1.5	-0.665776	-0.174172
1.51667	-0.679915	0.541676
1.53333	-0.683832	-0.805096
1.55	-0.653079	-2.1472
1.56667	-0.612258	-1.89448
1.58333	-0.589929	-1.33302
1.6	-0.567824	-2.4689
1.61667	-0.507633	-4.5177
1.63333	-0.417234	-4.85675
1.65	-0.345741	-2.77867
1.66667	-0.324612	-0.251197
1.68333	-0.337368	0.404383
1.7	-0.338091	-1.26035
1.71667	-0.295356	-3.60661
1.73333	-0.217871	-4.51917
1.75	-0.144717	-3.18188
1.76667	-0.111808	-0.789369
1.78333	-0.118405	0.801383
1.8	-0.138521	1.19515
1.81667	-0.158243	1.37318
1.83333	-0.184294	1.86329
1.85	-0.220353	2.05321
1.86667	-0.252734	1.4219
1.88333	-0.26775	0.443008
1.9	-0.267501	-0.209051
1.91667	-0.260781	-0.631539
1.93333	-0.24645	-1.31188
1.95	-0.217052	-2.35847
1.96667	-0.167834	-3.59325
1.98333	-0.0972769	-5.03501
2	0	-5.83661
