0.000000000000000000e+00 8.903323493632269674e+02 2.010042081030244390e+03
1.666666666666666644e-02 8.568316480127228942e+02 2.010042081030247800e+03
3.333333333333333287e-02 8.233309466622187074e+02 2.010042081030247800e+03
5.000000000000000278e-02 7.898302453117146342e+02 2.010042081030247800e+03
6.666666666666666574e-02 7.563295439612104474e+02 2.010042081030247800e+03
8.333333333333332871e-02 7.228288426107063742e+02 2.010042081030247800e+03
1.000000000000000056e-01 6.893281412602021874e+02 2.010042081030247800e+03
1.166666666666666685e-01 6.558274399096981142e+02 2.010042081030247800e+03
1.333333333333333315e-01 6.223267385591939274e+02 2.010042081030247800e+03
1.499999999999999944e-01 5.888260372086898542e+02 2.010042081030247800e+03
1.666666666666666574e-01 5.553253358581856673e+02 2.010042081030247800e+03
1.833333333333333204e-01 5.218246345076815942e+02 2.010042081030249619e+03
2.000000000000000111e-01 4.883239331571773505e+02 2.010042081030251211e+03
2.166666666666666741e-01 4.548232318066732205e+02 2.010042081030247800e+03
2.333333333333333370e-01 4.213225304561690905e+02 2.010042081030247800e+03
2.500000000000000000e-01 3.878218291056649605e+02 2.010042081030247800e+03
2.666666666666666630e-01 3.543211277551608305e+02 2.010042081030247800e+03
2.833333333333333259e-01 3.208204264046567005e+02 2.010042081030247800e+03
2.999999999999999889e-01 2.873197250541525705e+02 2.010042081030246891e+03
3.166666666666666519e-01 2.538190237036484689e+02 2.010042081030246891e+03
3.333333333333333148e-01 2.203183223531443389e+02 2.010042081030247800e+03
3.499999999999999778e-01 1.868176210026402089e+02 2.010042081030247800e+03
3.666666666666666408e-01 1.533169196521360789e+02 2.010042081030247800e+03
3.833333333333333037e-01 1.198162183016319489e+02 2.010042081030251211e+03
4.000000000000000222e-01 8.631551695112770517e+01 2.010042081030251211e+03
4.166666666666666852e-01 5.281481560062356806e+01 2.010042081030247800e+03
4.333333333333333481e-01 1.931411425011943805e+01 1.244861187513206005e+03
4.500000000000000111e-01 1.131944268351670679e+01 3.752265273407226118e+02
4.666666666666666741e-01 6.806563338762018134e+00 2.248219073865242592e+02
4.833333333333333370e-01 3.825379103965897976e+00 1.510352052937176097e+02
5.000000000000000000e-01 1.772056495638097751e+00 1.058352655709894208e+02
5.166666666666666075e-01 2.975369182662507272e-01 7.750861205062685144e+01
5.333333333333333259e-01 -8.115639060494639345e-01 6.041801238909518190e+01
5.500000000000000444e-01 -1.716396828036921951e+00 5.132810339816887790e+01
5.666666666666666519e-01 -2.522500685988426472e+00 4.751820307645807162e+01
5.833333333333333703e-01 -3.300336930585524353e+00 4.546030160451231694e+01
5.999999999999999778e-01 -4.037844072805503615e+00 4.084611490109861620e+01
6.166666666666666963e-01 -4.661874093955478138e+00 3.097490348348609146e+01
6.333333333333333037e-01 -5.070340855588373330e+00 1.600726470737856744e+01
6.500000000000000222e-01 -5.195449584201430326e+00 -1.109403313447803185e+00
6.666666666666666297e-01 -5.033360745140113224e+00 -1.633166059146433824e+01
6.833333333333333481e-01 -4.651060897819285778e+00 -2.659910993705409510e+01
6.999999999999999556e-01 -4.146723747238310054e+00 -3.007645644470544966e+01
7.166666666666666741e-01 -3.648512349662437426e+00 -2.605999209339366374e+01
7.333333333333332815e-01 -3.278057344125187900e+00 -1.612519759835620192e+01
7.500000000000000000e-01 -3.111005763050564088e+00 -5.164228311096579205e+00
7.666666666666666075e-01 -3.105916400421968593e+00 1.768229739768787390e+00
7.833333333333333259e-01 -3.169946754376190334e+00 3.879672174652091243e+00
8.000000000000000444e-01 -3.235238806243704968e+00 3.632003874291926948e+00
8.166666666666666519e-01 -3.291013550185921233e+00 2.978312769811228833e+00
8.333333333333333703e-01 -3.334515898570745929e+00 2.063206280306628670e+00
8.499999999999999778e-01 -3.359787092862808855e+00 6.957556038262913134e-01
8.666666666666666963e-01 -3.357707752031622306e+00 -1.171988317778187572e+00
8.833333333333333037e-01 -3.320720815603535936e+00 -3.376150624552205493e+00
9.000000000000000222e-01 -3.245169397879882123e+00 -5.742074460441286554e+00
9.166666666666666297e-01 -3.129318333588826384e+00 -8.249731503682045997e+00
9.333333333333333481e-01 -2.970178347757147286e+00 -1.097104040732341801e+01
9.499999999999999556e-01 -2.763616986678045784e+00 -1.364214695856569293e+01
9.666666666666666741e-01 -2.515440115804957522e+00 -1.578359082206511310e+01
9.833333333333332815e-01 -2.237497292609208710e+00 -1.708458383869055552e+01
1.000000000000000000e+00 -1.945953987848605626e+00 -1.734955352235251524e+01
1.016666666666666607e+00 -1.659178841864124898e+00 -1.640923735779319159e+01
1.033333333333333215e+00 -1.398979409255499240e+00 -1.463198272830379487e+01
1.050000000000000044e+00 -1.171446084253998432e+00 -1.251830469153077630e+01
1.066666666666666652e+00 -9.817025862044733708e-01 -1.054096932207061421e+01
1.083333333333333259e+00 -8.200804401849779435e-01 -8.914106270092126749e+00
1.100000000000000089e+00 -6.845657105347358051e-01 -7.703952448115281015e+00
1.116666666666666696e+00 -5.632820252478019096e-01 -6.872107741695244520e+00
1.133333333333333304e+00 -4.554954524782276470e-01 -6.099708587356724721e+00
1.149999999999999911e+00 -3.599584056692444189e-01 -5.329731898162783033e+00
1.166666666666666741e+00 -2.778377225394682015e-01 -4.610392060355205324e+00
1.183333333333333348e+00 -2.062786703240709063e-01 -3.879346666429341894e+00
1.199999999999999956e+00 -1.485261669918234717e-01 -3.017879000222730923e+00
1.216666666666666563e+00 -1.056827036499798783e-01 -1.988086351378802519e+00
1.233333333333333393e+00 -8.225662194586338960e-02 -9.274721853450972331e-01
1.250000000000000000e+00 -7.476696413847663814e-02 8.642830357204173142e-02
1.266666666666666607e+00 -8.513756539826478065e-02 9.815134200436507195e-01
1.283333333333333215e+00 -1.074840781399316603e-01 1.608891827971072663e+00
1.300000000000000044e+00 -1.387672929973005342e-01 1.899764638848824516e+00
1.316666666666666652e+00 -1.708095661015591460e-01 1.747072198311282021e+00
1.333333333333333259e+00 -1.970030329410099312e-01 1.317975892324731113e+00
1.350000000000000089e+00 -2.147420958457168516e-01 8.786022735112856141e-01
1.366666666666666696e+00 -2.262897753913861165e-01 4.611920604888727904e-01
1.383333333333333304e+00 -2.301151645286792780e-01 1.811622264395185145e-03
1.399999999999999911e+00 -2.263501628001992894e-01 -4.245525660893229025e-01
1.416666666666666741e+00 -2.159634123257018479e-01 -6.416066149033283761e-01
1.433333333333333348e+00 -2.049632756367550102e-01 -6.354326977806732391e-01
1.449999999999999956e+00 -1.947823223996794084e-01 -5.169428467208512235e-01
1.466666666666666563e+00 -1.877318474127266379e-01 -3.465707534847203841e-01
1.483333333333333393e+00 -1.832299639501887289e-01 -1.428149702032566193e-01
1.500000000000000000e+00 -1.829713484059514172e-01 6.325616515473392321e-02
1.516666666666666607e+00 -1.853385027886798597e-01 2.600185495685766734e-01
1.533333333333333215e+00 -1.916386333915706397e-01 4.131713620235663575e-01
1.550000000000000044e+00 -1.991108815227987383e-01 4.764393948864081851e-01
1.566666666666666652e+00 -2.075199465544509125e-01 4.383210979326571111e-01
1.583333333333333259e+00 -2.137215847872206420e-01 2.921292698045160896e-01
1.600000000000000089e+00 -2.172575888812681155e-01 -1.743393192718628582e-02
1.616666666666666696e+00 -2.131404537229810991e-01 -5.370679977527259563e-01
1.633333333333333304e+00 -1.993553222895105836e-01 -1.068774257597344679e+00
1.649999999999999911e+00 -1.775146451364029432e-01 -1.347795676170578050e+00
1.666666666666666741e+00 -1.544287997504913135e-01 -1.324427955207647223e+00
1.683333333333333348e+00 -1.333670466294813728e-01 -1.161802993612149226e+00
1.699999999999999956e+00 -1.157020332967530069e-01 -9.845787560309886555e-01
1.716666666666666563e+00 -1.005477547617817519e-01 -8.593594036149788673e-01
1.733333333333333393e+00 -8.705671984292037702e-02 -8.671449455488486890e-01
1.750000000000000000e+00 -7.164292324348679741e-02 -1.047106150205471486e+00
1.766666666666666607e+00 -5.215318150273799691e-02 -1.271554493137374342e+00
1.783333333333333215e+00 -2.925777347224098324e-02 -1.399787398224470181e+00
1.800000000000000044e+00 -5.493601561922322775e-03 -1.362160713949456037e+00
1.816666666666666652e+00 1.614758365940755294e-02 -1.194154940066233239e+00
1.833333333333333259e+00 3.431156310695211709e-02 -9.645245862405238402e-01
1.849999999999999867e+00 4.829840320075835108e-02 -7.111457908050538013e-01
1.866666666666666696e+00 5.801642280045390954e-02 -4.390797949676061296e-01
1.883333333333333304e+00 6.293439636634522161e-02 -1.702872422438304889e-01
1.899999999999999911e+00 6.369266420858159250e-02 6.339639928476532849e-02
1.916666666666666741e+00 6.082118305685304399e-02 2.764470546033184761e-01
1.933333333333333348e+00 5.447776238847097663e-02 1.484717044066100611e+00
1.949999999999999956e+00 1.133061492131635928e-02 1.591017771003174319e+00
1.966666666666666563e+00 1.443836688365168243e-03 3.358343443953833440e-01
1.983333333333333393e+00 1.361367748035809664e-04 4.331510065095504902e-02
2.000000000000000000e+00 0.000000000000000000e+00 8.168206488214858202e-03
