0.000000000000000000e+00 1.881709783587154561e+03 3.702027043167868214e+03
1.666666666666666644e-02 1.820009332867690091e+03 3.702027043167868214e+03
3.333333333333333287e-02 1.758308882148225621e+03 3.702027043167868214e+03
5.000000000000000278e-02 1.696608431428761151e+03 3.702027043167868214e+03
6.666666666666666574e-02 1.634907980709296680e+03 3.702027043167868214e+03
8.333333333333332871e-02 1.573207529989832210e+03 3.702027043167868214e+03
1.000000000000000056e-01 1.511507079270367740e+03 3.702027043167868214e+03
1.166666666666666685e-01 1.449806628550903270e+03 3.702027043167868214e+03
1.333333333333333315e-01 1.388106177831438799e+03 3.702027043167861393e+03
1.499999999999999944e-01 1.326405727111974556e+03 3.702027043167868214e+03
1.666666666666666574e-01 1.264705276392509859e+03 3.702027043167868214e+03
1.833333333333333204e-01 1.203004825673045616e+03 3.702027043167868214e+03
2.000000000000000111e-01 1.141304374953580918e+03 3.702027043167875036e+03
2.166666666666666741e-01 1.079603924234116448e+03 3.702027043167868214e+03
2.333333333333333370e-01 1.017903473514651978e+03 3.702027043167868214e+03
2.500000000000000000e-01 9.562030227951875077e+02 3.702027043167868214e+03
2.666666666666666630e-01 8.945025720757230374e+02 3.702027043167868214e+03
2.833333333333333259e-01 8.328021213562585672e+02 3.702027043167868214e+03
2.999999999999999889e-01 7.711016706367940969e+02 3.702027043167865031e+03
3.166666666666666519e-01 7.094012199173297404e+02 3.702027043167865031e+03
3.333333333333333148e-01 6.477007691978652701e+02 3.702027043167868214e+03
3.499999999999999778e-01 5.860003184784007999e+02 3.702027043167868214e+03
3.666666666666666408e-01 5.242998677589363297e+02 3.702027043167870033e+03
3.833333333333333037e-01 4.625994170394718026e+02 3.702027043167875036e+03
4.000000000000000222e-01 4.008989663200071618e+02 3.702027043167873217e+03
4.166666666666666852e-01 3.391985156005426916e+02 3.702027043167866395e+03
4.333333333333333481e-01 2.774980648810782782e+02 3.702027043167866395e+03
4.500000000000000111e-01 2.157976141616138079e+02 3.702027043167868214e+03
4.666666666666666741e-01 1.540971634421493377e+02 3.702027043167867760e+03
4.833333333333333370e-01 9.239671272268488167e+01 3.702027043167867305e+03
5.000000000000000000e-01 3.069626200322042564e+01 2.094286014245131355e+03
5.166666666666666075e-01 2.258717891451384929e+01 3.899340843719581358e+02
5.333333333333333259e-01 1.769845919082182206e+01 2.607461283560623428e+02
5.500000000000000444e-01 1.389564130264510489e+01 2.085115829035127319e+02
5.666666666666666519e-01 1.074807309403806421e+01 1.711711322960895529e+02
5.833333333333333703e-01 8.189936892775453003e+00 1.396728902118207429e+02
5.999999999999999778e-01 6.092310086977373196e+00 1.155723523909201589e+02
6.166666666666666963e-01 4.337525146411447707e+00 9.622947673511448841e+01
6.333333333333333037e-01 2.884660862473556797e+00 7.900417154248538054e+01
6.500000000000000222e-01 1.704052761661935200e+00 6.377662271783214720e+01
6.666666666666666297e-01 7.587734385458183572e-01 5.101089425748822492e+01
6.833333333333333481e-01 3.689619745660975558e-03 4.010521606485325918e+01
6.999999999999999556e-01 -5.780670969492902600e-01 3.099786399864484565e+01
7.166666666666666741e-01 -1.029572513542500456e+00 2.426940103041997077e+01
7.333333333333332815e-01 -1.387047131296622604e+00 1.931717030237890853e+01
7.500000000000000000e-01 -1.673478190288464118e+00 1.558209062748379381e+01
7.666666666666666075e-01 -1.906450152212749050e+00 1.280093850033336267e+01
7.833333333333333259e-01 -2.100176140299576222e+00 1.039943492826525073e+01
8.000000000000000444e-01 -2.253097983154924044e+00 7.820129424547177521e+00
8.166666666666666519e-01 -2.360847121117815473e+00 5.216654107868494705e+00
8.333333333333333703e-01 -2.426986453417207201e+00 3.049352222722805372e+00
8.499999999999999778e-01 -2.462492195208575652e+00 9.947536791257327593e-01
8.666666666666666963e-01 -2.460144909388064960e+00 -1.118624333957622952e+00
8.833333333333333037e-01 -2.425204717409988220e+00 -2.957567991018885678e+00
9.000000000000000222e-01 -2.361559309687435437e+00 -4.548855558963134094e+00
9.166666666666666297e-01 -2.273576198777883750e+00 -6.295246313468667587e+00
9.333333333333333481e-01 -2.151717765905146518e+00 -8.026420344556077779e+00
9.499999999999999556e-01 -2.006028853959347824e+00 -8.803191573313869256e+00
9.666666666666666741e-01 -1.858278046794684224e+00 -8.419608221990351637e+00
9.833333333333332815e-01 -1.725375246559669451e+00 -7.397874259951877640e+00
1.000000000000000000e+00 -1.611682238129621636e+00 -6.103933510646224470e+00
1.016666666666666607e+00 -1.521910796204795302e+00 -4.815910228125255266e+00
1.033333333333333215e+00 -1.451151897192113127e+00 -4.061735290443285074e+00
1.050000000000000044e+00 -1.386519619856685814e+00 -4.202916696485483605e+00
1.066666666666666652e+00 -1.311054673975930340e+00 -4.958437534023039106e+00
1.083333333333333259e+00 -1.221238368722584511e+00 -5.781778157832833109e+00
1.100000000000000089e+00 -1.118328735381502570e+00 -6.439983416797598892e+00
1.116666666666666696e+00 -1.006572254829331214e+00 -6.968859238901464970e+00
1.133333333333333304e+00 -8.860334274181204117e-01 -7.274082846675824499e+00
1.149999999999999911e+00 -7.641028266068037311e-01 -7.123589009117175408e+00
1.166666666666666741e+00 -6.485804604475479129e-01 -6.508226925610411939e+00
1.183333333333333348e+00 -5.471619290864566665e-01 -5.461574912062256537e+00
1.199999999999999956e+00 -4.665279633788060321e-01 -4.209455297384559813e+00
1.216666666666666563e+00 -4.068467525069713320e-01 -3.045598320476259779e+00
1.233333333333333393e+00 -3.650080193629307024e-01 -2.058764783308467017e+00
1.250000000000000000e+00 -3.382212597300224277e-01 -1.267057894923558914e+00
1.266666666666666607e+00 -3.227727561988120719e-01 -8.052189856432084847e-01
1.283333333333333215e+00 -3.113806268752488116e-01 -6.908722825867119610e-01
1.300000000000000044e+00 -2.997436801125883399e-01 -6.056984936728632141e-01
1.316666666666666652e+00 -2.911906770861533711e-01 -3.767374095265296763e-01
1.333333333333333259e+00 -2.871857664617040173e-01 -1.199033421903722418e-01
1.350000000000000089e+00 -2.871938990131409630e-01 1.151779172993921962e-01
1.366666666666666696e+00 -2.910250303716837572e-01 2.536763807892661315e-01
1.383333333333333304e+00 -2.956497783727831674e-01 1.875255220073368534e-01
1.399999999999999911e+00 -2.972758811052616523e-01 -1.149530386468128329e-01
1.416666666666666741e+00 -2.918180104178894063e-01 -6.098527213346227605e-01
1.433333333333333348e+00 -2.769474570607742270e-01 -1.144479313796102460e+00
1.449999999999999956e+00 -2.536686999580193280e-01 -1.494496695497589345e+00
1.466666666666666563e+00 -2.271309005441879136e-01 -1.510296768853881533e+00
1.483333333333333393e+00 -2.033254743295566103e-01 -1.272511117028436001e+00
1.500000000000000000e+00 -1.847138633099067173e-01 -9.933895427159153968e-01
1.516666666666666607e+00 -1.702124895723594322e-01 -7.805813604466230737e-01
1.533333333333333215e+00 -1.586944846283526167e-01 -6.969294430904932058e-01
1.550000000000000044e+00 -1.469815081360096587e-01 -7.711935882719587187e-01
1.566666666666666652e+00 -1.329880316859539946e-01 -9.553830391784376985e-01
1.583333333333333259e+00 -1.151354068300617373e-01 -1.135688654682094345e+00
1.600000000000000089e+00 -9.513174319655084976e-02 -1.175362830951947934e+00
1.616666666666666696e+00 -7.595664579833014129e-02 -1.045168787268685229e+00
1.633333333333333304e+00 -6.029278362092801297e-02 -8.287671637892680687e-01
1.649999999999999911e+00 -4.833107367202120475e-02 -6.802764397424918563e-01
1.666666666666666741e+00 -3.761690229617828396e-02 -6.566181801378901950e-01
1.683333333333333348e+00 -2.644380100075819848e-02 -6.339192705759760793e-01
1.699999999999999956e+00 -1.648625994364574798e-02 -5.624594092272732215e-01
1.716666666666666563e+00 -7.695154026515757528e-03 -5.109299822974067151e-01
1.733333333333333393e+00 5.447394662678065134e-04 -4.909462710655041473e-01
1.750000000000000000e+00 8.669721675667714511e-03 -4.331458165948076089e-01
1.766666666666666607e+00 1.498293335276139338e-02 -3.342251517846794862e-01
1.783333333333333215e+00 1.981056006849036405e-02 -2.781549146060304789e-01
1.800000000000000044e+00 2.425476383962907670e-02 -2.764217090377713015e-01
1.816666666666666652e+00 2.902461703641607410e-02 -2.656767998341382775e-01
1.833333333333333259e+00 3.311065716743368664e-02 -1.923177502564161478e-01
1.849999999999999867e+00 3.543520871162994523e-02 -7.280272103954453511e-02
1.866666666666666696e+00 3.553741453541850448e-02 4.075577497020858864e-02
1.883333333333333304e+00 3.407668287928965895e-02 1.300928678904565150e-01
1.899999999999999911e+00 3.120098560573662111e-02 2.109262941249555323e-01
1.916666666666666741e+00 2.704580640845780787e-02 2.767893867614569237e-01
1.933333333333333348e+00 2.197467271368805722e-02 6.506306429149211201e-01
1.949999999999999956e+00 5.358118311293772265e-03 6.382849017395506586e-01
1.966666666666666563e+00 6.985093223697043255e-04 1.587842253267060522e-01
1.983333333333333393e+00 6.531080040357043154e-05 2.095527967109113085e-02
2.000000000000000000e+00 0.000000000000000000e+00 3.918648024214226380e-03
