0	1.38202e+08	6.59813e+07
0.0166667	1.37102e+08	1.30428e+08
0.0333333	1.33854e+08	2.54849e+08
0.05	1.28607e+08	3.67763e+08
0.0666667	1.21596e+08	4.646e+08
0.0833333	1.13121e+08	5.42014e+08
0.1	1.03528e+08	5.98012e+08
0.116667	9.3187e+07	6.31934e+08
0.133333	8.2464e+07	6.44331e+08
0.15	7.17093e+07	6.36775e+08
0.166667	6.12382e+07	6.11653e+08
0.183333	5.13208e+07	5.71957e+08
0.2	4.2173e+07	5.21084e+08
0.216667	3.39514e+07	4.62635e+08
0.233333	2.67518e+07	4.00206e+08
0.25	2.06112e+07	3.37176e+08
0.266667	1.55126e+07	2.76501e+08
0.283333	1.13945e+07	2.2055e+08
0.3	8.16098e+06	1.70993e+08
0.316667	5.69473e+06	1.28766e+08
0.333333	3.86877e+06	9.41231e+07
0.35	2.55729e+06	6.67434e+07
0.366667	1.64399e+06	4.5891e+07
0.383333	1.02759e+06	3.05845e+07
0.4	624508	1.97534e+07
0.416667	369143	1.23639e+07
0.433333	212380	7.50167e+06
0.45	119087	4.41499e+06
0.466667	65213.6	2.52324e+06
0.483333	34979.5	1.40285e+06
0.5	18451.8	760755
0.516667	9621.02	403925
0.533333	4987.61	211081
0.55	2584.99	109492
0.566667	1337.87	56751.9
0.583333	693.258	29763.6
0.6	345.745	15732.1
0.616667	168.854	8169.13
0.633333	73.4404	3979.01
0.65	36.2201	1491.9
0.666667	23.7103	544.345
0.683333	18.0753	254.618
0.7	15.2231	139.847
0.716667	13.4137	98.1252
0.733333	11.9522	84.7962
0.75	10.5872	78.0271
0.766667	9.35132	72.8808
0.783333	8.15782	68.2096
0.8	7.07766	62.2722
0.816667	6.08208	57.934
0.833333	5.14653	53.2725
0.85	4.30633	48.567
0.866667	3.52763	45.569
0.883333	2.78737	40.7138
0.9	2.17051	37.2644
0.916667	1.54522	34.6511
0.933333	1.01547	29.7412
0.95	0.553849	26.6449
0.966667	0.127305	24.2789
0.983333	-0.255449	20.6213
1	-0.560073	17.5059
1.01667	-0.83898	16.2214
1.03333	-1.10079	14.8068
1.05	-1.33254	12.8044
1.06667	-1.5276	11.2077
1.08333	-1.70613	9.3318
1.1	-1.83866	7.35647
1.11667	-1.95135	6.39378
1.13333	-2.05179	5.47417
1.15	-2.13382	4.02383
1.16667	-2.18591	3.07164
1.18333	-2.23621	2.62983
1.2	-2.27357	1.90431
1.21667	-2.29968	2.4755
1.23333	-2.35609	2.9693
1.25	-2.39866	2.50833
1.26667	-2.4397	3.42202
1.28333	-2.51273	3.39677
1.3	-2.55293	2.28843
1.31667	-2.58901	2.01338
1.33333	-2.62004	1.96504
1.35	-2.65451	1.80644
1.36667	-2.68026	1.02762
1.38333	-2.68876	1.12437
1.4	-2.71773	1.2237
1.41667	-2.72955	0.519876
1.43333	-2.73506	0.0426363
1.45	-2.73098	-0.675175
1.46667	-2.71256	-1.44616
1.48333	-2.68277	-2.1172
1.5	-2.64198	-2.83523
1.51667	-2.58826	-3.30378
1.53333	-2.53186	-3.88161
1.55	-2.45888	-4.45795
1.56667	-2.38326	-4.65632
1.58333	-2.30367	-5.1069
1.6	-2.21303	-5.39147
1.61667	-2.12395	-5.53996
1.63333	-2.02837	-5.76337
1.65	-1.93184	-5.8706
1.66667	-1.83268	-6.0458
1.68333	-1.73031	-6.10359
1.7	-1.62923	-5.95669
1.71667	-1.53175	-5.84045
1.73333	-1.43454	-5.76746
1.75	-1.33951	-5.57438
1.76667	-1.24873	-5.32215
1.78333	-1.1621	-5.22935
1.8	-1.07442	-5.03626
1.81667	-0.994225	-4.80419
1.83333	-0.91428	-4.74003
1.85	-0.836224	-4.72396
1.86667	-0.756815	-4.64181
1.88333	-0.681497	-4.54425
1.9	-0.60534	-4.44315
1.91667	-0.533392	-4.18277
1.93333	-0.465914	-3.88735
1.95	-0.403814	-3.457
1.96667	-0.350681	-2.79044
1.98333	-0.310799	-1.88653
2	-0.287796	-1.38017
