0	1.09915e+07	86.3379
0.0166667	1.09915e+07	165.282
0.0333333	1.09915e+07	304.396
0.05	1.09915e+07	402.425
0.0666667	1.09915e+07	459.596
0.0833333	1.09914e+07	486.646
0.1	1.09914e+07	496.688
0.116667	1.09914e+07	16806.2
0.133333	1.09909e+07	186839
0.15	1.09852e+07	1.06573e+06
0.166667	1.09554e+07	4.04583e+06
0.183333	1.08503e+07	1.1422e+07
0.2	1.05746e+07	2.54299e+07
0.216667	1.00027e+07	4.62401e+07
0.233333	9.03328e+06	7.02246e+07
0.25	7.66186e+06	9.04116e+07
0.266667	6.01956e+06	9.9692e+07
0.283333	4.33879e+06	9.48468e+07
0.3	2.858e+06	7.83534e+07
0.316667	1.72701e+06	5.66137e+07
0.333333	970874	3.61801e+07
0.35	521005	2.08472e+07
0.366667	275967	1.11728e+07
0.383333	148577	5.80553e+06
0.4	82449.2	3.04242e+06
0.416667	47162.4	1.64276e+06
0.433333	27690.6	916231
0.45	16621.4	526395
0.466667	10144.1	311921
0.483333	6224.03	191488
0.5	3761.17	121353
0.516667	2178.94	77418.6
0.533333	1180.55	47646.7
0.55	590.718	27191.9
0.566667	274.158	14109.9
0.583333	120.386	6657.39
0.6	52.2453	2842.72
0.616667	25.6293	1044.32
0.633333	17.4347	311.823
0.65	15.2352	104.917
0.666667	13.9374	81.5297
0.683333	12.5175	84.05
0.7	11.1357	78.5162
0.716667	9.90031	70.2808
0.733333	8.79305	63.4156
0.75	7.78645	57.7942
0.766667	6.86658	52.8646
0.783333	6.0243	48.4632
0.8	5.25113	44.6459
0.816667	4.5361	41.5642
0.833333	3.86566	39.1117
0.85	3.23238	36.677
0.866667	2.64309	33.5762
0.883333	2.11318	29.7329
0.9	1.652	25.7051
0.916667	1.25634	22.064
0.933333	0.916531	19.0023
0.95	0.62293	16.6034
0.966667	0.363085	15.1624
0.983333	0.117517	14.8874
1	-0.133163	15.3365
1.01667	-0.393699	15.5078
1.03333	-0.650089	14.6892
1.05	-0.88334	13.0827
1.06667	-1.08618	11.43
1.08333	-1.26434	10.1606
1.1	-1.42487	9.16007
1.11667	-1.56968	8.32053
1.13333	-1.70222	7.93447
1.15	-1.83416	8.27137
1.16667	-1.97793	8.92462
1.18333	-2.13165	8.95347
1.2	-2.27638	7.82543
1.21667	-2.39249	6.04592
1.23333	-2.47791	4.65756
1.25	-2.54774	4.14982
1.26667	-2.61624	4.02281
1.28333	-2.68184	3.44654
1.3	-2.73112	2.19209
1.31667	-2.75491	0.807155
1.33333	-2.75803	-0.029723
1.35	-2.75392	-0.162882
1.36667	-2.7526	0.0309481
1.38333	-2.75495	0.109639
1.4	-2.75625	-0.0901686
1.41667	-2.75194	-0.501268
1.43333	-2.73954	-1.03268
1.45	-2.71752	-1.65134
1.46667	-2.6845	-2.34544
1.48333	-2.63934	-3.09911
1.5	-2.58119	-3.87553
1.51667	-2.51016	-4.56115
1.53333	-2.42916	-4.96447
1.55	-2.34467	-4.9686
1.56667	-2.26354	-4.70479
1.58333	-2.18785	-4.50383
1.6	-2.11341	-4.6214
1.61667	-2.0338	-5.0154
1.63333	-1.94623	-5.39603
1.65	-1.85393	-5.47468
1.66667	-1.76374	-5.17693
1.68333	-1.68137	-4.66786
1.7	-1.60814	-4.20374
1.71667	-1.54124	-3.93972
1.73333	-1.47682	-3.84824
1.75	-1.41297	-3.80729
1.76667	-1.34991	-3.75343
1.78333	-1.28785	-3.73505
1.8	-1.22541	-3.83042
1.81667	-1.16017	-4.0484
1.83333	-1.09046	-4.31554
1.85	-1.01632	-4.53072
1.86667	-0.939438	-4.62485
1.88333	-0.862161	-4.61709
1.9	-0.785535	-4.66675
1.91667	-0.706603	-5.05412
1.93333	-0.617064	-5.96366
1.95	-0.507814	-7.08447
1.96667	-0.380915	-7.44003
1.98333	-0.259813	-5.91702
2	-0.183681	-4.56794
