0.000000000000000000e+00 9.923873158933150762e+02 1.919834020234652598e+03
1.666666666666666644e-02 9.603900822227375329e+02 1.919834020234652598e+03
3.333333333333333287e-02 9.283928485521599896e+02 1.919834020234649188e+03
5.000000000000000278e-02 8.963956148815825600e+02 1.919834020234649188e+03
6.666666666666666574e-02 8.643983812110050167e+02 1.919834020234652598e+03
8.333333333333332871e-02 8.324011475404274734e+02 1.919834020234656009e+03
1.000000000000000056e-01 8.004039138698498164e+02 1.919834020234652598e+03
1.166666666666666685e-01 7.684066801992723867e+02 1.919834020234652598e+03
1.333333333333333315e-01 7.364094465286947297e+02 1.919834020234652598e+03
1.499999999999999944e-01 7.044122128581173001e+02 1.919834020234652598e+03
1.666666666666666574e-01 6.724149791875396431e+02 1.919834020234649188e+03
1.833333333333333204e-01 6.404177455169623272e+02 1.919834020234649188e+03
2.000000000000000111e-01 6.084205118463846702e+02 1.919834020234656009e+03
2.166666666666666741e-01 5.764232781758071269e+02 1.919834020234652598e+03
2.333333333333333370e-01 5.444260445052295836e+02 1.919834020234652598e+03
2.500000000000000000e-01 5.124288108346520403e+02 1.919834020234651007e+03
2.666666666666666630e-01 4.804315771640745538e+02 1.919834020234651007e+03
2.833333333333333259e-01 4.484343434934970105e+02 1.919834020234652598e+03
2.999999999999999889e-01 4.164371098229194672e+02 1.919834020234652598e+03
3.166666666666666519e-01 3.844398761523419239e+02 1.919834020234651007e+03
3.333333333333333148e-01 3.524426424817644374e+02 1.919834020234651007e+03
3.499999999999999778e-01 3.204454088111868941e+02 1.919834020234652598e+03
3.666666666666666408e-01 2.884481751406093508e+02 1.919834020234652598e+03
3.833333333333333037e-01 2.564509414700318075e+02 1.919834020234656009e+03
4.000000000000000222e-01 2.244537077994541505e+02 1.919834020234654417e+03
4.166666666666666852e-01 1.924564741288766641e+02 1.919834020234651007e+03
4.333333333333333481e-01 1.604592404582991207e+02 1.919834020234652598e+03
4.500000000000000111e-01 1.284620067877215774e+02 1.919834020234651689e+03
4.666666666666666741e-01 9.646477311714406255e+01 1.919834020234651234e+03
4.833333333333333370e-01 6.446753944656653346e+01 1.919834020234651689e+03
5.000000000000000000e-01 3.247030577598900436e+01 1.211567424841790853e+03
5.166666666666666075e-01 2.408195861850683883e+01 4.202037049013507612e+02
5.333333333333333259e-01 1.846351561261064589e+01 3.026365786267633666e+02
5.500000000000000444e-01 1.399407266428139351e+01 2.446662210308950023e+02
5.666666666666666519e-01 1.030797491158081236e+01 2.017444113048153724e+02
5.833333333333333703e-01 7.269258954120880745e+00 1.659734661704723067e+02
5.999999999999999778e-01 4.775526039231735353e+00 1.358800893886706831e+02
6.166666666666666963e-01 2.739922641165191131e+00 1.107705252051036382e+02
6.333333333333333037e-01 1.083175199061614080e+00 8.930574425476189049e+01
6.500000000000000222e-01 -2.369355006602053837e-01 7.024525313149801775e+01
6.666666666666666297e-01 -1.258333238654986364e+00 5.330170135316484448e+01
6.833333333333333481e-01 -2.013658879099033516e+00 3.851785515357447309e+01
6.999999999999999556e-01 -2.542261743774135496e+00 2.592561187630694519e+01
7.166666666666666741e-01 -2.877845941642598326e+00 1.533984123133706667e+01
7.333333333333332815e-01 -3.053589784818704356e+00 6.613835278721293953e+00
7.500000000000000000e-01 -3.098307117599974791e+00 -2.639486756533715450e-01
7.666666666666666075e-01 -3.044791495630258638e+00 -5.333305432845074634e+00
7.833333333333333259e-01 -2.920530269838472304e+00 -8.818765113810083989e+00
8.000000000000000444e-01 -2.750832658503255868e+00 -1.099220264557219195e+01
8.166666666666666519e-01 -2.554123514986065935e+00 -1.199627438785955214e+01
8.333333333333333703e-01 -2.350956845574604159e+00 -1.195146332006814838e+01
8.499999999999999778e-01 -2.155741404317127685e+00 -1.115847797503765904e+01
8.666666666666666963e-01 -1.979007579740015510e+00 -9.907550755583434565e+00
8.833333333333333037e-01 -1.825489712464346548e+00 -8.330643862421720058e+00
9.000000000000000222e-01 -1.701319450992624827e+00 -6.610310973787245636e+00
9.166666666666666297e-01 -1.605146013338105027e+00 -5.096242133762118875e+00
9.333333333333333481e-01 -1.531444713200554197e+00 -4.161710364333970347e+00
9.499999999999999556e-01 -1.466422334526972682e+00 -3.868892419275271610e+00
9.666666666666666741e-01 -1.402481632558045144e+00 -3.914134345295756656e+00
9.833333333333332815e-01 -1.335951189683780793e+00 -4.123158346400124685e+00
1.000000000000000000e+00 -1.265043021011374336e+00 -4.410482395469424333e+00
1.016666666666666607e+00 -1.188935109834799997e+00 -4.721856083706297724e+00
1.033333333333333215e+00 -1.107647818221164426e+00 -4.930430400751888875e+00
1.050000000000000044e+00 -1.024587429809737049e+00 -4.934073874654286485e+00
1.066666666666666652e+00 -9.431786890660215361e-01 -4.835786825457062399e+00
1.083333333333333259e+00 -8.633945356278349692e-01 -4.656508366749929628e+00
1.100000000000000089e+00 -7.879617435076905485e-01 -4.346718241708402708e+00
1.116666666666666696e+00 -7.185039275708882123e-01 -3.887981051429605373e+00
1.133333333333333304e+00 -6.583623751267037028e-01 -3.374095395706495637e+00
1.149999999999999911e+00 -6.060340810473383577e-01 -2.933431300023722432e+00
1.166666666666666741e+00 -5.605813317925796291e-01 -2.570874904305896713e+00
1.183333333333333348e+00 -5.203382509038084747e-01 -2.321013586269360385e+00
1.199999999999999956e+00 -4.832142122502676163e-01 -2.169104759269989913e+00
1.216666666666666563e+00 -4.480347589281421516e-01 -2.087805132675510045e+00
1.233333333333333393e+00 -4.136207078277506222e-01 -2.087100112074565139e+00
1.250000000000000000e+00 -3.784647551923233100e-01 -2.049381920759115960e+00
1.266666666666666607e+00 -3.453079771357800976e-01 -1.852935999619359064e+00
1.283333333333333215e+00 -3.167002218716780115e-01 -1.547014163261151820e+00
1.300000000000000044e+00 -2.937408383604083739e-01 -1.307226752245151502e+00
1.316666666666666652e+00 -2.731259967968396318e-01 -1.161776022018340404e+00
1.333333333333333259e+00 -2.550149709597970271e-01 -1.015329030358256501e+00
1.350000000000000089e+00 -2.392816957848977466e-01 -9.417292997269455235e-01
1.366666666666666696e+00 -2.236239943022321763e-01 -1.010012240485089308e+00
1.383333333333333304e+00 -2.056146211020614400e-01 -1.080905996071889197e+00
1.399999999999999911e+00 -1.875937944331692031e-01 -1.036892754883052881e+00
1.416666666666666741e+00 -1.710515292726263459e-01 -9.365402726167324499e-01
1.433333333333333348e+00 -1.563757853459447900e-01 -8.505785950375743809e-01
1.449999999999999956e+00 -1.426989094380405332e-01 -7.680054955998381061e-01
1.466666666666666563e+00 -1.307756021592835216e-01 -6.971889014289760489e-01
1.483333333333333393e+00 -1.194592793904079991e-01 -6.751402364032542680e-01
1.500000000000000000e+00 -1.082709276125083803e-01 -6.653539581093996791e-01
1.516666666666666607e+00 -9.728081412009467743e-02 -6.329353194865671162e-01
1.533333333333333215e+00 -8.717308362962281065e-02 -6.063843289478869636e-01
1.550000000000000044e+00 -7.706800315516511291e-02 -5.946648172398184551e-01
1.566666666666666652e+00 -6.735092305496219456e-02 -6.140834111901024572e-01
1.583333333333333259e+00 -5.659855611549503146e-02 -6.730742928745562237e-01
1.600000000000000089e+00 -4.491511329247698664e-02 -7.368955188550118107e-01
1.616666666666666696e+00 -3.203537215366130536e-02 -7.529834026013916271e-01
1.633333333333333304e+00 -1.981566653909726597e-02 -7.244327011252771342e-01
1.649999999999999911e+00 -7.887615449485402622e-03 -7.010124038630964893e-01
1.666666666666666741e+00 3.551413589672617385e-03 -6.492348293329029962e-01
1.683333333333333348e+00 1.375354552827802966e-02 -5.516164690195687337e-01
1.699999999999999956e+00 2.193862922365823892e-02 -4.526436393174565476e-01
1.716666666666666563e+00 2.884166683885991400e-02 -3.844233081780202288e-01
1.733333333333333393e+00 3.475273949625891368e-02 -3.365217635687592357e-01
1.750000000000000000e+00 4.005905895781855519e-02 -2.808471716311097821e-01
1.766666666666666607e+00 4.411431188396257308e-02 -2.013046073451102425e-01
1.783333333333333215e+00 4.676921253598889661e-02 -9.182138879592023628e-02
1.800000000000000044e+00 4.717502484382658096e-02 3.492379012925664328e-02
1.816666666666666652e+00 4.560508619834700850e-02 1.385436270776597978e-01
1.833333333333333259e+00 4.255690394123792103e-02 2.065548793400737160e-01
1.849999999999999867e+00 3.871992355367788463e-02 2.390539891405062956e-01
1.866666666666666696e+00 3.458843763655437831e-02 2.470792559894447737e-01
1.883333333333333304e+00 3.048394835402972597e-02 2.390377712887425676e-01
1.899999999999999911e+00 2.662051192692962628e-02 2.243885088025962815e-01
1.916666666666666741e+00 2.300433139394318302e-02 2.169144675123603205e-01
1.933333333333333348e+00 1.939002967651761583e-02 5.408455513794714342e-01
1.949999999999999956e+00 4.976146347960805003e-03 5.619773038436918222e-01
1.966666666666666563e+00 6.574528817278877443e-04 1.474484928842622056e-01
1.983333333333333393e+00 6.119658515206487920e-05 1.972358645183663189e-02
2.000000000000000000e+00 0.000000000000000000e+00 3.671795109123892915e-03
