0.000000000000000000e+00 4.218956264235172853e+02 7.710211638149144164e+02
1.666666666666666644e-02 4.090452736932687117e+02 7.710211638149127111e+02
3.333333333333333287e-02 3.961949209630201949e+02 7.710211638149127111e+02
5.000000000000000278e-02 3.833445682327716213e+02 7.710211638149127111e+02
6.666666666666666574e-02 3.704942155025231045e+02 7.710211638149127111e+02
8.333333333333332871e-02 3.576438627722745309e+02 7.710211638149127111e+02
1.000000000000000056e-01 3.447935100420260142e+02 7.710211638149127111e+02
1.166666666666666685e-01 3.319431573117774406e+02 7.710211638149127111e+02
1.333333333333333315e-01 3.190928045815289238e+02 7.710211638149127111e+02
1.499999999999999944e-01 3.062424518512803502e+02 7.710211638149127111e+02
1.666666666666666574e-01 2.933920991210318334e+02 7.710211638149127111e+02
1.833333333333333204e-01 2.805417463907832598e+02 7.710211638149144164e+02
2.000000000000000111e-01 2.676913936605346862e+02 7.710211638149136206e+02
2.166666666666666741e-01 2.548410409302861410e+02 7.710211638149127111e+02
2.333333333333333370e-01 2.419906882000375958e+02 7.710211638149127111e+02
2.500000000000000000e-01 2.291403354697890506e+02 7.710211638149127111e+02
2.666666666666666630e-01 2.162899827395405055e+02 7.710211638149127111e+02
2.833333333333333259e-01 2.034396300092919603e+02 7.710211638149127111e+02
2.999999999999999889e-01 1.905892772790434151e+02 7.710211638149127111e+02
3.166666666666666519e-01 1.777389245487948699e+02 7.710211638149127111e+02
3.333333333333333148e-01 1.648885718185463247e+02 7.710211638149127111e+02
3.499999999999999778e-01 1.520382190882977795e+02 7.710211638149127111e+02
3.666666666666666408e-01 1.391878663580492343e+02 7.710211638149127111e+02
3.833333333333333037e-01 1.263375136278006892e+02 7.710211638149139617e+02
4.000000000000000222e-01 1.134871608975521013e+02 7.710211638149144164e+02
4.166666666666666852e-01 1.006368081673035419e+02 7.710211638149127111e+02
4.333333333333333481e-01 8.778645543705501098e+01 7.710211638149122564e+02
4.500000000000000111e-01 7.493610270680646579e+01 7.710211638149129385e+02
4.666666666666666741e-01 6.208574997655791350e+01 7.710211638149129385e+02
4.833333333333333370e-01 4.923539724630936831e+01 6.954308823553501497e+02
5.000000000000000000e-01 3.890472056471291040e+01 5.587949171687706666e+02
5.166666666666666075e-01 3.060890000735034633e+01 4.523300641951067860e+02
5.333333333333333259e-01 2.382705175820935040e+01 3.659776678766319264e+02
5.500000000000000444e-01 1.840964441146261521e+01 2.930466823631780926e+02
5.666666666666666519e-01 1.405882901277008123e+01 2.372349528863351793e+02
5.833333333333333703e-01 1.050181264858477626e+01 1.954240987637039950e+02
5.999999999999999778e-01 7.544692387313281401e+00 1.624103420618879738e+02
6.166666666666666963e-01 5.088134579855177364e+00 1.342817809172236139e+02
6.333333333333333037e-01 3.068633023405827664e+00 1.108984866820486985e+02
6.500000000000000222e-01 1.391518357120220761e+00 9.218958469810368683e+01
6.666666666666666297e-01 -4.353133197628433065e-03 7.676701190069908876e+01
6.833333333333333481e-01 -1.167382039569748953e+00 6.403664687728837634e+01
6.999999999999999556e-01 -2.138908029107240871e+00 5.315730303608478380e+01
7.166666666666666741e-01 -2.939292140772574946e+00 4.327197139504009726e+01
7.333333333333332815e-01 -3.581307075608577417e+00 3.385490582840744622e+01
7.500000000000000000e-01 -4.067789001719489761e+00 2.485822393229330274e+01
7.666666666666666075e-01 -4.409914540018354145e+00 1.628185260614912266e+01
7.833333333333333259e-01 -4.610517421924460457e+00 7.854790107291620416e+00
8.000000000000000444e-01 -4.671740876928074826e+00 -6.722972515547098737e-03
8.166666666666666519e-01 -4.610293322840608887e+00 -6.671933722458449623e+00
8.333333333333333703e-01 -4.449343086179459839e+00 -1.176843595777532947e+01
8.499999999999999778e-01 -4.218012124248097905e+00 -1.497490066800715169e+01
8.666666666666666963e-01 -3.950179730579221449e+00 -1.609333081835676893e+01
8.833333333333333037e-01 -3.681567763636205637e+00 -1.523426573405045836e+01
9.000000000000000222e-01 -3.442370872777539503e+00 -1.332098249926947453e+01
9.166666666666666297e-01 -3.237535013660556515e+00 -1.130687557148452349e+01
9.333333333333333481e-01 -3.065475020394722083e+00 -9.711411031249973291e+00
9.499999999999999556e-01 -2.913821312618890769e+00 -8.949738360015203398e+00
9.666666666666666741e-01 -2.767150408394215333e+00 -8.916355009435866563e+00
9.833333333333332815e-01 -2.616609478971028580e+00 -9.329431801709567651e+00
1.000000000000000000e+00 -2.456169348337229774e+00 -9.910028968547628381e+00
1.016666666666666607e+00 -2.286275180019440967e+00 -1.036616362591746032e+01
1.033333333333333215e+00 -2.110630560806647793e+00 -1.054727699630276661e+01
1.050000000000000044e+00 -1.934699280142682110e+00 -1.063669475503433048e+01
1.066666666666666652e+00 -1.756074068972170110e+00 -1.092799971873996689e+01
1.083333333333333259e+00 -1.570432622851349880e+00 -1.143999015879247061e+01
1.100000000000000089e+00 -1.374741063679087771e+00 -1.206769306947088438e+01
1.116666666666666696e+00 -1.168176187202320415e+00 -1.245528074375551952e+01
1.133333333333333304e+00 -9.595650388872370984e-01 -1.198963471549751247e+01
1.149999999999999911e+00 -7.685216966857366661e-01 -1.049903542987662242e+01
1.166666666666666741e+00 -6.095971912246830327e-01 -8.404892528164571885e+00
1.183333333333333348e+00 -4.883586124135842477e-01 -6.268985651910129242e+00
1.199999999999999956e+00 -4.006310028276787172e-01 -4.582803924860485267e+00
1.216666666666666563e+00 -3.355984815849014091e-01 -3.457390757897469857e+00
1.233333333333333393e+00 -2.853846442310963849e-01 -2.723938305306783825e+00
1.250000000000000000e+00 -2.448005380746752779e-01 -2.230335655251114435e+00
1.266666666666666607e+00 -2.110401223893925704e-01 -1.975784840334490422e+00
1.283333333333333215e+00 -1.789410433968589287e-01 -1.805440184714643737e+00
1.300000000000000044e+00 -1.508587828989044477e-01 -1.484660542529065541e+00
1.316666666666666652e+00 -1.294523586458900810e-01 -9.798403868460597854e-01
1.333333333333333259e+00 -1.181974366707024549e-01 -5.037928051730364842e-01
1.350000000000000089e+00 -1.126592651401222001e-01 -1.282160038963869875e-01
1.366666666666666696e+00 -1.139235698741562219e-01 1.908708917084665779e-01
1.383333333333333304e+00 -1.190216281970710860e-01 3.503828263736147308e-01
1.399999999999999911e+00 -1.256029974199433796e-01 2.122351720001981745e-01
1.416666666666666741e+00 -1.260961339304110251e-01 -9.281678214243249680e-02
1.433333333333333348e+00 -1.225091046818622964e-01 -3.429553260500986522e-01
1.449999999999999956e+00 -1.146642897287410701e-01 -5.166173973146138687e-01
1.466666666666666563e+00 -1.052885247713751665e-01 -6.277395571089348092e-01
1.483333333333333393e+00 -9.373963782510991161e-02 -5.906000558655652988e-01
1.500000000000000000e+00 -8.560185624252299175e-02 -3.621667561924071799e-01
1.516666666666666607e+00 -8.166741261869633894e-02 -1.113429546036595608e-01
1.533333333333333215e+00 -8.189042442240100639e-02 1.412766446058186243e-02
1.550000000000000044e+00 -8.213833476738240102e-02 -1.997277908952960201e-02
1.566666666666666652e+00 -8.122466511941668632e-02 -1.526179917882818093e-01
1.583333333333333259e+00 -7.705106837443967405e-02 -3.079914239588438241e-01
1.600000000000000089e+00 -7.095828432078855885e-02 -4.272062929917132545e-01
1.616666666666666696e+00 -6.281085860804923315e-02 -4.956129044639093206e-01
1.633333333333333304e+00 -5.443785417199158150e-02 -4.977152732802239132e-01
1.649999999999999911e+00 -4.622034949870843651e-02 -4.325935956040656838e-01
1.666666666666666741e+00 -4.001806765185605963e-02 -3.446625700740055254e-01
1.683333333333333348e+00 -3.473159716290825233e-02 -3.117692374780082210e-01
1.699999999999999956e+00 -2.962575973592245296e-02 -3.371000245789705918e-01
1.716666666666666563e+00 -2.349492967694256570e-02 -3.724760909792577124e-01
1.733333333333333393e+00 -1.720989003661386324e-02 -3.837527936421037400e-01
1.750000000000000000e+00 -1.070316988887244115e-02 -3.803238968769761530e-01
1.766666666666666607e+00 -4.532426807381325848e-03 -3.655394379335800692e-01
1.783333333333333215e+00 1.481478042246895483e-03 -3.192112553717483814e-01
1.800000000000000044e+00 6.107948371676952433e-03 -2.310353051207377773e-01
1.816666666666666652e+00 9.182654879604821435e-03 -1.286621870570339721e-01
1.833333333333333259e+00 1.039668794024475179e-02 -3.275209182943845249e-02
1.849999999999999867e+00 1.027439127391943652e-02 4.424574677315019217e-02
1.866666666666666696e+00 8.921829714473078835e-03 9.336908667556872987e-02
1.883333333333333304e+00 7.162088384733812131e-03 1.063217019241161770e-01
1.899999999999999911e+00 5.377772983669206266e-03 9.466770095704292454e-02
1.916666666666666741e+00 4.006498352832381198e-03 6.297408728085004959e-02
1.933333333333333348e+00 3.278636740974204440e-03 5.646943220514841211e-02
1.949999999999999956e+00 2.124183945994100736e-03 8.674204255126499730e-02
1.966666666666666563e+00 3.872353225987041399e-04 6.242443394781634763e-02
1.983333333333333393e+00 4.336948106688905352e-05 1.161705967796112376e-02
2.000000000000000000e+00 0.000000000000000000e+00 2.602168864013343266e-03
