0.000000000000000000e+00 2.854932514630801847e+02 4.458823403913606853e+02
1.666666666666666644e-02 2.780618791232241733e+02 4.458823403913589800e+02
3.333333333333333287e-02 2.706305067833682187e+02 4.458823403913572747e+02
5.000000000000000278e-02 2.631991344435122642e+02 4.458823403913572747e+02
6.666666666666666574e-02 2.557677621036563096e+02 4.458823403913581274e+02
8.333333333333332871e-02 2.483363897638003266e+02 4.458823403913581274e+02
1.000000000000000056e-01 2.409050174239443720e+02 4.458823403913589800e+02
1.166666666666666685e-01 2.334736450840883606e+02 4.458823403913589800e+02
1.333333333333333315e-01 2.260422727442324060e+02 4.458823403913589800e+02
1.499999999999999944e-01 2.186109004043763946e+02 4.458823403913581274e+02
1.666666666666666574e-01 2.111795280645204684e+02 4.458823403913581274e+02
1.833333333333333204e-01 2.037481557246644570e+02 4.458823403913598327e+02
2.000000000000000111e-01 1.963167833848084740e+02 4.458823403913589800e+02
2.166666666666666741e-01 1.888854110449524910e+02 4.458823403913581274e+02
2.333333333333333370e-01 1.814540387050965364e+02 4.458823403913581274e+02
2.500000000000000000e-01 1.740226663652405534e+02 4.458823403913589800e+02
2.666666666666666630e-01 1.665912940253845704e+02 4.458823403913589800e+02
2.833333333333333259e-01 1.591599216855285874e+02 4.458823403913589800e+02
2.999999999999999889e-01 1.517285493456726044e+02 4.458823403913581274e+02
3.166666666666666519e-01 1.442971770058166499e+02 4.458823403913581274e+02
3.333333333333333148e-01 1.368658046659606669e+02 4.458823403913589800e+02
3.499999999999999778e-01 1.294344323261046839e+02 4.458823403913581274e+02
3.666666666666666408e-01 1.220030599862487293e+02 4.458823403913581274e+02
3.833333333333333037e-01 1.145716876463927463e+02 4.458823403913598327e+02
4.000000000000000222e-01 1.071403153065367349e+02 4.458823403913598327e+02
4.166666666666666852e-01 9.970894296668075185e+01 4.458823403913581274e+02
4.333333333333333481e-01 9.227757062682479727e+01 4.458823403913581274e+02
4.500000000000000111e-01 8.484619828696881427e+01 4.458823403913589800e+02
4.666666666666666741e-01 7.741482594711283127e+01 4.458823403913585821e+02
4.833333333333333370e-01 6.998345360725686248e+01 4.458823403913583547e+02
5.000000000000000000e-01 6.255208126740088659e+01 4.458823403913577295e+02
5.166666666666666075e-01 5.512070892754493912e+01 4.458823403913585821e+02
5.333333333333333259e-01 4.768933658768893480e+01 4.458823403913602874e+02
5.500000000000000444e-01 4.025796424783293048e+01 4.458823403913585821e+02
5.666666666666666519e-01 3.282659190797698301e+01 4.458823403913584684e+02
5.833333333333333703e-01 2.539521956812098225e+01 3.912909337083535775e+02
5.999999999999999778e-01 1.978356078436519638e+01 3.028277463261526918e+02
6.166666666666666963e-01 1.530096135724922668e+01 2.436679525706520906e+02
6.333333333333333037e-01 1.166129569867679372e+01 1.987365857378385670e+02
6.500000000000000222e-01 8.676408499321274448e+00 1.636856629720714977e+02
6.666666666666666297e-01 6.205106932941077069e+00 1.361300723718073868e+02
6.833333333333333481e-01 4.138739420261027924e+00 1.142406526915618343e+02
6.999999999999999556e-01 2.397085176555682651e+00 9.635422441577999564e+01
7.166666666666666741e-01 9.269319397350280765e-01 8.103822117928775981e+01
7.333333333333332815e-01 -3.041888627539092171e-01 6.735084478795798191e+01
7.500000000000000000e-01 -1.318096219863571061e+00 5.491005329514122479e+01
7.666666666666666075e-01 -2.134523972591949814e+00 4.364463633383441277e+01
7.833333333333333259e-01 -2.772917430991384879e+00 3.358618675125885034e+01
8.000000000000000444e-01 -3.254063530967244766e+00 2.479996725824938153e+01
8.166666666666666519e-01 -3.599583006266364293e+00 1.734889767958678064e+01
8.333333333333333703e-01 -3.832360120286804062e+00 1.124905198877000245e+01
8.499999999999999778e-01 -3.974551405892031042e+00 6.438556914947515253e+00
8.666666666666666963e-01 -4.046978684118387903e+00 2.733840044020290350e+00
8.833333333333333037e-01 -4.065679407359374053e+00 -1.443999613970259333e-01
9.000000000000000222e-01 -4.042165352071820372e+00 -2.455444934832233805e+00
9.166666666666666297e-01 -3.983831242864966260e+00 -4.350242661569452274e+00
9.333333333333333481e-01 -3.897157263352838630e+00 -5.910521505532080333e+00
9.499999999999999556e-01 -3.786813859347230249e+00 -7.199724374523244208e+00
9.666666666666666741e-01 -3.657166450868730490e+00 -8.251230404598963730e+00
9.833333333333332815e-01 -3.511772845860598125e+00 -9.055958056097971109e+00
1.000000000000000000e+00 -3.355301182332131482e+00 -9.579291938943464757e+00
1.016666666666666607e+00 -3.192463114562482662e+00 -9.811167557743845080e+00
1.033333333333333215e+00 -3.028262263740669979e+00 -9.797851577003081402e+00
1.050000000000000044e+00 -2.865868061995713312e+00 -9.617350142111066091e+00
1.066666666666666652e+00 -2.707683925670301139e+00 -9.352485916667513166e+00
1.083333333333333259e+00 -2.554118531440129569e+00 -9.083288280982038998e+00
1.100000000000000089e+00 -2.404907649637566536e+00 -8.885270633990751676e+00
1.116666666666666696e+00 -2.257942843640437847e+00 -8.805365052574805063e+00
1.133333333333333304e+00 -2.111395481218406367e+00 -8.810734967863998790e+00
1.149999999999999911e+00 -1.964251678044971250e+00 -8.798840251318367223e+00
1.166666666666666741e+00 -1.818100806174460793e+00 -8.673280281227791377e+00
1.183333333333333348e+00 -1.675142335337378219e+00 -8.381822322846739226e+00
1.199999999999999956e+00 -1.538706728746236152e+00 -7.900149629579996002e+00
1.216666666666666563e+00 -1.411804014351378367e+00 -7.233130031271953087e+00
1.233333333333333393e+00 -1.297602394370504397e+00 -6.438302398121606984e+00
1.250000000000000000e+00 -1.197193934413991467e+00 -5.623693275262438007e+00
1.266666666666666607e+00 -1.110145951861756464e+00 -4.906160990914472109e+00
1.283333333333333215e+00 -1.033655234716842397e+00 -4.355700949315304271e+00
1.300000000000000044e+00 -9.649559202179129880e-01 -3.949499400541378602e+00
1.316666666666666652e+00 -9.020052546987964437e-01 -3.636782347354582612e+00
1.333333333333333259e+00 -8.437298419727602417e-01 -3.383819804947441057e+00
1.350000000000000089e+00 -7.892112612005484085e-01 -3.171178884602847692e+00
1.366666666666666696e+00 -7.380238791526653186e-01 -2.974531102078707967e+00
1.383333333333333304e+00 -6.900602244645914762e-01 -2.766700431569912855e+00
1.399999999999999911e+00 -6.458005314336682234e-01 -2.526520326070724742e+00
1.416666666666666741e+00 -6.058428802622339848e-01 -2.256505089762166349e+00
1.433333333333333348e+00 -5.705836951082626785e-01 -1.981810254606807264e+00
1.449999999999999956e+00 -5.397825384420070760e-01 -1.745235346989054692e+00
1.466666666666666563e+00 -5.124091835419608554e-01 -1.574523811511022720e+00
1.483333333333333393e+00 -4.872984113916396520e-01 -1.474121653454507630e+00
1.500000000000000000e+00 -4.632717950934772677e-01 -1.434347122610037939e+00
1.516666666666666607e+00 -4.394868406379717207e-01 -1.438997226265827489e+00
1.533333333333333215e+00 -4.153052208846163551e-01 -1.462498914671423567e+00
1.550000000000000044e+00 -3.907368768155909389e-01 -1.477182335630271570e+00
1.566666666666666652e+00 -3.660658096969406361e-01 -1.465679465142157412e+00
1.583333333333333259e+00 -3.418808946441856955e-01 -1.419753362576249289e+00
1.600000000000000089e+00 -3.187406976110656598e-01 -1.340374708803676151e+00
1.616666666666666696e+00 -2.972017376840631608e-01 -1.242324099845902419e+00
1.633333333333333304e+00 -2.773298942828689162e-01 -1.149425759917575007e+00
1.649999999999999911e+00 -2.588875456868106606e-01 -1.088974904559971479e+00
1.666666666666666741e+00 -2.410307307975365354e-01 -1.078262945605438006e+00
1.683333333333333348e+00 -2.229454474999627289e-01 -1.107812938167334949e+00
1.699999999999999956e+00 -2.041036328586253723e-01 -1.144889549021252506e+00
1.716666666666666563e+00 -1.847824625325876491e-01 -1.151761989155759558e+00
1.733333333333333393e+00 -1.657115665534333870e-01 -1.110325049563559707e+00
1.750000000000000000e+00 -1.477716275471356588e-01 -1.025946012705344579e+00
1.766666666666666607e+00 -1.315133661299218992e-01 -9.166247258123609853e-01
1.783333333333333215e+00 -1.172174700200569603e-01 -8.044932343735914371e-01
1.800000000000000044e+00 -1.046969249841355198e-01 -7.118673096036018944e-01
1.816666666666666652e+00 -9.348855969993689896e-02 -6.503837817566106017e-01
1.833333333333333259e+00 -8.301746559224849886e-02 -6.161751678524856057e-01
1.849999999999999867e+00 -7.294938743818737970e-02 -5.949502170752239971e-01
1.866666666666666696e+00 -6.318579168974103322e-02 -5.740478006108762354e-01
1.883333333333333304e+00 -5.381446075115817185e-02 -5.487387918067219150e-01
1.899999999999999911e+00 -4.489449862951697123e-02 -5.227690015613182251e-01
1.916666666666666741e+00 -3.638882736578089722e-02 -4.996364479780700529e-01
1.933333333333333348e+00 -2.823995036358130373e-02 -9.469146829906670559e-01
1.949999999999999956e+00 -4.825004599425326141e-03 -8.319319609722932718e-01
1.966666666666666563e+00 -5.088849978381939374e-04 -1.433888981838322141e-01
1.983333333333333393e+00 -4.537465996425243985e-05 -1.526654993514581747e-02
2.000000000000000000e+00 0.000000000000000000e+00 -2.722479597855146337e-03
