0.000000000000000000e+00 4.753834693089310167e+04 4.426476201989734545e+05
1.666666666666666644e-02 4.016088659424354410e+04 4.084797657249500626e+05
3.333333333333333287e-02 3.392235474006143340e+04 3.454046867868580157e+05
5.000000000000000278e-02 2.864739703468160951e+04 2.920420465062690200e+05
6.666666666666666574e-02 2.418761985651913346e+04 2.468984684460810677e+05
8.333333333333332871e-02 2.041744808647890750e+04 2.087100238085831515e+05
1.000000000000000056e-01 1.723061906289969556e+04 1.764069920727511344e+05
1.166666666666666685e-01 1.453721501738720326e+04 1.490840327136257838e+05
1.333333333333333315e-01 1.226115130577883610e+04 1.259749372081356414e+05
1.499999999999999944e-01 1.033805044378268212e+04 1.064312580817398120e+05
1.666666666666666574e-01 8.713442703054175581e+03 8.990421971831869450e+04
1.833333333333333204e-01 7.341243119838725761e+03 7.592940704822026601e+04
2.000000000000000111e-01 6.182462468113500108e+03 6.411380559087989968e+04
2.166666666666666741e-01 5.204116266809395711e+03 5.412483181308743224e+04
2.333333333333333370e-01 4.378301407677252428e+03 4.568104819507455250e+04
2.500000000000000000e-01 3.681414660306910719e+03 3.854430431762852822e+04
2.666666666666666630e-01 3.093491263756301578e+03 3.251308500085503692e+04
2.833333333333333259e-01 2.597645160278409548e+03 2.741688014493251103e+04
2.999999999999999889e-01 2.179595258925217877e+03 2.311141938137554098e+04
3.166666666666666519e-01 1.827264514232558213e+03 1.947463873235932988e+04
3.333333333333333148e-01 1.530440634513240184e+03 1.640326686631311895e+04
3.499999999999999778e-01 1.280488952022120884e+03 1.380993579806921844e+04
3.666666666666666408e-01 1.070109441244266236e+03 1.162073549196761269e+04
3.833333333333333037e-01 8.931311022898671581e+02 9.773144193305746739e+03
4.000000000000000222e-01 7.443379681340746856e+02 8.214276781762013343e+03
4.166666666666666852e-01 6.193218762311333876e+02 6.899402301418015668e+03
4.333333333333333481e-01 5.143578914201408452e+02 5.790689322517439905e+03
4.500000000000000111e-01 4.262988988138853870e+02 4.856144138997055052e+03
4.666666666666666741e-01 3.524864201202390177e+02 4.068712179915029992e+03
4.833333333333333370e-01 2.906751594833843910e+02 3.405517561844538250e+03
5.000000000000000000e-01 2.389691680587544056e+02 2.847219559782574834e+03
5.166666666666666075e-01 1.957678408239652299e+02 2.377468033380424458e+03
5.333333333333333259e-01 1.597202336127402589e+02 1.982442604104700195e+03
5.500000000000000444e-01 1.296864206871418901e+02 1.650462714125006642e+03
5.666666666666666519e-01 1.047048098085733727e+02 1.371657674333994237e+03
5.833333333333333703e-01 8.396449820934208219e+01 1.137687481993418487e+03
5.999999999999999778e-01 6.678189374212608698e+01 1.361111802442893577e+03
6.166666666666666963e-01 3.859410479457896059e+01 1.193319617241621472e+03
6.333333333333333037e-01 2.700457316740537195e+01 6.198799889203995690e+02
6.500000000000000222e-01 1.793143849723231043e+01 3.552673554639040958e+02
6.666666666666666297e-01 1.516232798527523506e+01 1.800543418512544918e+02
6.833333333333333481e-01 1.192962710219049427e+01 1.819440181319625367e+02
6.999999999999999556e-01 9.097527380876483605e+00 1.550276103109963799e+02
7.166666666666666741e-01 6.762040091823948273e+00 1.277019448915051072e+02
7.333333333333332815e-01 4.840795884492980150e+00 1.060377408766323413e+02
7.500000000000000000e-01 3.227448729269537075e+00 8.992158687271849260e+01
7.666666666666666075e-01 1.843409655402363567e+00 7.749476737503226786e+01
7.833333333333333259e-01 6.442898167684613098e-01 6.721632420170782041e+01
8.000000000000000444e-01 -3.971344846545637464e-01 5.778760228147592670e+01
8.166666666666666519e-01 -1.281963592614069558e+00 4.849714532566699887e+01
8.333333333333333703e-01 -2.013705995510130187e+00 3.957203790865974469e+01
8.499999999999999778e-01 -2.601031522902727655e+00 3.162064782896147008e+01
8.666666666666666963e-01 -3.067727589808845856e+00 2.508408498951873966e+01
8.833333333333333037e-01 -3.437167689220018918e+00 1.995366285637183879e+01
9.000000000000000222e-01 -3.732849685021240482e+00 1.604170746503271516e+01
9.166666666666666297e-01 -3.971891271387776090e+00 1.284570430459915258e+01
9.333333333333333481e-01 -4.161039828507878902e+00 9.773002331106624752e+00
9.499999999999999556e-01 -4.297658015757996885e+00 6.478383356349031175e+00
9.666666666666666741e-01 -4.376985940386179941e+00 2.777774428441395216e+00
9.833333333333332815e-01 -4.390250496706043393e+00 -1.172317936122047044e+00
1.000000000000000000e+00 -4.337908675848778373e+00 -4.847028730673326180e+00
1.016666666666666607e+00 -4.228682872350265853e+00 -7.487589796457054803e+00
1.033333333333333215e+00 -4.088322349300209879e+00 -8.841050660019558194e+00
1.050000000000000044e+00 -3.933981183682947247e+00 -9.485146175284251413e+00
1.066666666666666652e+00 -3.772150810124068165e+00 -9.846548096867714150e+00
1.083333333333333259e+00 -3.605762913787356805e+00 -9.886431699305534337e+00
1.100000000000000089e+00 -3.442603086813883717e+00 -9.577828791650327744e+00
1.116666666666666696e+00 -3.286501954065679243e+00 -9.270811710229809322e+00
1.133333333333333304e+00 -3.133576029806223406e+00 -9.190155044769570125e+00
1.149999999999999911e+00 -2.980163452573360239e+00 -8.890551529405632536e+00
1.166666666666666741e+00 -2.837224312159368989e+00 -8.268291644441445598e+00
1.183333333333333348e+00 -2.704553731091978719e+00 -7.754296598734211621e+00
1.199999999999999956e+00 -2.578747758868228601e+00 -7.526621731209179877e+00
1.216666666666666563e+00 -2.453666340051672723e+00 -7.115205712788599257e+00
1.233333333333333393e+00 -2.341574235108608626e+00 -6.288184956768487766e+00
1.250000000000000000e+00 -2.244060174826056464e+00 -5.576780121838074145e+00
1.266666666666666607e+00 -2.155681564380672821e+00 -5.240001941114584838e+00
1.283333333333333215e+00 -2.069393443455570303e+00 -5.356792261983427395e+00
1.300000000000000044e+00 -1.977121822314558575e+00 -5.931205443275485045e+00
1.316666666666666652e+00 -1.871686595346387483e+00 -6.561456860538523728e+00
1.333333333333333259e+00 -1.758406593629941117e+00 -6.881334498723248316e+00
1.350000000000000089e+00 -1.642308778722279206e+00 -6.872902471231168597e+00
1.366666666666666696e+00 -1.529309844588902179e+00 -6.632392679586502915e+00
1.383333333333333304e+00 -1.421229022736062442e+00 -6.052858482541094709e+00
1.399999999999999911e+00 -1.327547895170865688e+00 -5.250064699438635074e+00
1.416666666666666741e+00 -1.246226866088107954e+00 -4.612041695282798059e+00
1.433333333333333348e+00 -1.173813171994772420e+00 -4.193994801545311013e+00
1.449999999999999956e+00 -1.106427039369930920e+00 -3.931452490243514397e+00
1.466666666666666563e+00 -1.042764755653321940e+00 -3.849921109390380902e+00
1.483333333333333393e+00 -9.780963357235848976e-01 -3.904497816780364783e+00
1.500000000000000000e+00 -9.126148284273097877e-01 -3.839981627995449287e+00
1.516666666666666607e+00 -8.500969481237365954e-01 -3.451259042984472725e+00
1.533333333333333215e+00 -7.975728603278273710e-01 -2.837992780188465236e+00
1.550000000000000044e+00 -7.554971887841210876e-01 -2.192128661551451252e+00
1.566666666666666652e+00 -7.245019049427789959e-01 -1.742929052531011491e+00
1.583333333333333259e+00 -6.973995536997540379e-01 -1.694829565370290503e+00
1.600000000000000089e+00 -6.680075860971026458e-01 -2.035632109336169560e+00
1.616666666666666696e+00 -6.295451500552150526e-01 -2.609192167360563364e+00
1.633333333333333304e+00 -5.810345138517505337e-01 -3.247084302372801545e+00
1.649999999999999911e+00 -5.213090066427883418e-01 -3.741746286373374808e+00
1.666666666666666741e+00 -4.563096376393047104e-01 -3.836083530216537696e+00
1.683333333333333348e+00 -3.934395556355704260e-01 -3.450105934177771339e+00
1.699999999999999956e+00 -3.413061065000456695e-01 -2.802090486943752623e+00
1.716666666666666563e+00 -3.000365394041120126e-01 -2.140431902814235343e+00
1.733333333333333393e+00 -2.699583764062378211e-01 -1.532737185636681376e+00
1.750000000000000000e+00 -2.489452998828892982e-01 -1.067221231445042440e+00
1.766666666666666607e+00 -2.343843353580697397e-01 -8.353983502160953201e-01
1.783333333333333215e+00 -2.210986882090194561e-01 -8.185251282042138588e-01
1.800000000000000044e+00 -2.071001644179292778e-01 -8.628286492212647874e-01
1.816666666666666652e+00 -1.923377332349772983e-01 -8.642894040623253504e-01
1.833333333333333259e+00 -1.782905176158517679e-01 -8.334465103855179802e-01
1.849999999999999867e+00 -1.645561828887933675e-01 -8.149825888051559497e-01
1.866666666666666696e+00 -1.511244313223465696e-01 -7.989676714666915647e-01
1.883333333333333304e+00 -1.379239271732369820e-01 -7.762329808064875047e-01
1.899999999999999911e+00 -1.252499986287969880e-01 -7.791439948641503133e-01
1.916666666666666741e+00 -1.119524606777653059e-01 -8.651887935659540174e-01
1.933333333333333348e+00 -9.641037217659852165e-02 -2.603671276208990193e+00
1.949999999999999956e+00 -2.516341813746562558e-02 -2.782312954892725010e+00
1.966666666666666563e+00 -3.666607013507678595e-03 -7.435073018019849878e-01
1.983333333333333393e+00 -3.798414107327937076e-04 -1.099982104052303622e-01
2.000000000000000000e+00 0.000000000000000000e+00 -2.279048464396762202e-02
