0.000000000000000000e+00 2.825545283169358299e+02 4.177066430027025490e+02
1.666666666666666644e-02 2.755927509335574541e+02 4.177066430026991384e+02
3.333333333333333287e-02 2.686309735501791920e+02 4.177066430026974331e+02
5.000000000000000278e-02 2.616691961668008730e+02 4.177066430026982857e+02
6.666666666666666574e-02 2.547074187834225825e+02 4.177066430026982857e+02
8.333333333333332871e-02 2.477456414000442635e+02 4.177066430026982857e+02
1.000000000000000056e-01 2.407838640166659729e+02 4.177066430026982857e+02
1.166666666666666685e-01 2.338220866332876540e+02 4.177066430026982857e+02
1.333333333333333315e-01 2.268603092499093634e+02 4.177066430026982857e+02
1.499999999999999944e-01 2.198985318665310444e+02 4.177066430026982857e+02
1.666666666666666574e-01 2.129367544831527539e+02 4.177066430026991384e+02
1.833333333333333204e-01 2.059749770997744065e+02 4.177066430026991384e+02
2.000000000000000111e-01 1.990131997163961159e+02 4.177066430026982857e+02
2.166666666666666741e-01 1.920514223330177970e+02 4.177066430026982857e+02
2.333333333333333370e-01 1.850896449496395064e+02 4.177066430026982857e+02
2.500000000000000000e-01 1.781278675662611874e+02 4.177066430026982857e+02
2.666666666666666630e-01 1.711660901828828969e+02 4.177066430026982857e+02
2.833333333333333259e-01 1.642043127995045779e+02 4.177066430026991384e+02
2.999999999999999889e-01 1.572425354161262590e+02 4.177066430026982857e+02
3.166666666666666519e-01 1.502807580327479684e+02 4.177066430026974331e+02
3.333333333333333148e-01 1.433189806493696778e+02 4.177066430026982857e+02
3.499999999999999778e-01 1.363572032659913589e+02 4.177066430026991384e+02
3.666666666666666408e-01 1.293954258826130399e+02 4.177066430026982857e+02
3.833333333333333037e-01 1.224336484992347494e+02 4.177066430026987405e+02
4.000000000000000222e-01 1.154718711158564162e+02 4.177066430026991384e+02
4.166666666666666852e-01 1.085100937324781114e+02 4.177066430026982857e+02
4.333333333333333481e-01 1.015483163490998066e+02 4.177066430026982857e+02
4.500000000000000111e-01 9.458653896572150188e+01 4.177066430026987405e+02
4.666666666666666741e-01 8.762476158234318291e+01 4.177066430026982857e+02
4.833333333333333370e-01 8.066298419896489236e+01 4.177066430026982857e+02
5.000000000000000000e-01 7.370120681558657338e+01 4.177066430026978878e+02
5.166666666666666075e-01 6.673942943220829704e+01 4.177066430026982857e+02
5.333333333333333259e-01 5.977765204882996386e+01 4.177066430026995931e+02
5.500000000000000444e-01 5.281587466545164489e+01 4.177066430026982857e+02
5.666666666666666519e-01 4.585409728207335434e+01 4.177066430026985131e+02
5.833333333333333703e-01 3.889231989869502826e+01 4.177066430026982857e+02
5.999999999999999778e-01 3.193054251531674481e+01 4.177066430026983994e+02
6.166666666666666963e-01 2.496876513193841518e+01 3.715978738645401904e+02
6.333333333333333037e-01 1.954394671983207132e+01 2.958413750022040176e+02
6.500000000000000222e-01 1.510738596519828114e+01 2.434647805516708559e+02
6.666666666666666297e-01 1.142845403477637589e+01 2.021513497109820321e+02
6.833333333333333481e-01 8.369007641498880545e+00 1.681167690004747044e+02
6.999999999999999556e-01 5.824561734760552056e+00 1.396124903775272230e+02
7.166666666666666741e-01 3.715257962247973555e+00 1.154609952405909752e+02
7.333333333333332815e-01 1.975861893407519387e+00 9.482817155469180648e+01
7.500000000000000000e-01 5.543189104249136578e-01 7.709674469313938516e+01
7.666666666666666075e-01 -5.940295963637937104e-01 6.187223662508259991e+01
7.833333333333333259e-01 -1.508088977077839843e+00 4.890364365476194308e+01
8.000000000000000444e-01 -2.224151051522525346e+00 3.797898482847792678e+01
8.166666666666666519e-01 -2.774055138027104128e+00 2.883761112594748965e+01
8.333333333333333703e-01 -3.185404755720774972e+00 2.120619921513617001e+01
8.499999999999999778e-01 -3.480928445198309795e+00 1.481055146766411568e+01
8.666666666666666963e-01 -3.679089804642912132e+00 9.388813100490782659e+00
8.833333333333333037e-01 -3.793888881881335884e+00 4.713304538354781137e+00
9.000000000000000222e-01 -3.836199955921404836e+00 6.489857486750683080e-01
9.166666666666666297e-01 -3.815521740170504827e+00 -2.850028712651062612e+00
9.333333333333333481e-01 -3.741198998833036082e+00 -5.776172901799561110e+00
9.499999999999999556e-01 -3.622982643443852790e+00 -8.117566550355954647e+00
9.666666666666666741e-01 -3.470613447154504261e+00 -9.906550467625230283e+00
9.833333333333332815e-01 -3.292764294523011781e+00 -1.121259067937052656e+01
1.000000000000000000e+00 -3.096860424508820042e+00 -1.206299036408996805e+01
1.016666666666666607e+00 -2.890664615720012875e+00 -1.245113277871821467e+01
1.033333333333333215e+00 -2.681822665218212887e+00 -1.242440504889754749e+01
1.050000000000000044e+00 -2.476517780756761322e+00 -1.211141738654685085e+01
1.066666666666666652e+00 -2.278108752333317888e+00 -1.161886638734691779e+01
1.083333333333333259e+00 -2.089222234511864063e+00 -1.098456144126760670e+01
1.100000000000000089e+00 -1.911956704291064346e+00 -1.026952312604271889e+01
1.116666666666666696e+00 -1.746904796977106766e+00 -9.587219945987300207e+00
1.133333333333333304e+00 -1.592382706091487687e+00 -9.017939779806381395e+00
1.149999999999999911e+00 -1.446306804316894068e+00 -8.562976747652902176e+00
1.166666666666666741e+00 -1.306950147836390963e+00 -8.156371268831598798e+00
1.183333333333333348e+00 -1.174427762022507427e+00 -7.725330019159741823e+00
1.199999999999999956e+00 -1.049439147197732902e+00 -7.255512667460201293e+00
1.216666666666666563e+00 -9.325773397738340575e-01 -6.765166422479728325e+00
1.233333333333333393e+00 -8.239335997817419655e-01 -6.249057566159177846e+00
1.250000000000000000e+00 -7.242754209018614775e-01 -5.697033999776699886e+00
1.266666666666666607e+00 -6.340324664558519840e-01 -5.124147070331981801e+00
1.283333333333333215e+00 -5.534705185574620989e-01 -4.528013157436372893e+00
1.300000000000000044e+00 -4.830986945413062172e-01 -3.884087318209376694e+00
1.316666666666666652e+00 -4.240009412838162128e-01 -3.193439237255342178e+00
1.333333333333333259e+00 -3.766507199661281446e-01 -2.519219723704380076e+00
1.350000000000000089e+00 -3.400269504936702103e-01 -1.939750990145528542e+00
1.366666666666666696e+00 -3.119923536279438636e-01 -1.496935771300214713e+00
1.383333333333333304e+00 -2.901290914503297236e-01 -1.176224119612440777e+00
1.399999999999999911e+00 -2.727848829741958414e-01 -9.377649904308948958e-01
1.416666666666666741e+00 -2.588702584359665604e-01 -7.445998093328340950e-01
1.433333333333333348e+00 -2.479648893297680401e-01 -5.844389873679748382e-01
1.449999999999999956e+00 -2.393889588570340676e-01 -4.655529936443805750e-01
1.466666666666666563e+00 -2.324464562082886876e-01 -3.951057382146805352e-01
1.483333333333333393e+00 -2.262187675832113831e-01 -3.725437126293784651e-01
1.500000000000000000e+00 -2.200283324539760721e-01 -3.893936643403719811e-01
1.516666666666666607e+00 -2.132389787718656504e-01 -4.210998783578762117e-01
1.533333333333333215e+00 -2.059916698420468650e-01 -4.434140673984374170e-01
1.550000000000000044e+00 -1.984585098585844032e-01 -4.524172968553516472e-01
1.566666666666666652e+00 -1.909110932802018101e-01 -4.572272236199584339e-01
1.583333333333333259e+00 -1.832176024045857887e-01 -4.709735753077853859e-01
1.600000000000000089e+00 -1.752119741032756306e-01 -5.016600425915765937e-01
1.616666666666666696e+00 -1.664956009848665708e-01 -5.509046528205716609e-01
1.633333333333333304e+00 -1.568484856759232438e-01 -6.093460501211461766e-01
1.649999999999999911e+00 -1.461840659808283649e-01 -6.632114885090389933e-01
1.666666666666666741e+00 -1.347414360589552773e-01 -7.073629921974464718e-01
1.683333333333333348e+00 -1.226052995742468177e-01 -7.413794722434638995e-01
1.699999999999999956e+00 -1.100287869841731492e-01 -7.560930146373019411e-01
1.716666666666666563e+00 -9.740219908633675205e-02 -7.401316872048170348e-01
1.733333333333333393e+00 -8.535773074401258043e-02 -6.917450458391097845e-01
1.750000000000000000e+00 -7.434403089169976109e-02 -6.212768407442957885e-01
1.766666666666666607e+00 -6.464850271920272173e-02 -5.454618153671806358e-01
1.783333333333333215e+00 -5.616197037946040610e-02 -4.806704769213769879e-01
1.800000000000000044e+00 -4.862615348849015640e-02 -4.302861972704267179e-01
1.816666666666666652e+00 -4.181909713711284837e-02 -3.869838735711417232e-01
1.833333333333333259e+00 -3.572669103611876562e-02 -3.457170195166708870e-01
1.849999999999999867e+00 -3.029519648655715214e-02 -3.061421134111872444e-01
1.866666666666666696e+00 -2.552195392241252483e-02 -2.683060061954102293e-01
1.883333333333333304e+00 -2.135166294671014472e-02 -2.353481729601987205e-01
1.899999999999999911e+00 -1.767701482373923438e-02 -2.120196986064778466e-01
1.916666666666666741e+00 -1.428433965982755030e-02 -1.992830257848099418e-01
1.933333333333333348e+00 -1.103424729757890299e-02 -4.114827264307754362e-01
1.949999999999999956e+00 -5.682487788017018780e-04 -3.330111640313088706e-01
1.966666666666666563e+00 6.612483679805781329e-05 -1.723985667071626510e-02
1.983333333333333393e+00 6.413110222173635483e-06 1.983745103941734426e-03
2.000000000000000000e+00 0.000000000000000000e+00 3.847866133304181087e-04
