0.000000000000000000e+00 1.394644765224752803e+02 2.365478993782892303e+02
1.666666666666666644e-02 1.355220115328371264e+02 2.365478993782883776e+02
3.333333333333333287e-02 1.315795465431990010e+02 2.365478993782888040e+02
5.000000000000000278e-02 1.276370815535608330e+02 2.365478993782892303e+02
6.666666666666666574e-02 1.236946165639226933e+02 2.365478993782888040e+02
8.333333333333332871e-02 1.197521515742845395e+02 2.365478993782892303e+02
1.000000000000000056e-01 1.158096865846463857e+02 2.365478993782892303e+02
1.166666666666666685e-01 1.118672215950082318e+02 2.365478993782888040e+02
1.333333333333333315e-01 1.079247566053700922e+02 2.365478993782892303e+02
1.499999999999999944e-01 1.039822916157319241e+02 2.365478993782892303e+02
1.666666666666666574e-01 1.000398266260937845e+02 2.365478993782888040e+02
1.833333333333333204e-01 9.609736163645563067e+01 2.365478993782892303e+02
2.000000000000000111e-01 9.215489664681747684e+01 2.365478993782892303e+02
2.166666666666666741e-01 8.821243165717932300e+01 2.365478993782888040e+02
2.333333333333333370e-01 8.426996666754118337e+01 2.365478993782888040e+02
2.500000000000000000e-01 8.032750167790302953e+01 2.365478993782892303e+02
2.666666666666666630e-01 7.638503668826487569e+01 2.365478993782888040e+02
2.833333333333333259e-01 7.244257169862673607e+01 2.365478993782888040e+02
2.999999999999999889e-01 6.850010670898858223e+01 2.365478993782892303e+02
3.166666666666666519e-01 6.455764171935042839e+01 2.365478993782888040e+02
3.333333333333333148e-01 6.061517672971228876e+01 2.365478993782888040e+02
3.499999999999999778e-01 5.667271174007413492e+01 2.365478993782890313e+02
3.666666666666666408e-01 5.273024675043598819e+01 2.365478993782888040e+02
3.833333333333333037e-01 4.878778176079784146e+01 2.365478993782894577e+02
4.000000000000000222e-01 4.484531677115967341e+01 2.365478993782894577e+02
4.166666666666666852e-01 4.090285178152152668e+01 2.365478993782890313e+02
4.333333333333333481e-01 3.696038679188337284e+01 2.365478993782890313e+02
4.500000000000000111e-01 3.301792180224522610e+01 2.365478993782889177e+02
4.666666666666666741e-01 2.907545681260707582e+01 2.365478993782890313e+02
4.833333333333333370e-01 2.513299182296892553e+01 2.365478993782890313e+02
5.000000000000000000e-01 2.119052683333077525e+01 2.365478993782886050e+02
5.166666666666666075e-01 1.724806184369263917e+01 2.365478993782889745e+02
5.333333333333333259e-01 1.330559685405447645e+01 2.365478993782897703e+02
5.500000000000000444e-01 9.363131864416313732e+00 1.995328310516442230e+02
5.666666666666666519e-01 6.654502485666335510e+00 1.432713848064327635e+02
5.833333333333333703e-01 4.587419037535221733e+00 1.110824279719158767e+02
5.999999999999999778e-01 2.951754886602472983e+00 8.845612618229307600e+01
6.166666666666666963e-01 1.638881498125452696e+00 7.101013709191956025e+01
6.333333333333333037e-01 5.847503168718207744e-01 5.677872239786833575e+01
6.500000000000000222e-01 -2.537425818034916292e-01 4.478432146903141842e+01
6.666666666666666297e-01 -9.080603987625599505e-01 3.450274646037360071e+01
6.833333333333333481e-01 -1.403834130482611631e+00 2.558096215764232539e+01
6.999999999999999556e-01 -1.760759137350637493e+00 1.776426815624324007e+01
7.166666666666666741e-01 -1.995976402357386270e+00 1.094391962979011268e+01
7.333333333333332815e-01 -2.125556458343641264e+00 5.117684291126232132e+00
7.500000000000000000e-01 -2.166565878728260675e+00 3.245340384637884767e-01
7.666666666666666075e-01 -2.136374259625767547e+00 -3.379438429162622270e+00
7.833333333333333259e-01 -2.053917931089506599e+00 -5.958663563579760236e+00
8.000000000000000444e-01 -1.937752140839775539e+00 -7.474152028926757119e+00
8.166666666666666519e-01 -1.804779530125281362e+00 -8.146760773080568896e+00
8.333333333333333703e-01 -1.666193448403756605e+00 -8.295077027714047091e+00
8.499999999999999778e-01 -1.528276962534813155e+00 -8.189485715904474716e+00
8.666666666666666963e-01 -1.393210591206940796e+00 -7.992974411913289501e+00
8.833333333333333037e-01 -1.261844482137703505e+00 -7.730779146602458241e+00
9.000000000000000222e-01 -1.135517952986858869e+00 -7.309248234353673546e+00
9.166666666666666297e-01 -1.018202874325914387e+00 -6.641129427337548741e+00
9.333333333333333481e-01 -9.141469720756072448e-01 -5.700382880066756641e+00
9.499999999999999556e-01 -8.281901116570224985e-01 -4.511725204724697846e+00
9.666666666666666741e-01 -7.637561319181173092e-01 -3.225326842454778742e+00
9.833333333333332815e-01 -7.206792169085298738e-01 -2.073522162766560317e+00
1.000000000000000000e+00 -6.946387264925653060e-01 -1.182890483814902360e+00
1.016666666666666607e+00 -6.812495341146997951e-01 -5.480063318531847028e-01
1.033333333333333215e+00 -6.763718487641258159e-01 -1.449353128394892387e-01
1.050000000000000044e+00 -6.764183570200501538e-01 6.596154943570020635e-02
1.066666666666666652e+00 -6.785705670786491561e-01 1.501062898790217481e-01
1.083333333333333259e+00 -6.814219000160175455e-01 1.659573097970623579e-01
1.100000000000000089e+00 -6.841024774052179014e-01 1.492943731376661365e-01
1.116666666666666696e+00 -6.863983791206064167e-01 1.073882926435831831e-01
1.133333333333333304e+00 -6.876820871600040075e-01 2.028911926442389380e-02
1.149999999999999911e+00 -6.870746830960872131e-01 -1.240658684252771149e-01
1.166666666666666741e+00 -6.835465582124947703e-01 -3.137386466595726286e-01
1.183333333333333348e+00 -6.766167282074347922e-01 -5.269150520242182889e-01
1.199999999999999956e+00 -6.659827231450208274e-01 -7.563498807306778815e-01
1.216666666666666563e+00 -6.514050655164121961e-01 -9.972643292424776540e-01
1.233333333333333393e+00 -6.327405788369382389e-01 -1.231793166889828539e+00
1.250000000000000000e+00 -6.103452932867512448e-01 -1.452533871629601014e+00
1.266666666666666607e+00 -5.843227831159515384e-01 -1.680814291260518401e+00
1.283333333333333215e+00 -5.543181502447339648e-01 -1.930569084691025061e+00
1.300000000000000044e+00 -5.199704802929173697e-01 -2.177353137104760084e+00
1.316666666666666652e+00 -4.817397123412419657e-01 -2.378149403363560399e+00
1.333333333333333259e+00 -4.406988335141320268e-01 -2.495023088839865011e+00
1.350000000000000089e+00 -3.985722760465797987e-01 -2.500452187208886290e+00
1.366666666666666696e+00 -3.573504272738358134e-01 -2.386823653176509907e+00
1.383333333333333304e+00 -3.190114876073628092e-01 -2.181030760249450751e+00
1.399999999999999911e+00 -2.846494019321874624e-01 -1.941649260614141115e+00
1.416666666666666741e+00 -2.542898455868914387e-01 -1.736250586548631736e+00
1.433333333333333348e+00 -2.267743823805664083e-01 -1.606459872721466287e+00
1.449999999999999956e+00 -2.007411831628425625e-01 -1.547434781788113556e+00
1.466666666666666563e+00 -1.751932229876292935e-01 -1.516875762209818124e+00
1.483333333333333393e+00 -1.501786577558486269e-01 -1.464848487575699298e+00
1.500000000000000000e+00 -1.263649400684393187e-01 -1.360519082127023882e+00
1.516666666666666607e+00 -1.048280216849478280e-01 -1.199161110334028724e+00
1.533333333333333215e+00 -8.639290305730502884e-02 -9.990204500978483448e-01
1.550000000000000044e+00 -7.152734001501954986e-02 -7.918920656317013362e-01
1.566666666666666652e+00 -5.999650086958165096e-02 -6.148764690236210306e-01
1.583333333333333259e+00 -5.103145771423218263e-02 -4.911691969016695469e-01
1.600000000000000089e+00 -4.362419430619266653e-02 -4.201399198467024032e-01
1.616666666666666696e+00 -3.702679371934210206e-02 -3.835440340659952985e-01
1.633333333333333304e+00 -3.083939317065948968e-02 -3.555272349382058161e-01
1.649999999999999911e+00 -2.517588588806857555e-02 -3.037074989051545826e-01
1.666666666666666741e+00 -2.071580987382100336e-02 -2.118443540417580540e-01
1.683333333333333348e+00 -1.811440742000997375e-02 -9.264209754251334639e-02
1.699999999999999956e+00 -1.762773995573722538e-02 2.460054503248813862e-02
1.716666666666666563e+00 -1.893442558775957837e-02 1.088554791217540424e-01
1.733333333333333393e+00 -2.125625592646235990e-02 1.397657246023885358e-01
1.750000000000000000e+00 -2.359328307450586290e-02 1.171695975212026786e-01
1.766666666666666607e+00 -2.516190917716911585e-02 5.922686356980708805e-02
1.783333333333333215e+00 -2.556751186016609917e-02 -9.589668515599114595e-03
1.800000000000000044e+00 -2.484225355998247869e-02 -6.845521714878448349e-02
1.816666666666666652e+00 -2.328567128853994972e-02 -1.047299856386986194e-01
1.833333333333333259e+00 -2.135125403869252494e-02 -1.148478639409123564e-01
1.849999999999999867e+00 -1.945740915717620451e-02 -1.067441758996825751e-01
1.866666666666666696e+00 -1.779311484203643934e-02 -9.536175921179998460e-02
1.883333333333333304e+00 -1.627868385011620525e-02 -9.405320150164146742e-02
1.899999999999999911e+00 -1.465800812531505709e-02 -1.069086762070527580e-01
1.916666666666666741e+00 -1.271506130988111355e-02 -1.281738664722547605e-01
1.933333333333333348e+00 -1.038554590957323220e-02 -3.297689993829933663e-01
1.949999999999999956e+00 -1.722761330448001381e-03 -3.067977798817778101e-01
1.966666666666666563e+00 -1.589532468473052180e-04 -5.126450879120297149e-02
1.983333333333333393e+00 -1.394437074123578889e-05 -4.768597405419156866e-03
2.000000000000000000e+00 0.000000000000000000e+00 -8.366622444741473675e-04
