0	2673.93	1841.94
0.0166667	2643.23	3406.08
0.0333333	2560.39	5908.78
0.05	2446.27	7215.86
0.0666667	2319.86	7655.52
0.0833333	2191.09	7720.4
0.1	2062.52	7702.28
0.116667	1934.34	7669.99
0.133333	1806.85	7616.09
0.15	1680.47	7532.33
0.166667	1555.77	7410.96
0.183333	1433.44	7246.28
0.2	1314.23	7043.29
0.216667	1198.66	6827.91
0.233333	1086.63	6665.74
0.25	976.473	6687.51
0.266667	863.713	7062.22
0.283333	741.068	7823.06
0.3	602.947	8630.54
0.316667	453.378	8803.92
0.333333	309.486	7788.95
0.35	193.749	5702.86
0.366667	119.387	3334.69
0.383333	82.5937	1527.48
0.4	68.4711	589.18
0.416667	62.9539	283.092
0.433333	59.0348	232.263
0.45	55.2119	223.479
0.466667	51.5853	212.062
0.483333	48.1433	201.608
0.5	44.8651	192.17
0.516667	41.7375	183.797
0.533333	38.7387	176.475
0.55	35.855	169.405
0.566667	33.0917	162.063
0.583333	30.453	154.604
0.6	27.9383	147.347
0.616667	25.5413	140.428
0.633333	23.2574	133.74
0.65	21.0833	127.151
0.666667	19.019	120.522
0.683333	17.066	113.873
0.7	15.2232	107.395
0.716667	13.486	101.261
0.733333	11.8479	95.3963
0.75	10.3062	89.6279
0.766667	8.86026	83.8739
0.783333	7.51043	78.2268
0.8	6.25273	72.841
0.816667	5.08235	67.6728
0.833333	3.99699	62.5966
0.85	2.99581	57.6108
0.866667	2.07659	52.8268
0.883333	1.23494	48.2657
0.9	0.467753	43.8265
0.916667	-0.225973	39.4675
0.933333	-0.847816	35.3109
0.95	-1.40299	31.4948
0.966667	-1.89766	27.9657
0.983333	-2.33517	24.579
1	-2.71696	21.3072
1.01667	-3.04549	18.2517
1.03333	-3.32529	15.4299
1.05	-3.55977	12.7674
1.06667	-3.75095	10.2959
1.08333	-3.90293	8.17857
1.1	-4.02354	6.53781
1.11667	-4.1209	5.28162
1.13333	-4.19958	4.20213
1.15	-4.26096	3.14602
1.16667	-4.30447	2.01641
1.18333	-4.32816	0.778558
1.2	-4.33042	-0.431051
1.21667	-4.31379	-1.36414
1.23333	-4.28495	-1.93437
1.25	-4.24932	-2.34501
1.26667	-4.20677	-2.84064
1.28333	-4.15464	-3.42499
1.3	-4.09261	-3.94503
1.31667	-4.02312	-4.3282
1.33333	-3.94835	-4.64849
1.35	-3.86818	-5.02334
1.36667	-3.78087	-5.49239
1.38333	-3.68512	-5.98225
1.4	-3.58149	-6.39922
1.41667	-3.47177	-6.70826
1.43333	-3.3579	-6.94579
1.45	-3.24027	-7.19155
1.46667	-3.11813	-7.45957
1.48333	-2.99164	-7.65798
1.5	-2.86289	-7.6866
1.51667	-2.73537	-7.54308
1.53333	-2.61148	-7.33298
1.55	-2.49096	-7.18132
1.56667	-2.37206	-7.11081
1.58333	-2.25396	-7.06837
1.6	-2.13647	-7.04836
1.61667	-2.01896	-7.06959
1.63333	-1.90084	-7.07687
1.65	-1.78309	-6.96078
1.66667	-1.66877	-6.67635
1.68333	-1.56057	-6.28557
1.7	-1.45927	-5.88879
1.71667	-1.36424	-5.55508
1.73333	-1.27412	-5.31381
1.75	-1.18713	-5.1748
1.76667	-1.10159	-5.1048
1.78333	-1.01698	-5.01952
1.8	-0.93429	-4.86005
1.81667	-0.85495	-4.63589
1.83333	-0.779775	-4.37683
1.85	-0.709071	-4.10341
1.86667	-0.642968	-3.83437
1.88333	-0.581271	-3.60059
1.9	-0.52296	-3.47526
1.91667	-0.432288	-3.58083
1.93333	-0.302042	-4.00711
1.95	-0.169115	-4.59666
1.96667	-0.0668066	-4.77322
1.98333	-0.0133189	-3.7977
2	-0	-2.93798
