0.000000000000000000e+00 3.516365588025129796e+02 5.490423026737926193e+02
1.666666666666666644e-02 3.424858537579497693e+02 5.490423026737909140e+02
3.333333333333333287e-02 3.333351487133866158e+02 5.490423026737892087e+02
5.000000000000000278e-02 3.241844436688234623e+02 5.490423026737892087e+02
6.666666666666666574e-02 3.150337386242603088e+02 5.490423026737892087e+02
8.333333333333332871e-02 3.058830335796971553e+02 5.490423026737892087e+02
1.000000000000000056e-01 2.967323285351340019e+02 5.490423026737909140e+02
1.166666666666666685e-01 2.875816234905707915e+02 5.490423026737909140e+02
1.333333333333333315e-01 2.784309184460076381e+02 5.490423026737892087e+02
1.499999999999999944e-01 2.692802134014444846e+02 5.490423026737892087e+02
1.666666666666666574e-01 2.601295083568813311e+02 5.490423026737909140e+02
1.833333333333333204e-01 2.509788033123181208e+02 5.490423026737909140e+02
2.000000000000000111e-01 2.418280982677549673e+02 5.490423026737892087e+02
2.166666666666666741e-01 2.326773932231918138e+02 5.490423026737892087e+02
2.333333333333333370e-01 2.235266881786286604e+02 5.490423026737892087e+02
2.500000000000000000e-01 2.143759831340655069e+02 5.490423026737909140e+02
2.666666666666666630e-01 2.052252780895022966e+02 5.490423026737909140e+02
2.833333333333333259e-01 1.960745730449391431e+02 5.490423026737892087e+02
2.999999999999999889e-01 1.869238680003759896e+02 5.490423026737892087e+02
3.166666666666666519e-01 1.777731629558128361e+02 5.490423026737892087e+02
3.333333333333333148e-01 1.686224579112496826e+02 5.490423026737909140e+02
3.499999999999999778e-01 1.594717528666864723e+02 5.490423026737909140e+02
3.666666666666666408e-01 1.503210478221233188e+02 5.490423026737892087e+02
3.833333333333333037e-01 1.411703427775601654e+02 5.490423026737909140e+02
4.000000000000000222e-01 1.320196377329969550e+02 5.490423026737909140e+02
4.166666666666666852e-01 1.228689326884338016e+02 5.490423026737896635e+02
4.333333333333333481e-01 1.137182276438706339e+02 5.490423026737896635e+02
4.500000000000000111e-01 1.045675225993074804e+02 5.490423026737896635e+02
4.666666666666666741e-01 9.541681755474431270e+01 5.490423026737901182e+02
4.833333333333333370e-01 8.626611251018114501e+01 5.490423026737901182e+02
5.000000000000000000e-01 7.711540746561797732e+01 5.490423026737887540e+02
5.166666666666666075e-01 6.796470242105485227e+01 5.490423026737898908e+02
5.333333333333333259e-01 5.881399737649164905e+01 5.490423026737919372e+02
5.500000000000000444e-01 4.966329233192845294e+01 5.490423026737898908e+02
5.666666666666666519e-01 4.051258728736532078e+01 5.490423026737898908e+02
5.833333333333333703e-01 3.136188224280212467e+01 4.634267165528739838e+02
5.999999999999999778e-01 2.506503006893618846e+01 3.359107252751271631e+02
6.166666666666666963e-01 2.016485806696455185e+01 2.658942151538283269e+02
6.333333333333333037e-01 1.620188956380857803e+01 2.175356928528588014e+02
6.500000000000000222e-01 1.291366830520259157e+01 1.825310654696588415e+02
6.666666666666666297e-01 1.011752071481994975e+01 1.569635289284081523e+02
6.833333333333333481e-01 7.681550674255653632e+00 1.380125194174828493e+02
6.999999999999999556e-01 5.517103400903854649e+00 1.229855638443694659e+02
7.166666666666666741e-01 3.582031879443337896e+00 1.094374325175114677e+02
7.333333333333332815e-01 1.869188983653472302e+00 9.593567207696834487e+01
7.500000000000000000e-01 3.841761435443935002e-01 8.226575526775890523e+01
7.666666666666666075e-01 -8.730028586051575834e-01 6.873922071221940655e+01
7.833333333333333259e-01 -1.907131213529587033e+00 5.571340880293728759e+01
8.000000000000000444e-01 -2.730116485369733947e+00 4.359248059656128760e+01
8.166666666666666519e-01 -3.360213900081630012e+00 3.285132645694186238e+01
8.333333333333333703e-01 -3.825160700601129449e+00 2.390546164661189721e+01
8.499999999999999778e-01 -4.157062621635359889e+00 1.689949017570695489e+01
8.666666666666666963e-01 -4.388477039791361278e+00 1.159787155001488657e+01
8.833333333333333037e-01 -4.543658339969189441e+00 7.500370058066296863e+00
9.000000000000000222e-01 -4.638489375060237840e+00 4.061968188338207497e+00
9.166666666666666297e-01 -4.679057279580463025e+00 9.487359839109643644e-01
9.333333333333333481e-01 -4.670113907857269986e+00 -1.902463347077363309e+00
9.499999999999999556e-01 -4.615641834677884248e+00 -4.456243901230454441e+00
9.666666666666666741e-01 -4.521572444482921505e+00 -6.637611273035064485e+00
9.833333333333332815e-01 -4.394388125576715431e+00 -8.348169732939982879e+00
1.000000000000000000e+00 -4.243300120051588742e+00 -9.529315135489220268e+00
1.016666666666666607e+00 -4.076744287727074756e+00 -1.019769827387135486e+01
1.033333333333333215e+00 -3.903376844255876943e+00 -1.046268563734210844e+01
1.050000000000000044e+00 -3.727988099815671141e+00 -1.049751051891605869e+01
1.066666666666666652e+00 -3.553459826958675016e+00 -1.047097243927668231e+01
1.083333333333333259e+00 -3.378955685173115064e+00 -1.049371117793511310e+01
1.100000000000000089e+00 -3.203669454360837943e+00 -1.065759419513555351e+01
1.116666666666666696e+00 -3.023702545335263281e+00 -1.105863654346898350e+01
1.133333333333333304e+00 -2.835048236245205189e+00 -1.165600299479659263e+01
1.149999999999999911e+00 -2.635169112175376860e+00 -1.223477194333326779e+01
1.166666666666666741e+00 -2.427222504800762959e+00 -1.253342938159421216e+01
1.183333333333333348e+00 -2.217388132788903121e+00 -1.239758385561979814e+01
1.199999999999999956e+00 -2.013969709613436354e+00 -1.180015884990400288e+01
1.216666666666666563e+00 -1.824049504458769677e+00 -1.077195675713034717e+01
1.233333333333333393e+00 -1.654904484375758100e+00 -9.395799507263218331e+00
1.250000000000000000e+00 -1.510856187549995733e+00 -7.869370276195684077e+00
1.266666666666666607e+00 -1.392592141835901964e+00 -6.470756200461249996e+00
1.283333333333333215e+00 -1.295164314201287414e+00 -5.420744480213526728e+00
1.300000000000000044e+00 -1.211900659162117755e+00 -4.706281253049704461e+00
1.316666666666666652e+00 -1.138288272432963932e+00 -4.214419863748045003e+00
1.333333333333333259e+00 -1.071419997037182936e+00 -3.867349963712376493e+00
1.350000000000000089e+00 -1.009376606975884716e+00 -3.632590757724831754e+00
1.366666666666666696e+00 -9.503336384463552111e-01 -3.465443554470354570e+00
1.383333333333333304e+00 -8.938618218268729043e-01 -3.257018393676226697e+00
1.399999999999999911e+00 -8.417663586571476619e-01 -2.898239705568008695e+00
1.416666666666666741e+00 -7.972538316412726145e-01 -2.393034875599807876e+00
1.433333333333333348e+00 -7.619985294704874068e-01 -1.844896882757035561e+00
1.449999999999999956e+00 -7.357572688827047624e-01 -1.387145428470722974e+00
1.466666666666666563e+00 -7.157603485214633077e-01 -1.109609418108741252e+00
1.483333333333333393e+00 -6.987702882790800540e-01 -1.033745718053450391e+00
1.500000000000000000e+00 -6.813021579196816280e-01 -1.125152773001888429e+00
1.516666666666666607e+00 -6.612651958456837731e-01 -1.323586581705712417e+00
1.533333333333333215e+00 -6.371826051961578807e-01 -1.560594622551165767e+00
1.550000000000000044e+00 -6.092453750939782475e-01 -1.759493237782600028e+00
1.566666666666666652e+00 -5.785328306034045465e-01 -1.871831161014237965e+00
1.583333333333333259e+00 -5.468510030601703154e-01 -1.874697399366915818e+00
1.600000000000000089e+00 -5.160429172911740192e-01 -1.776602319460475199e+00
1.616666666666666696e+00 -4.876309257448211421e-01 -1.624807586681590976e+00
1.633333333333333304e+00 -4.618826644017876570e-01 -1.492628592895659079e+00
1.649999999999999911e+00 -4.378766393149658431e-01 -1.456896660159279877e+00
1.666666666666666741e+00 -4.133194423964783315e-01 -1.555577305076695227e+00
1.683333333333333348e+00 -3.860240624790760022e-01 -1.746095341832872849e+00
1.699999999999999956e+00 -3.551162643353825699e-01 -1.928598658661809351e+00
1.716666666666666563e+00 -3.217374405236823609e-01 -2.000810173029933470e+00
1.733333333333333393e+00 -2.884225919010514616e-01 -1.929536191818364665e+00
1.750000000000000000e+00 -2.574195674630702091e-01 -1.750321376661182704e+00
1.766666666666666607e+00 -2.300785460123453696e-01 -1.523470954037934977e+00
1.783333333333333215e+00 -2.066372023284723802e-01 -1.308455885155746623e+00
1.800000000000000044e+00 -1.864633498404871526e-01 -1.151433395895462342e+00
1.816666666666666652e+00 -1.682560891319569707e-01 -1.065709264104131915e+00
1.833333333333333259e+00 -1.509397077036827572e-01 -1.028146637694843379e+00
1.849999999999999867e+00 -1.339845345421288580e-01 -1.004827544716587973e+00
1.866666666666666696e+00 -1.174454562131298230e-01 -9.739330374458847750e-01
1.883333333333333304e+00 -1.015200999605993665e-01 -9.356988479142368531e-01
1.899999999999999911e+00 -8.625549461598859546e-02 -9.078509085103025900e-01
1.916666666666666741e+00 -7.125840301025594681e-02 -9.007820326424580415e-01
1.933333333333333348e+00 -5.622942686123999501e-02 -1.931623796575189012e+00
1.949999999999999956e+00 -6.870943124416308868e-03 -1.663596475243072970e+00
1.966666666666666563e+00 -7.762110198042264679e-04 -2.039910628618278599e-01
1.983333333333333393e+00 -7.124102902204665193e-05 -2.328633059412679382e-02
2.000000000000000000e+00 0.000000000000000000e+00 -4.274461741322799387e-03
