0.000000000000000000e+00 1.268577417124007752e+03 1.836129423406350725e+03
1.666666666666666644e-02 1.237975260067235240e+03 1.836129423406350725e+03
3.333333333333333287e-02 1.207373103010462728e+03 1.836129423406350725e+03
5.000000000000000278e-02 1.176770945953690216e+03 1.836129423406343903e+03
6.666666666666666574e-02 1.146168788896917931e+03 1.836129423406343903e+03
8.333333333333332871e-02 1.115566631840145419e+03 1.836129423406343903e+03
1.000000000000000056e-01 1.084964474783373134e+03 1.836129423406350725e+03
1.166666666666666685e-01 1.054362317726600395e+03 1.836129423406350725e+03
1.333333333333333315e-01 1.023760160669828110e+03 1.836129423406343903e+03
1.499999999999999944e-01 9.931580036130555982e+02 1.836129423406347314e+03
1.666666666666666574e-01 9.625558465562831998e+02 1.836129423406347314e+03
1.833333333333333204e-01 9.319536894995106877e+02 1.836129423406350725e+03
2.000000000000000111e-01 9.013515324427381756e+02 1.836129423406347314e+03
2.166666666666666741e-01 8.707493753859657772e+02 1.836129423406347314e+03
2.333333333333333370e-01 8.401472183291932652e+02 1.836129423406347314e+03
2.500000000000000000e-01 8.095450612724208668e+02 1.836129423406347314e+03
2.666666666666666630e-01 7.789429042156483547e+02 1.836129423406350725e+03
2.833333333333333259e-01 7.483407471588758426e+02 1.836129423406347314e+03
2.999999999999999889e-01 7.177385901021034442e+02 1.836129423406347314e+03
3.166666666666666519e-01 6.871364330453309321e+02 1.836129423406347314e+03
3.333333333333333148e-01 6.565342759885585338e+02 1.836129423406347314e+03
3.499999999999999778e-01 6.259321189317860217e+02 1.836129423406347314e+03
3.666666666666666408e-01 5.953299618750136233e+02 1.836129423406347314e+03
3.833333333333333037e-01 5.647278048182411112e+02 1.836129423406354135e+03
4.000000000000000222e-01 5.341256477614684854e+02 1.836129423406350725e+03
4.166666666666666852e-01 5.035234907046960871e+02 1.836129423406345722e+03
4.333333333333333481e-01 4.729213336479236318e+02 1.836129423406347314e+03
4.500000000000000111e-01 4.423191765911511766e+02 1.836129423406349133e+03
4.666666666666666741e-01 4.117170195343786645e+02 1.836129423406349133e+03
4.833333333333333370e-01 3.811148624776062093e+02 1.836129423406347314e+03
5.000000000000000000e-01 3.505127054208337540e+02 1.836129423406343903e+03
5.166666666666666075e-01 3.199105483640614125e+02 1.836129423406347314e+03
5.333333333333333259e-01 2.893083913072888436e+02 1.836129423406354135e+03
5.500000000000000444e-01 2.587062342505162746e+02 1.836129423406349133e+03
5.666666666666666519e-01 2.281040771937438763e+02 1.836129423406349133e+03
5.833333333333333703e-01 1.975019201369713073e+02 1.836129423406347314e+03
5.999999999999999778e-01 1.668997630801989658e+02 1.836129423406347314e+03
6.166666666666666963e-01 1.362976060234263969e+02 1.836129423406347769e+03
6.333333333333333037e-01 1.056954489666540411e+02 1.836129423406347769e+03
6.500000000000000222e-01 7.509329190988147218e+01 1.836129423406347996e+03
6.666666666666666297e-01 4.449113485310910932e+01 1.185266592969575640e+03
6.833333333333333481e-01 3.558440547756228511e+01 4.627450916745936524e+02
6.999999999999999556e-01 2.906629846395598804e+01 3.570254803575086839e+02
7.166666666666666741e-01 2.368355613231199541e+01 3.000491698473300630e+02
7.333333333333332815e-01 1.906465946904498665e+01 2.563282861295853650e+02
7.500000000000000000e-01 1.513927992799248301e+01 2.166101794101069515e+02
7.666666666666666075e-01 1.184432015537475458e+01 1.817548790277927822e+02
7.833333333333333259e-01 9.080783960399390509e+00 1.523306455374579969e+02
8.000000000000000444e-01 6.766631970792821527e+00 1.272703917799519360e+02
8.166666666666666519e-01 4.838437567734326095e+00 1.062235184180143932e+02
8.333333333333333703e-01 3.225848023525675234e+00 8.892730865678822738e+01
8.499999999999999778e-01 1.874193945841385212e+00 7.477454510218747430e+01
8.666666666666666963e-01 7.333631867860924691e-01 6.287003075422332898e+01
8.833333333333333037e-01 -2.214737459660593710e-01 5.242102369397181150e+01
9.000000000000000222e-01 -1.014004269679634751e+00 4.323594684915853037e+01
9.166666666666666297e-01 -1.662671974271343833e+00 3.499268327368909581e+01
9.333333333333333481e-01 -2.180427045469271352e+00 2.742856634547035810e+01
9.499999999999999556e-01 -2.576957519120355755e+00 2.041320167219668491e+01
9.666666666666666741e-01 -2.860867101209160879e+00 1.398140233891623652e+01
9.833333333333332815e-01 -3.043004263750896943e+00 8.416299962915179123e+00
1.000000000000000000e+00 -3.141410433306333516e+00 3.841174602347350309e+00
1.016666666666666607e+00 -3.171043417162475286e+00 2.171200047391019794e-01
1.033333333333333215e+00 -3.148647766797636915e+00 -2.739815903608593395e+00
1.050000000000000044e+00 -3.079716220375522173e+00 -5.288082942386136409e+00
1.066666666666666652e+00 -2.972378335384765702e+00 -7.404406482995513628e+00
1.083333333333333259e+00 -2.832902670942338386e+00 -9.250861385104199641e+00
1.100000000000000089e+00 -2.664016289214625743e+00 -1.096035531810919395e+01
1.116666666666666696e+00 -2.467557493672031921e+00 -1.238998488520864250e+01
1.133333333333333304e+00 -2.251016793041004327e+00 -1.325855061195007956e+01
1.149999999999999911e+00 -2.025605806607029269e+00 -1.342104491213899564e+01
1.166666666666666741e+00 -1.803648629303037820e+00 -1.304725256870652395e+01
1.183333333333333348e+00 -1.590697387650145123e+00 -1.209691139707101293e+01
1.199999999999999956e+00 -1.400418249400670723e+00 -1.060324939148079082e+01
1.216666666666666563e+00 -1.237255741267452080e+00 -8.947545267536982649e+00
1.233333333333333393e+00 -1.102166740482771301e+00 -7.460477443440177936e+00
1.250000000000000000e+00 -9.885731598194461567e-01 -6.282433737292572928e+00
1.266666666666666607e+00 -8.927522825730188627e-01 -5.429473300846932915e+00
1.283333333333333215e+00 -8.075907164578817188e-01 -5.026617003881436396e+00
1.300000000000000044e+00 -7.251983824436376569e-01 -5.021936297736662169e+00
1.316666666666666652e+00 -6.401928398666596465e-01 -5.077029500329942380e+00
1.333333333333333259e+00 -5.559640657659729035e-01 -4.966601827598791985e+00
1.350000000000000089e+00 -4.746394456133665729e-01 -4.506155583984913449e+00
1.366666666666666696e+00 -4.057588796331424441e-01 -3.709424919515515118e+00
1.383333333333333304e+00 -3.509919482961827431e-01 -2.821786020380931959e+00
1.399999999999999911e+00 -3.116993456204447122e-01 -2.037045916859554939e+00
1.416666666666666741e+00 -2.830904177341975747e-01 -1.455876738650444091e+00
1.433333333333333348e+00 -2.631701209987632462e-01 -1.097959385353778572e+00
1.449999999999999956e+00 -2.464917715557382871e-01 -9.368322867891735184e-01
1.466666666666666563e+00 -2.319423781057907974e-01 -7.939680894645434472e-01
1.483333333333333393e+00 -2.200261685735868389e-01 -5.620019318028923738e-01
1.500000000000000000e+00 -2.132089803790277183e-01 -3.161857174815893567e-01
1.516666666666666607e+00 -2.094866446575338603e-01 -1.690694360931865869e-01
1.533333333333333215e+00 -2.075733325092548320e-01 -1.203746180388681752e-01
1.550000000000000044e+00 -2.054741573895715878e-01 -1.542748029264257026e-01
1.566666666666666652e+00 -2.024308390783739753e-01 -3.080401432330887035e-01
1.583333333333333259e+00 -1.952061526151352977e-01 -6.138513997131292976e-01
1.600000000000000089e+00 -1.819691257546030005e-01 -9.533456970231840577e-01
1.616666666666666696e+00 -1.634279627143624958e-01 -1.196724667014989141e+00
1.633333333333333304e+00 -1.420783035207700273e-01 -1.268275479872555511e+00
1.649999999999999911e+00 -1.211521133852773158e-01 -1.184245361633968985e+00
1.666666666666666741e+00 -1.026034581329710593e-01 -1.023024894412260188e+00
1.683333333333333348e+00 -8.705128357153531227e-02 -8.668346987885617860e-01
1.699999999999999956e+00 -7.370896817335233220e-02 -7.531500029040243405e-01
1.716666666666666563e+00 -6.194628347473449953e-02 -6.673658262958068743e-01
1.733333333333333393e+00 -5.146344063015877157e-02 -5.978125088548232879e-01
1.750000000000000000e+00 -4.201919984624039039e-02 -5.504035942942665516e-01
1.766666666666666607e+00 -3.311665415368322124e-02 -5.040255891742837502e-01
1.783333333333333215e+00 -2.521834687376426493e-02 -4.256256499592314113e-01
1.800000000000000044e+00 -1.892913248837550799e-02 -3.265131127225557317e-01
1.816666666666666652e+00 -1.433457644967907341e-02 -2.606716227788491436e-01
1.833333333333333259e+00 -1.024007839574720378e-02 -2.488913580138512049e-01
1.849999999999999867e+00 -6.038197849217366922e-03 -2.521505804241450655e-01
1.866666666666666696e+00 -1.835059048275702008e-03 -2.516760910648379035e-01
1.883333333333333304e+00 2.351005186277229948e-03 -2.358664956657924583e-01
1.899999999999999911e+00 6.027157473917379299e-03 -1.892234574760929822e-01
1.916666666666666741e+00 8.658453768813662021e-03 -1.086566456032143080e-01
1.933333333333333348e+00 9.649045660691189449e-03 1.132313039710980268e-01
1.949999999999999956e+00 4.884076969777060954e-03 2.668648168228094364e-01
1.966666666666666563e+00 7.535517665975416130e-04 1.443525185091902585e-01
1.983333333333333393e+00 7.232635280405266722e-05 2.260655299792624709e-02
2.000000000000000000e+00 0.000000000000000000e+00 4.339581168243160196e-03
