0.00000000 8035.96507651 73468.58140338
0.01666667 6892.04612359 63801.69294777
0.03333333 5909.24197826 54811.91459387
0.05000000 5064.98230379 47081.76222862
0.06666667 4339.84990397 40435.24374234
0.08333333 3717.14084571 34720.92007047
0.10000000 3182.48590162 29808.48235042
0.11666667 2723.52476737 25585.80605557
0.13333333 2329.62569977 21956.41565239
0.15000000 1991.64424562 18837.30258495
0.16666667 1701.71561360 16157.04735812
0.18333333 1453.07600035 13854.20334965
0.20000000 1239.90883528 11875.90588325
0.21666667 1057.21247091 10176.67517574
0.23333333 900.68632942 8717.38614378
0.25000000 766.63293278 7464.38181936
0.26666667 651.87360211 6388.71036238
0.28333333 553.67592070 5465.46844695
0.30000000 469.69132055 4673.23619725
0.31666667 397.90138079 3993.59091477
0.33333333 336.57162339 3410.68861556
0.35000000 284.21176028 2910.90392696
0.36666667 239.54149249 2482.52020944
0.38333333 201.46108663 2115.46290297
0.40000000 169.02606239 1801.07007257
0.41666667 141.42541754 1531.89496761
0.43333333 117.96289680 1301.53613154
0.45000000 98.04087982 1414.49919531
0.46666667 70.81292362 1904.91851005
0.48333333 34.54359616 1338.54325087
0.50000000 26.19481526 300.83283172
0.51666667 24.51583510 191.88864099
0.53333333 19.79852723 283.03847210
0.55000000 15.08121936 192.40625735
0.56666667 13.38498532 109.15769567
0.58333333 11.44262951 112.59122816
0.60000000 9.63194438 101.99660973
0.61666667 8.04274251 89.40789979
0.63333333 6.65168105 79.69306009
0.65000000 5.38630718 73.46245151
0.66666667 4.20293267 68.63226676
0.68333333 3.09856495 63.53677001
0.70000000 2.08504034 58.10902293
0.71666667 1.16159752 52.87951314
0.73333333 0.32238990 48.06526540
0.75000000 -0.44057799 43.69320376
0.76666667 -1.13405023 39.70776867
0.78333333 -1.76417028 35.99793683
0.80000000 -2.33398146 32.37484131
0.81666667 -2.84333166 28.70147761
0.83333333 -3.29069738 25.01715782
0.85000000 -3.67723692 21.42608839
0.86666667 -4.00490032 18.06540997
0.88333333 -4.27941725 14.99067040
0.90000000 -4.50458934 12.14487038
0.91666667 -4.68424626 9.52841319
0.93333333 -4.82220311 7.22998142
0.95000000 -4.92524564 5.25038359
0.96666667 -4.99721589 3.47249480
0.98333333 -5.04099547 1.83820702
1.00000000 -5.05848946 0.43194909
1.01666667 -5.05539377 -0.69911322
1.03333333 -5.03518569 -1.72962553
1.05000000 -4.99773959 -2.83050469
1.06666667 -4.94083553 -3.97979260
1.08333333 -4.86507984 -5.09707499
1.10000000 -4.77093303 -6.13502043
1.11666667 -4.66057915 -7.00115099
1.13333333 -4.53756133 -7.63774529
1.15000000 -4.40598764 -8.05181466
1.16666667 -4.26916751 -8.29534940
1.18333333 -4.12947600 -8.52632898
1.20000000 -3.98495654 -8.88202560
1.21666667 -3.83340848 -9.31204382
1.23333333 -3.67455508 -9.67175360
1.25000000 -3.51101669 -9.92627432
1.26666667 -3.34367927 -10.11379057
1.28333333 -3.17389034 -10.26042046
1.30000000 -3.00166526 -10.35103432
1.31666667 -2.82885586 -10.37988348
1.33333333 -2.65566914 -10.34098416
1.35000000 -2.48415639 -10.20087299
1.36666667 -2.31564004 -9.92541426
1.38333333 -2.15330925 -9.53874294
1.40000000 -1.99768194 -9.11912789
1.41666667 -1.84933832 -8.73086885
1.43333333 -1.70665298 -8.40002540
1.45000000 -1.56933747 -8.06639091
1.46666667 -1.43777329 -7.62952709
1.48333333 -1.31501990 -7.08213600
1.50000000 -1.20170209 -6.50608869
1.51666667 -1.09815028 -5.95602366
1.53333333 -1.00316796 -5.45311699
1.55000000 -0.91637971 -5.01542459
1.56666667 -0.83598714 -4.63605546
1.58333333 -0.76184453 -4.26805786
1.60000000 -0.69371855 -3.87326548
1.61666667 -0.63273568 -3.43707914
1.63333333 -0.57914924 -2.97539600
1.65000000 -0.53355581 -2.52445963
1.66666667 -0.49500059 -2.13893163
1.68333333 -0.46225809 -1.84412411
1.70000000 -0.43352979 -1.62621591
1.71666667 -0.40805090 -1.46426508
1.73333333 -0.38472095 -1.35247629
1.75000000 -0.36296835 -1.26955882
1.76666667 -0.34240232 -1.20674763
1.78333333 -0.32274343 -1.16880791
1.80000000 -0.30344206 -1.16059139
1.81666667 -0.28405705 -1.17867087
1.83333333 -0.26415303 -1.21617164
1.85000000 -0.24351800 -1.25068984
1.86666667 -0.22246337 -1.26815991
1.88333333 -0.20124600 -1.28797814
1.90000000 -0.17953076 -1.34809970
1.91666667 -0.15630934 -1.47151161
1.93333333 -0.13048038 -4.07979687
1.95000000 -0.02031612 -3.85314740
1.96666667 -0.00204213 -0.60392736
1.98333333 -0.00018520 -0.06126391
2.00000000 0.00000000 0.03903948
