0.000000000000000000e+00 4.093035998504654458e+02 6.819002507373386379e+02
1.666666666666666644e-02 3.979385956715098018e+02 6.819002507373369326e+02
3.333333333333333287e-02 3.865735914925542147e+02 6.819002507373352273e+02
5.000000000000000278e-02 3.752085873135986276e+02 6.819002507373369326e+02
6.666666666666666574e-02 3.638435831346429836e+02 6.819002507373369326e+02
8.333333333333332871e-02 3.524785789556873965e+02 6.819002507373352273e+02
1.000000000000000056e-01 3.411135747767318094e+02 6.819002507373369326e+02
1.166666666666666685e-01 3.297485705977761654e+02 6.819002507373369326e+02
1.333333333333333315e-01 3.183835664188205783e+02 6.819002507373369326e+02
1.499999999999999944e-01 3.070185622398649343e+02 6.819002507373352273e+02
1.666666666666666574e-01 2.956535580609094040e+02 6.819002507373352273e+02
1.833333333333333204e-01 2.842885538819537601e+02 6.819002507373386379e+02
2.000000000000000111e-01 2.729235497029981161e+02 6.819002507373369326e+02
2.166666666666666741e-01 2.615585455240425290e+02 6.819002507373361368e+02
2.333333333333333370e-01 2.501935413450869135e+02 6.819002507373369326e+02
2.500000000000000000e-01 2.388285371661312979e+02 6.819002507373361368e+02
2.666666666666666630e-01 2.274635329871757108e+02 6.819002507373361368e+02
2.833333333333333259e-01 2.160985288082200952e+02 6.819002507373369326e+02
2.999999999999999889e-01 2.047335246292644797e+02 6.819002507373361368e+02
3.166666666666666519e-01 1.933685204503088926e+02 6.819002507373361368e+02
3.333333333333333148e-01 1.820035162713532770e+02 6.819002507373361368e+02
3.499999999999999778e-01 1.706385120923976899e+02 6.819002507373361368e+02
3.666666666666666408e-01 1.592735079134420744e+02 6.819002507373369326e+02
3.833333333333333037e-01 1.479085037344864588e+02 6.819002507373378421e+02
4.000000000000000222e-01 1.365434995555308149e+02 6.819002507373369326e+02
4.166666666666666852e-01 1.251784953765752277e+02 6.819002507373361368e+02
4.333333333333333481e-01 1.138134911976196122e+02 6.819002507373364779e+02
4.500000000000000111e-01 1.024484870186640109e+02 6.819002507373361368e+02
4.666666666666666741e-01 9.108348283970840953e+01 6.819002507373364779e+02
4.833333333333333370e-01 7.971847866075279399e+01 6.819002507373364779e+02
5.000000000000000000e-01 6.835347448179719265e+01 6.819002507373349999e+02
5.166666666666666075e-01 5.698847030284162685e+01 6.819002507373362505e+02
5.333333333333333259e-01 4.562346612388598288e+01 6.819002507373386379e+02
5.500000000000000444e-01 3.425846194493033892e+01 5.714429818096823510e+02
5.666666666666666519e-01 2.657536673022990570e+01 4.080914661050537120e+02
5.833333333333333703e-01 2.065541307476188138e+01 3.214521175089130907e+02
5.999999999999999778e-01 1.586029614659947029e+01 2.608822528739328277e+02
6.166666666666666963e-01 1.195933797896412010e+01 2.124611135418334982e+02
6.333333333333333037e-01 8.778259028538354158e+00 1.723425785290019974e+02
6.500000000000000222e-01 6.214585361330720481e+00 1.384296962563534805e+02
6.666666666666666297e-01 4.163935819993238141e+00 1.100477122524764297e+02
6.833333333333333481e-01 2.546328286248172645e+00 8.667581599968349337e+01
6.999999999999999556e-01 1.274741953337122036e+00 6.785090410844750863e+01
7.166666666666666741e-01 2.846314826332558279e-01 5.287257680523824632e+01
7.333333333333332815e-01 -4.876772735041528528e-01 4.095610865138892365e+01
7.500000000000000000e-01 -1.080572139079708283e+00 3.116859159015103842e+01
7.666666666666666075e-01 -1.526630326509187396e+00 2.275995037136976507e+01
7.833333333333333259e-01 -1.839237151458700481e+00 1.525965608927912953e+01
8.000000000000000444e-01 -2.035285529485158396e+00 8.670122308336983608e+00
8.166666666666666519e-01 -2.128241228403266572e+00 3.191213762639870666e+00
8.333333333333333703e-01 -2.141659321573154084e+00 -9.352958975060943203e-01
8.499999999999999778e-01 -2.097064698486396761e+00 -3.589978537672928738e+00
8.666666666666666963e-01 -2.021993370317389793e+00 -4.919497794720748551e+00
8.833333333333333037e-01 -1.933081438662371809e+00 -5.385173859394847717e+00
9.000000000000000222e-01 -1.842487575004228217e+00 -5.350342499480367664e+00
9.166666666666666297e-01 -1.754736688679692902e+00 -5.052322267759275398e+00
9.333333333333333481e-01 -1.674076832745585719e+00 -4.610906853610856615e+00
9.499999999999999556e-01 -1.601039793559331015e+00 -4.172380567602512080e+00
9.666666666666666741e-01 -1.534997480492168664e+00 -3.875444533895726629e+00
9.833333333333332815e-01 -1.471858309096140127e+00 -3.864260661271174957e+00
1.000000000000000000e+00 -1.406188791783129499e+00 -4.167475948806140806e+00
1.016666666666666607e+00 -1.332942444135935434e+00 -4.763097633289401500e+00
1.033333333333333215e+00 -1.247418870673482783e+00 -5.488968570429382687e+00
1.050000000000000044e+00 -1.149976825121622692e+00 -6.111817079363128791e+00
1.066666666666666652e+00 -1.043691634694711823e+00 -6.475171530521683039e+00
1.083333333333333259e+00 -9.341377741042332650e-01 -6.536396355693762317e+00
1.100000000000000089e+00 -8.258117561715864197e-01 -6.271771430797866920e+00
1.116666666666666696e+00 -7.250787264109710417e-01 -5.744538223567568380e+00
1.133333333333333304e+00 -6.343271487193341551e-01 -5.047087327706936577e+00
1.149999999999999911e+00 -5.568424821540731706e-01 -4.291355028672628080e+00
1.166666666666666741e+00 -4.912819810969132339e-01 -3.618430855522940526e+00
1.183333333333333348e+00 -4.362281203033084864e-01 -3.073376332885069395e+00
1.199999999999999956e+00 -3.888361033340775874e-01 -2.608848477348108652e+00
1.216666666666666563e+00 -3.492665043917048684e-01 -2.163850464657373074e+00
1.233333333333333393e+00 -3.167077545121651516e-01 -1.694072818538177705e+00
1.250000000000000000e+00 -2.927974104404322819e-01 -1.180126701677771228e+00
1.266666666666666607e+00 -2.773701977895727810e-01 -6.588369667558274800e-01
1.283333333333333215e+00 -2.708361782152380326e-01 -2.013805239507904243e-01
1.300000000000000044e+00 -2.706575136578797669e-01 9.136038458986861510e-02
1.316666666666666652e+00 -2.738815243682336531e-01 2.066571532494526631e-01
1.333333333333333259e+00 -2.775460854328615223e-01 2.076151038262025184e-01
1.350000000000000089e+00 -2.808020278291070704e-01 1.443675739677557912e-01
1.366666666666666696e+00 -2.823583378984533820e-01 3.581489987827424226e-02
1.383333333333333304e+00 -2.819958578250495451e-01 -1.106270905321360409e-01
1.399999999999999911e+00 -2.786707682140488473e-01 -3.015906092087761170e-01
1.416666666666666741e+00 -2.719428375180903412e-01 -4.950629835266795453e-01
1.433333333333333348e+00 -2.621686687631595292e-01 -6.434441553335529251e-01
1.449999999999999956e+00 -2.504946990069719104e-01 -7.603156899454277529e-01
1.466666666666666563e+00 -2.368248124316452707e-01 -8.697512519235415240e-01
1.483333333333333393e+00 -2.215029906095205281e-01 -9.613793632101039766e-01
1.500000000000000000e+00 -2.047788336579751400e-01 -1.055765356861534388e+00
1.516666666666666607e+00 -1.863108120474693818e-01 -1.187378237377209711e+00
1.533333333333333215e+00 -1.651995590787348200e-01 -1.332706975791821957e+00
1.550000000000000044e+00 -1.418872461877419833e-01 -1.431261470166463434e+00
1.566666666666666652e+00 -1.174908434065193713e-01 -1.454071179660069602e+00
1.583333333333333259e+00 -9.341820686573966415e-02 -1.415229819016728730e+00
1.600000000000000089e+00 -7.031651610596174884e-02 -1.339865037309178719e+00
1.616666666666666696e+00 -4.875603895543370592e-02 -1.243148314897677187e+00
1.633333333333333304e+00 -2.887823894270584099e-02 -1.120539822618108250e+00
1.649999999999999911e+00 -1.140471153483009308e-02 -9.526278132125068909e-01
1.666666666666666741e+00 2.876021497711055402e-03 -7.395018455210111696e-01
1.683333333333333348e+00 1.324534998253694591e-02 -5.038014322684691848e-01
1.699999999999999956e+00 1.966940257332669417e-02 -2.630845259592740071e-01
1.716666666666666563e+00 2.201483418117941224e-02 -3.001357738317798896e-02
1.733333333333333393e+00 2.066985515276596047e-02 1.532947397431621839e-01
1.750000000000000000e+00 1.690500952307400634e-02 2.500873108426074354e-01
1.766666666666666607e+00 1.233361145801237929e-02 2.609446981144958877e-01
1.783333333333333215e+00 8.206852919257476286e-03 2.150430122533751598e-01
1.800000000000000044e+00 5.165511049566540343e-03 1.407663439928889815e-01
1.816666666666666652e+00 3.514641452827843571e-03 6.503854652764441691e-02
1.833333333333333259e+00 2.997559498645059606e-03 9.856421419381410434e-03
1.849999999999999867e+00 3.186094072181796556e-03 -1.988480694482499395e-02
1.866666666666666696e+00 3.660386396805892679e-03 -3.278418265542023396e-02
1.883333333333333304e+00 4.278900160695804297e-03 -3.789175211125699744e-02
1.899999999999999911e+00 4.923444800514459319e-03 -3.635488612111517637e-02
1.916666666666666741e+00 5.490729698066310234e-03 -2.246621748730430121e-02
1.933333333333333348e+00 5.672318716757935968e-03 1.762354088972923616e-01
1.949999999999999956e+00 -3.837839318434352678e-04 1.735508136663367340e-01
1.966666666666666563e+00 -1.127084054532885164e-04 -1.123138369032990538e-02
1.983333333333333393e+00 -9.404475499105107128e-06 -3.381252163598655412e-03
2.000000000000000000e+00 0.000000000000000000e+00 -5.642685299463063870e-04
