0	8214.86	996.025
0.0166667	8198.26	1982.84
0.0333333	8148.76	3929.33
0.05	8067.28	5805.1
0.0666667	7955.26	7579.49
0.0833333	7814.63	9227.05
0.1	7647.69	10728.5
0.116667	7457.01	12071.3
0.133333	7245.32	13249.4
0.15	7015.37	14263.1
0.166667	6769.88	15117.7
0.183333	6511.44	15822.6
0.2	6242.46	16390.2
0.216667	5965.11	16834
0.233333	5681.33	17168.1
0.25	5392.83	17405.8
0.266667	5101.13	17558.5
0.283333	4807.55	17636.1
0.3	4513.26	17645.9
0.316667	4219.35	17593.1
0.333333	3926.83	17481
0.35	3636.65	17311.1
0.366667	3349.79	17084.3
0.383333	3067.18	16800.9
0.4	2789.76	16461.9
0.416667	2518.45	16069.2
0.433333	2254.12	15626.7
0.45	1997.56	15140.3
0.466667	1749.44	14619
0.483333	1510.26	14081.2
0.5	1280.07	13545.7
0.516667	1058.74	12977.6
0.533333	847.48	12234.1
0.55	650.931	11107.9
0.566667	477.217	9492.94
0.583333	334.5	7527.67
0.6	226.295	5543.15
0.616667	149.728	3851.6
0.633333	97.9079	2584.59
0.65	63.575	1703.59
0.666667	41.1217	1108.27
0.683333	26.6326	714.142
0.7	17.317	462.044
0.716667	11.2311	306.472
0.733333	7.10122	212.676
0.75	4.14192	155.933
0.766667	1.90347	119.839
0.783333	0.147272	94.5248
0.8	-1.24736	74.7559
0.816667	-2.34459	58.1684
0.833333	-3.18631	43.8799
0.85	-3.80725	31.5919
0.866667	-4.23937	21.148
0.883333	-4.51219	12.4107
0.9	-4.65306	5.27497
0.916667	-4.68802	-0.33239
0.933333	-4.64198	-4.50721
0.95	-4.53778	-7.43542
0.966667	-4.39414	-9.41664
0.983333	-4.22389	-10.8215
1	-4.03342	-11.994
1.01667	-3.82409	-13.1401
1.03333	-3.59542	-14.2745
1.05	-3.34828	-15.2793
1.06667	-3.0861	-16.0456
1.08333	-2.81342	-16.5786
1.1	-2.53348	-16.9753
1.11667	-2.24758	-17.3057
1.13333	-1.95663	-17.5314
1.15	-1.6632	-17.5466
1.16667	-1.37174	-17.2922
1.18333	-1.08679	-16.8218
1.2	-0.811015	-16.2601
1.21667	-0.544788	-15.705
1.23333	-0.287514	-15.1575
1.25	-0.0395377	-14.5156
1.26667	0.196338	-13.6093
1.28333	0.414104	-12.2565
1.3	0.604888	-10.3421
1.31667	0.758842	-7.9048
1.33333	0.868381	-5.17441
1.35	0.931323	-2.50924
1.36667	0.952023	-0.253915
1.38333	0.939787	1.39347
1.4	0.905574	2.43064
1.41667	0.858765	3.00918
1.43333	0.805268	3.34253
1.45	0.747348	3.61033
1.46667	0.684923	3.89794
1.48333	0.617417	4.19775
1.5	0.544998	4.46492
1.51667	0.468586	4.67593
1.53333	0.389134	4.8371
1.55	0.307349	4.9449
1.56667	0.224304	4.95313
1.58333	0.142244	4.79151
1.6	0.0645867	4.42054
1.61667	-0.00510703	3.86988
1.63333	-0.0644092	3.2274
1.65	-0.112687	2.5942
1.66667	-0.150883	2.04272
1.68333	-0.180778	1.60096
1.7	-0.204248	1.25978
1.71667	-0.22277	0.988838
1.73333	-0.237209	0.751169
1.75	-0.247809	0.5133
1.76667	-0.254319	0.252125
1.78333	-0.256213	-0.0400166
1.8	-0.252985	-0.351792
1.81667	-0.244487	-0.653366
1.83333	-0.231206	-0.904438
1.85	-0.214339	-1.06961
1.86667	-0.195553	-1.1341
1.88333	-0.176536	-1.10955
1.9	-0.158568	-1.02507
1.91667	-0.142367	-0.909199
1.93333	-0.128261	-0.776358
1.95	-0.116488	-0.627463
1.96667	-0.107346	-0.46091
1.98333	-0.101125	-0.280626
2	-0.0979915	-0.187981
