0	2.12286e+07	86.3379
0.0166667	2.12286e+07	165.282
0.0333333	2.12286e+07	304.396
0.05	2.12286e+07	402.425
0.0666667	2.12286e+07	459.596
0.0833333	2.12286e+07	486.646
0.1	2.12286e+07	496.688
0.116667	2.12285e+07	31987.1
0.133333	2.12275e+07	360316
0.15	2.12165e+07	2.05744e+06
0.166667	2.11589e+07	7.81203e+06
0.183333	2.09561e+07	2.20557e+07
0.2	2.04237e+07	4.91055e+07
0.216667	1.93193e+07	8.92917e+07
0.233333	1.74473e+07	1.35609e+08
0.25	1.4799e+07	1.74596e+08
0.266667	1.16275e+07	1.92522e+08
0.283333	8.38157e+06	1.83172e+08
0.3	5.52174e+06	1.51327e+08
0.316667	3.33733e+06	1.09351e+08
0.333333	1.87672e+06	6.98954e+07
0.35	1.00748e+06	4.02884e+07
0.366667	533773	2.1605e+07
0.383333	287315	1.12341e+07
0.4	159303	5.88905e+06
0.416667	91013.3	3.1775e+06
0.433333	53386.1	1.76885e+06
0.45	32051.6	1.0123e+06
0.466667	19642.7	593785
0.483333	12258.8	356066
0.5	7773.84	217821
0.516667	4998.07	135781
0.533333	3247.83	86312.1
0.55	2121	56071.4
0.566667	1378.78	38354.9
0.583333	842.508	27083.9
0.6	475.985	16775.6
0.616667	283.323	9293.64
0.633333	166.197	5552.4
0.65	98.2426	3213.99
0.666667	59.0639	1873.35
0.683333	35.7974	1124.2
0.7	21.5905	689.425
0.716667	12.8166	427.422
0.733333	7.34313	269.033
0.75	3.84885	174.414
0.766667	1.52931	117.997
0.783333	-0.0843717	83.4033
0.8	-1.2508	60.8492
0.816667	-2.11268	45.2146
0.833333	-2.75795	34.0088
0.85	-3.24631	25.6833
0.866667	-3.61406	18.8873
0.883333	-3.87588	12.68
0.9	-4.03673	6.90502
0.916667	-4.10605	1.92396
0.933333	-4.10086	-2.00282
0.95	-4.03929	-4.98983
0.966667	-3.93453	-7.25433
0.983333	-3.79748	-8.84163
1	-3.63981	-9.8676
1.01667	-3.46856	-10.6751
1.03333	-3.28397	-11.4389
1.05	-3.08726	-11.8596
1.06667	-2.88865	-11.6235
1.08333	-2.69981	-11.0706
1.1	-2.51963	-10.9548
1.11667	-2.33465	-11.5367
1.13333	-2.13507	-12.2449
1.15	-1.92649	-12.3009
1.16667	-1.72504	-11.4205
1.18333	-1.5458	-9.87566
1.2	-1.39585	-8.13797
1.21667	-1.27454	-6.61745
1.23333	-1.17527	-5.58235
1.25	-1.08846	-5.03746
1.26667	-1.00736	-4.70323
1.28333	-0.931687	-4.24252
1.3	-0.865939	-3.56199
1.31667	-0.812954	-2.87688
1.33333	-0.770042	-2.43339
1.35	-0.731841	-2.24777
1.36667	-0.695117	-2.12659
1.38333	-0.660954	-1.89585
1.4	-0.631922	-1.55564
1.41667	-0.6091	-1.20565
1.43333	-0.591733	-0.903114
1.45	-0.578996	-0.638217
1.46667	-0.570459	-0.42468
1.48333	-0.56484	-0.325511
1.5	-0.559609	-0.382173
1.51667	-0.552101	-0.549148
1.53333	-0.541304	-0.754639
1.55	-0.526946	-0.99765
1.56667	-0.508049	-1.31199
1.58333	-0.483213	-1.66818
1.6	-0.452443	-1.94923
1.61667	-0.418239	-2.05482
1.63333	-0.383949	-2.00733
1.65	-0.351328	-1.92646
1.66667	-0.319734	-1.91257
1.68333	-0.287575	-1.96908
1.7	-0.254098	-2.02983
1.71667	-0.219915	-2.01875
1.73333	-0.186806	-1.8748
1.75	-0.157421	-1.56566
1.76667	-0.134617	-1.13006
1.78333	-0.119753	-0.701839
1.8	-0.111223	-0.435565
1.81667	-0.105234	-0.384392
1.83333	-0.0984097	-0.465267
1.85	-0.0897249	-0.550144
1.86667	-0.0800716	-0.573572
1.88333	-0.0706059	-0.552262
1.9	-0.0616629	-0.531139
1.91667	-0.0529012	-0.531493
1.93333	-0.0439464	-0.542041
1.95	-0.0348332	-0.535211
1.96667	-0.0261061	-0.483061
1.98333	-0.0187311	-0.366613
2	-0.0138856	-0.290732
