0.000000000000000000e+00 3.718209347285002195e+02 7.528947382761748486e+02
1.666666666666666644e-02 3.592726890905639721e+02 7.528947382761765539e+02
3.333333333333333287e-02 3.467244434526276677e+02 7.528947382761782592e+02
5.000000000000000278e-02 3.341761978146913634e+02 7.528947382761765539e+02
6.666666666666666574e-02 3.216279521767551159e+02 7.528947382761765539e+02
8.333333333333332871e-02 3.090797065388188116e+02 7.528947382761782592e+02
1.000000000000000056e-01 2.965314609008825073e+02 7.528947382761765539e+02
1.166666666666666685e-01 2.839832152629462598e+02 7.528947382761782592e+02
1.333333333333333315e-01 2.714349696250098987e+02 7.528947382761782592e+02
1.499999999999999944e-01 2.588867239870736512e+02 7.528947382761765539e+02
1.666666666666666574e-01 2.463384783491373469e+02 7.528947382761757581e+02
1.833333333333333204e-01 2.337902327112011278e+02 7.528947382761765539e+02
2.000000000000000111e-01 2.212419870732647951e+02 7.528947382761782592e+02
2.166666666666666741e-01 2.086937414353285192e+02 7.528947382761765539e+02
2.333333333333333370e-01 1.961454957973922433e+02 7.528947382761774634e+02
2.500000000000000000e-01 1.835972501594559390e+02 7.528947382761774634e+02
2.666666666666666630e-01 1.710490045215196631e+02 7.528947382761765539e+02
2.833333333333333259e-01 1.585007588835833872e+02 7.528947382761774634e+02
2.999999999999999889e-01 1.459525132456470828e+02 7.528947382761765539e+02
3.166666666666666519e-01 1.334042676077108354e+02 7.528947382761765539e+02
3.333333333333333148e-01 1.208560219697745310e+02 7.528947382761774634e+02
3.499999999999999778e-01 1.083077763318382551e+02 7.528947382761765539e+02
3.666666666666666408e-01 9.575953069390197925e+01 7.528947382761770086e+02
3.833333333333333037e-01 8.321128505596568914e+01 7.528947382761782592e+02
4.000000000000000222e-01 7.066303941802937061e+01 7.528947382761782592e+02
4.166666666666666852e-01 5.811479378009308050e+01 7.528947382761772360e+02
4.333333333333333481e-01 4.556654814215679750e+01 7.528947382761770086e+02
4.500000000000000111e-01 3.301830250422051449e+01 7.528947382761770086e+02
4.666666666666666741e-01 2.047005686628423149e+01 5.613222397554440022e+02
4.833333333333333370e-01 1.430756117903905000e+01 3.054406767719938216e+02
5.000000000000000000e-01 1.028870097388443838e+01 2.096998386874836058e+02
5.166666666666666075e-01 7.317566556122930166e+00 1.604230111008321273e+02
5.333333333333333259e-01 4.941267270523367117e+00 1.308150695878932765e+02
5.500000000000000444e-01 2.957064236526488532e+00 1.093957539822735185e+02
5.666666666666666519e-01 1.294742137780916957e+00 9.185034609449817822e+01
5.833333333333333703e-01 -1.046139666234505577e-01 7.769617994089341551e+01
5.999999999999999778e-01 -1.295130526915530211e+00 6.630763074518837641e+01
6.166666666666666963e-01 -2.314868324796396593e+00 5.553391556568724496e+01
6.333333333333333037e-01 -3.146261045771771681e+00 4.348101774565321165e+01
6.500000000000000222e-01 -3.764235582984837070e+00 3.015439821895864370e+01
6.666666666666666297e-01 -4.151407653070393167e+00 1.699662841912634192e+01
6.833333333333333481e-01 -4.330789863622381830e+00 5.911443795155619796e+00
6.999999999999999556e-01 -4.348455779575580493e+00 -2.011601966271694408e+00
7.166666666666666741e-01 -4.263736464746658683e+00 -6.927955207840454932e+00
7.333333333333332815e-01 -4.117523939314231995e+00 -9.840259511417205118e+00
7.500000000000000000e-01 -3.935727814366085209e+00 -1.148395376106914334e+01
7.666666666666666075e-01 -3.734725480611927217e+00 -1.182548434270973559e+01
7.833333333333333259e-01 -3.541545002942427356e+00 -1.037605109258024960e+01
8.000000000000000444e-01 -3.388857110859252231e+00 -6.571993828665392279e+00
8.166666666666666519e-01 -3.322478541986914280e+00 -1.122100953933449219e+00
8.333333333333333703e-01 -3.351453745728137257e+00 3.673890815310252300e+00
8.499999999999999778e-01 -3.444941569163922690e+00 5.722670114700938448e+00
8.666666666666666963e-01 -3.542209416218168538e+00 4.772151133645672338e+00
8.833333333333333037e-01 -3.604013273618778435e+00 2.572736950290295255e+00
9.000000000000000222e-01 -3.627967314561178380e+00 6.184143465736369194e-01
9.166666666666666297e-01 -3.624627085171232999e+00 -1.229262699289139782e+00
9.333333333333333481e-01 -3.586991891251540387e+00 -3.628723666963407091e+00
9.499999999999999556e-01 -3.503669629605786096e+00 -6.599546504051891915e+00
9.666666666666666741e-01 -3.367007007783143990e+00 -9.635390797745190028e+00
9.833333333333332815e-01 -3.182489936347613124e+00 -1.249243703057675070e+01
1.000000000000000000e+00 -2.950592440097252300e+00 -1.512613165033046414e+01
1.016666666666666607e+00 -2.678285548003264349e+00 -1.736442402066517232e+01
1.033333333333333215e+00 -2.371778306075079890e+00 -1.915164837085519522e+01
1.050000000000000044e+00 -2.039897268974757871e+00 -2.018780262677197967e+01
1.066666666666666652e+00 -1.698851551849347219e+00 -2.022201348930014930e+01
1.083333333333333259e+00 -1.365830152664752939e+00 -1.928369448804098951e+01
1.100000000000000089e+00 -1.056061735581314220e+00 -1.748926650701278263e+01
1.116666666666666696e+00 -7.828546024309934737e-01 -1.491443349247479588e+01
1.133333333333333304e+00 -5.589139524988210317e-01 -1.168041414630345542e+01
1.149999999999999911e+00 -3.935074642208782891e-01 -8.256432495750084755e+00
1.166666666666666741e+00 -2.836995359738181954e-01 -5.257625396196100809e+00
1.183333333333333348e+00 -2.182532843476749362e-01 -2.992114125514981904e+00
1.199999999999999956e+00 -1.839623984566521320e-01 -1.522543312901548429e+00
1.216666666666666563e+00 -1.675018405842899905e-01 -5.579885244517360787e-01
1.233333333333333393e+00 -1.653627809749275979e-01 2.783135566616429246e-01
1.250000000000000000e+00 -1.767789591396780879e-01 8.838168665725198991e-01
1.266666666666666607e+00 -1.948233431940115945e-01 1.006835217012319816e+00
1.283333333333333215e+00 -2.103401330400887503e-01 8.297073588623726792e-01
1.300000000000000044e+00 -2.224802551560906838e-01 6.393467193544958294e-01
1.316666666666666652e+00 -2.316516903519052761e-01 3.425161500414072857e-01
1.333333333333333259e+00 -2.338974601574709267e-01 -1.527807238943634793e-01
1.350000000000000089e+00 -2.265589995554264935e-01 -5.667540933430029737e-01
1.366666666666666696e+00 -2.150056570460374961e-01 -7.592983399698166602e-01
1.383333333333333304e+00 -2.012490548897659381e-01 -9.166674094897214742e-01
1.399999999999999911e+00 -1.844500767297134469e-01 -1.209204101188404490e+00
1.416666666666666741e+00 -1.609422515168191237e-01 -1.693630042551920178e+00
1.433333333333333348e+00 -1.279957419779827743e-01 -2.181555853394102851e+00
1.449999999999999956e+00 -8.822372307034903605e-02 -2.542005623088478217e+00
1.466666666666666563e+00 -4.326222120836683421e-02 -2.863488552948198151e+00
1.483333333333333393e+00 7.225895361257568539e-03 -3.121089331435730863e+00
1.500000000000000000e+00 6.077408983949086213e-02 -3.075351474965865251e+00
1.516666666666666607e+00 1.097376111934530718e-01 -2.554314772949741297e+00
1.533333333333333215e+00 1.459179156044822512e-01 -1.771895721032284765e+00
1.550000000000000044e+00 1.688008018945292288e-01 -9.865370269240064660e-01
1.566666666666666652e+00 1.788024831686158000e-01 -2.831060281867800454e-01
1.583333333333333259e+00 1.782376695007552303e-01 2.500591645545605091e-01
1.600000000000000089e+00 1.704671776834637831e-01 4.790698043939015105e-01
1.616666666666666696e+00 1.622686760209585133e-01 4.460254555946921440e-01
1.633333333333333304e+00 1.555996624969740449e-01 3.323090862091404585e-01
1.649999999999999911e+00 1.511917064806538313e-01 2.372608427015471255e-01
1.666666666666666741e+00 1.476909677402558074e-01 1.335896558685745195e-01
1.683333333333333348e+00 1.467387179517013474e-01 3.962082837683955638e-02
1.699999999999999956e+00 1.463702734610278222e-01 1.597767391717241914e-02
1.716666666666666563e+00 1.462061288211289334e-01 9.040753576319116025e-02
1.733333333333333393e+00 1.433566889355881169e-01 2.210755510658091172e-01
1.750000000000000000e+00 1.388369437856019628e-01 3.252482569262354906e-01
1.766666666666666607e+00 1.325150803713802672e-01 3.670677255917625947e-01
1.783333333333333215e+00 1.266013529325432097e-01 3.906714597753388474e-01
1.800000000000000044e+00 1.194926983788689723e-01 4.348497915863202001e-01
1.816666666666666652e+00 1.121063598796658706e-01 4.756806974132162247e-01
1.833333333333333259e+00 1.036366751317617657e-01 5.047175203005065391e-01
1.849999999999999867e+00 9.528244253631565353e-02 5.292073187077965812e-01
1.866666666666666696e+00 8.599643117483521393e-02 5.654595235417175791e-01
1.883333333333333304e+00 7.643379175159173422e-02 6.010765858056481559e-01
1.899999999999999911e+00 6.596054498131360966e-02 6.551802640239827724e-01
1.916666666666666741e+00 5.459444961745897607e-02 7.125060455683136507e-01
1.933333333333333348e+00 4.221034346236982038e-02 1.362944763940135973e+00
1.949999999999999956e+00 9.162957486121109732e-03 1.234141730186773644e+00
1.966666666666666563e+00 1.072285789477368106e-03 2.723251831542249368e-01
1.983333333333333393e+00 8.545138098027925812e-05 3.216857368432104319e-02
2.000000000000000000e+00 0.000000000000000000e+00 5.127082858816755379e-03
