0.000000000000000000e+00 7.484133274908209614e+02 1.564032371768848861e+03
1.666666666666666644e-02 7.223461212946734804e+02 1.564032371768848861e+03
3.333333333333333287e-02 6.962789150985259994e+02 1.564032371768848861e+03
5.000000000000000278e-02 6.702117089023785184e+02 1.564032371768848861e+03
6.666666666666666574e-02 6.441445027062310373e+02 1.564032371768848861e+03
8.333333333333332871e-02 6.180772965100835563e+02 1.564032371768852272e+03
1.000000000000000056e-01 5.920100903139359616e+02 1.564032371768852272e+03
1.166666666666666685e-01 5.659428841177884806e+02 1.564032371768852272e+03
1.333333333333333315e-01 5.398756779216408859e+02 1.564032371768848861e+03
1.499999999999999944e-01 5.138084717254935185e+02 1.564032371768850680e+03
1.666666666666666574e-01 4.877412655293458670e+02 1.564032371768852272e+03
1.833333333333333204e-01 4.616740593331984428e+02 1.564032371768850680e+03
2.000000000000000111e-01 4.356068531370508481e+02 1.564032371768852272e+03
2.166666666666666741e-01 4.095396469409033671e+02 1.564032371768850680e+03
2.333333333333333370e-01 3.834724407447558292e+02 1.564032371768850680e+03
2.500000000000000000e-01 3.574052345486083482e+02 1.564032371768848861e+03
2.666666666666666630e-01 3.313380283524608672e+02 1.564032371768850680e+03
2.833333333333333259e-01 3.052708221563133293e+02 1.564032371768850680e+03
2.999999999999999889e-01 2.792036159601658483e+02 1.564032371768848861e+03
3.166666666666666519e-01 2.531364097640183672e+02 1.564032371768850680e+03
3.333333333333333148e-01 2.270692035678708294e+02 1.564032371768850680e+03
3.499999999999999778e-01 2.010019973717233484e+02 1.564032371768848861e+03
3.666666666666666408e-01 1.749347911755758673e+02 1.564032371768850680e+03
3.833333333333333037e-01 1.488675849794283295e+02 1.564032371768853636e+03
4.000000000000000222e-01 1.228003787832807490e+02 1.564032371768852272e+03
4.166666666666666852e-01 9.673317258713325373e+01 1.564032371768850226e+03
4.333333333333333481e-01 7.066596639098574428e+01 1.564032371768850226e+03
4.500000000000000111e-01 4.459876019483824905e+01 1.564032371768849998e+03
4.666666666666666741e-01 1.853155399869074671e+01 1.015433664607110472e+03
4.833333333333333370e-01 1.075097137460123697e+01 3.710388209985358117e+02
5.000000000000000000e-01 6.163593298739553639e+00 2.347228707787458006e+02
5.166666666666666075e-01 2.926875681976377486e+00 1.706073407630305780e+02
5.333333333333333259e-01 4.766819399718671968e-01 1.308055975633797914e+02
5.500000000000000444e-01 -1.433310903469614983e+00 1.009024170338198871e+02
5.666666666666666519e-01 -2.886731961155462489e+00 7.602690976957495650e+01
5.833333333333333703e-01 -3.967541229122113933e+00 5.546428652453565178e+01
5.999999999999999778e-01 -4.735541511973317519e+00 3.843027399839282054e+01
6.166666666666666963e-01 -5.248550362401874558e+00 2.373965424428710946e+01
6.333333333333333037e-01 -5.526863320116221168e+00 1.056530240973438950e+01
6.500000000000000222e-01 -5.600727109393020875e+00 -1.196474726187695126e+00
6.666666666666666297e-01 -5.486980829243297997e+00 -1.176506232847756905e+01
6.833333333333333481e-01 -5.208558365110435240e+00 -2.078998862930949443e+01
6.999999999999999556e-01 -4.793981208266314908e+00 -2.718407149925738509e+01
7.166666666666666741e-01 -4.302422648468522404e+00 -3.009892697825623742e+01
7.333333333333332815e-01 -3.790683642324440328e+00 -2.941988735708409664e+01
7.500000000000000000e-01 -3.321759736565719212e+00 -2.625695758247708511e+01
7.666666666666666075e-01 -2.915451722908537491e+00 -2.287859816440230176e+01
7.833333333333333259e-01 -2.559139797752309153e+00 -2.074276532171815290e+01
8.000000000000000444e-01 -2.224026212184599061e+00 -1.912611580596999872e+01
8.166666666666666519e-01 -1.921602604219975863e+00 -1.626229663542718384e+01
8.333333333333333703e-01 -1.681949657670359644e+00 -1.304412559214711109e+01
8.499999999999999778e-01 -1.486798417815072160e+00 -1.107254570534497873e+01
8.666666666666666963e-01 -1.312864800825527034e+00 -1.102003585521431006e+01
8.833333333333333037e-01 -1.119463889307928506e+00 -1.245643925728739809e+01
9.000000000000000222e-01 -8.976501589159471273e-01 -1.439309982659158749e+01
9.166666666666666297e-01 -6.396938950882089525e-01 -1.574052946399092257e+01
9.333333333333333481e-01 -3.729658434495830566e-01 -1.569145458117220926e+01
9.499999999999999556e-01 -1.166454090491353401e-01 -1.404726370551022185e+01
9.666666666666666741e-01 9.527628006742433486e-02 -1.150959250006845025e+01
9.833333333333332815e-01 2.670076742864796460e-01 -9.474668244575159548e+00
1.000000000000000000e+00 4.110985548865963013e-01 -8.835823186429180964e+00
1.016666666666666607e+00 5.615351138341190262e-01 -8.104003801686818775e+00
1.033333333333333215e+00 6.812320149428235938e-01 -6.472489319202114011e+00
1.050000000000000044e+00 7.772847578075228192e-01 -5.420839431598514224e+00
1.066666666666666652e+00 8.619266626627740679e-01 -4.978392194689090111e+00
1.083333333333333259e+00 9.432311642971591414e-01 -4.204532675691242893e+00
1.100000000000000089e+00 1.002077751852482157e+00 -2.462380088190236904e+00
1.116666666666666696e+00 1.025310500570167038e+00 -5.433914269002659836e-01
1.133333333333333304e+00 1.020190799415824356e+00 1.173799366591230520e+00
1.149999999999999911e+00 9.861838550171260209e-01 2.692659315526681141e+00
1.166666666666666741e+00 9.304354888982683258e-01 4.135788024043299593e+00
1.183333333333333348e+00 8.483242542156826937e-01 6.130293536328665027e+00
1.199999999999999956e+00 7.260923710206461656e-01 8.412191254011730734e+00
1.216666666666666563e+00 5.679178790819583433e-01 1.006958787631604224e+01
1.233333333333333393e+00 3.904394418101114206e-01 1.080098366809199462e+01
1.250000000000000000e+00 2.078850901455585043e-01 1.090760820709801315e+01
1.266666666666666607e+00 2.685250157351096872e-02 1.070735686835416267e+01
1.283333333333333215e+00 -1.490268054662469144e-01 9.937796237535097887e+00
1.300000000000000044e+00 -3.044073730109922438e-01 8.668704539503595541e+00
1.316666666666666652e+00 -4.379836234497000991e-01 7.363888643403106116e+00
1.333333333333333259e+00 -5.498703277910957921e-01 6.008204048129457853e+00
1.350000000000000089e+00 -6.382570917206820127e-01 4.474699671318612459e+00
1.366666666666666696e+00 -6.990269835017162148e-01 2.833976862288997367e+00
1.383333333333333304e+00 -7.327229871303152509e-01 1.537562669105455582e+00
1.399999999999999911e+00 -7.502790724718980675e-01 7.110892887452824329e-01
1.416666666666666741e+00 -7.564259634218246653e-01 1.982389442984289207e-01
1.433333333333333348e+00 -7.568870372818456982e-01 -3.018740374342687716e-02
1.449999999999999956e+00 -7.554197166303771027e-01 -6.193750317910806658e-02
1.466666666666666563e+00 -7.548224538425420960e-01 -2.199841162361648728e-01
1.483333333333333393e+00 -7.480869127558382736e-01 -7.855646534726656860e-01
1.500000000000000000e+00 -7.286369653934532398e-01 -1.667036935820325194e+00
1.516666666666666607e+00 -6.925190148951607672e-01 -2.552994453106750772e+00
1.533333333333333215e+00 -6.435371502898948881e-01 -3.231941236726303401e+00
1.550000000000000044e+00 -5.847876403376173204e-01 -3.514127092919900885e+00
1.566666666666666652e+00 -5.263995805258981919e-01 -3.261560045089033189e+00
1.583333333333333259e+00 -4.760689721679828845e-01 -2.548117444401984510e+00
1.600000000000000089e+00 -4.414623323791653786e-01 -1.660941986625569244e+00
1.616666666666666696e+00 -4.207042392804639097e-01 -9.827152710896142063e-01
1.633333333333333304e+00 -4.087051566761782384e-01 -9.239481759701306807e-01
1.649999999999999911e+00 -3.899059667481262204e-01 -1.455627071127065353e+00
1.666666666666666741e+00 -3.601842543052760637e-01 -2.006358026800159067e+00
1.683333333333333348e+00 -3.230273658547875848e-01 -2.184441522395130786e+00
1.699999999999999956e+00 -2.873695368921050375e-01 -1.984438404131447342e+00
1.716666666666666563e+00 -2.568794190504060104e-01 -1.606696216796738685e+00
1.733333333333333393e+00 -2.338129963322137517e-01 -1.171709051739238783e+00
1.750000000000000000e+00 -2.178224506590980547e-01 -8.835200367129573129e-01
1.766666666666666607e+00 -2.043623284417818431e-01 -9.006857816148361451e-01
1.783333333333333215e+00 -1.877995912719368499e-01 -1.156751682922579683e+00
1.800000000000000044e+00 -1.658039390110291889e-01 -1.437374143955054917e+00
1.816666666666666652e+00 -1.398871198067683508e-01 -1.421178286880634190e+00
1.833333333333333259e+00 -1.184313294483413798e-01 -1.000609251098786956e+00
1.849999999999999867e+00 -1.065334781034754513e-01 -4.678952996507808604e-01
1.866666666666666696e+00 -1.028348194599820187e-01 -1.564010961020853574e-01
1.883333333333333304e+00 -1.013201082334059394e-01 -1.347435243438471764e-01
1.899999999999999911e+00 -9.834336864852044613e-02 -3.103930814791214243e-01
1.916666666666666741e+00 -9.097367218410189194e-02 -6.276706171980627191e-01
1.933333333333333348e+00 -7.742101474191835642e-02 -2.207932903871652641e+00
1.949999999999999956e+00 -1.737590872171347264e-02 -2.253736186835896049e+00
1.966666666666666563e+00 -2.296475180721823436e-03 -5.147696259607448255e-01
1.983333333333333393e+00 -2.169211896886440703e-04 -6.889425542165469873e-02
2.000000000000000000e+00 0.000000000000000000e+00 -1.301527138131864519e-02
