0	85233.2	331678
0.0166667	79705.2	331678
0.0333333	74177.3	331678
0.05	68649.3	331678
0.0666667	63121.3	331678
0.0833333	57593.4	331678
0.1	52065.4	331678
0.116667	46537.4	331678
0.133333	41009.4	331678
0.15	35481.5	331678
0.166667	29953.5	331678
0.183333	24425.5	301282
0.2	19910.7	246042
0.216667	16224.1	200892
0.233333	13214.3	163993
0.25	10757.7	133841
0.266667	8752.97	109205
0.283333	7117.52	89077.6
0.3	5783.72	72637
0.316667	4696.29	59209.9
0.333333	3810.05	48245.8
0.35	3088.09	39294.8
0.366667	2500.23	31988.7
0.383333	2021.8	26026.9
0.4	1632.66	21163.3
0.416667	1316.36	17196.7
0.433333	1059.44	13963
0.45	850.927	11327.5
0.466667	681.855	9180.66
0.483333	544.905	7786.11
0.5	422.319	7025.43
0.516667	310.724	6802.96
0.533333	195.553	5117.16
0.55	140.152	2547.73
0.566667	110.629	1705.67
0.583333	83.2968	1423.55
0.6	63.1772	1077.61
0.616667	47.3764	847.393
0.633333	34.9307	641.008
0.65	26.0094	494.459
0.666667	18.4488	397.596
0.683333	12.7562	302.069
0.7	8.37981	226.403
0.716667	5.20947	180.513
0.733333	2.3627	142.512
0.75	0.459085	107.984
0.766667	-1.23678	83.4676
0.783333	-2.32317	58.7326
0.8	-3.19453	45.9648
0.816667	-3.85533	29.6072
0.833333	-4.18143	18.9611
0.85	-4.48737	9.24072
0.866667	-4.48946	0.571281
0.883333	-4.50641	3.71626
0.9	-4.61333	-0.960031
0.916667	-4.47441	-7.20057
0.933333	-4.37332	-3.71138
0.95	-4.3507	-3.47527
0.966667	-4.25747	-8.00958
0.983333	-4.08371	-11.7324
1	-3.86639	-7.81652
1.01667	-3.82316	-10.9192
1.03333	-3.50242	-16.8836
1.05	-3.26037	-13.3954
1.06667	-3.0559	-14.1165
1.08333	-2.78982	-19.112
1.1	-2.41884	-15.028
1.11667	-2.28889	-12.4716
1.13333	-2.00312	-15.1586
1.15	-1.7836	-15.5027
1.16667	-1.48636	-11.0631
1.18333	-1.41483	-7.63791
1.2	-1.23176	-13.1572
1.21667	-0.976259	-10.1855
1.23333	-0.892248	-7.46873
1.25	-0.727302	-10.3175
1.26667	-0.54833	-5.83834
1.28333	-0.53269	-2.40346
1.3	-0.468215	-3.9592
1.31667	-0.400717	-5.17771
1.33333	-0.295624	-3.9114
1.35	-0.270337	-1.79819
1.36667	-0.235685	-3.35837
1.38333	-0.158392	-2.75393
1.4	-0.143887	-0.268426
1.41667	-0.149444	0.771589
1.43333	-0.169607	-1.52729
1.45	-0.0985345	-3.12977
1.46667	-0.065281	-1.12387
1.48333	-0.061072	0.103921
1.5	-0.068745	-1.03205
1.51667	-0.0266702	-1.09365
1.53333	-0.0322901	-0.231839
1.55	-0.0189422	-0.992348
1.56667	0.000788119	-1.46456
1.58333	0.0298765	-0.911741
1.6	0.0311795	-0.978499
1.61667	0.0624932	-0.912136
1.63333	0.061584	-0.490941
1.65	0.0788579	-1.16881
1.66667	0.100544	-0.784258
1.68333	0.105	0.325325
1.7	0.0897003	-0.46313
1.71667	0.120437	-0.783781
1.73333	0.115826	0.776699
1.75	0.0945475	0.179675
1.76667	0.109837	0.093747
1.78333	0.0914226	0.795984
1.8	0.0833044	0.335701
1.81667	0.0802326	0.0155976
1.83333	0.0827845	-0.197164
1.85	0.0868048	-0.0733814
1.86667	0.0852305	0.368347
1.88333	0.0745265	0.805069
1.9	0.0583949	0.701833
1.91667	0.0511321	0.489075
1.93333	0.0420924	0.576554
1.95	0.0319136	0.594386
1.96667	0.0222795	0.637314
1.98333	0.0106698	0.668385
2	-1.96024e-16	0.640191
