0.000000000000000000e+00 nan nan
1.666666666666666644e-02 1.125376228925275391e+13 nan
3.333333333333333287e-02 4.395936297258925629e+10 3.375614151781522500e+14
5.000000000000000278e-02 1.715116647678966999e+09 1.313630612521228516e+12
6.666666666666666574e-02 1.716758885483117700e+08 5.058973881678851318e+10
8.333333333333332871e-02 2.879202045268315077e+07 4.949525670813726425e+09
1.000000000000000056e-01 6.691699521187573671e+06 8.053337728158589602e+08
1.166666666666666685e-01 1.947561358821186237e+06 1.807084154580540955e+08
1.333333333333333315e-01 6.680856725857704878e+05 5.063430053560313582e+07
1.499999999999999944e-01 2.597513409677483723e+05 1.669951025297486037e+07
1.666666666666666574e-01 1.114353308199418680e+05 6.240137902597439475e+06
1.833333333333333204e-01 5.174674421450038062e+04 2.573827811972556636e+06
2.000000000000000111e-01 2.564107042085664580e+04 1.150102500577009749e+06
2.166666666666666741e-01 1.340999419526672136e+04 5.490719451405922882e+05
2.333333333333333370e-01 7.338672249503567400e+03 2.770998952619652264e+05
2.500000000000000000e-01 4.173331019867880968e+03 1.465985213318328024e+05
2.666666666666666630e-01 2.452054871775806987e+03 8.076019416401255876e+04
2.833333333333333259e-01 1.481324547734128600e+03 4.607413513536696701e+04
2.999999999999999889e-01 9.162503672635747307e+02 2.709718977096096933e+04
3.166666666666666519e-01 5.780848887020963502e+02 1.636501182271482503e+04
3.333333333333333148e-01 3.707499731730806047e+02 1.011540265900562918e+04
3.499999999999999778e-01 2.409048000685753550e+02 6.660143268341731527e+03
3.666666666666666408e-01 1.487451975616895652e+02 4.341184401311338661e+03
3.833333333333333037e-01 9.619865335819739016e+01 2.424366254309057240e+03
4.000000000000000222e-01 6.793298908472098674e+01 1.519587112591282448e+03
4.166666666666666852e-01 4.554574960515463999e+01 9.909464572343200643e+02
4.333333333333333481e-01 3.490144051024365268e+01 5.752527021079368978e+02
4.500000000000000111e-01 2.637065953489007697e+01 4.566663648587633020e+02
4.666666666666666741e-01 1.967922834828487666e+01 3.494052405246747526e+02
4.833333333333333370e-01 1.472381818406758569e+01 2.571965844949281745e+02
5.000000000000000000e-01 1.110600886512060370e+01 1.876079147322030281e+02
5.166666666666666075e-01 8.470221026327484637e+00 1.476541499336744607e+02
5.333333333333333259e-01 6.184203867331454774e+00 1.257571584825542885e+02
5.500000000000000444e-01 4.278315743575674901e+00 1.093754763366089264e+02
5.666666666666666519e-01 2.538354656111157404e+00 9.801187544808949781e+01
5.833333333333333703e-01 1.011253228639358515e+00 8.912323192953284945e+01
5.999999999999999778e-01 -4.324197415399372302e-01 8.220132945560020232e+01
6.166666666666666963e-01 -1.728791086547314837e+00 5.800488533819979864e+01
6.333333333333333037e-01 -2.365915919479930629e+00 3.138004713380364308e+01
6.500000000000000222e-01 -2.774792657674102880e+00 8.952802900140520492e+00
6.666666666666666297e-01 -2.664342682817947949e+00 -3.007255909613189004e+00
6.833333333333333481e-01 -2.674550794020329914e+00 -3.209060545446629220e+00
6.999999999999999556e-01 -2.557373997969726975e+00 -9.297963928855384808e+00
7.166666666666666741e-01 -2.364618663058483783e+00 -3.522329451023034075e+00
7.333333333333332815e-01 -2.439963016268959173e+00 2.884938467798114914e+00
7.500000000000000000e-01 -2.460783278651754280e+00 7.423037609480118704e+00
7.666666666666666075e-01 -2.687397603251629796e+00 1.009363634483208294e+01
7.833333333333333259e-01 -2.797237823479490348e+00 9.887413911573919023e+00
8.000000000000000444e-01 -3.016978066970760430e+00 1.453995235752236859e+01
8.166666666666666519e-01 -3.281902902063569272e+00 1.202312196788242282e+01
8.333333333333333703e-01 -3.417748799233507828e+00 7.326692118462361236e+00
8.499999999999999778e-01 -3.526125972678981313e+00 4.830716079058170465e+00
8.666666666666666963e-01 -3.578772668535446844e+00 3.117084497388789011e+00
8.833333333333333037e-01 -3.630028789258607613e+00 -1.534515530328577348e+00
9.000000000000000222e-01 -3.527622150857827599e+00 -6.279104155991452885e+00
9.166666666666666297e-01 -3.420725317392225850e+00 -4.562408919845042377e+00
9.333333333333333481e-01 -3.375541853529659519e+00 -5.178430471595278917e+00
9.499999999999999556e-01 -3.248110968339049887e+00 -6.062428129181505199e+00
9.666666666666666741e-01 -3.173460915890276013e+00 -8.657073181320509292e+00
9.833333333333332815e-01 -2.959541862295032910e+00 -9.996162912764217978e+00
1.000000000000000000e+00 -2.840255485464802110e+00 -7.773199021191903313e+00
1.016666666666666607e+00 -2.700435228255302800e+00 -7.288084521870725752e+00
1.033333333333333215e+00 -2.597319334735777918e+00 -5.756654698761516364e+00
1.050000000000000044e+00 -2.508546738296585588e+00 -6.944534130212307588e+00
1.066666666666666652e+00 -2.365834863728700999e+00 -6.647673541413929854e+00
1.083333333333333259e+00 -2.286957620249454592e+00 -5.306059871466812794e+00
1.100000000000000089e+00 -2.188966201346473905e+00 -3.305865264854341845e+00
1.116666666666666696e+00 -2.176762111420976531e+00 -2.737929230931253066e+00
1.133333333333333304e+00 -2.097701893648765470e+00 -3.312820933129816403e+00
1.149999999999999911e+00 -2.066334746983315984e+00 -2.461935786125870607e+00
1.166666666666666741e+00 -2.015637367444569783e+00 -3.189350588449120227e+00
1.183333333333333348e+00 -1.960023060701678643e+00 -3.066528936145258566e+00
1.199999999999999956e+00 -1.913419736239727831e+00 -4.570564659577492250e+00
1.216666666666666563e+00 -1.807670905382428916e+00 -5.163513691295625208e+00
1.233333333333333393e+00 -1.741302613196540339e+00 -3.201219492251354826e+00
1.250000000000000000e+00 -1.700963588974050422e+00 -2.280356378635177705e+00
1.266666666666666607e+00 -1.665290733908701082e+00 -2.270078061470730546e+00
1.283333333333333215e+00 -1.625294320258359404e+00 -2.874517422829738766e+00
1.300000000000000044e+00 -1.569473486481043123e+00 -1.842258525237114863e+00
1.316666666666666652e+00 -1.563885702750455575e+00 -9.040675829824573739e-01
1.333333333333333259e+00 -1.539337900381627877e+00 -6.657963002323397106e-01
1.350000000000000089e+00 -1.541692492742710918e+00 7.206510036637037153e-01
1.366666666666666696e+00 -1.563359600503751334e+00 7.320354746409241109e-01
1.383333333333333304e+00 -1.566093675230741722e+00 -2.566718722388894314e-01
1.399999999999999911e+00 -1.554803871429121687e+00 -1.904731949956335324e+00
1.416666666666666741e+00 -1.502602610232197211e+00 -1.874450403040270885e+00
1.433333333333333348e+00 -1.492322191327779324e+00 -2.673861225478191272e-01
1.449999999999999956e+00 -1.493689739480603240e+00 -7.957279909550241115e-01
1.466666666666666563e+00 -1.465797924962611853e+00 -2.343139370625408890e+00
1.483333333333333393e+00 -1.415585093793089611e+00 -2.711826047735321765e+00
1.500000000000000000e+00 -1.375403723371434461e+00 -2.644767349916083976e+00
1.516666666666666607e+00 -1.327426182129220145e+00 -2.198980053257146849e+00
1.533333333333333215e+00 -1.302104388262862900e+00 -1.915965587811296889e+00
1.550000000000000044e+00 -1.263560662535510248e+00 -2.294964736097415692e+00
1.566666666666666652e+00 -1.225605563726282377e+00 -2.081822083660089806e+00
1.583333333333333259e+00 -1.194166593080173921e+00 -2.397618724455252703e+00
1.600000000000000089e+00 -1.145684939577773953e+00 -1.962284009582742073e+00
1.616666666666666696e+00 -1.128757126094082519e+00 -1.613453739115062735e+00
1.633333333333333304e+00 -1.091903148273938529e+00 -1.831394037084599358e+00
1.649999999999999911e+00 -1.067710658191262540e+00 -2.106363012341341268e+00
1.666666666666666741e+00 -1.021691047862560486e+00 -2.201181492601718137e+00
1.683333333333333348e+00 -9.943379417712052692e-01 -2.484883134531710169e+00
1.699999999999999956e+00 -9.388616100448368140e-01 -2.826640110876066370e+00
1.716666666666666563e+00 -9.001166047420030569e-01 -2.725798391406439869e+00
1.733333333333333393e+00 -8.480016636646221517e-01 -2.844721409365138509e+00
1.750000000000000000e+00 -8.052925577631651066e-01 -2.959923056334818003e+00
1.766666666666666607e+00 -7.493375617867948923e-01 -3.557780713390203964e+00
1.783333333333333215e+00 -6.866998673168249745e-01 -3.565860212144422725e+00
1.800000000000000044e+00 -6.304755547153141348e-01 -3.189422881307983015e+00
1.816666666666666652e+00 -5.803857712732255481e-01 -2.546538802424729298e+00
1.833333333333333259e+00 -5.455909279678231583e-01 -2.610810934479610879e+00
1.849999999999999867e+00 -4.933587401239051817e-01 -2.588426832265670274e+00
1.866666666666666696e+00 -4.593100335589674899e-01 -2.539535899672236585e+00
1.883333333333333304e+00 -4.087075434681639585e-01 -2.800375009979291452e+00
1.899999999999999911e+00 -3.659641998929911155e-01 -2.742042139704906845e+00
1.916666666666666741e+00 -3.173061388113337378e-01 -2.714499640722689566e+00
1.933333333333333348e+00 -2.754808785355681300e-01 -9.256383172755084487e+00
1.949999999999999956e+00 -8.760033052830898045e-03 -8.233767342874164896e+00
1.966666666666666563e+00 -1.021967106429348985e-03 -2.594035460003077387e-01
1.983333333333333393e+00 -1.132481861539743126e-04 -3.065901319288047086e-02
2.000000000000000000e+00 0.000000000000000000e+00 -6.794891169238459136e-03
