0	1.07213e+07	2.35599e+07
0.0166667	1.03287e+07	4.38071e+07
0.0333333	9.26109e+06	7.67609e+07
0.05	7.76996e+06	9.46919e+07
0.0666667	6.10469e+06	9.95459e+07
0.0833333	4.45176e+06	9.43343e+07
0.1	2.96021e+06	8.07933e+07
0.116667	1.75865e+06	6.12144e+07
0.133333	919731	4.00666e+07
0.15	423101	2.23394e+07
0.166667	175083	1.06338e+07
0.183333	68640.7	4.43106e+06
0.2	27381	1.70687e+06
0.216667	11744.9	656882
0.233333	5484.98	269881
0.25	2748.88	120877
0.266667	1455.75	58209.3
0.283333	808.568	29564
0.3	470.287	15834.3
0.316667	280.758	9272.32
0.333333	161.21	5429.61
0.35	99.7705	2630.6
0.366667	73.5232	1220.93
0.383333	59.0727	781.466
0.4	47.4743	633.295
0.416667	37.9629	514.056
0.433333	30.3391	421.928
0.45	23.8986	361.956
0.466667	18.2739	312.173
0.483333	13.4928	260.755
0.5	9.58207	211.02
0.516667	6.45883	165.89
0.533333	4.05241	126.794
0.55	2.23238	98.6163
0.566667	0.765201	81.6523
0.583333	-0.489364	69.3709
0.6	-1.54716	56.4804
0.616667	-2.37204	40.342
0.633333	-2.8919	22.0248
0.65	-3.1062	5.5865
0.666667	-3.07811	-7.88571
0.683333	-2.84335	-18.1212
0.7	-2.47407	-22.1337
0.716667	-2.10556	-18.7111
0.733333	-1.85037	-11.2903
0.75	-1.72921	-4.76781
0.766667	-1.69144	-0.262843
0.783333	-1.72045	3.36823
0.8	-1.80372	5.43487
0.816667	-1.90161	5.67392
0.833333	-1.99285	4.5592
0.85	-2.05359	2.22432
0.866667	-2.06699	-1.16312
0.883333	-2.01482	-6.33477
0.9	-1.85583	-12.9591
0.916667	-1.58285	-18.5471
0.933333	-1.2376	-21.1897
0.95	-0.876523	-21.4162
0.966667	-0.523724	-20.833
0.983333	-0.182089	-19.3834
1	0.122388	-17.0129
1.01667	0.385009	-14.7734
1.03333	0.614836	-12.0438
1.05	0.786467	-8.08409
1.06667	0.884305	-4.82549
1.08333	0.947317	-3.79225
1.1	1.01071	-3.56583
1.11667	1.06618	-3.13797
1.13333	1.11531	-2.48407
1.15	1.14898	-0.865524
1.16667	1.14416	1.3994
1.18333	1.10233	2.86991
1.2	1.0485	2.79193
1.21667	1.00927	2.12056
1.23333	0.977814	2.17132
1.25	0.936892	2.39453
1.26667	0.897996	2.11429
1.28333	0.866416	2.18037
1.3	0.825317	3.04504
1.31667	0.764915	3.82332
1.33333	0.697873	3.5423
1.35	0.646838	1.86576
1.36667	0.635681	-0.515953
1.38333	0.664037	-2.0044
1.4	0.702495	-1.62114
1.41667	0.718075	-0.0119811
1.43333	0.702894	1.42354
1.45	0.670623	2.11169
1.46667	0.632505	2.15107
1.48333	0.598921	1.8433
1.5	0.571061	1.61943
1.51667	0.54494	1.38888
1.53333	0.524765	1.03195
1.55	0.510542	0.709219
1.56667	0.501125	0.327198
1.58333	0.499635	0.0118817
1.6	0.500729	0.155489
1.61667	0.494452	0.545534
1.63333	0.482544	0.670643
1.65	0.472097	0.52599
1.66667	0.465011	0.420794
1.68333	0.458071	0.615507
1.7	0.444494	1.07559
1.71667	0.422218	1.44302
1.73333	0.396394	1.4706
1.75	0.373198	1.25102
1.76667	0.354693	1.18838
1.78333	0.333585	1.52358
1.8	0.303907	1.95106
1.81667	0.26855	2.04781
1.83333	0.235647	1.74925
1.85	0.210242	1.32861
1.86667	0.191359	1.08507
1.88333	0.174073	1.12255
1.9	0.153941	1.32514
1.91667	0.129902	1.51542
1.93333	0.103427	1.59375
1.95	0.0767767	1.57798
1.96667	0.0508278	1.54156
1.98333	0.0253913	1.52483
2	0	1.52348
