0	1244.65	279.425
0.0166667	1240	542.165
0.0333333	1226.58	1023.13
0.05	1205.89	1400.97
0.0666667	1179.88	1662.9
0.0833333	1150.46	1822.21
0.1	1119.14	1906.49
0.116667	1086.91	1944.82
0.133333	1054.32	1959.55
0.15	1021.59	1964.22
0.166667	988.841	1965.39
0.183333	956.082	1965.61
0.2	923.321	1965.64
0.216667	890.56	1965.64
0.233333	857.799	1965.64
0.25	825.039	1965.64
0.266667	792.278	1965.64
0.283333	759.517	1965.77
0.3	726.752	1971.08
0.316667	693.814	2006.4
0.333333	659.872	2153.5
0.35	622.031	2791.06
0.366667	566.837	4286.65
0.383333	479.143	6692.75
0.4	343.745	6186.89
0.416667	272.913	3928.34
0.433333	212.801	3213.28
0.45	165.804	2358.6
0.466667	134.181	1556.55
0.483333	113.919	1028.24
0.5	99.9062	751.423
0.516667	88.8713	608.282
0.533333	79.6301	520.464
0.55	71.5225	470.664
0.566667	63.9414	355.016
0.583333	59.6886	351.442
0.6	52.2266	414.906
0.616667	45.8584	355.018
0.633333	40.3927	294.609
0.65	36.0381	233.28
0.666667	32.6167	189.37
0.683333	29.7258	164.065
0.7	27.1478	145.051
0.716667	24.8908	133.514
0.733333	22.6974	132.622
0.75	20.47	136.614
0.766667	18.1436	139.309
0.783333	15.8264	137.818
0.8	13.5496	128.272
0.816667	11.5506	112.441
0.833333	9.80159	105.371
0.85	8.03827	110.837
0.866667	6.10702	117.202
0.883333	4.13152	110.43
0.9	2.42602	91.1279
0.916667	1.09392	69.7798
0.933333	0.100023	57.5494
0.95	-0.824388	50.1353
0.966667	-1.57115	38.4908
0.983333	-2.10742	22.2228
1	-2.31191	5.64358
1.01667	-2.29553	3.91876
1.03333	-2.44254	19.5539
1.05	-2.94733	31.305
1.06667	-3.48604	27.0072
1.08333	-3.84757	16.2887
1.1	-4.029	7.68929
1.11667	-4.10388	3.18519
1.13333	-4.13517	4.2228
1.15	-4.24464	7.37203
1.16667	-4.38091	4.97585
1.18333	-4.4105	0.303583
1.2	-4.39103	-1.94671
1.21667	-4.34561	-5.51869
1.23333	-4.20707	-7.35451
1.25	-4.10046	-2.68359
1.26667	-4.11762	1.95345
1.28333	-4.16558	-0.906762
1.3	-4.08739	-11.3594
1.31667	-3.78693	-21.0815
1.33333	-3.38468	-22.027
1.35	-3.0527	-15.6951
1.36667	-2.86151	-9.43959
1.38333	-2.73804	-9.34549
1.4	-2.54999	-14.1433
1.41667	-2.2666	-17.743
1.43333	-1.95856	-18.1984
1.45	-1.65999	-18.1132
1.46667	-1.35478	-18.3049
1.48333	-1.04982	-17.1355
1.5	-0.783601	-14.4208
1.51667	-0.569131	-11.8185
1.53333	-0.389649	-8.96937
1.55	-0.270152	-6.26361
1.56667	-0.180862	-5.22002
1.58333	-0.0961512	-6.20488
1.6	0.0259672	-7.73793
1.61667	0.16178	-7.21194
1.63333	0.266365	-4.79415
1.65	0.321585	-2.38472
1.66667	0.345856	-0.79371
1.68333	0.348042	0.246071
1.7	0.337653	0.259454
1.71667	0.339393	-0.0452798
1.73333	0.339163	1.63178
1.75	0.285001	3.42796
1.76667	0.224897	3.45395
1.78333	0.169869	3.27648
1.8	0.115681	2.91837
1.81667	0.0725901	1.50936
1.83333	0.0653693	-0.338968
1.85	0.083889	-0.840189
1.86667	0.0933756	0.176701
1.88333	0.0779989	1.38968
1.9	0.0470528	1.66216
1.91667	0.0225937	0.959091
1.93333	0.0150831	0.349066
1.95	0.0109582	0.332129
1.96667	0.00401211	0.417167
1.98333	-0.00294735	0.120363
2	0	-0.176841
