0	2.1221e+09	4.66196e+09
0.0166667	2.04441e+09	8.66842e+09
0.0333333	1.83316e+09	1.51892e+10
0.05	1.5381e+09	1.87375e+10
0.0666667	1.20857e+09	1.96983e+10
0.0833333	8.81486e+08	1.86679e+10
0.1	5.86313e+08	1.59897e+10
0.116667	3.48497e+08	1.21169e+10
0.133333	1.82415e+08	7.9333e+09
0.15	8.40534e+07	4.4257e+09
0.166667	3.48916e+07	2.1088e+09
0.183333	1.376e+07	8.80402e+08
0.2	5.54487e+06	3.40339e+08
0.216667	2.41536e+06	1.31784e+08
0.233333	1.15209e+06	5.46646e+07
0.25	593212	2.48326e+07
0.266667	324334	1.22141e+07
0.283333	186074	6.3976e+06
0.3	111081	3.52516e+06
0.316667	68569	2.02578e+06
0.333333	43555.1	1.20631e+06
0.35	28358.8	740654
0.366667	18866.7	467030
0.383333	12791.2	301471
0.4	8817.64	198682
0.416667	6168.43	133384
0.433333	4371.5	91042.8
0.45	3133.67	63075.4
0.466667	2268.99	44290.6
0.483333	1657.31	31480.9
0.5	1219.62	22628.4
0.516667	903.032	16460
0.533333	670.959	12222.1
0.55	495.627	9568.37
0.566667	352.013	8277.71
0.583333	219.703	6713.09
0.6	128.243	4143.97
0.616667	81.5707	2059.03
0.633333	59.6086	1019.92
0.65	47.5735	602.497
0.666667	39.5253	432.843
0.683333	33.1454	351.417
0.7	27.8114	291.35
0.716667	23.4337	248.325
0.733333	19.534	226.758
0.75	15.8751	208.02
0.766667	12.6	183.076
0.783333	9.7726	158.813
0.8	7.3062	140.264
0.816667	5.09713	125.712
0.833333	3.1158	111.075
0.85	1.39465	94.9124
0.866667	-0.0479439	80.0146
0.883333	-1.27251	69.6935
0.9	-2.37106	62.185
0.916667	-3.34534	53.5248
0.933333	-4.15522	43.9172
0.95	-4.80924	35.1741
0.966667	-5.32769	27.8978
0.983333	-5.73917	22.7099
1	-6.08469	18.7796
1.01667	-6.36516	13.8741
1.03333	-6.54715	8.21263
1.05	-6.63891	3.95598
1.06667	-6.67902	1.4658
1.08333	-6.68777	-0.701471
1.1	-6.65564	-3.47263
1.11667	-6.57202	-6.0116
1.13333	-6.45525	-7.81362
1.15	-6.31156	-9.70344
1.16667	-6.1318	-11.4945
1.18333	-5.92842	-12.3044
1.2	-5.72166	-12.3465
1.21667	-5.51687	-11.7387
1.23333	-5.33037	-10.4814
1.25	-5.16749	-9.66932
1.26667	-5.00806	-10.1216
1.28333	-4.8301	-11.0325
1.3	-4.64031	-11.3945
1.31667	-4.45028	-11.7597
1.33333	-4.24832	-13.1259
1.35	-4.01275	-14.6605
1.36667	-3.75963	-14.6562
1.38333	-3.52421	-13.4411
1.4	-3.3116	-12.2951
1.41667	-3.11437	-11.7801
1.43333	-2.91892	-12.1594
1.45	-2.70906	-13.5322
1.46667	-2.46785	-15.5539
1.48333	-2.1906	-17.2199
1.5	-1.89386	-17.3497
1.51667	-1.61228	-15.5668
1.53333	-1.37496	-12.805
1.55	-1.18544	-10.4537
1.56667	-1.02651	-9.07976
1.58333	-0.882784	-8.35998
1.6	-0.747839	-8.03495
1.61667	-0.614952	-7.88839
1.63333	-0.484893	-7.50697
1.65	-0.36472	-6.57295
1.66667	-0.265794	-5.1396
1.68333	-0.1934	-3.69888
1.7	-0.142498	-2.55931
1.71667	-0.10809	-1.61371
1.73333	-0.088708	-0.956018
1.75	-0.0762227	-0.690708
1.76667	-0.0656844	-0.606717
1.78333	-0.0559988	-0.578724
1.8	-0.0463936	-0.617784
1.81667	-0.035406	-0.690791
1.83333	-0.0233672	-0.655144
1.85	-0.0135678	-0.515841
1.86667	-0.00617254	-0.433837
1.88333	0.000893407	-0.390455
1.9	0.00684263	-0.239562
1.91667	0.00887879	-0.00860853
1.93333	0.00712958	0.144588
1.95	0.0040592	0.169456
1.96667	0.00148104	0.117488
1.98333	0.000142912	0.0444311
2	0	0.00857475
