0.000000000000000000e+00 nan nan
1.666666666666666644e-02 2.627008468638916936e+20 nan
3.333333333333333287e-02 6.413594767022626400e+16 7.881010576380451095e+21
5.000000000000000278e-02 4.943178766753350625e+14 1.923608684992165888e+18
6.666666666666666574e-02 1.565817048740226758e+13 1.479725577886596200e+16
8.333333333333332871e-02 1.076017379802976318e+12 4.661246746721068750e+14
1.000000000000000056e-01 1.206813316653718567e+11 3.171115717236900000e+13
1.166666666666666685e-01 1.897880739067623520e+10 3.505765394292404785e+12
1.333333333333333315e-01 3.822485188958362579e+09 5.414644918405487671e+11
1.499999999999999944e-01 9.299909959912753105e+08 1.067960096142435150e+11
1.666666666666666574e-01 2.626182018169122934e+08 2.538999183973723221e+10
1.833333333333333204e-01 8.365793466670095921e+07 6.995466938478251457e+09
2.000000000000000111e-01 2.943597053430389985e+07 2.171982468472978592e+09
2.166666666666666741e-01 1.125851905093499459e+07 7.443983170613715649e+08
2.333333333333333370e-01 4.622693298924847506e+06 2.772314423399344087e+08
2.500000000000000000e-01 2.017470972937181592e+06 1.108295524241644591e+08
2.666666666666666630e-01 9.283748847860319074e+05 4.710002726359428465e+07
2.833333333333333259e-01 4.474700641507055843e+05 2.111154521367384493e+07
2.999999999999999889e-01 2.246567109969036828e+05 9.916068002050146461e+06
3.166666666666666519e-01 1.169344640823673981e+05 4.854361949084960856e+06
3.333333333333333148e-01 6.284464602740498958e+04 2.465542528942104895e+06
3.499999999999999778e-01 3.474971311763057747e+04 1.294135528972773347e+06
3.666666666666666408e-01 1.970679506164587656e+04 6.996148761205626652e+05
3.833333333333333037e-01 1.142921724694515615e+04 3.883787377714349423e+05
4.000000000000000222e-01 6.760837135931377816e+03 2.208094593088910915e+05
4.166666666666666852e-01 4.068901936648786432e+03 1.282650117377793940e+05
4.333333333333333481e-01 2.485336744672064924e+03 7.595883395859712618e+04
4.500000000000000111e-01 1.536940804695549105e+03 4.576632498721726733e+04
4.666666666666666741e-01 9.597925784314894599e+02 2.800117724601732698e+04
4.833333333333333370e-01 6.035682298283048794e+02 1.736444348338730560e+04
5.000000000000000000e-01 3.809777956519126292e+02 1.089426191763897077e+04
5.166666666666666075e-01 2.404261659070058670e+02 6.901883546749111702e+03
5.333333333333333259e-01 1.509150107602755781e+02 4.622272882065804879e+03
5.500000000000000444e-01 8.635040317147903011e+01 3.066764662748700630e+03
5.666666666666666519e-01 4.868952200198556568e+01 1.816972200367537653e+03
5.833333333333333703e-01 2.578466315922777241e+01 1.040197907848206114e+03
5.999999999999999778e-01 1.401625840704536330e+01 5.765451378283624990e+02
6.166666666666666963e-01 6.566491898282356132e+00 3.645719602100154475e+02
6.333333333333333037e-01 1.863859733378181449e+00 2.298016574151458258e+02
6.500000000000000222e-01 -1.093563348889170950e+00 1.440532970354290683e+02
6.666666666666666297e-01 -2.937916834469454397e+00 8.942267613467481624e+01
6.833333333333333481e-01 -4.074319220044998247e+00 5.418862834249311788e+01
6.999999999999999556e-01 -4.744204445885891630e+00 3.133364480187396950e+01
7.166666666666666741e-01 -5.118774046774130504e+00 1.636787001971843125e+01
7.333333333333332815e-01 -5.289800113209839338e+00 6.285275900639888391e+00
7.500000000000000000e-01 -5.328283243462126784e+00 -6.959018137024042261e-01
7.666666666666666075e-01 -5.266603386086425864e+00 -5.669090515176176126e+00
7.833333333333333259e-01 -5.139313559622920913e+00 -8.675458120489594194e+00
8.000000000000000444e-01 -4.977421448736772724e+00 -1.035878627437176291e+01
8.166666666666666519e-01 -4.794020683810528816e+00 -1.150709749498616929e+01
8.333333333333333703e-01 -4.593851532237233748e+00 -1.246451910179279032e+01
8.499999999999999778e-01 -4.378536713750769138e+00 -1.300078066578866043e+01
8.666666666666666963e-01 -4.160492176710945067e+00 -1.296729840863415362e+01
8.833333333333333037e-01 -3.946293433462964018e+00 -1.295570742111345375e+01
9.000000000000000222e-01 -3.728635262673829942e+00 -1.278888920431102783e+01
9.166666666666666297e-01 -3.519997126652596453e+00 -1.229344151404115237e+01
9.333333333333333481e-01 -3.318853878872458196e+00 -1.181656116892404107e+01
9.499999999999999556e-01 -3.126111754355128447e+00 -1.129949471339259937e+01
9.666666666666666741e-01 -2.942204055092704884e+00 -1.082525203169382166e+01
9.833333333333332815e-01 -2.765270019965334392e+00 -1.004870226532345256e+01
1.000000000000000000e+00 -2.607247312915256465e+00 -9.188030186739268856e+00
1.016666666666666607e+00 -2.459002347074025430e+00 -8.693128059060498458e+00
1.033333333333333215e+00 -2.317476377613239880e+00 -8.314536136013268575e+00
1.050000000000000044e+00 -2.181851142540249811e+00 -7.782771423087790907e+00
1.066666666666666652e+00 -2.058050663510313516e+00 -7.015082738612535174e+00
1.083333333333333259e+00 -1.948015051253165320e+00 -6.298111181981913553e+00
1.100000000000000089e+00 -1.848113624110916398e+00 -5.893995481542735781e+00
1.116666666666666696e+00 -1.751548535201740808e+00 -5.708166231679239644e+00
1.133333333333333304e+00 -1.657841416388275091e+00 -5.550222949088253088e+00
1.149999999999999911e+00 -1.566541103565465720e+00 -5.375516049738462421e+00
1.166666666666666741e+00 -1.478657548063659677e+00 -5.080413850726535507e+00
1.183333333333333348e+00 -1.397193975207914551e+00 -4.742421465000544067e+00
1.199999999999999956e+00 -1.320576832563641556e+00 -4.463075975862249578e+00
1.216666666666666563e+00 -1.248424776012506232e+00 -4.275947755676988038e+00
1.233333333333333393e+00 -1.178045240707741970e+00 -4.004829700097172207e+00
1.250000000000000000e+00 -1.114930452675933825e+00 -3.697174975964523380e+00
1.266666666666666607e+00 -1.054806074842257857e+00 -3.566610152881316775e+00
1.283333333333333215e+00 -9.960434475798899401e-01 -3.491032757858634206e+00
1.300000000000000044e+00 -9.384383162469700501e-01 -3.467761413589399933e+00
1.316666666666666652e+00 -8.804514004602432831e-01 -3.278663218959187109e+00
1.333333333333333259e+00 -8.291495422816638206e-01 -3.018644655801248078e+00
1.350000000000000089e+00 -7.798299119335350138e-01 -2.805806523863612068e+00
1.366666666666666696e+00 -7.356226581528767516e-01 -2.683525669153840276e+00
1.383333333333333304e+00 -6.903790562950736787e-01 -2.650004172095510313e+00
1.399999999999999911e+00 -6.472891857496930745e-01 -2.500684020445226530e+00
1.416666666666666741e+00 -6.070229222802328017e-01 -2.276763082127818638e+00
1.433333333333333348e+00 -5.713970830120991273e-01 -2.059050788581850089e+00
1.449999999999999956e+00 -5.383878959941711395e-01 -1.897599235893653313e+00
1.466666666666666563e+00 -5.081437751489773502e-01 -1.830888788137580825e+00
1.483333333333333393e+00 -4.773582697229184491e-01 -1.790865430010929016e+00
1.500000000000000000e+00 -4.484482608152797201e-01 -1.698634835464946091e+00
1.516666666666666607e+00 -4.207371085407535793e-01 -1.594358715288151096e+00
1.533333333333333215e+00 -3.953029703056746835e-01 -1.480612923902507427e+00
1.550000000000000044e+00 -3.713833444106700021e-01 -1.382215610586272625e+00
1.566666666666666652e+00 -3.492291166194655960e-01 -1.289525487036217832e+00
1.583333333333333259e+00 -3.283991615094627448e-01 -1.158905445057872852e+00
1.600000000000000089e+00 -3.105989351175365010e-01 -1.023866538540738169e+00
1.616666666666666696e+00 -2.942702768914381428e-01 -9.754013698232266716e-01
1.633333333333333304e+00 -2.780855561234289453e-01 -9.553323754278686408e-01
1.649999999999999911e+00 -2.624258643771758548e-01 -9.561801139087414692e-01
1.666666666666666741e+00 -2.462128856598042315e-01 -9.150341279018536778e-01
1.683333333333333348e+00 -2.319247267804473989e-01 -8.547059621893027259e-01
1.699999999999999956e+00 -2.177226869201608073e-01 -8.322563821693022001e-01
1.716666666666666563e+00 -2.041828473748039940e-01 -8.109475205192312464e-01
1.733333333333333393e+00 -1.906911029028530991e-01 -8.177813171844239282e-01
1.750000000000000000e+00 -1.769234701353231964e-01 -7.967179505145033369e-01
1.766666666666666607e+00 -1.641338378857029878e-01 -7.787406580052089744e-01
1.783333333333333215e+00 -1.509654482018162325e-01 -7.676909916703104075e-01
1.800000000000000044e+00 -1.385441381633593094e-01 -7.598394537200234833e-01
1.816666666666666652e+00 -1.256374664111487849e-01 -7.625594440216318937e-01
1.833333333333333259e+00 -1.131254900293049148e-01 -7.498117856936957759e-01
1.849999999999999867e+00 -1.006437402213589266e-01 -7.287936597697837193e-01
1.866666666666666696e+00 -8.883236803697878992e-02 -7.053209525577897043e-01
1.883333333333333304e+00 -7.713304180276593647e-02 -6.939038403270834099e-01
1.899999999999999911e+00 -6.570224002607601144e-02 -6.905121254409299913e-01
1.916666666666666741e+00 -5.411597095473493629e-02 -6.838389327701021037e-01
1.933333333333333348e+00 -4.290760893373927326e-02 -9.745061861217079180e-01
1.949999999999999956e+00 -2.163243141734466982e-02 -1.133601089337858081e+00
1.966666666666666563e+00 -5.120905955810670443e-03 -6.343848785670452850e-01
1.983333333333333393e+00 -4.862687984431595029e-04 -1.536271786743201029e-01
2.000000000000000000e+00 0.000000000000000000e+00 -2.917612790658957039e-02
