0	161395	116.083
0.0166667	161393	-517.904
0.0333333	161412	-171.493
0.05	161399	765.089
0.0666667	161387	689.254
0.0833333	161376	628.172
0.1	161366	572.836
0.116667	161357	525.782
0.133333	161348	495.88
0.15	161340	491.471
0.166667	161332	504.956
0.183333	161323	25644.2
0.2	160477	162161
0.216667	155918	515903
0.233333	143280	1.07817e+06
0.25	119979	1.63583e+06
0.266667	88752.6	1.88817e+06
0.283333	57039.8	1.70122e+06
0.3	32045.3	1.21985e+06
0.316667	16378.2	715613
0.333333	8191.57	364434
0.35	4230.42	178726
0.366667	2234.04	91932.9
0.383333	1166	51242.9
0.4	525.948	28326.5
0.416667	221.779	12582.6
0.433333	106.529	5176.57
0.45	49.2265	2519.05
0.466667	22.5605	1133.9
0.483333	11.4299	448.651
0.5	7.60549	143.121
0.516667	6.65924	36.7394
0.533333	6.38084	20.9798
0.55	5.95992	30.1828
0.566667	5.37475	34.5851
0.583333	4.80708	31.9866
0.6	4.30853	29.4698
0.616667	3.82475	29.6308
0.633333	3.32083	30.322
0.65	2.81402	29.5366
0.666667	2.33628	27.033
0.683333	1.91292	23.5082
0.7	1.55267	20.3455
0.716667	1.23474	19.1646
0.733333	0.913851	20.116
0.75	0.564201	20.9504
0.766667	0.215504	19.162
0.783333	-0.0745319	14.8339
0.8	-0.27896	10.16
0.816667	-0.413199	6.44237
0.833333	-0.493706	3.39528
0.85	-0.526375	1.23274
0.866667	-0.534797	1.33677
0.883333	-0.570934	4.20021
0.9	-0.674804	7.73593
0.916667	-0.828799	8.92057
0.933333	-0.972157	6.74961
0.95	-1.05379	2.90931
0.966667	-1.06913	0.00706743
0.983333	-1.05402	-0.618626
1	-1.04851	0.194439
1.01667	-1.0605	0.792382
1.03333	-1.07493	0.474324
1.05	-1.07631	-0.601895
1.06667	-1.05486	-2.05016
1.08333	-1.00797	-3.47839
1.1	-0.938916	-4.23738
1.11667	-0.866728	-3.48388
1.13333	-0.822787	-1.32327
1.15	-0.82262	0.686508
1.16667	-0.84567	0.971007
1.18333	-0.854986	-0.415997
1.2	-0.831804	-2.03349
1.21667	-0.787203	-2.65374
1.23333	-0.743346	-2.27227
1.25	-0.711461	-1.46926
1.26667	-0.69437	-0.597857
1.28333	-0.691533	0.0612899
1.3	-0.696413	0.200075
1.31667	-0.698202	-0.193228
1.33333	-0.689972	-0.669088
1.35	-0.675899	-0.689511
1.36667	-0.666989	-0.240616
1.38333	-0.667878	0.120882
1.4	-0.671018	-0.157992
1.41667	-0.662612	-1.06236
1.43333	-0.635606	-1.95262
1.45	-0.597525	-2.26335
1.46667	-0.560161	-2.10966
1.48333	-0.527202	-1.95241
1.5	-0.495081	-1.89793
1.51667	-0.463938	-1.63464
1.53333	-0.440593	-1.05306
1.55	-0.428836	-0.532488
1.56667	-0.422843	-0.415413
1.58333	-0.414989	-0.534512
1.6	-0.405026	-0.567213
1.61667	-0.396082	-0.534341
1.63333	-0.387215	-0.705139
1.65	-0.372577	-1.1762
1.66667	-0.348008	-1.66382
1.68333	-0.317117	-1.78534
1.7	-0.288497	-1.4519
1.71667	-0.26872	-0.909169
1.73333	-0.258191	-0.487982
1.75	-0.252454	-0.313383
1.76667	-0.247745	-0.248998
1.78333	-0.244154	-0.176775
1.8	-0.241853	-0.217128
1.81667	-0.236917	-0.523575
1.83333	-0.2244	-0.994962
1.85	-0.203751	-1.35945
1.86667	-0.179085	-1.47773
1.88333	-0.154493	-1.44314
1.9	-0.13098	-1.39609
1.91667	-0.107957	-1.38447
1.93333	-0.0848313	-1.38845
1.95	-0.0616753	-1.36169
1.96667	-0.0394417	-1.27473
1.98333	-0.0191842	-1.18325
2	0	-1.15105
