0.000000000000000000e+00 8.725246089660520738e+03 1.663987428663767787e+04
1.666666666666666644e-02 8.447914851549892774e+03 1.663987428663759783e+04
3.333333333333333287e-02 8.170583613439267538e+03 1.663987428663754326e+04
5.000000000000000278e-02 7.893252375328641392e+03 1.663987428663756873e+04
6.666666666666666574e-02 7.615921137218015247e+03 1.663987428663756873e+04
8.333333333333332871e-02 7.338589899107389101e+03 1.663987428663759783e+04
1.000000000000000056e-01 7.061258660996762046e+03 1.663987428663756873e+04
1.166666666666666685e-01 6.783927422886136810e+03 1.663987428663756873e+04
1.333333333333333315e-01 6.506596184775509755e+03 1.663987428663759783e+04
1.499999999999999944e-01 6.229264946664883610e+03 1.663987428663759783e+04
1.666666666666666574e-01 5.951933708554256555e+03 1.663987428663756873e+04
1.833333333333333204e-01 5.674602470443631319e+03 1.663987428663756873e+04
2.000000000000000111e-01 5.397271232333004264e+03 1.663987428663759783e+04
2.166666666666666741e-01 5.119939994222378118e+03 1.663987428663759783e+04
2.333333333333333370e-01 4.842608756111751063e+03 1.663987428663759783e+04
2.500000000000000000e-01 4.565277518001124918e+03 1.663987428663756873e+04
2.666666666666666630e-01 4.287946279890498772e+03 1.663987428663756873e+04
2.833333333333333259e-01 4.010615041779872627e+03 1.663987428663756873e+04
2.999999999999999889e-01 3.733283803669246481e+03 1.663987428663756873e+04
3.166666666666666519e-01 3.455952565558620336e+03 1.663987428663756873e+04
3.333333333333333148e-01 3.178621327447994190e+03 1.663987428663758328e+04
3.499999999999999778e-01 2.901290089337367590e+03 1.663987428663758328e+04
3.666666666666666408e-01 2.623958851226741444e+03 1.663987428663758328e+04
3.833333333333333037e-01 2.346627613116114844e+03 1.663987428663760875e+04
4.000000000000000222e-01 2.069296375005487789e+03 1.663987428663759783e+04
4.166666666666666852e-01 1.791965136894861644e+03 1.663987428663756873e+04
4.333333333333333481e-01 1.514633898784235498e+03 1.663987428663757601e+04
4.500000000000000111e-01 1.237302660673609125e+03 1.663987428663757964e+04
4.666666666666666741e-01 9.599714225629828661e+02 1.443414717997977095e+04
4.833333333333333370e-01 7.561644213409500708e+02 1.082229928677990938e+04
5.000000000000000000e-01 5.992281130036525383e+02 8.419405041110028833e+03
5.166666666666666075e-01 4.755175866372824203e+02 6.698877269213510772e+03
5.333333333333333259e-01 3.759322040298688421e+02 5.442510641762117302e+03
5.500000000000000444e-01 2.941005652452118397e+02 4.509363536089814261e+03
5.666666666666666519e-01 2.256200861602083592e+02 4.113328763977518065e+03
5.833333333333333703e-01 1.569896064459612433e+02 3.861152097207932911e+03
5.999999999999999778e-01 9.691501625327725833e+01 2.706162488897970434e+03
6.166666666666666963e-01 6.678419014936223164e+01 1.622158982215646120e+03
6.333333333333333037e-01 4.284305017942239147e+01 1.224917369992544536e+03
6.500000000000000222e-01 2.595361114961075089e+01 8.427891019500650600e+02
6.666666666666666297e-01 1.475008011442022315e+01 5.567569243552370608e+02
6.833333333333333481e-01 7.395047004436183791e+00 3.706373693323099019e+02
6.999999999999999556e-01 2.395501136676560172e+00 2.581499233937747704e+02
7.166666666666666741e-01 -1.209950442022974748e+00 1.904292224553246626e+02
7.333333333333332815e-01 -3.952139611834262212e+00 1.460406871657630461e+02
7.500000000000000000e-01 -6.077973347548409677e+00 1.134494120640085839e+02
7.666666666666666075e-01 -7.733786680634548105e+00 8.881946064959795706e+01
7.833333333333333259e-01 -9.038622035868341342e+00 7.082064401081935046e+01
8.000000000000000444e-01 -1.009447481432852634e+01 5.788062286795339872e+01
8.166666666666666519e-01 -1.096797613146678785e+01 4.704268734040459776e+01
8.333333333333333703e-01 -1.166256439234201281e+01 3.409993989527864500e+01
8.499999999999999778e-01 -1.210464079464274256e+01 1.590992490042644647e+01
8.666666666666666963e-01 -1.219289522235622769e+01 -6.532424875781810414e+00
8.833333333333333037e-01 -1.188689329878334888e+01 -2.854461874320296744e+01
9.000000000000000222e-01 -1.124140793091612878e+01 -4.518507323559520472e+01
9.166666666666666297e-01 -1.038072419093017551e+01 -5.423442014956512480e+01
9.333333333333333481e-01 -9.433593925930624735e+00 -5.724352793691352304e+01
9.499999999999999556e-01 -8.472606593033058076e+00 -5.766064917871054263e+01
9.666666666666666741e-01 -7.511572286640273433e+00 -5.770401286647059891e+01
9.833333333333332815e-01 -6.549139497484038230e+00 -5.766032101729418002e+01
1.000000000000000000e+00 -5.589561586063800824e+00 -5.695685776782950427e+01
1.016666666666666607e+00 -4.650577571889721540e+00 -5.497591571674355038e+01
1.033333333333333215e+00 -3.757031062172349056e+00 -5.082541400491628991e+01
1.050000000000000044e+00 -2.956397105059178632e+00 -4.355249341866691282e+01
1.066666666666666652e+00 -2.305281281550118688e+00 -3.330700951030537027e+01
1.083333333333333259e+00 -1.846163454715666230e+00 -2.220466961987139243e+01
1.100000000000000089e+00 -1.565125627554405652e+00 -1.369550262958060038e+01
1.116666666666666696e+00 -1.389646700396312884e+00 -1.045223393254790167e+01
1.133333333333333304e+00 -1.216717829802808959e+00 -1.224893982253434288e+01
1.149999999999999911e+00 -9.813487063118347953e-01 -1.607311655479927737e+01
1.166666666666666741e+00 -6.809472779761663874e-01 -1.825605195538914671e+01
1.183333333333333348e+00 -3.728136411321965604e-01 -1.621952599813326046e+01
1.199999999999999956e+00 -1.402964113717243833e-01 -9.237300499541316157e+00
1.216666666666666563e+00 -6.490362448081934965e-02 4.617676639205936517e-01
1.233333333333333393e+00 -1.556886668357441716e-01 8.675969276597195190e+00
1.250000000000000000e+00 -3.541026003673925504e-01 1.248860841191193316e+01
1.266666666666666607e+00 -5.719756138994752659e-01 1.209236998106320193e+01
1.283333333333333215e+00 -7.571815997361659445e-01 9.969900871310651169e+00
1.300000000000000044e+00 -9.043056429431636234e-01 8.435443510728433125e+00
1.316666666666666652e+00 -1.038363050093780382e+00 8.400311930628497237e+00
1.333333333333333259e+00 -1.184316040630780220e+00 9.494056674351892156e+00
1.350000000000000089e+00 -1.354831605905510106e+00 1.106251957392250773e+01
1.366666666666666696e+00 -1.553066693094863782e+00 1.276857119512790995e+01
1.383333333333333304e+00 -1.780450645743107074e+00 1.440871409155930216e+01
1.399999999999999911e+00 -2.033357162813507202e+00 1.551312331844637882e+01
1.416666666666666741e+00 -2.297554756357986339e+00 1.523702535317108975e+01
1.433333333333333348e+00 -2.541258007919210193e+00 1.277125852994110744e+01
1.449999999999999956e+00 -2.723263374022689920e+00 8.062540267616903122e+00
1.466666666666666563e+00 -2.810009350173106935e+00 2.007486415536661184e+00
1.483333333333333393e+00 -2.790179587873911959e+00 -3.969197289568318077e+00
1.500000000000000000e+00 -2.677702773854162999e+00 -8.480836516086744936e+00
1.516666666666666607e+00 -2.507485037337687128e+00 -1.075099513554085284e+01
1.533333333333333215e+00 -2.319336269336134571e+00 -1.088311255577438885e+01
1.550000000000000044e+00 -2.144714618811874196e+00 -9.464176196603052205e+00
1.566666666666666652e+00 -2.003863729449366193e+00 -7.347407347213450457e+00
1.583333333333333259e+00 -1.899801040571425848e+00 -5.535115637842018543e+00
1.600000000000000089e+00 -1.819359874854632242e+00 -4.664769804990571700e+00
1.616666666666666696e+00 -1.744308713738406791e+00 -4.687898333632305459e+00
1.633333333333333304e+00 -1.663096597066888727e+00 -5.173055531822956965e+00
1.649999999999999911e+00 -1.571873529344308240e+00 -5.911981271872712718e+00
1.666666666666666741e+00 -1.466030554671131636e+00 -7.047974896458111260e+00
1.683333333333333348e+00 -1.336941032795704531e+00 -8.559701242727856041e+00
1.699999999999999956e+00 -1.180707179913536464e+00 -9.986781320532871931e+00
1.716666666666666563e+00 -1.004048322111275482e+00 -1.078432894330619796e+01
1.733333333333333393e+00 -8.212295484699965176e-01 -1.073772888239579260e+01
1.750000000000000000e+00 -6.461240260314157213e-01 -9.925113991271457436e+00
1.766666666666666607e+00 -4.903924154276145808e-01 -8.508107007182061921e+00
1.783333333333333215e+00 -3.625204591253469721e-01 -6.634835475062873300e+00
1.800000000000000044e+00 -2.692312329255188152e-01 -4.578389090349556767e+00
1.816666666666666652e+00 -2.099074894470284169e-01 -2.832357026679726442e+00
1.833333333333333259e+00 -1.748193320361945968e-01 -1.810672653116468300e+00
1.849999999999999867e+00 -1.495517343431461421e-01 -1.482205859110604651e+00
1.866666666666666696e+00 -1.254124700658411085e-01 -1.469187618674723028e+00
1.883333333333333304e+00 -1.005788137206553717e-01 -1.484268548432050361e+00
1.899999999999999911e+00 -7.593685178477276032e-02 -1.477923867196126340e+00
1.916666666666666741e+00 -5.131468481411782800e-02 -1.426848162690676824e+00
1.933333333333333348e+00 -2.837524636175019904e-02 -1.473538432548793242e+00
1.949999999999999956e+00 -2.196737062491385586e-03 -8.702687871672850628e-01
1.966666666666666563e+00 6.337132104926363916e-04 -7.099170816244555759e-02
1.983333333333333393e+00 1.696532095901329249e-04 1.901139631477909153e-02
2.000000000000000000e+00 0.000000000000000000e+00 1.017919257540797484e-02
