0.00000000 173.47306852 266.42825057
0.01666667 169.03259767 266.42825057
0.03333333 164.59212683 266.42825057
0.05000000 160.15165599 266.42825057
0.06666667 155.71118515 266.42825057
0.08333333 151.27071430 266.42825057
0.10000000 146.83024346 266.42825057
0.11666667 142.38977262 266.42825057
0.13333333 137.94930177 266.42825057
0.15000000 133.50883093 266.42825057
0.16666667 129.06836009 266.42825057
0.18333333 124.62788925 266.42825057
0.20000000 120.18741840 266.42825057
0.21666667 115.74694756 266.42825057
0.23333333 111.30647672 266.42825057
0.25000000 106.86600587 266.42825057
0.26666667 102.42553503 266.42825057
0.28333333 97.98506419 266.42825057
0.30000000 93.54459335 266.42825057
0.31666667 89.10412250 266.42825057
0.33333333 84.66365166 266.42825057
0.35000000 80.22318082 266.42825057
0.36666667 75.78270998 266.42825057
0.38333333 71.34223913 266.42825057
0.40000000 66.90176829 266.42825057
0.41666667 62.46129745 266.42825057
0.43333333 58.02082660 266.42825057
0.45000000 53.58035576 266.42825057
0.46666667 49.13988492 266.42825057
0.48333333 44.69941408 266.42825057
0.50000000 40.25894323 266.42825057
0.51666667 35.81847239 266.42825057
0.53333333 31.37800155 266.42825057
0.55000000 26.93753070 266.42825057
0.56666667 22.49705986 266.42825057
0.58333333 18.05658902 232.14411879
0.60000000 14.75892257 181.08901707
0.61666667 12.02028845 147.59760576
0.63333333 9.83900238 118.67159440
0.65000000 8.06456864 96.78836328
0.66666667 6.61272360 80.02057972
0.68333333 5.39721598 67.24179058
0.70000000 4.37133058 56.64405737
0.71666667 3.50908073 47.76904367
0.73333333 2.77902913 40.57903913
0.75000000 2.15644610 34.52375938
0.76666667 1.62823715 29.27927304
0.78333333 1.18047033 24.72862528
0.80000000 0.80394964 20.77860307
0.81666667 0.48785023 17.43904197
0.83333333 0.22264824 14.70319389
0.85000000 -0.00225624 12.48813669
0.86666667 -0.19362298 10.61369887
0.88333333 -0.35604620 8.81325718
0.90000000 -0.48739822 7.12876299
0.91666667 -0.59367163 5.83617632
0.93333333 -0.68193743 4.89323252
0.95000000 -0.75677938 4.03279471
0.96666667 -0.81636392 3.13160959
0.98333333 -0.86116637 2.04199772
1.00000000 -0.88443051 0.80977692
1.01666667 -0.88815893 -0.23406006
1.03333333 -0.87662851 -0.90583123
1.05000000 -0.85796456 -1.20106048
1.06666667 -0.83659316 -1.26344000
1.08333333 -0.81584989 -1.48213344
1.10000000 -0.78718872 -2.06000930
1.11666667 -0.74718292 -2.74245007
1.13333333 -0.69577371 -3.12958930
1.15000000 -0.64286327 -3.04860413
1.16666667 -0.59415358 -2.73933934
1.18333333 -0.55155196 -2.56795556
1.20000000 -0.50855506 -2.64440796
1.21666667 -0.46340503 -2.82756190
1.23333333 -0.41430299 -2.90583185
1.25000000 -0.36654397 -2.73025258
1.26666667 -0.32329457 -2.38092759
1.28333333 -0.28717971 -2.03654642
1.30000000 -0.25540969 -1.84044786
1.31666667 -0.22583145 -1.84664858
1.33333333 -0.19385474 -1.89152815
1.35000000 -0.16278051 -1.68456154
1.36666667 -0.13770269 -1.18923505
1.38333333 -0.12313935 -0.59986914
1.40000000 -0.11770705 -0.15024791
1.41666667 -0.11813108 0.02749250
1.43333333 -0.11862347 -0.06175319
1.45000000 -0.11607264 -0.26201874
1.46666667 -0.10988951 -0.40385319
1.48333333 -0.10261087 -0.37705774
1.50000000 -0.09732092 -0.18128102
1.51666667 -0.09656817 0.09147269
1.53333333 -0.10037001 0.28905618
1.55000000 -0.10620337 0.29276394
1.56666667 -0.11012881 0.09543433
1.58333333 -0.10938452 -0.19610016
1.60000000 -0.10359213 -0.43784218
1.61666667 -0.09478978 -0.50072437
1.63333333 -0.08690132 -0.38308113
1.65000000 -0.08202041 -0.21671172
1.66666667 -0.07967760 -0.11359205
1.68333333 -0.07823401 -0.09667514
1.70000000 -0.07645509 -0.14629345
1.71666667 -0.07335756 -0.23761009
1.73333333 -0.06853476 -0.33670844
1.75000000 -0.06213394 -0.40707287
1.76666667 -0.05496566 -0.44430927
1.78333333 -0.04732364 -0.46026248
1.80000000 -0.03962358 -0.45147848
1.81666667 -0.03227435 -0.41330189
1.83333333 -0.02584685 -0.34945837
1.85000000 -0.02062574 -0.27690019
1.86666667 -0.01661684 -0.21827070
1.88333333 -0.01335005 -0.18022800
1.90000000 -0.01060924 -0.15505383
1.91666667 -0.00818159 -0.13733226
1.93333333 -0.00603150 -0.20130413
1.95000000 -0.00147145 -0.17561189
1.96666667 -0.00017777 -0.04372079
1.98333333 -0.00001409 -0.00533314
2.00000000 0.00000000 -0.00084553
