0.00000000 161.72516174 247.07630317
0.01666667 157.60722336 247.07630317
0.03333333 153.48928497 247.07630317
0.05000000 149.37134658 247.07630317
0.06666667 145.25340820 247.07630317
0.08333333 141.13546981 247.07630317
0.10000000 137.01753142 247.07630317
0.11666667 132.89959304 247.07630317
0.13333333 128.78165465 247.07630317
0.15000000 124.66371627 247.07630317
0.16666667 120.54577788 247.07630317
0.18333333 116.42783949 247.07630317
0.20000000 112.30990111 247.07630317
0.21666667 108.19196272 247.07630317
0.23333333 104.07402433 247.07630317
0.25000000 99.95608595 247.07630317
0.26666667 95.83814756 247.07630317
0.28333333 91.72020918 247.07630317
0.30000000 87.60227079 247.07630317
0.31666667 83.48433240 247.07630317
0.33333333 79.36639402 247.07630317
0.35000000 75.24845563 247.07630317
0.36666667 71.13051725 247.07630317
0.38333333 67.01257886 247.07630317
0.40000000 62.89464047 247.07630317
0.41666667 58.77670209 247.07630317
0.43333333 54.65876370 247.07630317
0.45000000 50.54082531 247.07630317
0.46666667 46.42288693 247.07630317
0.48333333 42.30494854 247.07630317
0.50000000 38.18701016 247.07630317
0.51666667 34.06907177 247.07630317
0.53333333 29.95113338 247.07630317
0.55000000 25.83319500 247.07630317
0.56666667 21.71525661 247.07630317
0.58333333 17.59731822 180.06557419
0.60000000 15.71307080 141.75012574
0.61666667 12.87231403 152.90816482
0.63333333 10.61613198 122.58991349
0.65000000 8.78598358 100.12059514
0.66666667 7.27877881 84.92299153
0.68333333 5.95521720 74.86416820
0.70000000 4.78330653 66.38072396
0.71666667 3.74252640 58.36356103
0.73333333 2.83785450 50.74160983
0.75000000 2.05113941 43.82859564
0.76666667 1.37690131 37.48039245
0.78333333 0.80179299 31.86103592
0.80000000 0.31486678 27.02730397
0.81666667 -0.09911714 22.85180666
0.83333333 -0.44686011 19.07991117
0.85000000 -0.73511418 15.58046232
0.86666667 -0.96620885 12.23864438
0.88333333 -1.14306899 9.08456988
0.90000000 -1.26902785 6.26302055
0.91666667 -1.35183634 3.91750536
0.93333333 -1.39961136 1.95004098
0.95000000 -1.41683771 0.23833720
0.96666667 -1.40755593 -1.22367291
0.98333333 -1.37604861 -2.37735832
1.00000000 -1.32831066 -3.21239832
1.01666667 -1.26896867 -3.66488558
1.03333333 -1.20614780 -3.71383253
1.05000000 -1.14517425 -3.58247485
1.06666667 -1.08673198 -3.56681539
1.08333333 -1.02628040 -3.73809914
1.10000000 -0.96212867 -4.03019831
1.11666667 -0.89194046 -4.25333874
1.13333333 -0.82035071 -4.25705919
1.15000000 -0.75003849 -4.12056657
1.16666667 -0.68299849 -4.01275201
1.18333333 -0.61628009 -3.98631485
1.20000000 -0.55012133 -3.90615039
1.21666667 -0.48607507 -3.62188606
1.23333333 -0.42939180 -3.13806859
1.25000000 -0.38147279 -2.57802484
1.26666667 -0.34345764 -2.11629420
1.28333333 -0.31092965 -1.91515150
1.30000000 -0.27961925 -1.88128730
1.31666667 -0.24822007 -1.80275645
1.33333333 -0.21952737 -1.61253336
1.35000000 -0.19446896 -1.42361120
1.36666667 -0.17207367 -1.26669657
1.38333333 -0.15224574 -1.14331886
1.40000000 -0.13396304 -1.04234733
1.41666667 -0.11750083 -0.86129705
1.43333333 -0.10525313 -0.53238689
1.45000000 -0.09975460 -0.16573318
1.46666667 -0.09972870 0.09459062
1.48333333 -0.10290762 0.18101237
1.50000000 -0.10576244 0.10611823
1.51666667 -0.10644489 -0.02749884
1.53333333 -0.10484581 -0.07767174
1.55000000 -0.10385584 0.02495197
1.56666667 -0.10567755 0.16868988
1.58333333 -0.10947883 0.21892045
1.60000000 -0.11297489 0.15417690
1.61666667 -0.11461806 0.03029050
1.63333333 -0.11398458 -0.11449690
1.65000000 -0.11080150 -0.23975393
1.66666667 -0.10599278 -0.30438085
1.68333333 -0.10065547 -0.32163847
1.70000000 -0.09527150 -0.32181022
1.71666667 -0.08992846 -0.30541339
1.73333333 -0.08509105 -0.27304493
1.75000000 -0.08082697 -0.23122125
1.76666667 -0.07738368 -0.19013067
1.78333333 -0.07448928 -0.18708009
1.80000000 -0.07114767 -0.22852030
1.81666667 -0.06687193 -0.27995275
1.83333333 -0.06181591 -0.30859846
1.85000000 -0.05658532 -0.31033891
1.86666667 -0.05147128 -0.30489555
1.88333333 -0.04642213 -0.31210445
1.90000000 -0.04106780 -0.33621322
1.91666667 -0.03521503 -0.37029091
1.93333333 -0.02872477 -0.89749216
1.95000000 -0.00529862 -0.84520317
1.96666667 -0.00055133 -0.15744057
1.98333333 -0.00005060 -0.01653998
2.00000000 0.00000000 -0.00303609
