0.00000000 248.09682897 479.95850506
0.01666667 240.09752056 479.95850506
0.03333333 232.09821214 479.95850506
0.05000000 224.09890372 479.95850506
0.06666667 216.09959530 479.95850506
0.08333333 208.10028689 479.95850506
0.10000000 200.10097847 479.95850506
0.11666667 192.10167005 479.95850506
0.13333333 184.10236163 479.95850506
0.15000000 176.10305321 479.95850506
0.16666667 168.10374480 479.95850506
0.18333333 160.10443638 479.95850506
0.20000000 152.10512796 479.95850506
0.21666667 144.10581954 479.95850506
0.23333333 136.10651113 479.95850506
0.25000000 128.10720271 479.95850506
0.26666667 120.10789429 479.95850506
0.28333333 112.10858587 479.95850506
0.30000000 104.10927746 479.95850506
0.31666667 96.10996904 479.95850506
0.33333333 88.11066062 479.95850506
0.35000000 80.11135220 479.95850506
0.36666667 72.11204379 479.95850506
0.38333333 64.11273537 479.95850506
0.40000000 56.11342695 479.95850506
0.41666667 48.11411853 479.95850506
0.43333333 40.11481011 479.95850506
0.45000000 32.11550170 479.95850506
0.46666667 24.11619328 479.95850506
0.48333333 16.11688486 479.95850506
0.50000000 8.11757644 302.89185621
0.51666667 6.02048965 105.05092623
0.53333333 4.61587890 75.65914466
0.55000000 3.49851817 61.16655526
0.56666667 2.57699373 50.43610283
0.58333333 1.81731474 41.49336654
0.60000000 1.19388151 33.97002235
0.61666667 0.68498066 27.69263130
0.63333333 0.27079380 22.32643606
0.65000000 -0.05923388 17.56131328
0.66666667 -0.31458331 13.32542534
0.68333333 -0.50341472 9.62946379
0.70000000 -0.63556544 6.48140297
0.71666667 -0.71946149 3.83496031
0.73333333 -0.76339745 1.65345882
0.75000000 -0.77457678 -0.06598717
0.76666667 -0.76119787 -1.33332636
0.78333333 -0.73013257 -2.20469128
0.80000000 -0.68770816 -2.74805066
0.81666667 -0.63853088 -2.99906860
0.83333333 -0.58773921 -2.98786583
0.85000000 -0.53893535 -2.78961949
0.86666667 -0.49475189 -2.47688769
0.88333333 -0.45637243 -2.08266097
0.90000000 -0.42532986 -1.65257774
0.91666667 -0.40128650 -1.27406053
0.93333333 -0.38286118 -1.04042759
0.95000000 -0.36660558 -0.96722310
0.96666667 -0.35062041 -0.97853359
0.98333333 -0.33398780 -1.03078959
1.00000000 -0.31626076 -1.10262060
1.01666667 -0.29723378 -1.18046402
1.03333333 -0.27691195 -1.23260760
1.05000000 -0.25614686 -1.23351847
1.06666667 -0.23579467 -1.20894671
1.08333333 -0.21584863 -1.16412709
1.10000000 -0.19699044 -1.08667956
1.11666667 -0.17962598 -0.97199526
1.13333333 -0.16459059 -0.84352385
1.15000000 -0.15150852 -0.73335783
1.16666667 -0.14014533 -0.64271873
1.18333333 -0.13008456 -0.58025340
1.20000000 -0.12080355 -0.54227619
1.21666667 -0.11200869 -0.52195128
1.23333333 -0.10340518 -0.52177503
1.25000000 -0.09461619 -0.51234548
1.26666667 -0.08632699 -0.46323400
1.28333333 -0.07917506 -0.38675354
1.30000000 -0.07343521 -0.32680669
1.31666667 -0.06828150 -0.29044401
1.33333333 -0.06375374 -0.25383226
1.35000000 -0.05982042 -0.23543232
1.36666667 -0.05590600 -0.25250306
1.38333333 -0.05140366 -0.27022650
1.40000000 -0.04689845 -0.25922319
1.41666667 -0.04276288 -0.23413507
1.43333333 -0.03909395 -0.21264465
1.45000000 -0.03567473 -0.19200137
1.46666667 -0.03269390 -0.17429723
1.48333333 -0.02986482 -0.16878506
1.50000000 -0.02706773 -0.16633849
1.51666667 -0.02432020 -0.15823383
1.53333333 -0.02179327 -0.15159608
1.55000000 -0.01926700 -0.14866620
1.56666667 -0.01683773 -0.15352085
1.58333333 -0.01414964 -0.16826857
1.60000000 -0.01122878 -0.18422388
1.61666667 -0.00800884 -0.18824585
1.63333333 -0.00495392 -0.18110818
1.65000000 -0.00197190 -0.17525310
1.66666667 0.00088785 -0.16230871
1.68333333 0.00343839 -0.13790412
1.70000000 0.00548466 -0.11316091
1.71666667 0.00721042 -0.09610583
1.73333333 0.00868818 -0.08413044
1.75000000 0.01001476 -0.07021179
1.76666667 0.01102858 -0.05032615
1.78333333 0.01169230 -0.02295535
1.80000000 0.01179376 0.00873095
1.81666667 0.01140127 0.03463591
1.83333333 0.01063923 0.05163872
1.85000000 0.00967998 0.05976350
1.86666667 0.00864711 0.06176981
1.88333333 0.00762099 0.05975944
1.90000000 0.00665513 0.05609713
1.91666667 0.00575108 0.05422862
1.93333333 0.00484751 0.13521139
1.95000000 0.00124404 0.14049433
1.96666667 0.00016436 0.03686212
1.98333333 0.00001530 0.00493090
2.00000000 0.00000000 0.00091795
