0.00000000 114.24546065 234.63102652
0.01666667 110.33494355 234.63102652
0.03333333 106.42442644 234.63102652
0.05000000 102.51390933 234.63102652
0.06666667 98.60339222 234.63102652
0.08333333 94.69287511 234.63102652
0.10000000 90.78235800 234.63102652
0.11666667 86.87184089 234.63102652
0.13333333 82.96132379 234.63102652
0.15000000 79.05080668 234.63102652
0.16666667 75.14028957 234.63102652
0.18333333 71.22977246 234.63102652
0.20000000 67.31925535 234.63102652
0.21666667 63.40873824 234.63102652
0.23333333 59.49822113 234.63102652
0.25000000 55.58770402 234.63102652
0.26666667 51.67718692 234.63102652
0.28333333 47.76666981 234.63102652
0.30000000 43.85615270 234.63102652
0.31666667 39.94563559 234.63102652
0.33333333 36.03511848 234.63102652
0.35000000 32.12460137 234.63102652
0.36666667 28.21408426 234.63102652
0.38333333 24.30356716 234.63102652
0.40000000 20.39305005 234.63102652
0.41666667 16.48253294 234.63102652
0.43333333 12.57201583 234.63102652
0.45000000 8.66149872 234.63102652
0.46666667 4.75098161 168.83922225
0.48333333 3.03352465 84.90172317
0.50000000 1.92092417 57.61108195
0.51666667 1.11315525 42.24920821
0.53333333 0.51261723 31.10222311
0.55000000 0.07641448 22.08391524
0.56666667 -0.22351328 14.71811146
0.58333333 -0.41418924 8.92314099
0.60000000 -0.52095131 4.52377144
0.61666667 -0.56498162 1.28142380
0.63333333 -0.56366544 -0.95625561
0.65000000 -0.53310643 -2.23272277
0.66666667 -0.48924134 -2.71577336
0.68333333 -0.44258065 -2.73731925
0.70000000 -0.39799737 -2.51718115
0.71666667 -0.35867462 -2.08455059
0.73333333 -0.32851235 -1.51761487
0.75000000 -0.30808745 -1.14510006
0.76666667 -0.29034235 -1.15460627
0.78333333 -0.26960058 -1.36249879
0.80000000 -0.24492572 -1.50904065
0.81666667 -0.21929922 -1.54049848
0.83333333 -0.19357577 -1.54026106
0.85000000 -0.16795719 -1.44975299
0.86666667 -0.14525067 -1.18678799
0.88333333 -0.12839759 -0.82096421
0.90000000 -0.11788520 -0.46922482
0.91666667 -0.11275676 -0.15533535
0.93333333 -0.11270735 0.21799959
0.95000000 -0.12002341 0.61280956
0.96666667 -0.13313434 0.92912127
0.98333333 -0.15099412 1.14999556
1.00000000 -0.17146752 1.29173252
1.01666667 -0.19405187 1.36319809
1.03333333 -0.21690746 1.33900034
1.05000000 -0.23868522 1.22916570
1.06666667 -0.25787965 1.02367502
1.08333333 -0.27280772 0.73566461
1.10000000 -0.28240180 0.42209176
1.11666667 -0.28687744 0.11851974
1.13333333 -0.28635246 -0.16124726
1.15000000 -0.28150253 -0.39506803
1.16666667 -0.27318353 -0.55543827
1.18333333 -0.26298793 -0.64616874
1.20000000 -0.25164457 -0.71088071
1.21666667 -0.23929190 -0.77945805
1.23333333 -0.22566263 -0.88469009
1.25000000 -0.20980223 -0.99270353
1.26666667 -0.19257252 -1.04750923
1.28333333 -0.17488526 -1.03993458
1.30000000 -0.15790803 -1.00654780
1.31666667 -0.14133366 -0.95184044
1.33333333 -0.12618001 -0.86571285
1.35000000 -0.11247657 -0.80750467
1.36666667 -0.09926319 -0.81960234
1.38333333 -0.08515649 -0.85444536
1.40000000 -0.07078168 -0.85965295
1.41666667 -0.05650139 -0.83246033
1.43333333 -0.04303300 -0.77333280
1.45000000 -0.03072363 -0.66176688
1.46666667 -0.02097411 -0.51661150
1.48333333 -0.01350325 -0.38952879
1.50000000 -0.00798981 -0.31013698
1.51666667 -0.00316535 -0.29170280
1.53333333 0.00173361 -0.30870027
1.55000000 0.00712466 -0.32159363
1.56666667 0.01245340 -0.30677612
1.58333333 0.01735053 -0.26301574
1.60000000 0.02122059 -0.18880713
1.61666667 0.02364410 -0.09946867
1.63333333 0.02453621 -0.03210761
1.65000000 0.02471435 0.00100737
1.66666667 0.02450264 0.02465673
1.68333333 0.02389246 0.04672408
1.70000000 0.02294517 0.05677574
1.71666667 0.02199994 0.05577983
1.73333333 0.02108584 0.05655610
1.75000000 0.02011473 0.05804430
1.76666667 0.01915103 0.05609277
1.78333333 0.01824498 0.05270484
1.80000000 0.01739420 0.05357046
1.81666667 0.01645929 0.06296975
1.83333333 0.01529521 0.07737211
1.85000000 0.01388022 0.08860224
1.86666667 0.01234180 0.09227866
1.88333333 0.01080427 0.09122516
1.90000000 0.00930096 0.08827366
1.91666667 0.00786181 0.08518965
1.93333333 0.00646131 0.19104137
1.95000000 0.00149377 0.18814779
1.96666667 0.00018971 0.04428562
1.98333333 0.00001758 0.00569142
2.00000000 0.00000000 0.00105480
