0.00000000 224.90273757 350.39525870
0.01666667 219.06281660 350.39525870
0.03333333 213.22289562 350.39525870
0.05000000 207.38297464 350.39525870
0.06666667 201.54305366 350.39525870
0.08333333 195.70313268 350.39525870
0.10000000 189.86321170 350.39525870
0.11666667 184.02329073 350.39525870
0.13333333 178.18336975 350.39525870
0.15000000 172.34344877 350.39525870
0.16666667 166.50352779 350.39525870
0.18333333 160.66360681 350.39525870
0.20000000 154.82368583 350.39525870
0.21666667 148.98376486 350.39525870
0.23333333 143.14384388 350.39525870
0.25000000 137.30392290 350.39525870
0.26666667 131.46400192 350.39525870
0.28333333 125.62408094 350.39525870
0.30000000 119.78415996 350.39525870
0.31666667 113.94423899 350.39525870
0.33333333 108.10431801 350.39525870
0.35000000 102.26439703 350.39525870
0.36666667 96.42447605 350.39525870
0.38333333 90.58455507 350.39525870
0.40000000 84.74463409 350.39525870
0.41666667 78.90471312 350.39525870
0.43333333 73.06479214 350.39525870
0.45000000 67.22487116 350.39525870
0.46666667 61.38495018 350.39525870
0.48333333 55.54502920 350.39525870
0.50000000 49.70510822 350.39525870
0.51666667 43.86518724 350.39525870
0.53333333 38.02526627 350.39525870
0.55000000 32.18534529 350.39525870
0.56666667 26.34542431 350.39525870
0.58333333 20.50550333 350.39525870
0.60000000 14.66558235 276.81951766
0.61666667 11.27818608 179.22584965
0.63333333 8.69138736 139.95561683
0.65000000 6.61299885 113.30845790
0.66666667 4.91443877 92.85940508
0.68333333 3.51768535 76.48617449
0.70000000 2.36489962 63.14831811
0.71666667 1.41274141 52.13977630
0.73333333 0.62690707 42.95155685
0.75000000 -0.01897715 35.17709114
0.76666667 -0.54566263 28.49534326
0.78333333 -0.96882193 22.67160165
0.80000000 -1.30138268 17.56438734
0.81666667 -1.55430151 13.09661147
0.83333333 -1.73793640 9.24166248
0.85000000 -1.86235692 6.00399175
0.86666667 -1.93806946 3.38569027
0.88333333 -1.97521326 1.33839260
0.90000000 -1.98268255 -0.24091568
0.91666667 -1.96718274 -1.46333189
0.93333333 -1.93390482 -2.42095381
0.95000000 -1.88648428 -3.18976757
0.96666667 -1.82757923 -3.81048691
0.98333333 -1.75946805 -4.31472477
1.00000000 -1.68375507 -4.74478997
1.01666667 -1.60130839 -5.14156841
1.03333333 -1.51236946 -5.52903544
1.05000000 -1.41700720 -5.91385232
1.06666667 -1.31524105 -6.26372173
1.08333333 -1.20821648 -6.51407215
1.10000000 -1.09810531 -6.59771154
1.11666667 -0.98829276 -6.47124514
1.13333333 -0.88239714 -6.11277232
1.15000000 -0.78453368 -5.54598547
1.16666667 -0.69753096 -4.84953852
1.18333333 -0.62288240 -4.13122579
1.20000000 -0.55982343 -3.47825910
1.21666667 -0.50694043 -2.93695629
1.23333333 -0.46192489 -2.52291697
1.25000000 -0.42284320 -2.22160587
1.26666667 -0.38787136 -2.00209433
1.28333333 -0.35610672 -1.83480270
1.30000000 -0.32671127 -1.68749613
1.31666667 -0.29985685 -1.52966978
1.33333333 -0.27572227 -1.35427314
1.35000000 -0.25471441 -1.16595602
1.36666667 -0.23685707 -0.97064765
1.38333333 -0.22235949 -0.78274044
1.40000000 -0.21076573 -0.62917431
1.41666667 -0.20138701 -0.52047205
1.43333333 -0.19341666 -0.44726894
1.45000000 -0.18647805 -0.39764604
1.46666667 -0.18016179 -0.36943915
1.48333333 -0.17416341 -0.36293080
1.50000000 -0.16806410 -0.37629761
1.51666667 -0.16162016 -0.40335339
1.53333333 -0.15461898 -0.43503327
1.55000000 -0.14711905 -0.46287140
1.56666667 -0.13918994 -0.48686811
1.58333333 -0.13089011 -0.50566581
1.60000000 -0.12233441 -0.51520717
1.61666667 -0.11371654 -0.51431403
1.63333333 -0.10519061 -0.50381932
1.65000000 -0.09692256 -0.48041130
1.66666667 -0.08917690 -0.44165734
1.68333333 -0.08220065 -0.39426139
1.70000000 -0.07603485 -0.34982675
1.71666667 -0.07053976 -0.31505673
1.73333333 -0.06553296 -0.29078912
1.75000000 -0.06084679 -0.27532438
1.76666667 -0.05635548 -0.26495434
1.78333333 -0.05201498 -0.25578364
1.80000000 -0.04782936 -0.24807484
1.81666667 -0.04374581 -0.24605362
1.83333333 -0.03962757 -0.25223436
1.85000000 -0.03533800 -0.26423244
1.86666667 -0.03081982 -0.27434614
1.88333333 -0.02619313 -0.27407458
1.90000000 -0.02168401 -0.26197503
1.91666667 -0.01746063 -0.24411861
1.93333333 -0.01354672 -0.49744064
1.95000000 -0.00087928 -0.40407991
1.96666667 -0.00007739 -0.02616232
1.98333333 -0.00000720 -0.00232165
2.00000000 0.00000000 -0.00043188
