0	1.30021e+07	119.048
0.0166667	1.30021e+07	220.146
0.0333333	1.30021e+07	381.934
0.05	1.3002e+07	466.524
0.0666667	1.3002e+07	495.213
0.0833333	1.3002e+07	500
0.1	1.3002e+07	500
0.116667	1.3002e+07	500
0.133333	1.3002e+07	500
0.15	1.3002e+07	500
0.166667	1.3002e+07	500
0.183333	1.3002e+07	2.01506e+06
0.2	1.29348e+07	1.29631e+07
0.216667	1.25699e+07	4.13438e+07
0.233333	1.15567e+07	8.64825e+07
0.25	9.68712e+06	1.31309e+08
0.266667	7.17974e+06	1.51697e+08
0.283333	4.63055e+06	1.3685e+08
0.3	2.61808e+06	9.83321e+07
0.316667	1.35281e+06	5.79042e+07
0.333333	687936	2.96827e+07
0.35	363388	1.46837e+07
0.366667	198480	7.55174e+06
0.383333	111663	4.01963e+06
0.4	64492.4	2.20601e+06
0.416667	38129.3	1.24426e+06
0.433333	23017	719260
0.45	14154	425081
0.466667	8847.68	255766
0.483333	5628.47	157856
0.5	3585.8	100296
0.516667	2285.28	69113.2
0.533333	1282.02	48932.6
0.55	654.196	29659.4
0.566667	293.376	15662.5
0.583333	132.114	7308
0.6	49.7759	3338.67
0.616667	20.8249	1290.5
0.633333	6.75917	620.512
0.65	0.141188	297.434
0.666667	-3.15528	159.566
0.683333	-5.17769	107.899
0.7	-6.75193	88.3636
0.716667	-8.12314	74.8185
0.733333	-9.24588	56.5978
0.75	-10.0097	34.7725
0.766667	-10.405	15.7625
0.783333	-10.5352	3.09976
0.8	-10.5083	-5.8979
0.816667	-10.3386	-15.2954
0.833333	-9.99844	-24.2885
0.85	-9.52894	-29.2174
0.866667	-9.02453	-30.0397
0.883333	-8.52762	-30.3935
0.9	-8.01141	-32.2881
0.916667	-7.45135	-34.307
0.933333	-6.86784	-34.8099
0.95	-6.29102	-33.6105
0.966667	-5.74749	-30.9711
0.983333	-5.25865	-27.8931
1	-4.81773	-25.9652
1.01667	-4.39314	-25.9403
1.03333	-3.95305	-26.561
1.05	-3.50777	-25.1858
1.06667	-3.11352	-20.8737
1.08333	-2.81199	-15.9074
1.1	-2.58327	-13.3099
1.11667	-2.36832	-13.9013
1.13333	-2.1199	-15.3481
1.15	-1.85672	-14.5367
1.16667	-1.63534	-11.3657
1.18333	-1.47786	-8.4443
1.2	-1.35386	-7.48059
1.21667	-1.22851	-7.46767
1.23333	-1.10494	-6.55798
1.25	-1.00991	-4.51722
1.26667	-0.954365	-2.21432
1.28333	-0.936099	0.0148518
1.3	-0.95486	2.07238
1.31667	-1.00518	3.03201
1.33333	-1.05593	1.66521
1.35	-1.06069	-1.126
1.36667	-1.01839	-2.34048
1.38333	-0.982669	-0.399351
1.4	-1.00508	2.70938
1.41667	-1.07298	3.51615
1.43333	-1.12229	0.957243
1.45	-1.10489	-2.61914
1.46667	-1.03498	-4.34459
1.48333	-0.960071	-3.69113
1.5	-0.911945	-2.21126
1.51667	-0.886362	-1.60041
1.53333	-0.858598	-2.10968
1.55	-0.816039	-2.78143
1.56667	-0.765884	-2.95369
1.58333	-0.717583	-2.88346
1.6	-0.669769	-2.93571
1.61667	-0.619726	-2.98491
1.63333	-0.570272	-2.68364
1.65	-0.530271	-2.10401
1.66667	-0.500138	-1.85625
1.68333	-0.468396	-2.24811
1.7	-0.425201	-2.78484
1.71667	-0.375568	-2.81751
1.73333	-0.331284	-2.44602
1.75	-0.294034	-2.32621
1.76667	-0.253744	-2.64505
1.78333	-0.205866	-2.68686
1.8	-0.164182	-1.88913
1.81667	-0.142895	-0.750685
1.83333	-0.139159	-0.15532
1.85	-0.137718	-0.292736
1.86667	-0.129401	-0.559461
1.88333	-0.119069	-0.428442
1.9	-0.115119	-0.0510288
1.91667	-0.117368	0.00892265
1.93333	-0.115417	-0.535982
1.95	-0.0995018	-1.34579
1.96667	-0.0705574	-1.8557
1.98333	-0.037645	-2.11672
2	0	-2.2587
