0	16284.1	1968.95
0.0166667	16251.3	3919.7
0.0333333	16153.4	7767.54
0.05	15992.4	11475.5
0.0666667	15770.9	14983.1
0.0833333	15492.9	18239.9
0.1	15162.9	21207.8
0.116667	14786	23861.9
0.133333	14367.5	26190.2
0.15	13913	28192.9
0.166667	13427.8	29880.5
0.183333	12917	31271.4
0.2	12385.4	32389.3
0.216667	11837.3	33260.7
0.233333	11276.7	33912.2
0.25	10706.9	34368.9
0.266667	10131.1	34652.4
0.283333	9551.84	34779.9
0.3	8971.73	34763.7
0.316667	8393.05	34611.2
0.333333	7818.02	34325.6
0.35	7248.86	33906.7
0.366667	6687.8	33351.7
0.383333	6137.13	32657.6
0.4	5599.21	31821.4
0.416667	5076.42	30842.9
0.433333	4571.12	29724.8
0.45	4085.59	28475
0.466667	3621.95	27106.3
0.483333	3182.05	25637.6
0.5	2767.37	24092.7
0.516667	2378.96	22498.8
0.533333	2017.41	20886.1
0.55	1682.75	19291.7
0.566667	1374.35	17733.8
0.583333	1091.63	16147.7
0.6	836.093	14365.9
0.616667	612.766	12227.4
0.633333	428.514	9760.94
0.65	287.401	7242.41
0.666667	187.101	5030.24
0.683333	119.727	3338.77
0.7	75.8082	2165.57
0.716667	47.5411	1387.29
0.733333	29.5652	878.868
0.75	18.2455	555.078
0.766667	11.0626	355.979
0.783333	6.37955	236.186
0.8	3.18975	164.203
0.816667	0.906128	119.709
0.833333	-0.800536	90.5606
0.85	-2.11256	69.9106
0.866667	-3.13089	53.9133
0.883333	-3.90967	40.3513
0.9	-4.47593	28.048
0.916667	-4.8446	16.6446
0.933333	-5.03075	6.36844
0.95	-5.05688	-2.31613
0.966667	-4.95355	-9.05472
0.983333	-4.75506	-13.7912
1	-4.49384	-16.7624
1.01667	-4.19631	-18.3836
1.03333	-3.88105	-19.121
1.05	-3.55894	-19.3858
1.06667	-3.23486	-19.4578
1.08333	-2.91035	-19.4639
1.1	-2.58606	-19.4296
1.11667	-2.2627	-19.3656
1.13333	-1.94054	-19.3101
1.15	-1.61903	-19.2908
1.16667	-1.29752	-19.2584
1.18333	-0.977082	-19.0785
1.2	-0.661569	-18.6047
1.21667	-0.356925	-17.7701
1.23333	-0.0692336	-16.6116
1.25	0.196794	-15.2078
1.26667	0.437693	-13.5942
1.28333	0.649935	-11.7429
1.3	0.829124	-9.63083
1.31667	0.970962	-7.32915
1.33333	1.07343	-5.01881
1.35	1.13826	-2.90544
1.36667	1.17028	-1.10687
1.38333	1.17515	0.384901
1.4	1.15745	1.6414
1.41667	1.12044	2.70975
1.43333	1.06712	3.59077
1.45	1.00075	4.29263
1.46667	0.924034	4.88389
1.48333	0.837949	5.47321
1.5	0.741593	6.12611
1.51667	0.633746	6.79704
1.53333	0.515025	7.34154
1.55	0.389028	7.6017
1.56667	0.261635	7.49883
1.58333	0.139067	7.06854
1.6	0.0260176	6.42447
1.61667	-0.0750823	5.6905
1.63333	-0.163666	4.95386
1.65	-0.240211	4.26007
1.66667	-0.305668	3.629
1.68333	-0.361178	3.06274
1.7	-0.407759	2.54001
1.71667	-0.445844	2.01654
1.73333	-0.474977	1.44619
1.75	-0.494051	0.812036
1.76667	-0.502045	0.142372
1.78333	-0.498797	-0.501573
1.8	-0.485326	-1.05602
1.81667	-0.463596	-1.48114
1.83333	-0.435954	-1.76928
1.85	-0.40462	-1.93596
1.86667	-0.371423	-2.00426
1.88333	-0.337811	-1.99305
1.9	-0.304988	-1.91321
1.91667	-0.274037	-1.76986
1.93333	-0.245992	-1.56579
1.95	-0.221845	-1.30307
1.96667	-0.202556	-0.984176
1.98333	-0.189039	-0.615049
2	-0.182055	-0.419033
