0.000000000000000000e+00 nan nan
1.666666666666666644e-02 1.099184172356770595e+21 nan
3.333333333333333287e-02 2.683555081117555520e+17 3.297546312144212355e+22
5.000000000000000278e-02 2.068308699802338000e+15 8.048699750182332416e+18
6.666666666666666574e-02 6.551643901112610938e+13 6.191419358218030400e+16
8.333333333333332871e-02 4.502247062994501953e+12 1.950344536806580750e+15
1.000000000000000056e-01 5.049544509067528687e+11 1.326850538692011875e+14
1.166666666666666685e-01 7.941193402112931824e+10 1.466879669997660742e+13
1.333333333333333315e-01 1.599456090753268051e+10 2.265611349262410645e+12
1.499999999999999944e-01 3.891555712382289410e+09 4.468666025337916260e+11
1.666666666666666574e-01 1.099007489739626646e+09 1.062426448043688202e+11
1.833333333333333204e-01 3.501342189033290744e+08 2.927357521880920792e+10
2.000000000000000111e-01 1.232216491126529723e+08 9.089749788020378113e+09
2.166666666666666741e-01 4.714255930264981836e+07 3.115712055242524147e+09
2.333333333333333370e-01 1.936458060456883907e+07 1.160588312049652576e+09
2.500000000000000000e-01 8.456282234328065068e+06 4.641007505677284598e+08
2.666666666666666630e-01 3.894555585644558538e+06 1.973095935977431834e+08
2.833333333333333259e-01 1.879295781069958117e+06 8.848746607919134200e+07
2.999999999999999889e-01 9.449733830048468662e+05 4.159283336130895466e+07
3.166666666666666519e-01 4.928680023596597021e+05 2.038135447983419895e+07
3.333333333333333148e-01 2.655949003437069478e+05 1.036492822881154902e+07
3.499999999999999778e-01 1.473703947326080815e+05 5.449404943054063246e+06
3.666666666666666408e-01 8.394806890857149847e+04 2.952188566562331747e+06
3.833333333333333037e-01 4.896410918053035130e+04 1.643240883719890378e+06
4.000000000000000222e-01 2.917337278457515640e+04 9.373947843624324305e+05
4.166666666666666852e-01 1.771761636844927125e+04 5.468072484117941931e+05
4.333333333333333481e-01 1.094646450418201857e+04 3.255099729484348209e+05
4.500000000000000111e-01 6.867283936834777705e+03 1.973892361165321199e+05
4.666666666666666741e-01 4.366823300297614878e+03 1.217278075182674656e+05
4.833333333333333370e-01 2.809690352892529063e+03 7.622455861574133451e+04
5.000000000000000000e-01 1.826004679772903955e+03 4.839626365672868269e+04
5.166666666666666075e-01 1.196481564334906352e+03 3.111312202486538808e+04
5.333333333333333259e-01 7.889006122773911329e+02 2.022609952119542140e+04
5.500000000000000444e-01 5.222782469617256993e+02 1.327843132394352142e+04
5.666666666666666519e-01 3.462862348126071197e+02 8.791669576749543921e+03
5.833333333333333703e-01 2.292225944034076122e+02 5.862586723100451309e+03
5.999999999999999778e-01 1.508666773759254056e+02 4.106379221581996717e+03
6.166666666666666963e-01 9.234328701734106915e+01 3.006217218389353548e+03
6.333333333333333037e-01 5.065943676294695308e+01 1.814967627736659551e+03
6.500000000000000222e-01 3.184436609278575503e+01 9.450283132852424615e+02
6.666666666666666297e-01 1.915849298677220602e+01 6.354371455911333442e+02
6.833333333333333481e-01 1.066312790641464403e+01 4.258106795550447146e+02
6.999999999999999556e-01 4.964803668270714176e+00 2.856948164033864828e+02
7.166666666666666741e-01 1.139967359635095212e+00 1.916606835692612947e+02
7.333333333333332815e-01 -1.423885784037995927e+00 1.285625876922555619e+02
7.500000000000000000e-01 -3.145452230106756453e+00 8.559647537196923395e+01
7.666666666666666075e-01 -4.277101629770303504e+00 5.587528372490388762e+01
7.833333333333333259e-01 -5.007961687603552647e+00 3.500185379445203182e+01
8.000000000000000444e-01 -5.443830089585371290e+00 2.023667593481394533e+01
8.166666666666666519e-01 -5.682517552097350766e+00 9.887822733893329996e+00
8.333333333333333703e-01 -5.773424180715148957e+00 2.544576218423255654e+00
8.499999999999999778e-01 -5.767336759378125954e+00 -2.868945649263539011e+00
8.666666666666666963e-01 -5.677792659073030990e+00 -6.743596693337323700e+00
8.833333333333333037e-01 -5.542550202933548498e+00 -9.494829452128561442e+00
9.000000000000000222e-01 -5.361298344002078942e+00 -1.136873823791402671e+01
9.166666666666666297e-01 -5.163592261669747607e+00 -1.273925242863247931e+01
9.333333333333333481e-01 -4.936656596380996298e+00 -1.401820492304849175e+01
9.499999999999999556e-01 -4.696318764234797882e+00 -1.479759080150460093e+01
9.666666666666666741e-01 -4.443403569664176267e+00 -1.523919452838712552e+01
9.833333333333332815e-01 -4.188345613288560365e+00 -1.514786745125321943e+01
1.000000000000000000e+00 -3.938474654622402316e+00 -1.491094588726780223e+01
1.016666666666666607e+00 -3.691314083712966987e+00 -1.459583104051977109e+01
1.033333333333333215e+00 -3.451946953271743279e+00 -1.422344591250798373e+01
1.050000000000000044e+00 -3.217199219962700862e+00 -1.385774962602029703e+01
1.066666666666666652e+00 -2.990021965737733378e+00 -1.327243282038716110e+01
1.083333333333333259e+00 -2.774784792616462159e+00 -1.259802694766677611e+01
1.100000000000000089e+00 -2.570087734148840841e+00 -1.196936207175743760e+01
1.116666666666666696e+00 -2.375806056891214268e+00 -1.142007455232549518e+01
1.133333333333333304e+00 -2.189418582404657698e+00 -1.083903576114888168e+01
1.149999999999999911e+00 -2.014504864852918242e+00 -1.007102076922003420e+01
1.166666666666666741e+00 -1.853717890097323240e+00 -9.476641183555658543e+00
1.183333333333333348e+00 -1.698616825401062957e+00 -8.911274229516019219e+00
1.199999999999999956e+00 -1.556675415780122584e+00 -8.336857821401327584e+00
1.216666666666666563e+00 -1.420721564687685401e+00 -7.661400325660763677e+00
1.233333333333333393e+00 -1.301295404924763810e+00 -6.843604761049451035e+00
1.250000000000000000e+00 -1.192601405986037033e+00 -6.175594963343704613e+00
1.266666666666666607e+00 -1.095442239479973656e+00 -5.504471262097592188e+00
1.283333333333333215e+00 -1.009119030582783960e+00 -4.720925168292682272e+00
1.300000000000000044e+00 -9.380780672035509138e-01 -3.763201352354168527e+00
1.316666666666666652e+00 -8.836789855043116759e-01 -2.933479717975790102e+00
1.333333333333333259e+00 -8.402954099376912511e-01 -2.404129173332755443e+00
1.350000000000000089e+00 -8.035413463932198352e-01 -2.086194158627376005e+00
1.366666666666666696e+00 -7.707556046501120584e-01 -1.813116880199105996e+00
1.383333333333333304e+00 -7.431041170532496354e-01 -1.688171659488154619e+00
1.399999999999999911e+00 -7.144832160005069044e-01 -1.712201310216178163e+00
1.416666666666666741e+00 -6.860307400460436966e-01 -1.771753899262182852e+00
1.433333333333333348e+00 -6.554247526917674760e-01 -1.896557753153217396e+00
1.449999999999999956e+00 -6.228121482742697834e-01 -2.111349348063794817e+00
1.466666666666666563e+00 -5.850464410896409895e-01 -2.316427063738777381e+00
1.483333333333333393e+00 -5.455979128163105374e-01 -2.371718884697832319e+00
1.500000000000000000e+00 -5.059891449330465862e-01 -2.294323739736898737e+00
1.516666666666666607e+00 -4.691204548250805795e-01 -2.126326454446529457e+00
1.533333333333333215e+00 -4.351115964514956080e-01 -1.969466337484704344e+00
1.550000000000000044e+00 -4.034715769089237680e-01 -1.794935157090025823e+00
1.566666666666666652e+00 -3.752804245484947510e-01 -1.689963251579558845e+00
1.583333333333333259e+00 -3.471394685229384769e-01 -1.605973221210392321e+00
1.600000000000000089e+00 -3.217479838414816773e-01 -1.498989730056236036e+00
1.616666666666666696e+00 -2.971731441877306090e-01 -1.399049885244454394e+00
1.633333333333333304e+00 -2.751129876666665308e-01 -1.285931109379783166e+00
1.649999999999999911e+00 -2.543087738750711702e-01 -1.191004189782991718e+00
1.666666666666666741e+00 -2.354128480072334717e-01 -1.098641537599075679e+00
1.683333333333333348e+00 -2.176873892884353123e-01 -1.036467052243286169e+00
1.699999999999999956e+00 -2.008639462657905994e-01 -9.721780048503575467e-01
1.716666666666666563e+00 -1.852814557934233941e-01 -9.102314972241157820e-01
1.733333333333333393e+00 -1.705228963583200752e-01 -8.690004583345961597e-01
1.750000000000000000e+00 -1.563147738489368554e-01 -8.551344263025517645e-01
1.766666666666666607e+00 -1.420184154815683497e-01 -8.268582934429236087e-01
1.783333333333333215e+00 -1.287528307341727352e-01 -7.682734460817980393e-01
1.800000000000000044e+00 -1.164093006121750817e-01 -7.199693256272929887e-01
1.816666666666666652e+00 -1.047538532132629707e-01 -6.953578510394546885e-01
1.833333333333333259e+00 -9.323070557752659304e-02 -6.831228330468790411e-01
1.849999999999999867e+00 -8.198309211170033695e-02 -6.486023600353005847e-01
1.866666666666666696e+00 -7.161062690968324207e-02 -6.097860395796196320e-01
1.883333333333333304e+00 -6.165689079237968162e-02 -5.773266168543094157e-01
1.899999999999999911e+00 -5.236640634787292914e-02 -5.591418319452097219e-01
1.916666666666666741e+00 -4.301882972753935663e-02 -5.517150047813612623e-01
1.933333333333333348e+00 -3.397590618849422039e-02 -8.167079960971740382e-01
1.949999999999999956e+00 -1.579522985763355536e-02 -9.263293419597267153e-01
1.966666666666666563e+00 -3.098261456503330520e-03 -4.661028321813864284e-01
1.983333333333333393e+00 -2.584687849206753103e-04 -9.294784369509991040e-02
2.000000000000000000e+00 0.000000000000000000e+00 -1.550812709524051862e-02
