0	2.09407e+08	1.91754e+08
0.0166667	2.06211e+08	3.54598e+08
0.0333333	1.97587e+08	6.15195e+08
0.05	1.85705e+08	7.51447e+08
0.0666667	1.72539e+08	7.97657e+08
0.0833333	1.59116e+08	8.05368e+08
0.1	1.45693e+08	8.05368e+08
0.116667	1.3227e+08	8.05368e+08
0.133333	1.18848e+08	8.05368e+08
0.15	1.05425e+08	8.05368e+08
0.166667	9.20021e+07	8.05368e+08
0.183333	7.85793e+07	8.05368e+08
0.2	6.51565e+07	8.03216e+08
0.216667	5.18055e+07	7.89406e+08
0.233333	3.8843e+07	7.45499e+08
0.25	2.69555e+07	6.53996e+08
0.266667	1.70431e+07	5.15728e+08
0.283333	9.76457e+06	3.57024e+08
0.3	5.14232e+06	2.15186e+08
0.316667	2.59169e+06	1.1471e+08
0.333333	1.31867e+06	5.68385e+07
0.35	697074	2.81269e+07
0.366667	381105	1.44721e+07
0.383333	214672	7.70764e+06
0.4	124183	4.23316e+06
0.416667	73567	2.38988e+06
0.433333	44520.8	1.38312e+06
0.45	27462.9	818623
0.466667	17233.3	494472
0.483333	10980.5	304443
0.5	7085.26	192039
0.516667	4579.21	125908
0.533333	2888.34	93334.5
0.55	1468.06	65938.7
0.566667	690.386	33852.6
0.583333	339.642	16265.9
0.6	148.19	8993.5
0.616667	39.859	3878.04
0.633333	18.9223	954.582
0.65	8.03959	334.552
0.666667	7.77052	63.888
0.683333	5.90999	137.335
0.7	3.19267	157.747
0.716667	0.651766	128.452
0.733333	-1.08904	80.0356
0.75	-2.01609	42.1794
0.766667	-2.49502	27.1747
0.783333	-2.92191	27.656
0.8	-3.41689	26.7466
0.816667	-3.81346	16.3153
0.833333	-3.96073	2.91157
0.85	-3.91052	-5.04657
0.866667	-3.79251	-8.18486
0.883333	-3.63769	-10.9958
0.9	-3.42599	-13.5357
0.916667	-3.1865	-13.2731
0.933333	-2.98355	-10.9306
0.95	-2.82215	-9.56951
0.966667	-2.66457	-9.79372
0.983333	-2.49569	-9.5998
1	-2.34457	-7.48104
1.01667	-2.24632	-4.36429
1.03333	-2.1991	-1.97501
1.05	-2.18049	-0.852479
1.06667	-2.17068	-0.36251
1.08333	-2.1684	-0.19701
1.1	-2.16411	-1.44041
1.11667	-2.12039	-5.05889
1.13333	-1.99548	-8.82669
1.15	-1.82617	-8.62011
1.16667	-1.70815	-3.62969
1.18333	-1.70518	2.47699
1.2	-1.79071	5.09996
1.21667	-1.87517	3.08637
1.23333	-1.89359	-0.436771
1.25	-1.86062	-1.38588
1.26667	-1.8474	1.33626
1.28333	-1.90516	4.73824
1.3	-2.00534	4.78747
1.31667	-2.06474	1.4516
1.33333	-2.05372	-1.14969
1.35	-2.02642	-0.411771
1.36667	-2.04	2.05936
1.38333	-2.09506	3.56748
1.4	-2.15891	3.06606
1.41667	-2.19726	0.372467
1.43333	-2.17133	-4.38843
1.45	-2.05098	-9.07617
1.46667	-1.86879	-9.94275
1.48333	-1.71956	-6.23075
1.5	-1.6611	-2.38976
1.51667	-1.6399	-2.93545
1.53333	-1.56325	-6.53355
1.55	-1.42211	-8.33664
1.56667	-1.28536	-6.96487
1.58333	-1.18995	-5.33754
1.6	-1.10744	-5.27067
1.61667	-1.01426	-5.04366
1.63333	-0.939323	-3.08985
1.65	-0.911269	-1.12624
1.66667	-0.901781	-1.48636
1.68333	-0.861724	-3.71929
1.7	-0.777805	-5.49266
1.71667	-0.678635	-5.4402
1.73333	-0.596465	-4.11294
1.75	-0.541537	-2.65121
1.76667	-0.508091	-1.32503
1.78333	-0.497369	0.300541
1.8	-0.518109	1.85726
1.81667	-0.559278	1.90904
1.83333	-0.581744	-0.283604
1.85	-0.549825	-3.23571
1.86667	-0.473887	-4.50755
1.88333	-0.399573	-3.46332
1.9	-0.358443	-1.68993
1.91667	-0.343242	-0.915519
1.93333	-0.327926	-1.50307
1.95	-0.29314	-2.94183
1.96667	-0.229865	-4.77284
1.98333	-0.134045	-6.89595
2	0	-8.0427
