0.000000000000000000e+00 7.969304265802669534e+02 1.600328216418715783e+03
1.666666666666666644e-02 7.702582896399550236e+02 1.600328216418715783e+03
3.333333333333333287e-02 7.435861526996430939e+02 1.600328216418719194e+03
5.000000000000000278e-02 7.169140157593310505e+02 1.600328216418719194e+03
6.666666666666666574e-02 6.902418788190191208e+02 1.600328216418715783e+03
8.333333333333332871e-02 6.635697418787071911e+02 1.600328216418715783e+03
1.000000000000000056e-01 6.368976049383952613e+02 1.600328216418719194e+03
1.166666666666666685e-01 6.102254679980832179e+02 1.600328216418715783e+03
1.333333333333333315e-01 5.835533310577714019e+02 1.600328216418715783e+03
1.499999999999999944e-01 5.568811941174593585e+02 1.600328216418715783e+03
1.666666666666666574e-01 5.302090571771475425e+02 1.600328216418717602e+03
1.833333333333333204e-01 5.035369202368354422e+02 1.600328216418721013e+03
2.000000000000000111e-01 4.768647832965235125e+02 1.600328216418715783e+03
2.166666666666666741e-01 4.501926463562115828e+02 1.600328216418715783e+03
2.333333333333333370e-01 4.235205094158996530e+02 1.600328216418715783e+03
2.500000000000000000e-01 3.968483724755877233e+02 1.600328216418717602e+03
2.666666666666666630e-01 3.701762355352757368e+02 1.600328216418717602e+03
2.833333333333333259e-01 3.435040985949638070e+02 1.600328216418715783e+03
2.999999999999999889e-01 3.168319616546518773e+02 1.600328216418715783e+03
3.166666666666666519e-01 2.901598247143399476e+02 1.600328216418715783e+03
3.333333333333333148e-01 2.634876877740280179e+02 1.600328216418717602e+03
3.499999999999999778e-01 2.368155508337160313e+02 1.600328216418717602e+03
3.666666666666666408e-01 2.101434138934041016e+02 1.600328216418715783e+03
3.833333333333333037e-01 1.834712769530921719e+02 1.600328216418719194e+03
4.000000000000000222e-01 1.567991400127801285e+02 1.600328216418719194e+03
4.166666666666666852e-01 1.301270030724681988e+02 1.600328216418716238e+03
4.333333333333333481e-01 1.034548661321562548e+02 1.600328216418716693e+03
4.500000000000000111e-01 7.678272919184431089e+01 1.600328216418716693e+03
4.666666666666666741e-01 5.011059225153236696e+01 1.600328216418716693e+03
4.833333333333333370e-01 2.343845531122042303e+01 1.004428234028166003e+03
5.000000000000000000e-01 1.662965111726016332e+01 3.357504204758974424e+02
5.166666666666666075e-01 1.224677462869050792e+01 2.317518205021023334e+02
5.333333333333333259e-01 8.904590433856752085e+00 1.817587390162883594e+02
5.500000000000000444e-01 6.188149994814229338e+00 1.503583874334736379e+02
5.666666666666666519e-01 3.892644186074297519e+00 1.289391455031907867e+02
5.833333333333333703e-01 1.890178478041203425e+00 1.136637031351349805e+02
5.999999999999999778e-01 1.038540815697982789e-01 1.020058889887174587e+02
6.166666666666666963e-01 -1.510017821582711806e+00 9.220917463970411632e+01
6.333333333333333037e-01 -2.969785073087005678e+00 8.287035759670158086e+01
6.500000000000000222e-01 -4.272363074806097671e+00 7.298061757124320081e+01
6.666666666666666297e-01 -5.402472325461778802e+00 6.229724894767297627e+01
6.833333333333333481e-01 -6.348938039728530214e+00 5.122994806616833330e+01
6.999999999999999556e-01 -7.110137261000723186e+00 4.032076285246715486e+01
7.166666666666666741e-01 -7.692963468144101924e+00 2.995498226367532268e+01
7.333333333333332815e-01 -8.108636669789900608e+00 2.035986890231566093e+01
7.500000000000000000e-01 -8.371625764887957288e+00 1.163061063396423123e+01
7.666666666666666075e-01 -8.496323690922041649e+00 3.862548821930822385e+00
7.833333333333333259e-01 -8.500377392285651368e+00 -2.712406721796742914e+00
8.000000000000000444e-01 -8.405910133528816885e+00 -7.751033213029145941e+00
8.166666666666666519e-01 -8.242009618518013170e+00 -1.099412761577051256e+01
8.333333333333333703e-01 -8.039439213003133133e+00 -1.249845677882265527e+01
8.499999999999999778e-01 -7.825394392557257994e+00 -1.264483754436556140e+01
8.666666666666666963e-01 -7.617944628190947753e+00 -1.209577225756314434e+01
8.833333333333333037e-01 -7.422201983971819850e+00 -1.157591823301873823e+01
9.000000000000000222e-01 -7.232080687090323146e+00 -1.145306901194255822e+01
9.166666666666666297e-01 -7.040433016907067909e+00 -1.166054104912208622e+01
9.333333333333333481e-01 -6.843395985452920272e+00 -1.210372255690920440e+01
9.499999999999999556e-01 -6.636975598343427762e+00 -1.276915711936078779e+01
9.666666666666666741e-01 -6.417757414807560679e+00 -1.358478642184177687e+01
9.833333333333332815e-01 -6.184149384282035200e+00 -1.443947633125774566e+01
1.000000000000000000e+00 -5.936441537098969157e+00 -1.531449577921544680e+01
1.016666666666666607e+00 -5.673666191641520307e+00 -1.623280106218900798e+01
1.033333333333333215e+00 -5.395348168359335617e+00 -1.714345471470684501e+01
1.050000000000000044e+00 -5.102217701151292140e+00 -1.784717993038339401e+01
1.066666666666666652e+00 -4.800442170679889209e+00 -1.816373998810257362e+01
1.083333333333333259e+00 -4.496759701547873078e+00 -1.812723885989753825e+01
1.100000000000000089e+00 -4.196200875349971327e+00 -1.789029945635551400e+01
1.116666666666666696e+00 -3.900416386336022612e+00 -1.755284343415422299e+01
1.133333333333333304e+00 -3.611106094211497197e+00 -1.713475305302967300e+01
1.149999999999999911e+00 -3.329257951235033541e+00 -1.663470383839996813e+01
1.166666666666666741e+00 -3.056615966264831563e+00 -1.608665515905969912e+01
1.183333333333333348e+00 -2.793036112599710297e+00 -1.552485916498904217e+01
1.199999999999999956e+00 -2.539120660765196824e+00 -1.490853915347724801e+01
1.216666666666666563e+00 -2.296084807483802059e+00 -1.420739053010641406e+01
1.233333333333333393e+00 -2.065540976428316355e+00 -1.347607119979038437e+01
1.250000000000000000e+00 -1.846882434157455899e+00 -1.274324556737983372e+01
1.266666666666666607e+00 -1.640766124182321928e+00 -1.195143470720473644e+01
1.283333333333333215e+00 -1.448501277250631381e+00 -1.103087091040289280e+01
1.300000000000000044e+00 -1.273070427168892182e+00 -9.954998340969442694e+00
1.316666666666666652e+00 -1.116667999218316609e+00 -8.772272738641172296e+00
1.333333333333333259e+00 -9.806613358808531355e-01 -7.557016745002548497e+00
1.350000000000000089e+00 -8.647674410515650001e-01 -6.374049482279514400e+00
1.366666666666666696e+00 -7.681930198048693148e-01 -5.314090538511831774e+00
1.383333333333333304e+00 -6.876310897678372669e-01 -4.488592931361997884e+00
1.399999999999999911e+00 -6.185732554261360594e-01 -3.910910380248302509e+00
1.416666666666666741e+00 -5.572674104262271833e-01 -3.486822861376646099e+00
1.433333333333333348e+00 -5.023458267135811894e-01 -3.095561115504736005e+00
1.449999999999999956e+00 -4.540820399094026572e-01 -2.674335534380786861e+00
1.466666666666666563e+00 -4.132013089008882978e-01 -2.229874490100574036e+00
1.483333333333333393e+00 -3.797528902393835226e-01 -1.810526467147432594e+00
1.500000000000000000e+00 -3.528504266626405483e-01 -1.451790469198782185e+00
1.516666666666666607e+00 -3.313598745994241201e-01 -1.151359264797098270e+00
1.533333333333333215e+00 -3.144717845027372727e-01 -8.711033407861423772e-01
1.550000000000000044e+00 -3.023230965732193742e-01 -5.958830121852187744e-01
1.566666666666666652e+00 -2.946090174298966469e-01 -3.638342098234459421e-01
1.583333333333333259e+00 -2.901952895791045095e-01 -2.128184678282768472e-01
1.600000000000000089e+00 -2.875150685022874186e-01 -1.506806463184640066e-01
1.616666666666666696e+00 -2.851726013684890426e-01 -1.808969867616688765e-01
1.633333333333333304e+00 -2.814851689435651227e-01 -2.894130787953758110e-01
1.649999999999999911e+00 -2.755254987419765156e-01 -4.317927240673313793e-01
1.666666666666666741e+00 -2.670920781413207434e-01 -5.642408222369965642e-01
1.683333333333333348e+00 -2.567174713340766301e-01 -6.759982964774757797e-01
1.699999999999999956e+00 -2.445588015920715508e-01 -7.796600783943333779e-01
1.716666666666666563e+00 -2.307288020542655194e-01 -8.918302328912134369e-01
1.733333333333333393e+00 -2.148311271623644381e-01 -1.014560569797684719e+00
1.750000000000000000e+00 -1.969101163943426935e-01 -1.127824946310167054e+00
1.766666666666666607e+00 -1.772369622853588733e-01 -1.200598829076342744e+00
1.783333333333333215e+00 -1.568901554251312669e-01 -1.210632239931705767e+00
1.800000000000000044e+00 -1.368825542876353496e-01 -1.163427803253083370e+00
1.816666666666666652e+00 -1.181092286500284860e-01 -1.092178895994752930e+00
1.833333333333333259e+00 -1.004765910878102492e-01 -1.036964134464642528e+00
1.849999999999999867e+00 -8.354375750120707211e-02 -1.019282369731503213e+00
1.866666666666666696e+00 -6.650051209676013930e-02 -1.024934146254228517e+00
1.883333333333333304e+00 -4.937928595939945764e-02 -1.003126986680504817e+00
1.899999999999999911e+00 -3.306294587407664770e-02 -9.121372436509748161e-01
1.916666666666666741e+00 -1.897471117103362998e-02 -7.479278630538419570e-01
1.933333333333333348e+00 -8.132017105615252719e-03 -5.331515235262865859e-01
1.949999999999999956e+00 -1.202993720157412294e-03 -2.362093823968320905e-01
1.966666666666666563e+00 -2.583710257208495192e-04 -3.545779213364643606e-02
1.983333333333333393e+00 -2.106731570253104590e-05 -7.751130771625485902e-03
2.000000000000000000e+00 0.000000000000000000e+00 -1.264038942151862700e-03
