0.000000000000000000e+00 nan nan
1.666666666666666644e-02 1.322391183439845156e+14 nan
3.333333333333333287e-02 5.165571502357723389e+11 3.966568902325485500e+15
5.000000000000000278e-02 2.015493313500602341e+10 1.543618403939201562e+13
6.666666666666666574e-02 2.017682256038516760e+09 5.944935884865161133e+11
8.333333333333332871e-02 3.384801854554843903e+08 5.816926730001284790e+10
1.000000000000000056e-01 7.870667937142170966e+07 9.466639978119079590e+09
1.166666666666666685e-01 2.292551951818174496e+07 2.124976572586157560e+09
1.333333333333333315e-01 7.874126951883116737e+06 5.957545653515256643e+08
1.499999999999999944e-01 3.067034006464225240e+06 1.966496354154237807e+08
1.666666666666666574e-01 1.319139104702324839e+06 7.357049985223507881e+07
1.833333333333333204e-01 6.146840113897224655e+05 3.039484519505122304e+07
2.000000000000000111e-01 3.059775982006173581e+05 1.361134167132958211e+07
2.166666666666666741e-01 1.609726223454030696e+05 6.516551554843643680e+06
2.333333333333333370e-01 8.875921303916258330e+04 3.300518769570067991e+06
2.500000000000000000e-01 5.095533002640079940e+04 1.753981007268117741e+06
2.666666666666666630e-01 3.029317946355865570e+04 9.716294022974565160e+05
2.833333333333333259e-01 1.856768328315224790e+04 5.580869410299577285e+05
2.999999999999999889e-01 1.169028142922673214e+04 3.309242394969058805e+05
3.166666666666666519e-01 7.536875299922051454e+03 2.018346203724588559e+05
3.333333333333333148e-01 4.962460750144769918e+03 1.262306579577739612e+05
3.499999999999999778e-01 3.329186701329585958e+03 8.074099658966940478e+04
3.666666666666666408e-01 2.271094197155789971e+03 5.269861703054036479e+04
3.833333333333333037e-01 1.572566133644907040e+03 3.502870813006973913e+04
4.000000000000000222e-01 1.103470592820131969e+03 2.367106000091139867e+04
4.166666666666666852e-01 7.835308002811937058e+02 1.623735923207565065e+04
4.333333333333333481e-01 5.622252850842769476e+02 1.129078969918313123e+04
4.500000000000000111e-01 4.071711436417559753e+02 9.708686849735247961e+03
4.666666666666666741e-01 2.386023900931020307e+02 9.727291859565546474e+03
4.833333333333333370e-01 8.292808165623775096e+01 5.867472733977164353e+03
5.000000000000000000e-01 4.301996562719654804e+01 1.718612927105162044e+03
5.166666666666666075e-01 2.564098408606568569e+01 8.606136889869698052e+02
5.333333333333333259e-01 1.433284266096422144e+01 3.579849303912270670e+02
5.500000000000000444e-01 1.370815307302478381e+01 6.552042406225515947e+01
5.666666666666666519e-01 1.214882852555571624e+01 8.391934236663456659e+01
5.833333333333333703e-01 1.091084166080363183e+01 6.840289852847530483e+01
5.999999999999999778e-01 9.868731907939872983e+00 7.054575170223186831e+01
6.166666666666666963e-01 8.559316604062569667e+00 7.188559521012558662e+01
6.333333333333333037e-01 7.472545400935686644e+00 6.350079605913851566e+01
6.500000000000000222e-01 6.442623402091285811e+00 5.976437302282225517e+01
6.666666666666666297e-01 5.480399633508278079e+00 6.166885959223648683e+01
6.833333333333333481e-01 4.386994749016736250e+00 5.777292405952301380e+01
6.999999999999999556e-01 3.554635498190844345e+00 4.745217438921605435e+01
7.166666666666666741e-01 2.805255602709534557e+00 3.928746083046274862e+01
7.333333333333332815e-01 2.245053470508752813e+00 3.339415143355725490e+01
7.500000000000000000e-01 1.692117221590959453e+00 2.547481576155065497e+01
7.666666666666666075e-01 1.395892945123730966e+00 1.903424737328471039e+01
7.833333333333333259e-01 1.057642309148135729e+00 2.200438307450642483e+01
8.000000000000000444e-01 6.624135093068501678e-01 3.048820608923205810e+01
8.166666666666666519e-01 4.136877284040048341e-02 3.511490442513306220e+01
8.333333333333333703e-01 -5.080833048642519056e-01 3.481243148552049149e+01
8.499999999999999778e-01 -1.119045610010282576e+00 3.531395891652375951e+01
8.666666666666666963e-01 -1.685215268748377238e+00 2.943545539717801063e+01
8.833333333333333037e-01 -2.100227456582882901e+00 2.031585290257702425e+01
9.000000000000000222e-01 -2.362410365500944742e+00 7.039516343499094830e+00
9.166666666666666297e-01 -2.334878001366186062e+00 -3.913555861167576921e+00
9.333333333333333481e-01 -2.231958503462025512e+00 -1.216455494639143353e+01
9.499999999999999556e-01 -1.929392836486471641e+00 -1.809826212347888230e+01
9.666666666666666741e-01 -1.628683099346062813e+00 -1.739198427411338344e+01
9.833333333333332815e-01 -1.349660027349358860e+00 -1.115903904783575484e+01
1.000000000000000000e+00 -1.256715131084870984e+00 -2.766339974225560105e+00
1.016666666666666607e+00 -1.257448694875173523e+00 2.743860543261014140e+00
1.033333333333333215e+00 -1.348177149193571456e+00 5.657677373658181352e+00
1.050000000000000044e+00 -1.446037940663779553e+00 5.592243919400861074e+00
1.066666666666666652e+00 -1.534585279840266825e+00 5.240693151214788514e+00
1.083333333333333259e+00 -1.620727712370939155e+00 7.446141878655163637e+00
1.100000000000000089e+00 -1.782790009128772279e+00 9.878532433452990702e+00
1.116666666666666696e+00 -1.950012126819372194e+00 1.054232220796099107e+01
1.133333333333333304e+00 -2.134200749394138619e+00 8.000038857306124740e+00
1.149999999999999911e+00 -2.216680088729576337e+00 6.347372307698257998e+00
1.166666666666666741e+00 -2.345779826317413885e+00 7.703851470487115272e+00
1.183333333333333348e+00 -2.473475137745813512e+00 7.998702576042568957e+00
1.199999999999999956e+00 -2.612403245518832851e+00 7.002620560701227070e+00
1.216666666666666563e+00 -2.706895823102521081e+00 5.586275169805512419e+00
1.233333333333333393e+00 -2.798612417845683265e+00 6.387405174628764115e+00
1.250000000000000000e+00 -2.919809328923479885e+00 6.199079427765981087e+00
1.266666666666666607e+00 -3.005248398771215967e+00 1.554621063597259045e+00
1.283333333333333215e+00 -2.971630031043388520e+00 -2.427355137932947216e+00
1.300000000000000044e+00 -2.924336560840117727e+00 -3.286633928851743214e+00
1.316666666666666652e+00 -2.862075566748330413e+00 -6.562112945486267002e+00
1.333333333333333259e+00 -2.705599462657242160e+00 -1.003402296093494073e+01
1.350000000000000089e+00 -2.527608134717165722e+00 -1.369153902603008177e+01
1.366666666666666696e+00 -2.249214828456239434e+00 -1.486154887021917759e+01
1.383333333333333304e+00 -2.032223172376526499e+00 -1.302506367021288725e+01
1.399999999999999911e+00 -1.815046039449143223e+00 -1.189372755434183482e+01
1.416666666666666741e+00 -1.635765587231798657e+00 -1.010360380279002612e+01
1.433333333333333348e+00 -1.478259246022809004e+00 -9.202324029058990718e+00
1.449999999999999956e+00 -1.329021452929832314e+00 -7.614686550985696911e+00
1.466666666666666563e+00 -1.224436360989952455e+00 -4.227687719544633183e+00
1.483333333333333393e+00 -1.188098528945011223e+00 -1.933595747031406908e+00
1.500000000000000000e+00 -1.159983169422238891e+00 -3.369219576094661939e-01
1.516666666666666607e+00 -1.176867797024695683e+00 1.414384759816618153e+00
1.533333333333333215e+00 -1.207129328082792830e+00 1.543016433705486357e+00
1.550000000000000044e+00 -1.228301678148211895e+00 1.576093969862963906e+00
1.566666666666666652e+00 -1.259665793744891626e+00 1.677667065386923007e+00
1.583333333333333259e+00 -1.284223913661109329e+00 8.123681699297602421e-01
1.600000000000000089e+00 -1.286744732742550301e+00 1.338831773996318475e-01
1.616666666666666696e+00 -1.288686686241097057e+00 -6.142900542006701770e-01
1.633333333333333304e+00 -1.266268397602527962e+00 -1.165905864725342855e+00
1.649999999999999911e+00 -1.249823157416918962e+00 -1.295501962684415531e+00
1.666666666666666741e+00 -1.223084998846380778e+00 -1.771081015765101352e+00
1.683333333333333348e+00 -1.190787123558082250e+00 -2.064057834183454787e+00
1.699999999999999956e+00 -1.154283071040265618e+00 -3.274814473573690599e+00
1.716666666666666563e+00 -1.081626641105625897e+00 -4.056289322668782837e+00
1.733333333333333393e+00 -1.019073426951306205e+00 -4.399434983246473863e+00
1.750000000000000000e+00 -9.349788083307434272e-01 -4.769162069086009481e+00
1.766666666666666607e+00 -8.601013579817725629e-01 -4.497745362259384372e+00
1.783333333333333215e+00 -7.850539629220972815e-01 -3.810812287476794680e+00
1.800000000000000044e+00 -7.330742817325460736e-01 -3.292274189929031980e+00
1.816666666666666652e+00 -6.753114899244628822e-01 -3.308243288407159088e+00
1.833333333333333259e+00 -6.227995054523074447e-01 -3.040065954260807946e+00
1.849999999999999867e+00 -5.739759581157692914e-01 -2.734622951173217853e+00
1.866666666666666696e+00 -5.316454070798668496e-01 -2.627470643658334382e+00
1.883333333333333304e+00 -4.863936033271581416e-01 -2.686421441536154919e+00
1.899999999999999911e+00 -4.420980256953283560e-01 -2.870556743414279133e+00
1.916666666666666741e+00 -3.907083785466821668e-01 -3.296788530170117859e+00
1.933333333333333348e+00 -3.322050746896577644e-01 -1.114509476145008016e+01
1.949999999999999956e+00 -1.920521983167952293e-02 -9.898018267060725961e+00
1.966666666666666563e+00 -2.271132454300224968e-03 -5.707651510350663093e-01
1.983333333333333393e+00 -1.797147971773148086e-04 -6.813397362900674992e-02
2.000000000000000000e+00 0.000000000000000000e+00 -1.078288783063888895e-02
