0	1.30021e+07	119.048
0.0166667	1.30021e+07	220.146
0.0333333	1.30021e+07	381.934
0.05	1.3002e+07	466.524
0.0666667	1.3002e+07	495.213
0.0833333	1.3002e+07	500
0.1	1.3002e+07	500
0.116667	1.3002e+07	500
0.133333	1.3002e+07	500
0.15	1.3002e+07	500
0.166667	1.3002e+07	500
0.183333	1.3002e+07	2.01506e+06
0.2	1.29348e+07	1.29631e+07
0.216667	1.25699e+07	4.13438e+07
0.233333	1.15567e+07	8.64825e+07
0.25	9.68712e+06	1.31309e+08
0.266667	7.17974e+06	1.51697e+08
0.283333	4.63055e+06	1.3685e+08
0.3	2.61808e+06	9.83321e+07
0.316667	1.35281e+06	5.79042e+07
0.333333	687936	2.96827e+07
0.35	363388	1.46837e+07
0.366667	198480	7.55174e+06
0.383333	111663	4.01963e+06
0.4	64492.4	2.20601e+06
0.416667	38129.3	1.24426e+06
0.433333	23016.9	719267
0.45	14153.7	425093
0.466667	8847.17	256308
0.483333	5610.13	157467
0.5	3598.27	98785.7
0.516667	2317.27	64513.3
0.533333	1447.82	48083.4
0.55	714.489	31288
0.566667	404.89	14575.1
0.583333	228.652	8169.35
0.6	132.578	4549.2
0.616667	77.0119	2627.93
0.633333	44.9802	1513.16
0.65	26.5733	868.251
0.666667	16.0385	501.601
0.683333	9.85329	303.234
0.7	5.93073	200.216
0.716667	3.17944	143.496
0.733333	1.14751	104.559
0.75	-0.305876	73.0843
0.766667	-1.28863	49.371
0.783333	-1.95157	33.9164
0.8	-2.41918	23.2767
0.816667	-2.72747	12.4135
0.833333	-2.83296	-0.863691
0.85	-2.69868	-12.8367
0.866667	-2.40507	-16.5801
0.883333	-2.14601	-10.6539
0.9	-2.04994	-2.95283
0.916667	-2.04758	-2.47321
0.933333	-1.9675	-7.96651
0.95	-1.78203	-9.82174
0.966667	-1.64011	-4.08264
0.983333	-1.64594	2.53038
1	-1.72445	3.37341
1.01667	-1.75839	0.659699
1.03333	-1.74644	0.0816752
1.05	-1.76111	2.42861
1.06667	-1.8274	4.13304
1.08333	-1.89888	3.1842
1.1	-1.93354	0.512081
1.11667	-1.91595	-3.01673
1.13333	-1.83298	-6.98978
1.15	-1.68295	-9.20005
1.16667	-1.52631	-6.82534
1.18333	-1.45544	-0.513483
1.2	-1.5092	5.91962
1.21667	-1.65276	9.82513
1.23333	-1.8367	11.5952
1.25	-2.03927	11.7629
1.26667	-2.2288	9.36283
1.28333	-2.35136	4.53989
1.3	-2.38013	0.424268
1.31667	-2.36551	0.0248716
1.33333	-2.38096	1.9441
1.35	-2.43031	1.81769
1.36667	-2.44155	-2.65832
1.38333	-2.3417	-9.2225
1.4	-2.13413	-13.8344
1.41667	-1.88055	-15.1076
1.43333	-1.63054	-14.5885
1.45	-1.39427	-13.587
1.46667	-1.17764	-11.5222
1.48333	-1.0102	-7.64686
1.5	-0.922746	-3.10222
1.51667	-0.906788	-0.091638
1.53333	-0.919691	0.436564
1.55	-0.921341	-1.1736
1.56667	-0.880572	-4.18953
1.58333	-0.78169	-7.25904
1.6	-0.638604	-8.5436
1.61667	-0.496903	-6.86868
1.63333	-0.409647	-3.01153
1.65	-0.396519	0.590757
1.66667	-0.429339	1.70562
1.68333	-0.453373	-0.0793764
1.7	-0.426693	-3.00843
1.71667	-0.353092	-4.50843
1.73333	-0.276412	-3.65687
1.75	-0.231196	-1.92273
1.76667	-0.212321	-0.922608
1.78333	-0.200442	-0.494604
1.8	-0.195835	0.317373
1.81667	-0.211021	1.33687
1.83333	-0.240397	1.44089
1.85	-0.259051	0.295184
1.86667	-0.250236	-1.18551
1.88333	-0.219534	-2.04256
1.9	-0.182151	-2.15524
1.91667	-0.147693	-1.9397
1.93333	-0.117495	-1.73204
1.95	-0.0899579	-1.60081
1.96667	-0.0641344	-1.5668
1.98333	-0.0377314	-1.92403
2	0	-2.26389
